#
%NewTest
#
SERIAL NUMBER  : LBL-LS-0010
TEST MADE BY   : qq
LOCATION NAME  : BNL_4MODULEBOX
Run number     : 64-10
TEST_DATE      : 31/10/2019
PASSED         : YES
PROBLEM        : NO
#
%DAQ_INFO
#
#HOST
"localhost"
#VERSION
"3.43"
#DUT
"Star_Test 	#AMAC 2 ComID 0 HCC "
#TIME
"14:23:55"
#
%DCS_INFO
#
#T0	T1
. 	. 	
#VDET	IDET
. 	. 	
#VCC	ICC
. 	. 	
#VDD	IDD
. 	. 	
#TIME_POWERED
. 
#
%StrobeDelay
#
#DELAY
#  M00  S01  S02  S03  S04  S05  S06  S07  S08  E09
22 20 19 20 22 19 21 20 20 20 -1 -1 -1 -1 -1 -1 
#
#  M00  S01  S02  S03  S04  S05  S06  S07  S08  E09
22 20 19 20 22 19 21 20 20 20 -1 -1 -1 -1 -1 -1 
#
#No defects found!
%Comment
COMMENT        : Strobe Delay Fraction 0.57
#
#
%NewTest
#
SERIAL NUMBER  : LBL-LS-0010
TEST MADE BY   : qq
LOCATION NAME  : BNL_4MODULEBOX
Run number     : 64-11
TEST_DATE      : 31/10/2019
PASSED         : NO
PROBLEM        : NO
#
%DAQ_INFO
#
#HOST
"localhost"
#VERSION
"3.43"
#DUT
"Star_Test 	#AMAC 2 ComID 0 HCC "
#TIME
"14:24:40"
#
%DCS_INFO
#
#T0	T1
. 	. 	
#VDET	IDET
. 	. 	
#VCC	ICC
. 	. 	
#VDD	IDD
. 	. 	
#TIME_POWERED
. 
#
#
%SCAN_INFO
#
#POINT_TYPE
"QCAL (fC)"
#N_POINTS
3
#POINTS
0.50 	1.00 	1.50 	
#
#
%ThreePointGain
#
#Loop A - Fit
#	func	p0	p1	p2
#M00
	4 	28.97 	84.92 	0.00
#S01
	4 	29.03 	87.59 	0.00
#S02
	4 	29.39 	83.59 	0.00
#S03
	4 	29.99 	82.75 	0.00
#S04
	4 	28.88 	85.79 	0.00
#S05
	4 	29.11 	86.80 	0.00
#S06
	4 	28.97 	84.54 	0.00
#S07
	4 	29.69 	85.53 	0.00
#S08
	4 	29.59 	83.30 	0.00
#E09
	4 	29.22 	83.23 	0.00
#M00
	4 	29.26 	85.23 	0.00
#S01
	4 	29.69 	87.42 	0.00
#S02
	4 	29.49 	83.61 	0.00
#S03
	4 	30.38 	82.72 	0.00
#S04
	4 	29.46 	85.55 	0.00
#S05
	4 	29.90 	86.97 	0.00
#S06
	4 	29.58 	84.36 	0.00
#S07
	4 	29.55 	85.87 	0.00
#S08
	4 	29.58 	83.30 	0.00
#E09
	4 	29.61 	82.95 	0.00
#
#Loop B - Gain, Offset, Noise at 1.00fC
#	vt50 	rms  	gain	rms 	offset	rms  	outnse	innse	rms
#M00
	113.2 	 2.24 	84.9 	1.88 	 84.9 	 1.88 	9.86 	  733 	  67
#S01
	116.1 	 2.23 	87.6 	2.03 	 87.6 	 2.03 	10.19 	  740 	  84
#S02
	112.3 	 2.00 	83.6 	1.98 	 83.6 	 1.98 	9.95 	  747 	  61
#S03
	112.1 	 2.16 	82.7 	2.03 	 82.7 	 2.03 	9.76 	  741 	  59
#S04
	114.0 	 2.02 	85.8 	2.12 	 85.8 	 2.12 	9.99 	  732 	  61
#S05
	115.3 	 2.15 	86.8 	1.86 	 86.8 	 1.86 	10.38 	  756 	  68
#S06
	112.9 	 2.16 	84.6 	1.91 	 84.6 	 1.91 	10.76 	  800 	  71
#S07
	114.7 	 2.11 	85.6 	2.12 	 85.6 	 2.12 	10.44 	  777 	  77
#S08
	112.4 	 2.16 	83.3 	2.04 	 83.3 	 2.04 	9.79 	  741 	  68
#E09
	111.6 	 2.06 	83.1 	1.86 	 83.1 	 1.86 	10.10 	  779 	  91
#M00
	113.8 	 2.14 	85.2 	1.85 	 85.2 	 1.85 	9.59 	  734 	 121
#S01
	116.5 	 2.31 	87.4 	1.81 	 87.4 	 1.81 	9.91 	  736 	 117
#S02
	112.5 	 1.79 	83.5 	1.80 	 83.5 	 1.80 	9.20 	  692 	  66
#S03
	112.6 	 2.15 	82.7 	1.87 	 82.7 	 1.87 	9.11 	  706 	  95
#S04
	114.4 	 1.92 	85.5 	1.96 	 85.5 	 1.96 	9.48 	  697 	  59
#S05
	116.3 	 2.24 	87.0 	1.87 	 87.0 	 1.87 	9.58 	  692 	  53
#S06
	113.2 	 2.02 	84.3 	1.83 	 84.3 	 1.83 	9.62 	  719 	  60
#S07
	115.0 	 2.01 	85.8 	1.87 	 85.8 	 1.87 	9.73 	  714 	  58
#S08
	112.4 	 1.92 	83.3 	1.92 	 83.3 	 1.92 	9.54 	  719 	  56
#E09
	111.8 	 2.27 	82.9 	1.79 	 82.9 	 1.79 	9.71 	  756 	 112
#
#Loop C - Comment
#  M00  S01  S02  S03  S04  S05  S06  S07  S08  E09
"OK" 	"OK" 	"OK" 	"OK" 	"OK" 	"OK" 	"OK" 	"OK" 	"OK" 	"OK" 	
#  M00  S01  S02  S03  S04  S05  S06  S07  S08  E09
"OK" 	"OK" 	"OK" 	"OK" 	"OK" 	"OK" 	"OK" 	"OK" 	"OK" 	"OK" 	
#BadChannelSummary - not for the database
#  at 1.00fC
#		lost	dodgy	dead	stuck	ineff	unbon	lo_gn	hi_gn	lo_off	hi_off	partbon	hi_nse
#Chip M00:	  0	  6	  0	  0	  0	  0	  0	  0	  0	  0	  0	  6
#Chip S01:	  2	  8	  0	  0	  0	  2	  0	  0	  0	  0	  0	  8
#Chip S02:	  0	  3	  0	  0	  0	  0	  0	  0	  0	  0	  0	  3
#Chip S03:	  0	  3	  0	  0	  0	  0	  0	  0	  0	  0	  0	  3
#Chip S04:	  0	  4	  0	  0	  0	  0	  0	  0	  0	  0	  0	  4
#Chip S05:	  0	  7	  0	  0	  0	  0	  0	  0	  0	  0	  0	  7
#Chip S06:	  0	  4	  0	  0	  0	  0	  0	  0	  0	  0	  0	  4
#Chip S07:	  0	 10	  0	  0	  0	  0	  0	  0	  0	  0	  0	 10
#Chip S08:	  0	  5	  0	  0	  0	  0	  0	  0	  0	  0	  0	  5
#Chip E09:	  0	 10	  0	  0	  0	  0	  0	  0	  0	  0	  0	 10
#Chip M00:	  0	 12	  0	  0	  0	  0	  0	  0	  0	  0	  1	 11
#Chip S01:	  1	  9	  0	  0	  0	  1	  0	  0	  0	  0	  0	  9
#Chip S02:	  1	  4	  0	  0	  0	  1	  0	  0	  0	  0	  0	  4
#Chip S03:	  0	  8	  0	  0	  0	  0	  0	  0	  0	  0	  0	  8
#Chip S04:	  0	  4	  0	  0	  0	  0	  0	  0	  0	  0	  0	  4
#Chip S05:	  2	  3	  0	  0	  0	  2	  0	  0	  0	  0	  0	  3
#Chip S06:	  0	  6	  0	  0	  0	  0	  0	  0	  0	  0	  0	  6
#Chip S07:	  0	  5	  0	  0	  0	  0	  0	  0	  0	  0	  0	  5
#Chip S08:	  0	  4	  0	  0	  0	  0	  0	  0	  0	  0	  0	  4
#Chip E09:	  0	 10	  0	  0	  0	  0	  0	  0	  0	  0	  0	 10
#Link 0:	  2	 60	  0	  0	  0	  2	  0	  0	  0	  0	  0	 60
#Link 1:	  4	 65	  0	  0	  0	  4	  0	  0	  0	  0	  1	 64
#Link 2:	  6	125	  0	  0	  0	  6	  0	  0	  0	  0	  1	124
%Defect
DEFECT NAME    : NOISY
FIRST CHANNEL  : 83
LAST CHANNEL   : 83
#
%Defect
DEFECT NAME    : NOISY
FIRST CHANNEL  : 97
LAST CHANNEL   : 98
#
%Defect
DEFECT NAME    : NOISY
FIRST CHANNEL  : 104
LAST CHANNEL   : 104
#
%Defect
DEFECT NAME    : NOISY
FIRST CHANNEL  : 116
LAST CHANNEL   : 116
#
%Defect
DEFECT NAME    : NOISY
FIRST CHANNEL  : 127
LAST CHANNEL   : 127
#
%Defect
DEFECT NAME    : UNBONDED
FIRST CHANNEL  : 130
LAST CHANNEL   : 130
#
%Defect
DEFECT NAME    : NOISY
FIRST CHANNEL  : 134
LAST CHANNEL   : 136
#
%Defect
DEFECT NAME    : NOISY
FIRST CHANNEL  : 162
LAST CHANNEL   : 162
#
%Defect
DEFECT NAME    : NOISY
FIRST CHANNEL  : 174
LAST CHANNEL   : 174
#
%Defect
DEFECT NAME    : UNBONDED
FIRST CHANNEL  : 192
LAST CHANNEL   : 192
#
%Defect
DEFECT NAME    : NOISY
FIRST CHANNEL  : 222
LAST CHANNEL   : 222
#
%Defect
DEFECT NAME    : NOISY
FIRST CHANNEL  : 229
LAST CHANNEL   : 229
#
%Defect
DEFECT NAME    : NOISY
FIRST CHANNEL  : 255
LAST CHANNEL   : 255
#
%Defect
DEFECT NAME    : NOISY
FIRST CHANNEL  : 281
LAST CHANNEL   : 281
#
%Defect
DEFECT NAME    : NOISY
FIRST CHANNEL  : 300
LAST CHANNEL   : 300
#
%Defect
DEFECT NAME    : NOISY
FIRST CHANNEL  : 351
LAST CHANNEL   : 351
#
%Defect
DEFECT NAME    : NOISY
FIRST CHANNEL  : 405
LAST CHANNEL   : 405
#
%Defect
DEFECT NAME    : NOISY
FIRST CHANNEL  : 433
LAST CHANNEL   : 433
#
%Defect
DEFECT NAME    : NOISY
FIRST CHANNEL  : 490
LAST CHANNEL   : 490
#
%Defect
DEFECT NAME    : NOISY
FIRST CHANNEL  : 559
LAST CHANNEL   : 559
#
%Defect
DEFECT NAME    : NOISY
FIRST CHANNEL  : 588
LAST CHANNEL   : 588
#
%Defect
DEFECT NAME    : NOISY
FIRST CHANNEL  : 612
LAST CHANNEL   : 612
#
%Defect
DEFECT NAME    : NOISY
FIRST CHANNEL  : 636
LAST CHANNEL   : 636
#
%Defect
DEFECT NAME    : NOISY
FIRST CHANNEL  : 693
LAST CHANNEL   : 693
#
%Defect
DEFECT NAME    : NOISY
FIRST CHANNEL  : 722
LAST CHANNEL   : 722
#
%Defect
DEFECT NAME    : NOISY
FIRST CHANNEL  : 747
LAST CHANNEL   : 747
#
%Defect
DEFECT NAME    : NOISY
FIRST CHANNEL  : 754
LAST CHANNEL   : 754
#
%Defect
DEFECT NAME    : NOISY
FIRST CHANNEL  : 757
LAST CHANNEL   : 757
#
%Defect
DEFECT NAME    : NOISY
FIRST CHANNEL  : 762
LAST CHANNEL   : 762
#
%Defect
DEFECT NAME    : NOISY
FIRST CHANNEL  : 766
LAST CHANNEL   : 766
#
%Defect
DEFECT NAME    : NOISY
FIRST CHANNEL  : 806
LAST CHANNEL   : 806
#
%Defect
DEFECT NAME    : NOISY
FIRST CHANNEL  : 874
LAST CHANNEL   : 874
#
%Defect
DEFECT NAME    : NOISY
FIRST CHANNEL  : 891
LAST CHANNEL   : 892
#
%Defect
DEFECT NAME    : NOISY
FIRST CHANNEL  : 896
LAST CHANNEL   : 897
#
%Defect
DEFECT NAME    : NOISY
FIRST CHANNEL  : 899
LAST CHANNEL   : 900
#
%Defect
DEFECT NAME    : NOISY
FIRST CHANNEL  : 906
LAST CHANNEL   : 907
#
%Defect
DEFECT NAME    : NOISY
FIRST CHANNEL  : 910
LAST CHANNEL   : 910
#
%Defect
DEFECT NAME    : NOISY
FIRST CHANNEL  : 913
LAST CHANNEL   : 913
#
%Defect
DEFECT NAME    : NOISY
FIRST CHANNEL  : 916
LAST CHANNEL   : 916
#
%Defect
DEFECT NAME    : NOISY
FIRST CHANNEL  : 955
LAST CHANNEL   : 955
#
%Defect
DEFECT NAME    : NOISY
FIRST CHANNEL  : 1107
LAST CHANNEL   : 1107
#
%Defect
DEFECT NAME    : NOISY
FIRST CHANNEL  : 1125
LAST CHANNEL   : 1125
#
%Defect
DEFECT NAME    : NOISY
FIRST CHANNEL  : 1138
LAST CHANNEL   : 1138
#
%Defect
DEFECT NAME    : NOISY
FIRST CHANNEL  : 1148
LAST CHANNEL   : 1149
#
%Defect
DEFECT NAME    : NOISY
FIRST CHANNEL  : 1153
LAST CHANNEL   : 1154
#
%Defect
DEFECT NAME    : NOISY
FIRST CHANNEL  : 1163
LAST CHANNEL   : 1163
#
%Defect
DEFECT NAME    : NOISY
FIRST CHANNEL  : 1185
LAST CHANNEL   : 1185
#
%Defect
DEFECT NAME    : NOISY
FIRST CHANNEL  : 1196
LAST CHANNEL   : 1197
#
%Defect
DEFECT NAME    : NOISY
FIRST CHANNEL  : 1227
LAST CHANNEL   : 1229
#
%Defect
DEFECT NAME    : NOISY
FIRST CHANNEL  : 1231
LAST CHANNEL   : 1231
#
%Defect
DEFECT NAME    : PARTBONDED
FIRST CHANNEL  : 1328
LAST CHANNEL   : 1328
#
%Defect
DEFECT NAME    : NOISY
FIRST CHANNEL  : 1374
LAST CHANNEL   : 1374
#
%Defect
DEFECT NAME    : NOISY
FIRST CHANNEL  : 1387
LAST CHANNEL   : 1391
#
%Defect
DEFECT NAME    : NOISY
FIRST CHANNEL  : 1402
LAST CHANNEL   : 1404
#
%Defect
DEFECT NAME    : NOISY
FIRST CHANNEL  : 1406
LAST CHANNEL   : 1408
#
%Defect
DEFECT NAME    : NOISY
FIRST CHANNEL  : 1411
LAST CHANNEL   : 1411
#
%Defect
DEFECT NAME    : NOISY
FIRST CHANNEL  : 1417
LAST CHANNEL   : 1419
#
%Defect
DEFECT NAME    : NOISY
FIRST CHANNEL  : 1424
LAST CHANNEL   : 1427
#
%Defect
DEFECT NAME    : UNBONDED
FIRST CHANNEL  : 1488
LAST CHANNEL   : 1488
#
%Defect
DEFECT NAME    : NOISY
FIRST CHANNEL  : 1584
LAST CHANNEL   : 1584
#
%Defect
DEFECT NAME    : NOISY
FIRST CHANNEL  : 1603
LAST CHANNEL   : 1603
#
%Defect
DEFECT NAME    : NOISY
FIRST CHANNEL  : 1607
LAST CHANNEL   : 1607
#
%Defect
DEFECT NAME    : NOISY
FIRST CHANNEL  : 1634
LAST CHANNEL   : 1634
#
%Defect
DEFECT NAME    : UNBONDED
FIRST CHANNEL  : 1641
LAST CHANNEL   : 1641
#
%Defect
DEFECT NAME    : NOISY
FIRST CHANNEL  : 1703
LAST CHANNEL   : 1703
#
%Defect
DEFECT NAME    : NOISY
FIRST CHANNEL  : 1709
LAST CHANNEL   : 1712
#
%Defect
DEFECT NAME    : NOISY
FIRST CHANNEL  : 1732
LAST CHANNEL   : 1732
#
%Defect
DEFECT NAME    : NOISY
FIRST CHANNEL  : 1751
LAST CHANNEL   : 1751
#
%Defect
DEFECT NAME    : NOISY
FIRST CHANNEL  : 1791
LAST CHANNEL   : 1791
#
%Defect
DEFECT NAME    : NOISY
FIRST CHANNEL  : 1816
LAST CHANNEL   : 1816
#
%Defect
DEFECT NAME    : NOISY
FIRST CHANNEL  : 1857
LAST CHANNEL   : 1857
#
%Defect
DEFECT NAME    : NOISY
FIRST CHANNEL  : 1863
LAST CHANNEL   : 1863
#
%Defect
DEFECT NAME    : NOISY
FIRST CHANNEL  : 1904
LAST CHANNEL   : 1904
#
%Defect
DEFECT NAME    : UNBONDED
FIRST CHANNEL  : 1921
LAST CHANNEL   : 1921
#
%Defect
DEFECT NAME    : NOISY
FIRST CHANNEL  : 1936
LAST CHANNEL   : 1936
#
%Defect
DEFECT NAME    : NOISY
FIRST CHANNEL  : 1950
LAST CHANNEL   : 1950
#
%Defect
DEFECT NAME    : UNBONDED
FIRST CHANNEL  : 2005
LAST CHANNEL   : 2005
#
%Defect
DEFECT NAME    : NOISY
FIRST CHANNEL  : 2026
LAST CHANNEL   : 2026
#
%Defect
DEFECT NAME    : NOISY
FIRST CHANNEL  : 2055
LAST CHANNEL   : 2055
#
%Defect
DEFECT NAME    : NOISY
FIRST CHANNEL  : 2059
LAST CHANNEL   : 2059
#
%Defect
DEFECT NAME    : NOISY
FIRST CHANNEL  : 2062
LAST CHANNEL   : 2062
#
%Defect
DEFECT NAME    : NOISY
FIRST CHANNEL  : 2074
LAST CHANNEL   : 2074
#
%Defect
DEFECT NAME    : NOISY
FIRST CHANNEL  : 2076
LAST CHANNEL   : 2076
#
%Defect
DEFECT NAME    : NOISY
FIRST CHANNEL  : 2153
LAST CHANNEL   : 2153
#
%Defect
DEFECT NAME    : NOISY
FIRST CHANNEL  : 2181
LAST CHANNEL   : 2181
#
%Defect
DEFECT NAME    : NOISY
FIRST CHANNEL  : 2212
LAST CHANNEL   : 2212
#
%Defect
DEFECT NAME    : NOISY
FIRST CHANNEL  : 2222
LAST CHANNEL   : 2222
#
%Defect
DEFECT NAME    : NOISY
FIRST CHANNEL  : 2246
LAST CHANNEL   : 2246
#
%Defect
DEFECT NAME    : NOISY
FIRST CHANNEL  : 2280
LAST CHANNEL   : 2280
#
%Defect
DEFECT NAME    : NOISY
FIRST CHANNEL  : 2349
LAST CHANNEL   : 2349
#
%Defect
DEFECT NAME    : NOISY
FIRST CHANNEL  : 2361
LAST CHANNEL   : 2361
#
%Defect
DEFECT NAME    : NOISY
FIRST CHANNEL  : 2365
LAST CHANNEL   : 2365
#
%Defect
DEFECT NAME    : NOISY
FIRST CHANNEL  : 2375
LAST CHANNEL   : 2375
#
%Defect
DEFECT NAME    : NOISY
FIRST CHANNEL  : 2435
LAST CHANNEL   : 2436
#
%Defect
DEFECT NAME    : NOISY
FIRST CHANNEL  : 2444
LAST CHANNEL   : 2444
#
%Defect
DEFECT NAME    : NOISY
FIRST CHANNEL  : 2456
LAST CHANNEL   : 2459
#
%Defect
DEFECT NAME    : NOISY
FIRST CHANNEL  : 2464
LAST CHANNEL   : 2464
#
%Defect
DEFECT NAME    : NOISY
FIRST CHANNEL  : 2481
LAST CHANNEL   : 2481
#
%Defect
DEFECT NAME    : NOISY
FIRST CHANNEL  : 2486
LAST CHANNEL   : 2486
#
#99 defects found affecting 131 strips
#5 maximum consecutive defects
%Comment
COMMENT        : SELECT = 0
#
%Comment
COMMENT        : FAIL due to 131 bad strips (more than 15)
#
#
%TEST Rawdata
FILENAME       : /home/qcbox/Desktop/stars/itsdaq-sw/DATA/results/LBL-LS-0010_RC_64_11.txt
#
#
%NewTest
#
SERIAL NUMBER  : LBL-LS-0010
TEST MADE BY   : qq
LOCATION NAME  : BNL_4MODULEBOX
Run number     : 65-2
TEST_DATE      : 31/10/2019
PASSED         : YES
PROBLEM        : YES
#
%DAQ_INFO
#
#HOST
"localhost"
#VERSION
"3.43"
#DUT
"Star_Test 	#AMAC 2 ComID 0 HCC "
#TIME
"14:37:19"
#
%DCS_INFO
#
#T0	T1
. 	. 	
#VDET	IDET
. 	. 	
#VCC	ICC
. 	. 	
#VDD	IDD
. 	. 	
#TIME_POWERED
. 
#
#
%SCAN_INFO
#
#POINT_TYPE
"TrimDAC (bits)"
#N_POINTS
5
#POINTS
0.00 	8.00 	16.00 	24.00 	31.00 	
#
%Trim
#
#TRIM	CHARGE	TYPE	ALGORITHM
	1.0 	2 	0
#(trim whole module)
#
#	range	target	ntrim	vt50	vt50rms	tr_off	off_rms	tr_step	step_rms
#Ch0
	2	27.0	254	 27.0	 0.21	-23.1	 6.2	 0.57	 0.05
#Ch1
	2	27.0	256	 27.0	 0.24	-23.7	 7.2	 0.59	 0.05
#Ch2
	2	27.0	256	 27.0	 0.23	-22.2	 6.6	 0.58	 0.05
#Ch3
	2	27.0	256	 27.0	 0.24	-22.8	 6.8	 0.56	 0.05
#Ch4
	2	27.0	256	 27.0	 0.22	-23.5	 7.2	 0.59	 0.05
#Ch5
	2	27.0	256	 27.0	 0.24	-23.2	 6.7	 0.58	 0.05
#Ch6
	2	27.0	254	 27.0	 0.22	-25.4	 7.6	 0.55	 0.05
#Ch7
	2	27.0	256	 27.0	 0.21	-25.0	 7.7	 0.58	 0.05
#Ch8
	2	27.0	255	 27.0	 0.23	-25.2	 7.2	 0.56	 0.05
#Ch9
	2	27.0	256	 27.0	 0.22	-25.5	 6.9	 0.54	 0.05
#Ch0
	2	27.0	254	 27.0	 0.23	-23.7	 7.2	 0.57	 0.05
#Ch1
	2	27.0	256	 27.0	 0.23	-24.7	 7.0	 0.59	 0.05
#Ch2
	2	27.0	256	 27.0	 0.22	-22.1	 6.8	 0.58	 0.05
#Ch3
	2	27.0	256	 27.0	 0.22	-23.4	 6.7	 0.56	 0.04
#Ch4
	2	27.0	256	 27.0	 0.23	-24.4	 6.5	 0.59	 0.05
#Ch5
	2	27.0	256	 27.0	 0.23	-25.1	 7.0	 0.58	 0.05
#Ch6
	2	27.0	254	 27.0	 0.21	-26.1	 7.0	 0.55	 0.05
#Ch7
	2	27.0	256	 27.0	 0.23	-25.8	 7.0	 0.58	 0.05
#Ch8
	2	27.0	255	 27.0	 0.23	-24.1	 7.3	 0.57	 0.05
#Ch9
	2	27.0	256	 27.0	 0.22	-25.3	 7.6	 0.55	 0.06
#
%Defect
DEFECT NAME    : TR_RANGE
FIRST CHANNEL  : 0
LAST CHANNEL   : 255
#
%Defect
DEFECT NAME    : TR_RANGE
FIRST CHANNEL  : 256
LAST CHANNEL   : 511
#
%Defect
DEFECT NAME    : TR_RANGE
FIRST CHANNEL  : 512
LAST CHANNEL   : 767
#
%Defect
DEFECT NAME    : TR_RANGE
FIRST CHANNEL  : 768
LAST CHANNEL   : 1023
#
%Defect
DEFECT NAME    : TR_RANGE
FIRST CHANNEL  : 1024
LAST CHANNEL   : 1279
#
%Defect
DEFECT NAME    : TR_RANGE
FIRST CHANNEL  : 1280
LAST CHANNEL   : 1535
#
%Defect
DEFECT NAME    : TR_RANGE
FIRST CHANNEL  : 1536
LAST CHANNEL   : 1791
#
%Defect
DEFECT NAME    : TR_RANGE
FIRST CHANNEL  : 1792
LAST CHANNEL   : 2047
#
%Defect
DEFECT NAME    : TR_RANGE
FIRST CHANNEL  : 2048
LAST CHANNEL   : 2303
#
%Defect
DEFECT NAME    : TR_RANGE
FIRST CHANNEL  : 2304
LAST CHANNEL   : 2559
#
%Defect
DEFECT NAME    : TR_RANGE
FIRST CHANNEL  : 1536
LAST CHANNEL   : 1791
#
%Defect
DEFECT NAME    : TR_RANGE
FIRST CHANNEL  : 1792
LAST CHANNEL   : 2047
#
%Defect
DEFECT NAME    : TR_RANGE
FIRST CHANNEL  : 2048
LAST CHANNEL   : 2303
#
%Defect
DEFECT NAME    : TR_RANGE
FIRST CHANNEL  : 2304
LAST CHANNEL   : 2559
#
%Defect
DEFECT NAME    : TR_RANGE
FIRST CHANNEL  : 2560
LAST CHANNEL   : 2815
#
%Defect
DEFECT NAME    : TR_RANGE
FIRST CHANNEL  : 2816
LAST CHANNEL   : 3071
#
%Defect
DEFECT NAME    : TR_RANGE
FIRST CHANNEL  : 3072
LAST CHANNEL   : 3327
#
%Defect
DEFECT NAME    : TR_RANGE
FIRST CHANNEL  : 3328
LAST CHANNEL   : 3583
#
%Defect
DEFECT NAME    : TR_RANGE
FIRST CHANNEL  : 3584
LAST CHANNEL   : 3839
#
%Defect
DEFECT NAME    : TR_RANGE
FIRST CHANNEL  : 3840
LAST CHANNEL   : 4095
#
%Defect
DEFECT NAME    : TR_NOTRIM
FIRST CHANNEL  : 31
LAST CHANNEL   : 31
#
%Defect
DEFECT NAME    : TR_NOTRIM
FIRST CHANNEL  : 53
LAST CHANNEL   : 53
#
%Defect
DEFECT NAME    : TR_NOTRIM
FIRST CHANNEL  : 851
LAST CHANNEL   : 851
#
%Defect
DEFECT NAME    : TR_NOTRIM
FIRST CHANNEL  : 4930
LAST CHANNEL   : 4930
#
%Defect
DEFECT NAME    : TR_NOTRIM
FIRST CHANNEL  : 5224
LAST CHANNEL   : 5224
#
#25 defects found
%Comment
COMMENT        : L0Ch0 TR 2 step 0.84 (ideal 1.71 error 50.98%)
#
%Comment
COMMENT        : L0Ch1 TR 2 step 0.87 (ideal 1.76 error 50.88%)
#
%Comment
COMMENT        : L0Ch2 TR 2 step 0.84 (ideal 1.75 error 52.01%)
#
%Comment
COMMENT        : L0Ch3 TR 2 step 0.82 (ideal 1.69 error 51.22%)
#
%Comment
COMMENT        : L0Ch4 TR 2 step 0.85 (ideal 1.76 error 51.74%)
#
%Comment
COMMENT        : L0Ch5 TR 2 step 0.84 (ideal 1.73 error 51.48%)
#
%Comment
COMMENT        : L0Ch6 TR 2 step 0.82 (ideal 1.66 error 50.89%)
#
%Comment
COMMENT        : L0Ch7 TR 2 step 0.85 (ideal 1.73 error 50.71%)
#
%Comment
COMMENT        : L0Ch8 TR 2 step 0.82 (ideal 1.69 error 51.13%)
#
%Comment
COMMENT        : L0Ch9 TR 2 step 0.79 (ideal 1.63 error 51.25%)
#
%Comment
COMMENT        : L1Ch0 TR 2 step 0.84 (ideal 1.71 error 50.82%)
#
%Comment
COMMENT        : L1Ch1 TR 2 step 0.86 (ideal 1.76 error 50.98%)
#
%Comment
COMMENT        : L1Ch2 TR 2 step 0.83 (ideal 1.73 error 51.86%)
#
%Comment
COMMENT        : L1Ch3 TR 2 step 0.82 (ideal 1.68 error 51.04%)
#
%Comment
COMMENT        : L1Ch4 TR 2 step 0.86 (ideal 1.77 error 51.58%)
#
%Comment
COMMENT        : L1Ch5 TR 2 step 0.84 (ideal 1.73 error 51.59%)
#
%Comment
COMMENT        : L1Ch6 TR 2 step 0.81 (ideal 1.65 error 51.20%)
#
%Comment
COMMENT        : L1Ch7 TR 2 step 0.86 (ideal 1.74 error 50.81%)
#
%Comment
COMMENT        : L1Ch8 TR 2 step 0.83 (ideal 1.70 error 51.09%)
#
%Comment
COMMENT        : L1Ch9 TR 2 step 0.80 (ideal 1.64 error 50.92%)
#
#
%TEST Rawdata
FILENAME       : /home/qcbox/Desktop/stars/itsdaq-sw/DATA/results/LBL-LS-0010_tr2_20191031.trim
#
#
%NewTest
#
SERIAL NUMBER  : LBL-LS-0010
TEST MADE BY   : qq
LOCATION NAME  : BNL_4MODULEBOX
Run number     : 65-7
TEST_DATE      : 31/10/2019
PASSED         : NO
PROBLEM        : NO
#
%DAQ_INFO
#
#HOST
"localhost"
#VERSION
"3.43"
#DUT
"Star_Test 	#AMAC 2 ComID 0 HCC "
#TIME
"14:39:08"
#
%DCS_INFO
#
#T0	T1
. 	. 	
#VDET	IDET
. 	. 	
#VCC	ICC
. 	. 	
#VDD	IDD
. 	. 	
#TIME_POWERED
. 
#
#
%SCAN_INFO
#
#POINT_TYPE
"TrimDAC (bits)"
#N_POINTS
5
#POINTS
0.00 	8.00 	16.00 	24.00 	31.00 	
#
%Trim
#
#TRIM	CHARGE	TYPE	ALGORITHM
	1.0 	4 	0
#(trim whole module)
#
#	range	target	ntrim	vt50	vt50rms	tr_off	off_rms	tr_step	step_rms
#Ch0
	4	30.0	256	 30.0	 0.26	-19.4	 5.6	 0.70	 0.05
#Ch1
	4	30.0	256	 30.0	 0.27	-19.9	 5.9	 0.72	 0.05
#Ch2
	4	30.0	256	 30.0	 0.30	-18.8	 5.4	 0.71	 0.05
#Ch3
	4	30.0	256	 30.0	 0.28	-19.1	 5.4	 0.69	 0.06
#Ch4
	4	30.0	256	 30.0	 0.28	-19.9	 5.8	 0.71	 0.05
#Ch5
	4	30.0	256	 30.0	 0.28	-19.5	 5.5	 0.71	 0.05
#Ch6
	4	30.0	256	 30.0	 0.26	-21.4	 6.4	 0.68	 0.05
#Ch7
	4	30.0	256	 30.0	 0.28	-21.0	 6.3	 0.71	 0.06
#Ch8
	4	30.0	256	 30.0	 0.26	-21.2	 5.7	 0.69	 0.05
#Ch9
	4	30.0	256	 30.0	 0.27	-21.6	 5.4	 0.66	 0.05
#Ch0
	4	30.0	256	 30.0	 0.29	-19.7	 5.6	 0.70	 0.05
#Ch1
	4	30.0	256	 30.0	 0.30	-20.7	 5.8	 0.72	 0.06
#Ch2
	4	30.0	256	 30.0	 0.26	-18.7	 5.5	 0.70	 0.05
#Ch3
	4	30.0	256	 30.0	 0.28	-19.6	 5.4	 0.69	 0.05
#Ch4
	4	30.0	256	 30.0	 0.28	-20.7	 5.3	 0.72	 0.05
#Ch5
	4	30.0	256	 30.0	 0.28	-21.2	 5.7	 0.71	 0.05
#Ch6
	4	30.0	256	 30.0	 0.27	-21.9	 5.8	 0.67	 0.05
#Ch7
	4	30.0	256	 30.0	 0.28	-21.5	 5.4	 0.72	 0.05
#Ch8
	4	30.0	256	 30.0	 0.27	-20.4	 6.0	 0.69	 0.05
#Ch9
	4	30.0	256	 30.0	 0.26	-21.2	 5.9	 0.67	 0.05
#
#No defects found!
#
%TEST Rawdata
FILENAME       : /home/qcbox/Desktop/stars/itsdaq-sw/DATA/results/LBL-LS-0010_tr4_20191031.trim
#
#
%NewTest
#
SERIAL NUMBER  : LBL-LS-0010
TEST MADE BY   : qq
LOCATION NAME  : BNL_4MODULEBOX
Run number     : 65-12
TEST_DATE      : 31/10/2019
PASSED         : NO
PROBLEM        : NO
#
%DAQ_INFO
#
#HOST
"localhost"
#VERSION
"3.43"
#DUT
"Star_Test 	#AMAC 2 ComID 0 HCC "
#TIME
"14:41:00"
#
%DCS_INFO
#
#T0	T1
. 	. 	
#VDET	IDET
. 	. 	
#VCC	ICC
. 	. 	
#VDD	IDD
. 	. 	
#TIME_POWERED
. 
#
#
%SCAN_INFO
#
#POINT_TYPE
"TrimDAC (bits)"
#N_POINTS
5
#POINTS
0.00 	8.00 	16.00 	24.00 	31.00 	
#
%Trim
#
#TRIM	CHARGE	TYPE	ALGORITHM
	1.0 	6 	0
#(trim whole module)
#
#	range	target	ntrim	vt50	vt50rms	tr_off	off_rms	tr_step	step_rms
#Ch0
	6	36.0	256	 36.0	 0.32	-16.6	 4.4	 0.84	 0.06
#Ch1
	6	36.0	256	 36.0	 0.33	-17.2	 4.9	 0.87	 0.05
#Ch2
	6	36.0	256	 36.0	 0.36	-16.4	 4.5	 0.84	 0.06
#Ch3
	6	36.0	256	 36.0	 0.33	-16.6	 4.5	 0.82	 0.06
#Ch4
	6	36.0	256	 36.0	 0.33	-17.3	 4.9	 0.85	 0.06
#Ch5
	6	36.0	256	 36.0	 0.34	-17.1	 4.7	 0.84	 0.06
#Ch6
	6	36.0	256	 36.0	 0.36	-18.4	 5.2	 0.82	 0.05
#Ch7
	6	36.0	256	 36.0	 0.34	-18.0	 5.2	 0.85	 0.06
#Ch8
	6	36.0	256	 36.0	 0.34	-18.3	 4.9	 0.82	 0.05
#Ch9
	6	36.0	256	 36.0	 0.35	-18.6	 4.4	 0.79	 0.05
#Ch0
	6	36.0	256	 36.0	 0.33	-17.1	 4.8	 0.84	 0.05
#Ch1
	6	36.0	256	 36.0	 0.34	-17.9	 4.8	 0.86	 0.06
#Ch2
	6	36.0	256	 36.0	 0.35	-16.3	 4.7	 0.83	 0.05
#Ch3
	6	36.0	256	 36.0	 0.33	-17.0	 4.6	 0.82	 0.06
#Ch4
	6	36.0	256	 36.0	 0.34	-17.9	 4.4	 0.86	 0.06
#Ch5
	6	36.0	256	 36.0	 0.32	-18.4	 4.8	 0.84	 0.06
#Ch6
	6	36.0	256	 36.0	 0.31	-18.8	 4.8	 0.81	 0.06
#Ch7
	6	36.0	256	 36.0	 0.33	-18.6	 4.5	 0.86	 0.05
#Ch8
	6	36.0	256	 36.0	 0.33	-17.6	 5.1	 0.83	 0.06
#Ch9
	6	36.0	256	 36.0	 0.31	-18.2	 5.0	 0.80	 0.06
#
#No defects found!
#
%TEST Rawdata
FILENAME       : /home/qcbox/Desktop/stars/itsdaq-sw/DATA/results/LBL-LS-0010_tr6_20191031.trim
#
#
%NewTest
#
SERIAL NUMBER  : LBL-LS-0010
TEST MADE BY   : qq
LOCATION NAME  : BNL_4MODULEBOX
Run number     : 65-17
TEST_DATE      : 31/10/2019
PASSED         : NO
PROBLEM        : NO
#
%DAQ_INFO
#
#HOST
"localhost"
#VERSION
"3.43"
#DUT
"Star_Test 	#AMAC 2 ComID 0 HCC "
#TIME
"14:42:52"
#
%DCS_INFO
#
#T0	T1
. 	. 	
#VDET	IDET
. 	. 	
#VCC	ICC
. 	. 	
#VDD	IDD
. 	. 	
#TIME_POWERED
. 
#
#
%SCAN_INFO
#
#POINT_TYPE
"TrimDAC (bits)"
#N_POINTS
5
#POINTS
0.00 	8.00 	16.00 	24.00 	31.00 	
#
%Trim
#
#TRIM	CHARGE	TYPE	ALGORITHM
	1.0 	8 	0
#(trim whole module)
#
#	range	target	ntrim	vt50	vt50rms	tr_off	off_rms	tr_step	step_rms
#Ch0
	8	41.0	256	 41.0	 0.39	-14.7	 3.7	 0.98	 0.05
#Ch1
	8	41.0	256	 41.0	 0.39	-15.2	 4.2	 1.01	 0.06
#Ch2
	8	41.0	256	 41.0	 0.38	-14.5	 3.8	 0.98	 0.06
#Ch3
	8	41.0	256	 41.0	 0.38	-14.7	 4.0	 0.96	 0.06
#Ch4
	8	41.0	256	 41.0	 0.35	-15.4	 4.2	 0.99	 0.06
#Ch5
	8	41.0	256	 41.0	 0.39	-15.2	 4.1	 0.98	 0.06
#Ch6
	8	41.0	256	 41.0	 0.38	-16.3	 4.6	 0.95	 0.06
#Ch7
	8	41.0	256	 41.0	 0.38	-15.9	 4.5	 0.99	 0.07
#Ch8
	8	41.0	256	 41.0	 0.39	-16.2	 4.1	 0.96	 0.06
#Ch9
	8	41.0	256	 40.9	 0.34	-16.4	 3.8	 0.93	 0.05
#Ch0
	8	41.0	256	 41.0	 0.40	-14.9	 4.0	 0.99	 0.05
#Ch1
	8	41.0	256	 41.1	 0.38	-15.8	 4.0	 1.01	 0.06
#Ch2
	8	41.0	256	 41.0	 0.38	-14.5	 4.1	 0.97	 0.06
#Ch3
	8	41.0	256	 41.0	 0.36	-15.0	 3.8	 0.96	 0.06
#Ch4
	8	41.0	256	 41.0	 0.36	-15.9	 3.8	 1.00	 0.06
#Ch5
	8	41.0	256	 41.0	 0.38	-16.3	 4.1	 0.97	 0.06
#Ch6
	8	41.0	256	 41.0	 0.36	-16.6	 4.1	 0.94	 0.06
#Ch7
	8	41.0	256	 41.0	 0.39	-16.4	 4.0	 1.00	 0.06
#Ch8
	8	41.0	256	 41.0	 0.38	-15.6	 4.4	 0.96	 0.07
#Ch9
	8	41.0	256	 41.0	 0.39	-16.2	 4.2	 0.93	 0.07
#
#No defects found!
#
%TEST Rawdata
FILENAME       : /home/qcbox/Desktop/stars/itsdaq-sw/DATA/results/LBL-LS-0010_tr8_20191031.trim
#
#
%NewTest
#
SERIAL NUMBER  : LBL-LS-0010
TEST MADE BY   : qq
LOCATION NAME  : BNL_4MODULEBOX
Run number     : 65-2
TEST_DATE      : 31/10/2019
PASSED         : NO
PROBLEM        : YES
#
%DAQ_INFO
#
#HOST
"localhost"
#VERSION
"3.43"
#DUT
"Star_Test 	#AMAC 2 ComID 0 HCC "
#TIME
"14:37:19"
#
%DCS_INFO
#
#T0	T1
. 	. 	
#VDET	IDET
. 	. 	
#VCC	ICC
. 	. 	
#VDD	IDD
. 	. 	
#TIME_POWERED
. 
#
#
%Trim
#
#TRIM	CHARGE	TYPE	ALGORITHM
	1.0 	-1 	0
#(trim whole module)
#
#	range	target	ntrim	vt50	vt50rms	tr_off	off_rms	tr_step	step_rms
#Ch0
	4	27.0	255	 27.0	 0.27	-19.4	 5.6	 0.70	 0.05
#Ch1
	2	27.0	256	 27.0	 0.24	-23.7	 7.2	 0.59	 0.05
#Ch2
	2	27.0	256	 27.0	 0.23	-22.2	 6.6	 0.58	 0.05
#Ch3
	2	27.0	256	 27.0	 0.24	-22.8	 6.8	 0.56	 0.05
#Ch4
	2	27.0	256	 27.0	 0.22	-23.5	 7.2	 0.59	 0.05
#Ch5
	2	27.0	256	 27.0	 0.24	-23.2	 6.7	 0.58	 0.05
#Ch6
	4	27.0	255	 27.1	 0.24	-21.4	 6.4	 0.68	 0.05
#Ch7
	2	27.0	256	 27.0	 0.21	-25.0	 7.7	 0.58	 0.05
#Ch8
	2	27.0	255	 27.0	 0.23	-25.2	 7.2	 0.56	 0.05
#Ch9
	2	27.0	256	 27.0	 0.22	-25.5	 6.9	 0.54	 0.05
#Ch0
	4	27.0	255	 27.0	 0.27	-19.7	 5.6	 0.70	 0.05
#Ch1
	2	27.0	256	 27.0	 0.23	-24.7	 7.0	 0.59	 0.05
#Ch2
	2	27.0	256	 27.0	 0.22	-22.1	 6.8	 0.58	 0.05
#Ch3
	2	27.0	256	 27.0	 0.22	-23.4	 6.7	 0.56	 0.04
#Ch4
	2	27.0	256	 27.0	 0.23	-24.4	 6.5	 0.59	 0.05
#Ch5
	2	27.0	256	 27.0	 0.23	-25.1	 7.0	 0.58	 0.05
#Ch6
	4	27.0	255	 27.0	 0.23	-21.9	 5.8	 0.67	 0.05
#Ch7
	2	27.0	256	 27.0	 0.23	-25.8	 7.0	 0.58	 0.05
#Ch8
	2	27.0	255	 27.0	 0.23	-24.1	 7.3	 0.57	 0.05
#Ch9
	2	27.0	256	 27.0	 0.22	-25.3	 7.6	 0.55	 0.06
#
%Defect
DEFECT NAME    : TR_RANGE
FIRST CHANNEL  : 256
LAST CHANNEL   : 511
#
%Defect
DEFECT NAME    : TR_RANGE
FIRST CHANNEL  : 512
LAST CHANNEL   : 767
#
%Defect
DEFECT NAME    : TR_RANGE
FIRST CHANNEL  : 768
LAST CHANNEL   : 1023
#
%Defect
DEFECT NAME    : TR_RANGE
FIRST CHANNEL  : 1024
LAST CHANNEL   : 1279
#
%Defect
DEFECT NAME    : TR_RANGE
FIRST CHANNEL  : 1280
LAST CHANNEL   : 1535
#
%Defect
DEFECT NAME    : TR_RANGE
FIRST CHANNEL  : 1792
LAST CHANNEL   : 2047
#
%Defect
DEFECT NAME    : TR_RANGE
FIRST CHANNEL  : 2048
LAST CHANNEL   : 2303
#
%Defect
DEFECT NAME    : TR_RANGE
FIRST CHANNEL  : 2304
LAST CHANNEL   : 2559
#
%Defect
DEFECT NAME    : TR_RANGE
FIRST CHANNEL  : 1792
LAST CHANNEL   : 2047
#
%Defect
DEFECT NAME    : TR_RANGE
FIRST CHANNEL  : 2048
LAST CHANNEL   : 2303
#
%Defect
DEFECT NAME    : TR_RANGE
FIRST CHANNEL  : 2304
LAST CHANNEL   : 2559
#
%Defect
DEFECT NAME    : TR_RANGE
FIRST CHANNEL  : 2560
LAST CHANNEL   : 2815
#
%Defect
DEFECT NAME    : TR_RANGE
FIRST CHANNEL  : 2816
LAST CHANNEL   : 3071
#
%Defect
DEFECT NAME    : TR_RANGE
FIRST CHANNEL  : 3328
LAST CHANNEL   : 3583
#
%Defect
DEFECT NAME    : TR_RANGE
FIRST CHANNEL  : 3584
LAST CHANNEL   : 3839
#
%Defect
DEFECT NAME    : TR_RANGE
FIRST CHANNEL  : 3840
LAST CHANNEL   : 4095
#
%Defect
DEFECT NAME    : TR_NOTRIM
FIRST CHANNEL  : 5224
LAST CHANNEL   : 5224
#
#17 defects found
%Comment
COMMENT        : L0Ch1 TR 2 step 0.87 (ideal 1.76 error 50.88%)
#
%Comment
COMMENT        : L0Ch2 TR 2 step 0.84 (ideal 1.75 error 52.01%)
#
%Comment
COMMENT        : L0Ch3 TR 2 step 0.82 (ideal 1.69 error 51.22%)
#
%Comment
COMMENT        : L0Ch4 TR 2 step 0.85 (ideal 1.76 error 51.74%)
#
%Comment
COMMENT        : L0Ch5 TR 2 step 0.84 (ideal 1.73 error 51.48%)
#
%Comment
COMMENT        : L0Ch7 TR 2 step 0.85 (ideal 1.73 error 50.71%)
#
%Comment
COMMENT        : L0Ch8 TR 2 step 0.82 (ideal 1.69 error 51.13%)
#
%Comment
COMMENT        : L0Ch9 TR 2 step 0.79 (ideal 1.63 error 51.25%)
#
%Comment
COMMENT        : L1Ch1 TR 2 step 0.86 (ideal 1.76 error 50.98%)
#
%Comment
COMMENT        : L1Ch2 TR 2 step 0.83 (ideal 1.73 error 51.86%)
#
%Comment
COMMENT        : L1Ch3 TR 2 step 0.82 (ideal 1.68 error 51.04%)
#
%Comment
COMMENT        : L1Ch4 TR 2 step 0.86 (ideal 1.77 error 51.58%)
#
%Comment
COMMENT        : L1Ch5 TR 2 step 0.84 (ideal 1.73 error 51.59%)
#
%Comment
COMMENT        : L1Ch7 TR 2 step 0.86 (ideal 1.74 error 50.81%)
#
%Comment
COMMENT        : L1Ch8 TR 2 step 0.83 (ideal 1.70 error 51.09%)
#
%Comment
COMMENT        : L1Ch9 TR 2 step 0.80 (ideal 1.64 error 50.92%)
#
#
%TEST Rawdata
FILENAME       : /home/qcbox/Desktop/stars/itsdaq-sw/DATA/results/LBL-LS-0010_tr-1_20191031.trim
#
#
%NewTest
#
SERIAL NUMBER  : LBL-LS-0010
TEST MADE BY   : qq
LOCATION NAME  : BNL_4MODULEBOX
Run number     : 66-4
TEST_DATE      : 31/10/2019
PASSED         : YES
PROBLEM        : NO
#
%DAQ_INFO
#
#HOST
"localhost"
#VERSION
"3.43"
#DUT
"Star_Test 	#AMAC 2 ComID 0 HCC "
#TIME
"14:54:21"
#
%DCS_INFO
#
#T0	T1
. 	. 	
#VDET	IDET
. 	. 	
#VCC	ICC
. 	. 	
#VDD	IDD
. 	. 	
#TIME_POWERED
. 
#
%StrobeDelay
#
#DELAY
#  M00  S01  S02  S03  S04  S05  S06  S07  S08  E09
23 21 20 22 23 20 23 22 22 21 -1 -1 -1 -1 -1 -1 
#
#  M00  S01  S02  S03  S04  S05  S06  S07  S08  E09
23 21 21 22 23 20 23 22 22 21 -1 -1 -1 -1 -1 -1 
#
#No defects found!
%Comment
COMMENT        : Strobe Delay Fraction 0.57
#
#
%NewTest
#
SERIAL NUMBER  : LBL-LS-0010
TEST MADE BY   : qq
LOCATION NAME  : BNL_4MODULEBOX
Run number     : 66-5
TEST_DATE      : 31/10/2019
PASSED         : NO
PROBLEM        : NO
#
%DAQ_INFO
#
#HOST
"localhost"
#VERSION
"3.43"
#DUT
"Star_Test 	#AMAC 2 ComID 0 HCC "
#TIME
"14:58:30"
#
%DCS_INFO
#
#T0	T1
. 	. 	
#VDET	IDET
. 	. 	
#VCC	ICC
. 	. 	
#VDD	IDD
. 	. 	
#TIME_POWERED
. 
#
#
%SCAN_INFO
#
#POINT_TYPE
"QCAL (fC)"
#N_POINTS
3
#POINTS
0.50 	1.00 	1.50 	
#
#
%ThreePointGain
#
#Loop A - Fit
#	func	p0	p1	p2
#M00
	4 	23.97 	81.36 	0.00
#S01
	4 	21.61 	83.91 	0.00
#S02
	4 	24.17 	79.75 	0.00
#S03
	4 	24.50 	79.45 	0.00
#S04
	4 	23.21 	81.95 	0.00
#S05
	4 	23.47 	83.09 	0.00
#S06
	4 	23.61 	80.36 	0.00
#S07
	4 	22.91 	81.54 	0.00
#S08
	4 	24.46 	79.36 	0.00
#E09
	4 	25.01 	79.30 	0.00
#M00
	4 	23.45 	81.62 	0.00
#S01
	4 	21.77 	83.68 	0.00
#S02
	4 	24.05 	79.74 	0.00
#S03
	4 	24.58 	79.42 	0.00
#S04
	4 	23.18 	81.80 	0.00
#S05
	4 	23.17 	83.35 	0.00
#S06
	4 	23.46 	80.29 	0.00
#S07
	4 	22.55 	81.87 	0.00
#S08
	4 	24.46 	79.24 	0.00
#E09
	4 	25.14 	79.07 	0.00
#
#Loop B - Gain, Offset, Noise at 1.00fC
#	vt50 	rms  	gain	rms 	offset	rms  	outnse	innse	rms
#M00
	104.6 	 1.16 	80.7 	7.30 	 81.3 	 1.42 	10.85 	  832 	  82
#S01
	104.9 	 0.95 	83.9 	1.75 	 83.9 	 1.75 	11.26 	  843 	  39
#S02
	103.0 	 0.92 	79.7 	1.56 	 79.7 	 1.56 	10.80 	  847 	  13
#S03
	103.2 	 1.02 	79.4 	1.58 	 79.4 	 1.58 	10.55 	  830 	  15
#S04
	104.4 	 0.97 	81.9 	1.67 	 81.9 	 1.67 	11.00 	  839 	  11
#S05
	105.9 	 1.14 	83.1 	1.54 	 83.1 	 1.54 	11.60 	  873 	  50
#S06
	103.1 	 0.89 	79.7 	7.21 	 79.7 	 7.21 	11.94 	  922 	  93
#S07
	103.8 	 0.95 	81.7 	1.80 	 81.7 	 1.80 	11.39 	  888 	  65
#S08
	103.1 	 1.01 	78.7 	7.18 	 78.7 	 7.18 	10.68 	  838 	  80
#E09
	103.5 	 1.04 	79.3 	1.40 	 79.3 	 1.40 	10.83 	  870 	  72
#M00
	104.5 	 1.04 	80.9 	7.32 	 81.6 	 1.43 	10.40 	  820 	 132
#S01
	104.9 	 1.01 	83.6 	1.56 	 83.6 	 1.56 	10.62 	  820 	 111
#S02
	102.9 	 0.84 	79.7 	1.39 	 79.7 	 1.39 	10.11 	  793 	  13
#S03
	103.3 	 0.94 	79.4 	1.64 	 79.4 	 1.64 	10.00 	  800 	  75
#S04
	104.3 	 0.95 	81.8 	1.63 	 81.8 	 1.63 	10.22 	  781 	  10
#S05
	105.9 	 0.96 	83.3 	1.56 	 83.3 	 1.56 	10.31 	  773 	   9
#S06
	102.9 	 0.95 	79.6 	7.24 	 79.6 	 7.24 	10.32 	  797 	  72
#S07
	103.8 	 0.98 	81.9 	1.53 	 81.9 	 1.53 	10.68 	  815 	  10
#S08
	103.0 	 0.95 	78.6 	7.12 	 78.6 	 7.12 	10.33 	  808 	  73
#E09
	103.5 	 0.97 	79.1 	1.48 	 79.1 	 1.48 	10.41 	  846 	 105
#
#Loop C - Comment
#  M00  S01  S02  S03  S04  S05  S06  S07  S08  E09
"high noise" 	"high noise" 	"high noise" 	"high noise" 	"high noise" 	"high noise" 	"high noise" 	"high noise" 	"high noise" 	"high noise" 	
#  M00  S01  S02  S03  S04  S05  S06  S07  S08  E09
"OK" 	"OK" 	"OK" 	"OK" 	"OK" 	"OK" 	"high noise" 	"high noise" 	"high noise" 	"high noise" 	
#BadChannelSummary - not for the database
#  at 1.00fC
#		lost	dodgy	dead	stuck	ineff	unbon	lo_gn	hi_gn	lo_off	hi_off	partbon	hi_nse
#Chip M00:	  1	  4	  1	  0	  0	  1	  1	  0	  1	  0	  0	  4
#Chip S01:	  0	  2	  0	  0	  0	  0	  0	  0	  0	  0	  0	  2
#Chip S02:	  0	  0	  0	  0	  0	  0	  0	  0	  0	  0	  0	  0
#Chip S03:	  0	  0	  0	  0	  0	  0	  0	  0	  0	  0	  0	  0
#Chip S04:	  0	  0	  0	  0	  0	  0	  0	  0	  0	  0	  0	  0
#Chip S05:	  0	  0	  0	  0	  0	  0	  0	  0	  0	  0	  0	  0
#Chip S06:	  1	  0	  1	  0	  0	  1	  1	  0	  0	  0	  0	  0
#Chip S07:	  0	 11	  0	  0	  0	  0	  0	  0	  0	  0	  0	 11
#Chip S08:	  1	  2	  1	  0	  0	  1	  1	  0	  0	  0	  0	  2
#Chip E09:	  0	  9	  0	  0	  0	  0	  0	  0	  0	  0	  0	  9
#Chip M00:	  1	 10	  1	  0	  0	  1	  1	  0	  1	  0	  0	 10
#Chip S01:	  0	  8	  0	  0	  0	  0	  0	  0	  0	  0	  0	  8
#Chip S02:	  0	  0	  0	  0	  0	  0	  0	  0	  0	  0	  0	  0
#Chip S03:	  0	  4	  0	  0	  0	  0	  0	  0	  0	  0	  0	  4
#Chip S04:	  0	  0	  0	  0	  0	  0	  0	  0	  0	  0	  0	  0
#Chip S05:	  0	  0	  0	  0	  0	  0	  0	  0	  0	  0	  0	  0
#Chip S06:	  1	  0	  1	  0	  0	  1	  1	  0	  0	  0	  0	  0
#Chip S07:	  0	  0	  0	  0	  0	  0	  0	  0	  0	  0	  0	  0
#Chip S08:	  1	  0	  1	  0	  0	  1	  1	  0	  0	  0	  0	  0
#Chip E09:	  0	  8	  0	  0	  0	  0	  0	  0	  0	  0	  0	  8
#Link 0:	  3	 28	  3	  0	  0	  3	  3	  0	  1	  0	  0	 28
#Link 1:	  3	 30	  3	  0	  0	  3	  3	  0	  1	  0	  0	 30
#Link 2:	  6	 58	  6	  0	  0	  6	  6	  0	  2	  0	  0	 58
%Defect
DEFECT NAME    : DEAD
FIRST CHANNEL  : 31
LAST CHANNEL   : 31
#
%Defect
DEFECT NAME    : NOISY
FIRST CHANNEL  : 82
LAST CHANNEL   : 83
#
%Defect
DEFECT NAME    : NOISY
FIRST CHANNEL  : 97
LAST CHANNEL   : 98
#
%Defect
DEFECT NAME    : NOISY
FIRST CHANNEL  : 135
LAST CHANNEL   : 136
#
%Defect
DEFECT NAME    : DEAD
FIRST CHANNEL  : 851
LAST CHANNEL   : 851
#
%Defect
DEFECT NAME    : NOISY
FIRST CHANNEL  : 896
LAST CHANNEL   : 905
#
%Defect
DEFECT NAME    : NOISY
FIRST CHANNEL  : 908
LAST CHANNEL   : 908
#
%Defect
DEFECT NAME    : DEAD
FIRST CHANNEL  : 1140
LAST CHANNEL   : 1140
#
%Defect
DEFECT NAME    : NOISY
FIRST CHANNEL  : 1148
LAST CHANNEL   : 1149
#
%Defect
DEFECT NAME    : NOISY
FIRST CHANNEL  : 1153
LAST CHANNEL   : 1154
#
%Defect
DEFECT NAME    : NOISY
FIRST CHANNEL  : 1169
LAST CHANNEL   : 1170
#
%Defect
DEFECT NAME    : NOISY
FIRST CHANNEL  : 1227
LAST CHANNEL   : 1231
#
%Defect
DEFECT NAME    : DEAD
FIRST CHANNEL  : 1295
LAST CHANNEL   : 1295
#
%Defect
DEFECT NAME    : NOISY
FIRST CHANNEL  : 1387
LAST CHANNEL   : 1391
#
%Defect
DEFECT NAME    : NOISY
FIRST CHANNEL  : 1402
LAST CHANNEL   : 1404
#
%Defect
DEFECT NAME    : NOISY
FIRST CHANNEL  : 1406
LAST CHANNEL   : 1408
#
%Defect
DEFECT NAME    : NOISY
FIRST CHANNEL  : 1417
LAST CHANNEL   : 1419
#
%Defect
DEFECT NAME    : NOISY
FIRST CHANNEL  : 1424
LAST CHANNEL   : 1427
#
%Defect
DEFECT NAME    : NOISY
FIRST CHANNEL  : 1709
LAST CHANNEL   : 1712
#
%Defect
DEFECT NAME    : DEAD
FIRST CHANNEL  : 2089
LAST CHANNEL   : 2089
#
%Defect
DEFECT NAME    : DEAD
FIRST CHANNEL  : 2408
LAST CHANNEL   : 2408
#
%Defect
DEFECT NAME    : NOISY
FIRST CHANNEL  : 2435
LAST CHANNEL   : 2436
#
%Defect
DEFECT NAME    : NOISY
FIRST CHANNEL  : 2444
LAST CHANNEL   : 2445
#
%Defect
DEFECT NAME    : NOISY
FIRST CHANNEL  : 2456
LAST CHANNEL   : 2459
#
#24 defects found affecting 64 strips
#10 maximum consecutive defects
%Comment
COMMENT        : SELECT = 0
#
%Comment
COMMENT        : FAIL due to 64 bad strips (more than 15)
#
%Comment
COMMENT        : FAIL due to 10 consecutive bad strips (more than 8)
#
#
%TEST Rawdata
FILENAME       : /home/qcbox/Desktop/stars/itsdaq-sw/DATA/results/LBL-LS-0010_RC_66_5.txt
#
#
%NewTest
#
SERIAL NUMBER  : LBL-LS-0010
TEST MADE BY   : qq
LOCATION NAME  : BNL_4MODULEBOX
Run number     : 67-2
TEST_DATE      : 31/10/2019
PASSED         : YES
PROBLEM        : YES
#
%DAQ_INFO
#
#HOST
"localhost"
#VERSION
"3.43"
#DUT
"Star_Test 	#AMAC 2 ComID 0 HCC "
#TIME
"15:37:36"
#
%DCS_INFO
#
#T0	T1
. 	. 	
#VDET	IDET
. 	. 	
#VCC	ICC
. 	. 	
#VDD	IDD
. 	. 	
#TIME_POWERED
. 
#
#
%SCAN_INFO
#
#POINT_TYPE
"TrimDAC (bits)"
#N_POINTS
5
#POINTS
0.00 	8.00 	16.00 	24.00 	31.00 	
#
%Trim
#
#TRIM	CHARGE	TYPE	ALGORITHM
	1.0 	2 	0
#(trim whole module)
#
#	range	target	ntrim	vt50	vt50rms	tr_off	off_rms	tr_step	step_rms
#Ch0
	2	27.0	254	 27.0	 0.24	-24.5	 6.7	 0.61	 0.06
#Ch1
	2	27.0	256	 27.0	 0.23	-23.3	 8.0	 0.64	 0.06
#Ch2
	2	27.0	256	 27.0	 0.24	-19.8	 7.3	 0.61	 0.06
#Ch3
	2	27.0	255	 27.0	 0.23	-20.5	 7.4	 0.60	 0.07
#Ch4
	2	27.0	256	 27.0	 0.24	-20.8	 8.2	 0.60	 0.06
#Ch5
	2	27.0	255	 27.0	 0.23	-24.1	 7.6	 0.56	 0.06
#Ch6
	2	27.0	254	 27.0	 0.22	-24.2	 8.1	 0.59	 0.06
#Ch7
	2	27.0	256	 27.0	 0.25	-21.9	 8.5	 0.61	 0.07
#Ch8
	2	27.0	254	 27.0	 0.24	-22.4	 7.8	 0.60	 0.06
#Ch9
	2	27.0	255	 27.0	 0.22	-22.9	 7.4	 0.56	 0.05
#Ch0
	2	27.0	254	 27.0	 0.23	-25.4	 7.7	 0.60	 0.06
#Ch1
	2	27.0	256	 27.1	 0.24	-24.5	 7.7	 0.64	 0.07
#Ch2
	2	27.0	256	 27.0	 0.25	-19.8	 7.6	 0.60	 0.06
#Ch3
	2	27.0	255	 27.0	 0.24	-21.3	 7.4	 0.60	 0.06
#Ch4
	2	27.0	256	 27.0	 0.25	-22.0	 7.0	 0.60	 0.06
#Ch5
	2	27.0	255	 27.0	 0.22	-26.1	 8.0	 0.56	 0.06
#Ch6
	2	27.0	254	 27.0	 0.23	-25.3	 7.7	 0.58	 0.06
#Ch7
	2	27.0	256	 27.0	 0.25	-23.1	 7.6	 0.61	 0.06
#Ch8
	2	27.0	254	 27.0	 0.22	-21.4	 7.9	 0.60	 0.06
#Ch9
	2	27.0	255	 27.0	 0.22	-22.8	 8.3	 0.57	 0.06
#
%Defect
DEFECT NAME    : TR_RANGE
FIRST CHANNEL  : 0
LAST CHANNEL   : 255
#
%Defect
DEFECT NAME    : TR_RANGE
FIRST CHANNEL  : 256
LAST CHANNEL   : 511
#
%Defect
DEFECT NAME    : TR_RANGE
FIRST CHANNEL  : 512
LAST CHANNEL   : 767
#
%Defect
DEFECT NAME    : TR_RANGE
FIRST CHANNEL  : 768
LAST CHANNEL   : 1023
#
%Defect
DEFECT NAME    : TR_RANGE
FIRST CHANNEL  : 1024
LAST CHANNEL   : 1279
#
%Defect
DEFECT NAME    : TR_RANGE
FIRST CHANNEL  : 1280
LAST CHANNEL   : 1535
#
%Defect
DEFECT NAME    : TR_RANGE
FIRST CHANNEL  : 1536
LAST CHANNEL   : 1791
#
%Defect
DEFECT NAME    : TR_RANGE
FIRST CHANNEL  : 1792
LAST CHANNEL   : 2047
#
%Defect
DEFECT NAME    : TR_RANGE
FIRST CHANNEL  : 2048
LAST CHANNEL   : 2303
#
%Defect
DEFECT NAME    : TR_RANGE
FIRST CHANNEL  : 2304
LAST CHANNEL   : 2559
#
%Defect
DEFECT NAME    : TR_RANGE
FIRST CHANNEL  : 1536
LAST CHANNEL   : 1791
#
%Defect
DEFECT NAME    : TR_RANGE
FIRST CHANNEL  : 1792
LAST CHANNEL   : 2047
#
%Defect
DEFECT NAME    : TR_RANGE
FIRST CHANNEL  : 2048
LAST CHANNEL   : 2303
#
%Defect
DEFECT NAME    : TR_RANGE
FIRST CHANNEL  : 2304
LAST CHANNEL   : 2559
#
%Defect
DEFECT NAME    : TR_RANGE
FIRST CHANNEL  : 2560
LAST CHANNEL   : 2815
#
%Defect
DEFECT NAME    : TR_RANGE
FIRST CHANNEL  : 2816
LAST CHANNEL   : 3071
#
%Defect
DEFECT NAME    : TR_RANGE
FIRST CHANNEL  : 3072
LAST CHANNEL   : 3327
#
%Defect
DEFECT NAME    : TR_RANGE
FIRST CHANNEL  : 3328
LAST CHANNEL   : 3583
#
%Defect
DEFECT NAME    : TR_RANGE
FIRST CHANNEL  : 3584
LAST CHANNEL   : 3839
#
%Defect
DEFECT NAME    : TR_RANGE
FIRST CHANNEL  : 3840
LAST CHANNEL   : 4095
#
%Defect
DEFECT NAME    : TR_NOTRIM
FIRST CHANNEL  : 9
LAST CHANNEL   : 9
#
%Defect
DEFECT NAME    : TR_NOTRIM
FIRST CHANNEL  : 31
LAST CHANNEL   : 31
#
%Defect
DEFECT NAME    : TR_NOTRIM
FIRST CHANNEL  : 663
LAST CHANNEL   : 663
#
%Defect
DEFECT NAME    : TR_NOTRIM
FIRST CHANNEL  : 851
LAST CHANNEL   : 851
#
%Defect
DEFECT NAME    : TR_NOTRIM
FIRST CHANNEL  : 1108
LAST CHANNEL   : 1108
#
%Defect
DEFECT NAME    : TR_NOTRIM
FIRST CHANNEL  : 1179
LAST CHANNEL   : 1179
#
%Defect
DEFECT NAME    : TR_NOTRIM
FIRST CHANNEL  : 4586
LAST CHANNEL   : 4586
#
%Defect
DEFECT NAME    : TR_NOTRIM
FIRST CHANNEL  : 4930
LAST CHANNEL   : 4930
#
%Defect
DEFECT NAME    : TR_NOTRIM
FIRST CHANNEL  : 5224
LAST CHANNEL   : 5224
#
#29 defects found
%Comment
COMMENT        : L0Ch0 TR 2 step 0.88 (ideal 1.82 error 51.78%)
#
%Comment
COMMENT        : L0Ch1 TR 2 step 0.93 (ideal 1.92 error 51.63%)
#
%Comment
COMMENT        : L0Ch2 TR 2 step 0.89 (ideal 1.83 error 51.47%)
#
%Comment
COMMENT        : L0Ch3 TR 2 step 0.87 (ideal 1.80 error 51.47%)
#
%Comment
COMMENT        : L0Ch4 TR 2 step 0.88 (ideal 1.81 error 51.28%)
#
%Comment
COMMENT        : L0Ch5 TR 2 step 0.83 (ideal 1.68 error 50.99%)
#
%Comment
COMMENT        : L0Ch6 TR 2 step 0.85 (ideal 1.78 error 52.11%)
#
%Comment
COMMENT        : L0Ch7 TR 2 step 0.90 (ideal 1.84 error 51.10%)
#
%Comment
COMMENT        : L0Ch8 TR 2 step 0.87 (ideal 1.80 error 51.49%)
#
%Comment
COMMENT        : L0Ch9 TR 2 step 0.83 (ideal 1.69 error 50.76%)
#
%Comment
COMMENT        : L1Ch0 TR 2 step 0.88 (ideal 1.81 error 51.30%)
#
%Comment
COMMENT        : L1Ch1 TR 2 step 0.93 (ideal 1.92 error 51.63%)
#
%Comment
COMMENT        : L1Ch2 TR 2 step 0.88 (ideal 1.81 error 51.51%)
#
%Comment
COMMENT        : L1Ch3 TR 2 step 0.87 (ideal 1.79 error 51.20%)
#
%Comment
COMMENT        : L1Ch4 TR 2 step 0.89 (ideal 1.81 error 50.87%)
#
%Comment
COMMENT        : L1Ch5 TR 2 step 0.83 (ideal 1.69 error 50.78%)
#
%Comment
COMMENT        : L1Ch6 TR 2 step 0.84 (ideal 1.75 error 51.98%)
#
%Comment
COMMENT        : L1Ch7 TR 2 step 0.90 (ideal 1.83 error 51.05%)
#
%Comment
COMMENT        : L1Ch8 TR 2 step 0.88 (ideal 1.81 error 51.62%)
#
%Comment
COMMENT        : L1Ch9 TR 2 step 0.84 (ideal 1.71 error 50.70%)
#
#
%TEST Rawdata
FILENAME       : /home/qcbox/Desktop/stars/itsdaq-sw/DATA/results/LBL-LS-0010_tr2_20191031.trim
#
#
%NewTest
#
SERIAL NUMBER  : LBL-LS-0010
TEST MADE BY   : qq
LOCATION NAME  : BNL_4MODULEBOX
Run number     : 67-7
TEST_DATE      : 31/10/2019
PASSED         : NO
PROBLEM        : YES
#
%DAQ_INFO
#
#HOST
"localhost"
#VERSION
"3.43"
#DUT
"Star_Test 	#AMAC 2 ComID 0 HCC "
#TIME
"15:39:41"
#
%DCS_INFO
#
#T0	T1
. 	. 	
#VDET	IDET
. 	. 	
#VCC	ICC
. 	. 	
#VDD	IDD
. 	. 	
#TIME_POWERED
. 
#
#
%SCAN_INFO
#
#POINT_TYPE
"TrimDAC (bits)"
#N_POINTS
5
#POINTS
0.00 	8.00 	16.00 	24.00 	31.00 	
#
%Trim
#
#TRIM	CHARGE	TYPE	ALGORITHM
	1.0 	4 	0
#(trim whole module)
#
#	range	target	ntrim	vt50	vt50rms	tr_off	off_rms	tr_step	step_rms
#Ch0
	4	30.0	255	 30.0	 0.26	-21.1	 5.7	 0.73	 0.06
#Ch1
	4	30.0	256	 30.0	 0.28	-20.0	 6.6	 0.77	 0.07
#Ch2
	4	30.0	256	 30.0	 0.31	-16.8	 5.9	 0.75	 0.06
#Ch3
	4	30.0	256	 30.0	 0.30	-17.4	 6.1	 0.73	 0.08
#Ch4
	4	30.0	256	 30.0	 0.29	-17.6	 6.5	 0.74	 0.06
#Ch5
	4	30.0	256	 30.1	 0.27	-19.9	 6.3	 0.70	 0.06
#Ch6
	4	30.0	255	 30.0	 0.27	-20.8	 6.7	 0.71	 0.06
#Ch7
	4	30.0	256	 30.0	 0.28	-18.5	 6.9	 0.75	 0.07
#Ch8
	4	30.0	256	 30.0	 0.27	-19.2	 6.5	 0.73	 0.06
#Ch9
	4	30.0	256	 30.0	 0.26	-19.3	 6.2	 0.69	 0.06
#Ch0
	4	30.0	255	 30.0	 0.26	-21.6	 6.2	 0.73	 0.06
#Ch1
	4	30.0	256	 30.0	 0.26	-21.0	 6.2	 0.77	 0.07
#Ch2
	4	30.0	256	 30.0	 0.28	-16.9	 6.3	 0.73	 0.07
#Ch3
	4	30.0	256	 30.0	 0.27	-18.0	 6.1	 0.73	 0.06
#Ch4
	4	30.0	256	 30.0	 0.30	-18.5	 5.6	 0.74	 0.06
#Ch5
	4	30.0	256	 30.0	 0.27	-21.6	 6.3	 0.71	 0.06
#Ch6
	4	30.0	255	 30.0	 0.27	-21.5	 6.5	 0.70	 0.06
#Ch7
	4	30.0	256	 30.0	 0.27	-19.4	 6.1	 0.75	 0.06
#Ch8
	4	30.0	256	 30.0	 0.29	-18.5	 6.7	 0.73	 0.07
#Ch9
	4	30.0	256	 30.0	 0.28	-19.1	 6.6	 0.70	 0.07
#
#No defects found!
#
%TEST Rawdata
FILENAME       : /home/qcbox/Desktop/stars/itsdaq-sw/DATA/results/LBL-LS-0010_tr4_20191031.trim
#
#
%NewTest
#
SERIAL NUMBER  : LBL-LS-0010
TEST MADE BY   : qq
LOCATION NAME  : BNL_4MODULEBOX
Run number     : 67-12
TEST_DATE      : 31/10/2019
PASSED         : NO
PROBLEM        : NO
#
%DAQ_INFO
#
#HOST
"localhost"
#VERSION
"3.43"
#DUT
"Star_Test 	#AMAC 2 ComID 0 HCC "
#TIME
"15:41:51"
#
%DCS_INFO
#
#T0	T1
. 	. 	
#VDET	IDET
. 	. 	
#VCC	ICC
. 	. 	
#VDD	IDD
. 	. 	
#TIME_POWERED
. 
#
#
%SCAN_INFO
#
#POINT_TYPE
"TrimDAC (bits)"
#N_POINTS
5
#POINTS
0.00 	8.00 	16.00 	24.00 	31.00 	
#
%Trim
#
#TRIM	CHARGE	TYPE	ALGORITHM
	1.0 	6 	0
#(trim whole module)
#
#	range	target	ntrim	vt50	vt50rms	tr_off	off_rms	tr_step	step_rms
#Ch0
	6	35.0	256	 35.0	 0.35	-18.1	 4.9	 0.88	 0.07
#Ch1
	6	35.0	256	 35.0	 0.34	-17.0	 5.3	 0.93	 0.07
#Ch2
	6	35.0	256	 35.0	 0.35	-14.6	 4.9	 0.89	 0.06
#Ch3
	6	35.0	256	 35.0	 0.32	-15.1	 5.0	 0.87	 0.08
#Ch4
	6	35.0	256	 35.0	 0.34	-15.2	 5.4	 0.88	 0.07
#Ch5
	6	35.0	256	 34.9	 0.33	-17.5	 5.2	 0.83	 0.07
#Ch6
	6	35.0	256	 35.0	 0.34	-18.0	 5.7	 0.85	 0.07
#Ch7
	6	35.0	256	 35.0	 0.35	-16.0	 5.6	 0.90	 0.07
#Ch8
	6	35.0	256	 35.0	 0.33	-16.5	 5.3	 0.87	 0.07
#Ch9
	6	35.0	256	 35.0	 0.31	-16.5	 5.0	 0.83	 0.06
#Ch0
	6	35.0	256	 35.0	 0.34	-18.5	 5.1	 0.88	 0.07
#Ch1
	6	35.0	256	 35.0	 0.32	-17.9	 5.2	 0.93	 0.08
#Ch2
	6	35.0	256	 35.0	 0.33	-14.5	 5.1	 0.88	 0.07
#Ch3
	6	35.0	256	 35.0	 0.35	-15.4	 4.9	 0.87	 0.07
#Ch4
	6	35.0	256	 35.0	 0.35	-16.0	 4.7	 0.89	 0.07
#Ch5
	6	35.0	256	 35.0	 0.34	-18.9	 5.2	 0.83	 0.06
#Ch6
	6	35.0	256	 35.0	 0.32	-18.5	 5.4	 0.84	 0.07
#Ch7
	6	35.0	256	 35.0	 0.35	-16.8	 5.1	 0.90	 0.06
#Ch8
	6	35.0	256	 35.1	 0.31	-15.9	 5.5	 0.88	 0.07
#Ch9
	6	35.0	256	 35.0	 0.33	-16.4	 5.4	 0.84	 0.07
#
#No defects found!
#
%TEST Rawdata
FILENAME       : /home/qcbox/Desktop/stars/itsdaq-sw/DATA/results/LBL-LS-0010_tr6_20191031.trim
#
#
%NewTest
#
SERIAL NUMBER  : LBL-LS-0010
TEST MADE BY   : qq
LOCATION NAME  : BNL_4MODULEBOX
Run number     : 67-17
TEST_DATE      : 31/10/2019
PASSED         : NO
PROBLEM        : NO
#
%DAQ_INFO
#
#HOST
"localhost"
#VERSION
"3.43"
#DUT
"Star_Test 	#AMAC 2 ComID 0 HCC "
#TIME
"15:44:02"
#
%DCS_INFO
#
#T0	T1
. 	. 	
#VDET	IDET
. 	. 	
#VCC	ICC
. 	. 	
#VDD	IDD
. 	. 	
#TIME_POWERED
. 
#
#
%SCAN_INFO
#
#POINT_TYPE
"TrimDAC (bits)"
#N_POINTS
5
#POINTS
0.00 	8.00 	16.00 	24.00 	31.00 	
#
%Trim
#
#TRIM	CHARGE	TYPE	ALGORITHM
	1.0 	8 	0
#(trim whole module)
#
#	range	target	ntrim	vt50	vt50rms	tr_off	off_rms	tr_step	step_rms
#Ch0
	8	41.0	256	 41.0	 0.38	-15.9	 4.0	 1.03	 0.07
#Ch1
	8	41.0	256	 41.0	 0.41	-15.2	 4.6	 1.08	 0.07
#Ch2
	8	41.0	256	 41.0	 0.41	-13.0	 4.2	 1.03	 0.07
#Ch3
	8	41.0	256	 41.0	 0.38	-13.3	 4.2	 1.02	 0.08
#Ch4
	8	41.0	256	 41.0	 0.38	-13.4	 4.6	 1.04	 0.07
#Ch5
	8	41.0	256	 40.9	 0.38	-15.1	 4.4	 0.99	 0.07
#Ch6
	8	41.0	256	 41.0	 0.39	-16.0	 5.0	 0.99	 0.07
#Ch7
	8	41.0	256	 41.0	 0.36	-14.2	 4.8	 1.05	 0.08
#Ch8
	8	41.0	256	 41.0	 0.38	-14.7	 4.6	 1.01	 0.07
#Ch9
	8	41.0	256	 40.9	 0.40	-14.6	 4.3	 0.97	 0.06
#Ch0
	8	41.0	256	 41.0	 0.42	-16.3	 4.4	 1.04	 0.07
#Ch1
	8	41.0	256	 41.0	 0.39	-15.9	 4.4	 1.08	 0.08
#Ch2
	8	41.0	256	 41.0	 0.40	-12.9	 4.4	 1.02	 0.07
#Ch3
	8	41.0	256	 41.0	 0.43	-13.7	 4.3	 1.02	 0.07
#Ch4
	8	41.0	256	 41.1	 0.41	-14.1	 4.0	 1.04	 0.07
#Ch5
	8	41.0	256	 41.0	 0.36	-16.3	 4.4	 0.99	 0.07
#Ch6
	8	41.0	256	 41.0	 0.37	-16.3	 4.5	 0.98	 0.07
#Ch7
	8	41.0	256	 41.0	 0.38	-14.9	 4.3	 1.05	 0.07
#Ch8
	8	41.0	256	 40.9	 0.38	-14.1	 4.8	 1.02	 0.08
#Ch9
	8	41.0	256	 41.0	 0.42	-14.5	 4.5	 0.98	 0.07
#
#No defects found!
#
%TEST Rawdata
FILENAME       : /home/qcbox/Desktop/stars/itsdaq-sw/DATA/results/LBL-LS-0010_tr8_20191031.trim
#
#
%NewTest
#
SERIAL NUMBER  : LBL-LS-0010
TEST MADE BY   : qq
LOCATION NAME  : BNL_4MODULEBOX
Run number     : 67-2
TEST_DATE      : 31/10/2019
PASSED         : NO
PROBLEM        : NO
#
%DAQ_INFO
#
#HOST
"localhost"
#VERSION
"3.43"
#DUT
"Star_Test 	#AMAC 2 ComID 0 HCC "
#TIME
"15:37:36"
#
%DCS_INFO
#
#T0	T1
. 	. 	
#VDET	IDET
. 	. 	
#VCC	ICC
. 	. 	
#VDD	IDD
. 	. 	
#TIME_POWERED
. 
#
#
%Trim
#
#TRIM	CHARGE	TYPE	ALGORITHM
	1.0 	-1 	0
#(trim whole module)
#
#	range	target	ntrim	vt50	vt50rms	tr_off	off_rms	tr_step	step_rms
#Ch0
	8	43.0	256	 43.0	 0.41	-15.9	 4.0	 1.03	 0.07
#Ch1
	8	43.0	256	 43.1	 0.39	-15.2	 4.6	 1.08	 0.07
#Ch2
	8	43.0	256	 43.0	 0.38	-13.0	 4.2	 1.03	 0.07
#Ch3
	8	43.0	255	 43.0	 0.42	-13.3	 4.2	 1.02	 0.08
#Ch4
	8	43.0	256	 43.0	 0.42	-13.4	 4.6	 1.04	 0.07
#Ch5
	8	43.0	255	 43.0	 0.38	-15.1	 4.4	 0.99	 0.07
#Ch6
	8	43.0	255	 43.0	 0.37	-16.0	 5.0	 0.99	 0.07
#Ch7
	8	43.0	256	 43.0	 0.42	-14.2	 4.8	 1.05	 0.08
#Ch8
	8	43.0	256	 43.0	 0.42	-14.7	 4.6	 1.01	 0.07
#Ch9
	8	43.0	255	 43.0	 0.37	-14.6	 4.3	 0.97	 0.06
#Ch0
	8	43.0	256	 43.0	 0.37	-16.3	 4.4	 1.04	 0.07
#Ch1
	8	43.0	256	 43.0	 0.41	-15.9	 4.4	 1.08	 0.08
#Ch2
	8	43.0	256	 43.0	 0.39	-12.9	 4.4	 1.02	 0.07
#Ch3
	8	43.0	255	 43.0	 0.36	-13.7	 4.3	 1.02	 0.07
#Ch4
	8	43.0	256	 43.0	 0.39	-14.1	 4.0	 1.04	 0.07
#Ch5
	8	43.0	255	 43.0	 0.41	-16.3	 4.4	 0.99	 0.07
#Ch6
	8	43.0	255	 43.0	 0.38	-16.3	 4.5	 0.98	 0.07
#Ch7
	8	43.0	256	 43.0	 0.42	-14.9	 4.3	 1.05	 0.07
#Ch8
	8	43.0	256	 43.0	 0.41	-14.1	 4.8	 1.02	 0.08
#Ch9
	8	43.0	255	 43.0	 0.38	-14.5	 4.5	 0.98	 0.07
#
#No defects found!
#
%TEST Rawdata
FILENAME       : /home/qcbox/Desktop/stars/itsdaq-sw/DATA/results/LBL-LS-0010_tr-1_20191031.trim
#
#
%NewTest
#
SERIAL NUMBER  : LBL-LS-0010
TEST MADE BY   : qq
LOCATION NAME  : BNL_4MODULEBOX
Run number     : 68-2
TEST_DATE      : 31/10/2019
PASSED         : YES
PROBLEM        : NO
#
%DAQ_INFO
#
#HOST
"localhost"
#VERSION
"3.43"
#DUT
"Star_Test 	#AMAC 2 ComID 0 HCC "
#TIME
"15:56:56"
#
%DCS_INFO
#
#T0	T1
. 	. 	
#VDET	IDET
. 	. 	
#VCC	ICC
. 	. 	
#VDD	IDD
. 	. 	
#TIME_POWERED
. 
#
%StrobeDelay
#
#DELAY
#  M00  S01  S02  S03  S04  S05  S06  S07  S08  E09
20 17 17 17 19 16 19 18 18 18 -1 -1 -1 -1 -1 -1 
#
#  M00  S01  S02  S03  S04  S05  S06  S07  S08  E09
20 17 17 17 19 16 19 18 18 18 -1 -1 -1 -1 -1 -1 
#
#No defects found!
%Comment
COMMENT        : Strobe Delay Fraction 0.57
#
#
%NewTest
#
SERIAL NUMBER  : LBL-LS-0010
TEST MADE BY   : qq
LOCATION NAME  : BNL_4MODULEBOX
Run number     : 68-3
TEST_DATE      : 31/10/2019
PASSED         : NO
PROBLEM        : NO
#
%DAQ_INFO
#
#HOST
"localhost"
#VERSION
"3.43"
#DUT
"Star_Test 	#AMAC 2 ComID 0 HCC "
#TIME
"16:02:33"
#
%DCS_INFO
#
#T0	T1
. 	. 	
#VDET	IDET
. 	. 	
#VCC	ICC
. 	. 	
#VDD	IDD
. 	. 	
#TIME_POWERED
. 
#
#
%SCAN_INFO
#
#POINT_TYPE
"QCAL (fC)"
#N_POINTS
3
#POINTS
0.50 	1.00 	1.50 	
#
#
%ThreePointGain
#
#Loop A - Fit
#	func	p0	p1	p2
#M00
	4 	59.78 	91.06 	0.00
#S01
	4 	61.82 	93.47 	0.00
#S02
	4 	68.84 	89.01 	0.00
#S03
	4 	68.93 	89.00 	0.00
#S04
	4 	68.81 	92.34 	0.00
#S05
	4 	65.10 	92.77 	0.00
#S06
	4 	63.78 	90.46 	0.00
#S07
	4 	68.91 	90.27 	0.00
#S08
	4 	69.20 	90.34 	0.00
#E09
	4 	69.95 	88.33 	0.00
#M00
	4 	59.66 	91.37 	0.00
#S01
	4 	61.65 	93.39 	0.00
#S02
	4 	68.79 	89.11 	0.00
#S03
	4 	68.63 	89.09 	0.00
#S04
	4 	68.64 	92.24 	0.00
#S05
	4 	64.94 	93.18 	0.00
#S06
	4 	63.60 	90.40 	0.00
#S07
	4 	68.71 	90.48 	0.00
#S08
	4 	69.23 	90.24 	0.00
#E09
	4 	69.81 	88.13 	0.00
#
#Loop B - Gain, Offset, Noise at 1.00fC
#	vt50 	rms  	gain	rms 	offset	rms  	outnse	innse	rms
#M00
	150.1 	 1.37 	91.0 	1.49 	 91.0 	 1.49 	10.56 	  731 	  36
#S01
	154.5 	 1.31 	93.4 	1.77 	 93.4 	 1.77 	10.85 	  731 	  45
#S02
	156.7 	 1.28 	89.0 	1.69 	 89.0 	 1.69 	10.44 	  734 	  15
#S03
	157.2 	 1.41 	88.3 	7.99 	 89.0 	 1.58 	10.23 	  713 	  64
#S04
	160.3 	 1.56 	92.3 	1.71 	 92.3 	 1.71 	10.54 	  714 	  10
#S05
	156.9 	 1.52 	92.0 	8.33 	 92.7 	 1.66 	10.76 	  719 	  66
#S06
	153.2 	 1.16 	89.7 	8.12 	 90.4 	 1.59 	11.13 	  763 	  71
#S07
	158.3 	 1.38 	90.3 	1.78 	 90.3 	 1.78 	11.08 	  767 	  38
#S08
	158.8 	 1.52 	90.3 	1.69 	 90.3 	 1.69 	10.55 	  734 	  30
#E09
	###    Too many defects in this chip!    ###
#M00
	150.3 	 1.25 	91.3 	1.53 	 91.3 	 1.53 	10.23 	  732 	 116
#S01
	154.2 	 1.43 	93.2 	1.69 	 93.2 	 1.69 	10.40 	  727 	 119
#S02
	156.8 	 1.27 	89.1 	1.48 	 89.1 	 1.48 	10.01 	  702 	  12
#S03
	157.0 	 1.28 	88.4 	8.02 	 89.1 	 1.67 	9.85 	  700 	  99
#S04
	160.0 	 1.52 	92.2 	1.66 	 92.2 	 1.66 	10.05 	  681 	   9
#S05
	157.2 	 1.55 	92.4 	8.37 	 93.2 	 1.65 	10.15 	  676 	  61
#S06
	153.0 	 1.32 	89.7 	8.12 	 90.4 	 1.65 	10.24 	  703 	  63
#S07
	158.3 	 1.48 	90.5 	1.69 	 90.5 	 1.69 	10.48 	  724 	  10
#S08
	158.7 	 1.31 	90.2 	1.51 	 90.2 	 1.51 	10.31 	  714 	  11
#E09
	157.0 	 1.52 	87.4 	7.91 	 88.1 	 1.58 	10.36 	  754 	 127
#
#Loop C - Comment
#  M00  S01  S02  S03  S04  S05  S06  S07  S08  E09
"OK" 	"OK" 	"OK" 	"OK" 	"OK" 	"OK" 	"OK" 	"OK" 	"OK" 	"OK" 	
#  M00  S01  S02  S03  S04  S05  S06  S07  S08  E09
"OK" 	"OK" 	"OK" 	"OK" 	"OK" 	"OK" 	"OK" 	"OK" 	"OK" 	"OK" 	
#BadChannelSummary - not for the database
#  at 1.00fC
#		lost	dodgy	dead	stuck	ineff	unbon	lo_gn	hi_gn	lo_off	hi_off	partbon	hi_nse
#Chip M00:	  0	  4	  0	  0	  0	  0	  0	  0	  0	  0	  0	  4
#Chip S01:	  0	  2	  0	  0	  0	  0	  0	  0	  0	  0	  0	  2
#Chip S02:	  0	  0	  0	  0	  0	  0	  0	  0	  0	  0	  0	  0
#Chip S03:	  1	  0	  1	  0	  0	  1	  1	  0	  1	  0	  0	  0
#Chip S04:	  0	  0	  0	  0	  0	  0	  0	  0	  0	  0	  0	  0
#Chip S05:	  1	  0	  1	  0	  0	  1	  1	  0	  1	  0	  0	  0
#Chip S06:	  1	  0	  1	  0	  0	  1	  1	  0	  1	  0	  0	  0
#Chip S07:	  0	  0	  0	  0	  0	  0	  0	  0	  0	  0	  0	  0
#Chip S08:	  0	  2	  0	  0	  0	  0	  0	  0	  0	  0	  0	  2
#Chip E09:	  1	 13	  1	  0	  0	  1	  1	  0	  1	  0	  0	 13
#Chip M00:	  0	 10	  0	  0	  0	  0	  0	  0	  0	  0	  0	 10
#Chip S01:	  0	  9	  0	  0	  0	  0	  0	  0	  0	  0	  0	  9
#Chip S02:	  0	  0	  0	  0	  0	  0	  0	  0	  0	  0	  0	  0
#Chip S03:	  1	  4	  1	  0	  0	  1	  1	  0	  1	  0	  0	  4
#Chip S04:	  0	  0	  0	  0	  0	  0	  0	  0	  0	  0	  0	  0
#Chip S05:	  1	  0	  1	  0	  0	  1	  1	  0	  1	  0	  0	  0
#Chip S06:	  1	  0	  1	  0	  0	  1	  1	  0	  1	  0	  0	  0
#Chip S07:	  0	  0	  0	  0	  0	  0	  0	  0	  0	  0	  0	  0
#Chip S08:	  0	  0	  0	  0	  0	  0	  0	  0	  0	  0	  0	  0
#Chip E09:	  1	  9	  1	  0	  0	  1	  1	  0	  1	  0	  0	  9
#Link 0:	  4	 21	  4	  0	  0	  4	  4	  0	  4	  0	  0	 21
#Link 1:	  4	 32	  4	  0	  0	  4	  4	  0	  4	  0	  0	 32
#Link 2:	  8	 53	  8	  0	  0	  8	  8	  0	  8	  0	  0	 53
%Defect
DEFECT NAME    : NOISY
FIRST CHANNEL  : 82
LAST CHANNEL   : 83
#
%Defect
DEFECT NAME    : NOISY
FIRST CHANNEL  : 97
LAST CHANNEL   : 98
#
%Defect
DEFECT NAME    : NOISY
FIRST CHANNEL  : 135
LAST CHANNEL   : 136
#
%Defect
DEFECT NAME    : DEAD
FIRST CHANNEL  : 501
LAST CHANNEL   : 501
#
%Defect
DEFECT NAME    : DEAD
FIRST CHANNEL  : 663
LAST CHANNEL   : 663
#
%Defect
DEFECT NAME    : DEAD
FIRST CHANNEL  : 865
LAST CHANNEL   : 865
#
%Defect
DEFECT NAME    : NOISY
FIRST CHANNEL  : 1148
LAST CHANNEL   : 1149
#
%Defect
DEFECT NAME    : NOISY
FIRST CHANNEL  : 1153
LAST CHANNEL   : 1154
#
%Defect
DEFECT NAME    : NOISY
FIRST CHANNEL  : 1156
LAST CHANNEL   : 1157
#
%Defect
DEFECT NAME    : NOISY
FIRST CHANNEL  : 1169
LAST CHANNEL   : 1170
#
%Defect
DEFECT NAME    : DEAD
FIRST CHANNEL  : 1179
LAST CHANNEL   : 1179
#
%Defect
DEFECT NAME    : NOISY
FIRST CHANNEL  : 1196
LAST CHANNEL   : 1197
#
%Defect
DEFECT NAME    : NOISY
FIRST CHANNEL  : 1227
LAST CHANNEL   : 1231
#
%Defect
DEFECT NAME    : NOISY
FIRST CHANNEL  : 1387
LAST CHANNEL   : 1391
#
%Defect
DEFECT NAME    : NOISY
FIRST CHANNEL  : 1402
LAST CHANNEL   : 1404
#
%Defect
DEFECT NAME    : NOISY
FIRST CHANNEL  : 1406
LAST CHANNEL   : 1408
#
%Defect
DEFECT NAME    : NOISY
FIRST CHANNEL  : 1416
LAST CHANNEL   : 1419
#
%Defect
DEFECT NAME    : NOISY
FIRST CHANNEL  : 1424
LAST CHANNEL   : 1427
#
%Defect
DEFECT NAME    : NOISY
FIRST CHANNEL  : 1709
LAST CHANNEL   : 1712
#
%Defect
DEFECT NAME    : DEAD
FIRST CHANNEL  : 1770
LAST CHANNEL   : 1770
#
%Defect
DEFECT NAME    : DEAD
FIRST CHANNEL  : 1931
LAST CHANNEL   : 1931
#
%Defect
DEFECT NAME    : DEAD
FIRST CHANNEL  : 2114
LAST CHANNEL   : 2114
#
%Defect
DEFECT NAME    : NOISY
FIRST CHANNEL  : 2435
LAST CHANNEL   : 2436
#
%Defect
DEFECT NAME    : NOISY
FIRST CHANNEL  : 2444
LAST CHANNEL   : 2444
#
%Defect
DEFECT NAME    : DEAD
FIRST CHANNEL  : 2445
LAST CHANNEL   : 2445
#
%Defect
DEFECT NAME    : NOISY
FIRST CHANNEL  : 2448
LAST CHANNEL   : 2449
#
%Defect
DEFECT NAME    : NOISY
FIRST CHANNEL  : 2456
LAST CHANNEL   : 2459
#
#27 defects found affecting 61 strips
#5 maximum consecutive defects
%Comment
COMMENT        : SELECT = 0
#
%Comment
COMMENT        : FAIL due to 61 bad strips (more than 15)
#
#
%TEST Rawdata
FILENAME       : /home/qcbox/Desktop/stars/itsdaq-sw/DATA/results/LBL-LS-0010_RC_68_3.txt
#
