#chan	code	gain	vt50	innse	comment
   0	   4	88.2	111.8	 665	inefficient
   1	   4	88.6	110.4	 698	inefficient
   2	   4	86.5	110.6	 704	inefficient
   3	1101	0.0	0.0	   0	dead
   4	   4	84.9	109.2	 700	inefficient
   5	   4	87.8	109.6	 714	inefficient
   6	1101	0.0	0.0	   0	dead
   7	   4	86.8	110.8	 710	inefficient
   8	   4	84.9	110.2	 713	inefficient
   9	   4	85.8	110.1	 685	inefficient
  10	   4	87.1	108.8	 700	inefficient
  11	   4	86.0	109.5	 694	inefficient
  12	   4	85.6	111.4	 679	inefficient
  13	   4	84.1	110.4	 697	inefficient
  14	   4	87.8	112.4	 695	inefficient
  15	   4	83.2	109.2	 704	inefficient
  16	   4	85.5	109.6	 683	inefficient
  17	   4	82.2	106.9	 699	inefficient
  18	   4	83.6	109.4	 700	inefficient
  19	   4	83.3	109.1	 706	inefficient
  20	   4	84.7	109.3	 707	inefficient
  21	   4	87.8	111.1	 714	inefficient
  22	   4	87.9	110.5	 705	inefficient
  23	   4	85.3	108.6	 716	inefficient
  24	   4	86.3	109.8	 694	inefficient
  25	   4	87.2	110.7	 715	inefficient
  26	   4	84.4	110.0	 704	inefficient
  27	   4	85.1	108.2	 714	inefficient
  28	   4	86.3	111.7	 698	inefficient
  29	   4	82.9	109.4	 707	inefficient
  30	   4	84.8	110.4	 710	inefficient
  31	   4	85.3	111.4	 717	inefficient
  32	   4	86.1	109.4	 719	inefficient
  33	1101	0.0	0.0	   0	dead
  34	   4	82.5	108.8	 720	inefficient
  35	   4	87.5	110.5	 719	inefficient
  36	   4	84.7	110.4	 716	inefficient
  37	   4	85.3	108.7	 724	inefficient
  38	   4	84.7	110.5	 729	inefficient
  39	   4	84.5	109.7	 733	inefficient
  40	   4	82.5	108.6	 730	inefficient
  41	   4	82.9	108.0	 738	inefficient
  42	   4	84.4	108.6	 724	inefficient
  43	   4	84.8	109.4	 723	inefficient
  44	   4	83.7	109.1	 737	inefficient
  45	   4	86.6	110.5	 720	inefficient
  46	   4	87.2	111.4	 732	inefficient
  47	1101	0.0	0.0	   0	dead
  48	   4	83.3	111.0	 717	inefficient
  49	   4	86.3	111.2	 731	inefficient
  50	   4	86.3	111.4	 726	inefficient
  51	   4	84.8	111.0	 736	inefficient
  52	   4	87.7	112.4	 706	inefficient
  53	   4	86.8	111.0	 730	inefficient
  54	   4	82.4	108.1	 729	inefficient
  55	   4	84.6	109.5	 715	inefficient
  56	   4	82.4	108.3	 740	inefficient
  57	   4	85.6	109.1	 729	inefficient
  58	   4	87.7	109.5	 712	inefficient
  59	   4	87.7	109.4	 730	inefficient
  60	   4	85.1	109.8	 724	inefficient
  61	   4	83.9	110.7	 724	inefficient
  62	   4	86.5	110.2	 725	inefficient
  63	   4	86.0	109.3	 710	inefficient
  64	   4	82.7	107.0	 721	inefficient
  65	   4	83.8	108.4	 731	inefficient
  66	1101	0.0	0.0	   0	dead
  67	   4	84.3	109.4	 707	inefficient
  68	1101	0.0	0.0	   0	dead
  69	   4	86.4	108.4	 708	inefficient
  70	   4	82.7	109.4	 712	inefficient
  71	   4	83.1	109.5	 727	inefficient
  72	   4	85.2	109.9	 713	inefficient
  73	   4	84.5	109.3	 737	inefficient
  74	   4	83.8	108.9	 722	inefficient
  75	   4	83.0	110.2	 728	inefficient
  76	   4	86.2	108.7	 716	inefficient
  77	   4	83.8	107.0	 739	inefficient
  78	   4	84.6	107.7	 724	inefficient
  79	   4	86.3	109.6	 721	inefficient
  80	   4	82.6	109.9	 720	inefficient
  81	   4	85.5	110.4	 714	inefficient
  82	   4	85.5	108.2	 718	inefficient
  83	   4	81.7	110.2	 729	inefficient
  84	   4	84.6	110.0	 711	inefficient
  85	   4	85.0	109.8	 720	inefficient
  86	   4	84.7	109.0	 709	inefficient
  87	   4	84.7	110.5	 729	inefficient
  88	1101	0.0	0.0	   0	dead
  89	   4	84.8	108.6	 723	inefficient
  90	   4	86.1	109.9	 723	inefficient
  91	   4	82.8	109.3	 719	inefficient
  92	   4	84.4	110.4	 738	inefficient
  93	   4	85.8	110.7	 727	inefficient
  94	1101	0.0	0.0	   0	dead
  95	   4	83.6	107.9	 721	inefficient
  96	   4	86.8	109.0	 727	inefficient
  97	1101	0.0	0.0	   0	dead
  98	   4	85.0	108.7	 727	inefficient
  99	   4	87.4	108.9	 721	inefficient
 100	   4	88.6	112.2	 734	inefficient
 101	   4	82.6	108.5	 727	inefficient
 102	   4	86.7	109.5	 724	inefficient
 103	   4	87.8	112.5	 725	inefficient
 104	4004	86.9	109.9	 848	high noise
 105	4004	87.5	110.8	 841	high noise
 106	   4	83.0	108.3	 711	inefficient
 107	   4	85.0	108.4	 709	inefficient
 108	   4	86.3	109.4	 724	inefficient
 109	   4	85.2	110.1	 710	inefficient
 110	   4	87.7	110.1	 716	inefficient
 111	   4	84.7	108.9	 709	inefficient
 112	   4	84.5	110.2	 718	inefficient
 113	   4	84.4	110.3	 715	inefficient
 114	   4	88.0	110.5	 699	inefficient
 115	   4	86.7	111.4	 716	inefficient
 116	   4	85.1	109.0	 704	inefficient
 117	   4	87.3	109.1	 706	inefficient
 118	   4	85.1	108.6	 716	inefficient
 119	   4	88.1	111.3	 726	inefficient
 120	   4	85.6	109.7	 698	inefficient
 121	   4	86.3	110.0	 735	inefficient
 122	   4	85.7	110.6	 710	inefficient
 123	   4	84.6	108.6	 710	inefficient
 124	   4	87.1	110.5	 717	inefficient
 125	   4	86.8	111.6	 704	inefficient
 126	4004	87.1	110.0	 848	high noise
 127	4004	88.0	110.8	1009	high noise
 128	4004	91.6	107.1	 959	high noise
 129	   4	93.9	108.4	 730	inefficient
 130	   4	93.2	109.2	 721	inefficient
 131	   4	91.8	108.4	 714	inefficient
 132	   4	97.2	111.5	 714	inefficient
 133	   4	93.6	108.1	 710	inefficient
 134	   4	92.6	107.5	 712	inefficient
 135	   4	94.9	111.8	 712	inefficient
 136	   4	94.0	109.5	 716	inefficient
 137	   4	92.9	109.2	 717	inefficient
 138	   4	91.1	108.8	 726	inefficient
 139	   4	92.7	109.2	 721	inefficient
 140	   4	93.8	109.9	 721	inefficient
 141	   4	90.9	106.6	 718	inefficient
 142	   4	91.6	109.1	 706	inefficient
 143	   4	89.8	107.2	 720	inefficient
 144	   4	90.2	109.4	 712	inefficient
 145	   4	91.9	109.2	 711	inefficient
 146	   4	88.6	108.5	 723	inefficient
 147	   4	94.3	111.1	 718	inefficient
 148	   4	92.7	107.0	 698	inefficient
 149	   4	89.2	108.7	 702	inefficient
 150	   4	90.9	109.1	 707	inefficient
 151	   4	90.8	109.8	 731	inefficient
 152	   4	91.1	108.4	 703	inefficient
 153	   4	92.1	108.7	 709	inefficient
 154	   4	88.8	108.2	 701	inefficient
 155	   4	91.2	108.7	 696	inefficient
 156	   4	90.1	107.2	 715	inefficient
 157	   4	90.1	107.7	 710	inefficient
 158	   4	89.3	106.4	 699	inefficient
 159	   4	89.8	107.4	 716	inefficient
 160	   4	90.6	108.0	 696	inefficient
 161	   4	89.8	108.4	 709	inefficient
 162	   4	93.0	108.4	 716	inefficient
 163	   4	90.3	107.4	 719	inefficient
 164	   4	92.4	107.7	 715	inefficient
 165	   4	88.6	107.4	 717	inefficient
 166	   4	92.3	109.2	 721	inefficient
 167	   4	90.8	107.3	 721	inefficient
 168	   4	92.7	108.3	 694	inefficient
 169	   4	91.7	107.4	 702	inefficient
 170	   4	87.7	107.5	 707	inefficient
 171	   4	89.0	108.6	 697	inefficient
 172	   4	89.0	109.7	 707	inefficient
 173	   4	87.8	107.8	 706	inefficient
 174	   4	88.0	107.9	 689	inefficient
 175	   4	90.8	108.3	 716	inefficient
 176	   4	91.7	109.5	 712	inefficient
 177	   4	87.6	107.2	 726	inefficient
 178	   4	88.4	107.4	 699	inefficient
 179	   4	90.3	108.3	 710	inefficient
 180	   4	88.6	108.2	 734	inefficient
 181	   4	89.6	107.1	 721	inefficient
 182	   4	90.5	107.5	 709	inefficient
 183	   4	88.0	107.1	 719	inefficient
 184	   4	90.3	106.8	 723	inefficient
 185	   4	88.4	108.0	 719	inefficient
 186	   4	86.4	107.5	 734	inefficient
 187	   4	92.5	109.1	 715	inefficient
 188	   4	92.7	108.7	 700	inefficient
 189	   4	92.0	109.4	 695	inefficient
 190	   4	90.4	107.2	 691	inefficient
 191	   4	92.6	108.7	 715	inefficient
 192	   4	90.4	108.0	 714	inefficient
 193	   4	90.2	108.7	 717	inefficient
 194	   4	91.5	107.6	 694	inefficient
 195	   4	91.6	109.2	 705	inefficient
 196	   4	91.9	109.2	 721	inefficient
 197	   4	86.6	107.4	 721	inefficient
 198	   4	89.2	108.0	 706	inefficient
 199	   4	90.1	108.4	 720	inefficient
 200	   4	92.2	109.0	 704	inefficient
 201	   4	87.7	106.8	 713	inefficient
 202	   4	88.7	108.3	 719	inefficient
 203	   4	88.6	106.7	 707	inefficient
 204	   4	87.0	106.6	 695	inefficient
 205	   4	88.5	107.5	 726	inefficient
 206	   4	90.4	108.6	 726	inefficient
 207	   4	89.1	106.8	 714	inefficient
 208	   4	90.0	107.8	 705	inefficient
 209	   4	89.6	107.5	 712	inefficient
 210	   4	90.5	107.4	 695	inefficient
 211	   4	89.0	107.2	 699	inefficient
 212	   4	87.7	107.6	 700	inefficient
 213	   4	88.7	107.6	 700	inefficient
 214	   4	88.1	106.1	 708	inefficient
 215	   4	89.7	107.9	 701	inefficient
 216	   4	85.4	106.7	 700	inefficient
 217	   4	89.7	108.6	 720	inefficient
 218	   4	89.3	106.1	 707	inefficient
 219	   4	90.1	108.4	 719	inefficient
 220	   4	88.2	108.7	 697	inefficient
 221	1501	0.0	0.0	   0	dead
 222	   4	89.8	106.3	 699	inefficient
 223	   4	88.9	107.5	 713	inefficient
 224	   4	91.0	108.8	 712	inefficient
 225	   4	87.6	107.9	 704	inefficient
 226	   4	89.6	108.4	 692	inefficient
 227	   4	88.6	106.4	 712	inefficient
 228	   4	86.6	107.8	 709	inefficient
 229	   4	91.5	107.6	 694	inefficient
 230	   4	87.8	106.6	 705	inefficient
 231	   4	90.3	108.4	 698	inefficient
 232	   4	90.1	107.4	 716	inefficient
 233	   4	91.4	107.7	 692	inefficient
 234	   4	91.5	109.2	 702	inefficient
 235	   4	87.9	107.3	 693	inefficient
 236	   4	92.3	109.6	 699	inefficient
 237	   4	90.7	108.3	 717	inefficient
 238	   4	89.9	108.8	 699	inefficient
 239	1501	0.0	0.0	   0	dead
 240	   4	90.9	106.6	 708	inefficient
 241	   4	89.4	106.6	 716	inefficient
 242	   4	91.0	107.5	 714	inefficient
 243	   4	93.0	110.3	 738	inefficient
 244	   4	91.1	107.5	 717	inefficient
 245	1501	0.0	0.0	   0	dead
 246	   4	87.9	108.4	 725	inefficient
 247	   4	88.2	106.4	 718	inefficient
 248	   4	91.3	108.9	 723	inefficient
 249	   4	90.3	106.8	 715	inefficient
 250	   4	91.7	109.1	 723	inefficient
 251	   4	90.7	109.1	 726	inefficient
 252	   4	92.4	109.4	 740	inefficient
 253	   4	91.1	110.1	 720	inefficient
 254	1501	0.0	0.0	   0	dead
 255	1501	0.0	0.0	   0	dead
 256	   4	90.2	114.1	 747	inefficient
 257	   4	93.6	114.5	 722	inefficient
 258	   4	93.5	114.3	 732	inefficient
 259	   4	90.1	110.5	 731	inefficient
 260	   4	91.5	113.0	 725	inefficient
 261	   4	91.4	112.4	 729	inefficient
 262	   4	88.9	112.0	 734	inefficient
 263	   4	93.2	113.2	 720	inefficient
 264	   4	94.1	113.9	 727	inefficient
 265	   4	93.4	116.0	 715	inefficient
 266	   4	92.4	112.3	 739	inefficient
 267	   4	88.7	110.8	 721	inefficient
 268	   4	89.2	113.0	 733	inefficient
 269	   4	91.2	111.7	 720	inefficient
 270	   4	94.7	113.9	 716	inefficient
 271	1501	0.0	0.0	   0	dead
 272	   4	93.9	112.8	 719	inefficient
 273	   4	91.1	113.1	 714	inefficient
 274	   4	94.9	115.0	 708	inefficient
 275	   4	91.9	112.4	 716	inefficient
 276	   4	91.2	111.4	 733	inefficient
 277	   4	91.7	114.5	 732	inefficient
 278	   4	92.6	114.6	 734	inefficient
 279	   4	90.9	112.8	 711	inefficient
 280	   4	89.7	113.3	 709	inefficient
 281	   4	92.2	115.1	 712	inefficient
 282	   4	90.2	113.0	 729	inefficient
 283	   4	92.7	115.1	 731	inefficient
 284	   4	87.0	110.4	 729	inefficient
 285	   4	88.6	110.8	 720	inefficient
 286	   4	90.7	111.1	 716	inefficient
 287	   4	91.0	112.0	 713	inefficient
 288	   4	90.9	113.2	 712	inefficient
 289	   4	92.5	114.4	 707	inefficient
 290	   4	92.7	113.1	 708	inefficient
 291	   4	91.1	112.7	 727	inefficient
 292	   4	91.9	111.3	 712	inefficient
 293	   4	94.0	113.8	 723	inefficient
 294	   4	89.8	111.5	 719	inefficient
 295	   4	92.5	112.1	 709	inefficient
 296	   4	90.8	113.8	 732	inefficient
 297	   4	89.0	112.2	 739	inefficient
 298	   4	88.5	112.7	 702	inefficient
 299	   4	93.2	113.7	 725	inefficient
 300	   4	90.5	110.6	 708	inefficient
 301	   4	88.8	111.0	 713	inefficient
 302	   4	91.5	111.8	 721	inefficient
 303	   4	92.0	113.5	 718	inefficient
 304	   4	91.5	112.3	 720	inefficient
 305	   4	93.9	115.5	 719	inefficient
 306	   4	93.6	114.2	 731	inefficient
 307	   4	94.3	113.5	 713	inefficient
 308	   4	90.8	114.1	 731	inefficient
 309	   4	89.9	111.5	 718	inefficient
 310	   4	91.5	112.5	 718	inefficient
 311	   4	91.9	114.7	 730	inefficient
 312	   4	93.3	113.5	 734	inefficient
 313	   4	88.6	112.9	 730	inefficient
 314	   4	94.0	113.1	 737	inefficient
 315	   4	92.5	114.5	 736	inefficient
 316	   4	90.9	113.1	 719	inefficient
 317	   4	90.9	112.3	 741	inefficient
 318	   4	89.2	111.1	 726	inefficient
 319	   4	92.5	112.3	 733	inefficient
 320	   4	89.7	111.4	 714	inefficient
 321	   4	89.6	112.2	 718	inefficient
 322	   4	92.2	112.3	 716	inefficient
 323	   4	92.0	114.2	 708	inefficient
 324	   4	91.9	112.7	 714	inefficient
 325	   4	92.8	112.1	 724	inefficient
 326	   4	88.4	111.8	 719	inefficient
 327	   4	88.3	110.3	 712	inefficient
 328	   4	91.8	113.4	 714	inefficient
 329	   4	90.7	112.3	 703	inefficient
 330	   4	91.5	111.1	 705	inefficient
 331	   4	90.8	113.2	 739	inefficient
 332	   4	92.5	114.4	 708	inefficient
 333	   4	90.0	112.5	 721	inefficient
 334	   4	89.0	112.1	 716	inefficient
 335	   4	88.3	111.5	 725	inefficient
 336	   4	91.7	113.0	 702	inefficient
 337	   4	90.4	113.3	 700	inefficient
 338	   4	91.0	111.3	 717	inefficient
 339	   4	89.6	111.8	 719	inefficient
 340	   4	90.1	111.3	 716	inefficient
 341	   4	89.8	112.2	 718	inefficient
 342	   4	90.6	111.5	 720	inefficient
 343	   4	89.4	112.1	 730	inefficient
 344	   4	92.2	112.7	 715	inefficient
 345	   4	89.5	111.3	 732	inefficient
 346	   4	89.1	111.7	 747	inefficient
 347	   4	90.9	111.3	 730	inefficient
 348	   4	90.0	112.7	 731	inefficient
 349	   4	92.7	112.5	 713	inefficient
 350	   4	93.6	114.7	 717	inefficient
 351	   4	92.6	114.6	 715	inefficient
 352	   4	91.5	113.9	 724	inefficient
 353	   4	88.1	111.2	 739	inefficient
 354	   4	90.1	111.5	 700	inefficient
 355	   4	93.9	115.1	 717	inefficient
 356	   4	91.5	112.5	 690	inefficient
 357	   4	90.7	112.9	 724	inefficient
 358	   4	89.6	112.3	 743	inefficient
 359	   4	88.2	112.1	 729	inefficient
 360	   4	89.5	111.4	 706	inefficient
 361	   4	93.0	113.2	 719	inefficient
 362	   4	90.4	113.7	 726	inefficient
 363	   4	91.9	112.8	 694	inefficient
 364	   4	93.3	113.8	 717	inefficient
 365	   4	92.7	113.1	 711	inefficient
 366	   4	94.1	115.6	 703	inefficient
 367	   4	87.7	111.5	 710	inefficient
 368	   4	92.5	113.4	 711	inefficient
 369	   4	90.6	113.6	 716	inefficient
 370	   4	91.4	112.2	 708	inefficient
 371	   4	89.8	111.2	 710	inefficient
 372	   4	92.1	114.7	 711	inefficient
 373	   4	93.1	114.1	 700	inefficient
 374	   4	91.8	112.1	 723	inefficient
 375	   4	91.0	113.1	 707	inefficient
 376	   4	91.4	112.8	 727	inefficient
 377	   4	92.4	114.5	 722	inefficient
 378	   4	90.4	111.6	 723	inefficient
 379	   4	91.5	112.6	 717	inefficient
 380	   4	91.6	114.3	 711	inefficient
 381	   4	94.7	114.0	 710	inefficient
 382	   4	92.0	114.5	 707	inefficient
 383	   4	91.6	114.6	 713	inefficient
 384	   4	94.8	110.9	 692	inefficient
 385	   4	92.0	111.1	 697	inefficient
 386	1501	0.0	0.0	   0	dead
 387	   4	96.1	111.0	 693	inefficient
 388	1501	0.0	0.0	   0	dead
 389	   4	94.6	112.6	 694	inefficient
 390	   4	98.1	112.3	 681	inefficient
 391	1501	0.0	0.0	   0	dead
 392	   4	92.8	112.3	 697	inefficient
 393	   4	95.6	111.9	 680	inefficient
 394	   4	96.6	112.6	 678	inefficient
 395	   4	94.0	111.8	 664	inefficient
 396	   4	94.9	111.5	 686	inefficient
 397	   4	91.4	110.0	 668	inefficient
 398	1501	0.0	0.0	   0	dead
 399	   4	93.1	111.4	 679	inefficient
 400	   4	90.4	111.1	 674	inefficient
 401	   4	88.5	108.7	 693	inefficient
 402	   4	90.0	109.1	 687	inefficient
 403	   4	93.0	112.3	 692	inefficient
 404	   4	93.7	112.4	 690	inefficient
 405	   4	92.8	111.0	 688	inefficient
 406	   4	95.8	112.0	 681	inefficient
 407	   4	93.1	112.6	 694	inefficient
 408	   4	91.4	111.5	 695	inefficient
 409	   4	94.6	110.3	 692	inefficient
 410	   4	91.7	111.1	 670	inefficient
 411	   4	92.1	109.9	 667	inefficient
 412	   4	93.3	110.3	 683	inefficient
 413	   4	93.2	110.8	 670	inefficient
 414	   4	92.3	112.6	 686	inefficient
 415	   4	92.8	109.4	 679	inefficient
 416	   4	93.9	111.8	 708	inefficient
 417	   4	94.9	112.7	 677	inefficient
 418	   4	93.7	111.1	 675	inefficient
 419	   4	91.1	109.9	 687	inefficient
 420	   4	94.4	110.8	 690	inefficient
 421	   4	91.4	112.2	 681	inefficient
 422	   4	92.1	109.1	 692	inefficient
 423	   4	91.5	111.1	 686	inefficient
 424	   4	94.9	111.3	 687	inefficient
 425	   4	91.2	110.1	 684	inefficient
 426	   4	89.4	109.7	 690	inefficient
 427	   4	93.5	111.8	 680	inefficient
 428	   4	93.8	111.2	 691	inefficient
 429	   4	91.4	110.1	 668	inefficient
 430	   4	91.0	110.1	 682	inefficient
 431	   4	90.3	109.7	 685	inefficient
 432	   4	93.8	112.6	 691	inefficient
 433	   4	90.9	110.4	 679	inefficient
 434	   4	92.8	111.1	 683	inefficient
 435	   4	93.9	112.0	 686	inefficient
 436	   4	94.3	112.2	 676	inefficient
 437	   4	91.9	109.8	 697	inefficient
 438	   4	92.4	111.3	 683	inefficient
 439	   4	93.3	110.9	 676	inefficient
 440	   4	95.7	112.2	 676	inefficient
 441	   4	91.6	110.8	 692	inefficient
 442	   4	92.4	110.9	 674	inefficient
 443	   4	89.1	107.8	 677	inefficient
 444	   4	93.4	110.0	 669	inefficient
 445	   4	91.7	110.1	 679	inefficient
 446	   4	91.7	110.3	 707	inefficient
 447	1501	0.0	0.0	   0	dead
 448	   4	94.1	110.1	 677	inefficient
 449	   4	93.1	109.6	 683	inefficient
 450	   4	92.6	109.3	 683	inefficient
 451	   4	93.8	109.8	 694	inefficient
 452	   4	93.1	110.6	 691	inefficient
 453	   4	93.2	111.2	 688	inefficient
 454	   4	94.2	109.7	 687	inefficient
 455	   4	90.5	108.9	 691	inefficient
 456	   4	91.7	111.5	 686	inefficient
 457	   4	93.4	110.4	 689	inefficient
 458	   4	91.9	110.6	 705	inefficient
 459	   4	93.8	110.3	 693	inefficient
 460	   4	92.5	110.7	 680	inefficient
 461	   4	90.9	109.2	 693	inefficient
 462	   4	93.2	111.3	 693	inefficient
 463	   4	90.7	109.8	 689	inefficient
 464	   4	90.8	110.6	 689	inefficient
 465	   4	91.4	108.9	 703	inefficient
 466	   4	92.4	109.8	 675	inefficient
 467	   4	95.4	110.5	 680	inefficient
 468	   4	91.2	109.9	 686	inefficient
 469	   4	93.1	109.3	 700	inefficient
 470	   4	93.2	110.7	 691	inefficient
 471	   4	92.0	111.5	 673	inefficient
 472	   4	92.0	110.7	 687	inefficient
 473	   4	89.4	108.5	 698	inefficient
 474	   4	92.7	110.9	 688	inefficient
 475	   4	90.4	108.4	 700	inefficient
 476	   4	92.1	111.8	 681	inefficient
 477	   4	89.4	110.1	 715	inefficient
 478	   4	94.5	110.6	 698	inefficient
 479	   4	89.6	108.2	 697	inefficient
 480	   4	93.5	111.6	 687	inefficient
 481	   4	90.9	108.9	 702	inefficient
 482	   4	92.1	109.9	 686	inefficient
 483	   4	91.5	109.4	 690	inefficient
 484	   4	94.6	111.8	 677	inefficient
 485	   4	91.6	110.6	 708	inefficient
 486	   4	90.6	109.1	 687	inefficient
 487	   4	90.4	109.0	 710	inefficient
 488	   4	91.9	110.2	 721	inefficient
 489	   4	91.8	110.7	 707	inefficient
 490	   4	90.6	110.9	 698	inefficient
 491	   4	89.3	108.8	 677	inefficient
 492	   4	90.1	108.9	 701	inefficient
 493	   4	91.4	109.6	 698	inefficient
 494	   4	91.5	109.1	 682	inefficient
 495	   4	92.2	112.0	 696	inefficient
 496	   4	90.1	108.4	 690	inefficient
 497	   4	91.4	109.3	 713	inefficient
 498	   4	87.1	107.6	 714	inefficient
 499	   4	90.6	109.7	 703	inefficient
 500	   4	90.1	110.5	 714	inefficient
 501	   4	94.8	110.6	 714	inefficient
 502	   4	93.1	111.0	 699	inefficient
 503	   4	89.3	110.7	 709	inefficient
 504	   4	91.8	111.8	 709	inefficient
 505	   4	89.4	110.6	 709	inefficient
 506	   4	89.8	110.9	 699	inefficient
 507	   4	94.5	110.2	 721	inefficient
 508	   4	95.7	112.4	 714	inefficient
 509	   4	90.7	110.7	 693	inefficient
 510	1501	0.0	0.0	   0	dead
 511	   4	91.1	109.7	 688	inefficient
 512	   4	92.6	115.9	 724	inefficient
 513	   4	91.7	114.7	 731	inefficient
 514	   4	94.4	116.5	 729	inefficient
 515	   4	95.8	117.1	 722	inefficient
 516	   4	92.9	114.6	 718	inefficient
 517	   4	93.6	115.8	 724	inefficient
 518	   4	90.0	114.7	 727	inefficient
 519	   4	92.6	114.6	 742	inefficient
 520	   4	93.7	115.3	 731	inefficient
 521	   4	92.4	114.8	 719	inefficient
 522	   4	90.1	113.8	 727	inefficient
 523	   4	96.7	116.6	 726	inefficient
 524	   4	89.8	113.1	 734	inefficient
 525	   4	90.8	115.7	 725	inefficient
 526	   4	97.7	117.0	 728	inefficient
 527	   4	94.1	118.3	 720	inefficient
 528	   4	90.7	112.8	 730	inefficient
 529	   4	91.6	115.3	 734	inefficient
 530	   4	90.6	113.8	 724	inefficient
 531	   4	93.8	117.5	 734	inefficient
 532	   4	96.1	115.8	 723	inefficient
 533	   4	93.7	114.2	 728	inefficient
 534	   4	90.5	115.6	 736	inefficient
 535	   4	92.2	114.6	 726	inefficient
 536	   4	92.5	117.1	 725	inefficient
 537	   4	93.0	114.0	 724	inefficient
 538	   4	90.0	113.8	 731	inefficient
 539	   4	93.0	116.4	 715	inefficient
 540	   4	91.6	115.2	 740	inefficient
 541	   4	94.1	116.7	 733	inefficient
 542	   4	95.0	116.4	 721	inefficient
 543	   4	92.9	115.7	 716	inefficient
 544	   4	94.3	117.8	 735	inefficient
 545	   4	90.4	116.0	 746	inefficient
 546	   4	94.3	116.0	 717	inefficient
 547	   4	91.5	113.8	 728	inefficient
 548	   4	92.1	115.3	 722	inefficient
 549	   4	92.9	115.1	 726	inefficient
 550	   4	92.3	116.0	 726	inefficient
 551	   4	93.8	116.1	 736	inefficient
 552	   4	90.2	115.8	 732	inefficient
 553	   4	90.8	115.4	 729	inefficient
 554	   4	92.9	119.0	 739	inefficient
 555	   4	93.5	118.4	 729	inefficient
 556	   4	95.2	115.8	 714	inefficient
 557	   4	91.8	114.9	 729	inefficient
 558	   4	94.9	120.3	 716	inefficient
 559	   4	91.5	115.1	 734	inefficient
 560	   4	91.6	114.8	 724	inefficient
 561	   4	90.2	113.6	 720	inefficient
 562	   4	91.2	113.7	 734	inefficient
 563	   4	92.2	116.7	 738	inefficient
 564	   4	92.8	116.2	 707	inefficient
 565	   4	92.8	118.2	 726	inefficient
 566	   4	92.3	116.3	 728	inefficient
 567	   4	93.8	114.8	 732	inefficient
 568	   4	89.6	115.2	 742	inefficient
 569	   4	93.4	115.8	 728	inefficient
 570	   4	93.1	116.5	 714	inefficient
 571	   4	91.2	115.8	 734	inefficient
 572	   4	91.8	115.4	 734	inefficient
 573	   4	93.7	119.4	 721	inefficient
 574	   4	92.9	118.1	 728	inefficient
 575	   4	92.4	116.4	 712	inefficient
 576	   4	93.3	119.3	 719	inefficient
 577	   4	92.5	116.7	 729	inefficient
 578	   4	89.2	115.3	 706	inefficient
 579	   4	89.4	116.8	 696	inefficient
 580	   4	94.1	116.4	 709	inefficient
 581	   4	90.3	116.8	 717	inefficient
 582	   4	92.7	117.7	 714	inefficient
 583	   4	89.8	113.6	 721	inefficient
 584	   4	88.8	114.4	 710	inefficient
 585	   4	88.5	115.2	 717	inefficient
 586	   4	90.6	115.1	 714	inefficient
 587	   4	89.7	115.1	 728	inefficient
 588	   4	89.7	114.3	 694	inefficient
 589	   4	91.7	116.2	 695	inefficient
 590	   4	91.4	116.3	 715	inefficient
 591	   4	90.8	114.3	 697	inefficient
 592	   4	91.1	114.4	 720	inefficient
 593	   4	92.4	117.7	 696	inefficient
 594	   4	92.8	114.4	 714	inefficient
 595	   4	90.2	115.0	 716	inefficient
 596	   4	90.6	116.7	 704	inefficient
 597	   4	90.2	114.6	 729	inefficient
 598	   4	91.0	113.6	 694	inefficient
 599	   4	92.9	115.2	 704	inefficient
 600	   4	93.2	115.7	 708	inefficient
 601	   4	91.1	114.7	 713	inefficient
 602	   4	90.4	115.2	 700	inefficient
 603	   4	92.0	114.1	 703	inefficient
 604	   4	89.3	114.6	 704	inefficient
 605	   4	89.6	112.3	 703	inefficient
 606	   4	91.0	115.0	 718	inefficient
 607	   4	91.6	112.1	 718	inefficient
 608	   4	93.3	116.8	 703	inefficient
 609	   4	92.1	114.5	 698	inefficient
 610	   4	92.9	113.2	 717	inefficient
 611	   4	93.0	115.4	 708	inefficient
 612	   4	88.2	113.3	 697	inefficient
 613	   4	94.3	114.1	 688	inefficient
 614	   4	89.7	114.7	 706	inefficient
 615	   4	95.9	116.3	 691	inefficient
 616	   4	90.6	113.0	 700	inefficient
 617	   4	91.0	114.2	 709	inefficient
 618	   4	91.8	114.6	 707	inefficient
 619	   4	88.1	111.3	 717	inefficient
 620	   4	88.9	114.0	 703	inefficient
 621	   4	91.9	111.7	 708	inefficient
 622	   4	89.1	111.9	 714	inefficient
 623	   4	93.5	115.4	 702	inefficient
 624	   4	91.6	114.9	 702	inefficient
 625	   4	88.1	110.4	 716	inefficient
 626	   4	90.6	113.1	 703	inefficient
 627	   4	90.7	112.7	 706	inefficient
 628	   4	92.5	113.3	 715	inefficient
 629	   4	91.4	113.5	 717	inefficient
 630	   4	92.6	113.4	 696	inefficient
 631	   4	92.7	114.0	 704	inefficient
 632	   4	93.0	114.9	 696	inefficient
 633	   4	91.9	114.0	 703	inefficient
 634	   4	91.6	113.0	 718	inefficient
 635	   4	90.4	112.5	 706	inefficient
 636	   4	91.9	114.4	 716	inefficient
 637	   4	92.5	111.9	 717	inefficient
 638	   4	93.7	112.4	 725	inefficient
 639	   4	89.2	110.3	 710	inefficient
 640	   4	93.7	106.9	 682	inefficient
 641	   4	91.0	107.3	 697	inefficient
 642	   4	90.5	108.6	 675	inefficient
 643	   4	91.3	107.3	 684	inefficient
 644	   4	90.2	106.0	 701	inefficient
 645	   4	94.2	107.1	 682	inefficient
 646	   4	94.0	106.9	 685	inefficient
 647	   4	91.5	107.8	 699	inefficient
 648	   4	87.8	106.8	 703	inefficient
 649	   4	90.7	105.8	 694	inefficient
 650	   4	89.0	105.0	 674	inefficient
 651	   4	90.2	106.1	 685	inefficient
 652	   4	88.3	108.0	 699	inefficient
 653	   4	90.1	107.1	 693	inefficient
 654	   4	88.7	106.1	 699	inefficient
 655	   4	91.3	107.2	 693	inefficient
 656	   4	90.7	105.5	 692	inefficient
 657	   4	92.4	106.1	 683	inefficient
 658	   4	87.1	106.0	 694	inefficient
 659	   4	93.1	108.1	 691	inefficient
 660	   4	86.9	104.8	 690	inefficient
 661	   4	90.2	106.1	 683	inefficient
 662	   4	90.9	106.6	 679	inefficient
 663	   4	90.2	106.2	 694	inefficient
 664	   4	89.5	106.4	 687	inefficient
 665	   4	89.0	104.9	 689	inefficient
 666	   4	92.0	107.8	 691	inefficient
 667	   4	88.2	107.0	 698	inefficient
 668	   4	89.2	105.9	 685	inefficient
 669	   4	94.0	107.0	 704	inefficient
 670	   4	87.6	105.6	 697	inefficient
 671	   4	92.6	108.2	 677	inefficient
 672	   4	90.7	105.9	 700	inefficient
 673	   4	88.4	105.0	 681	inefficient
 674	   4	89.0	106.2	 695	inefficient
 675	   4	89.4	106.8	 706	inefficient
 676	   4	91.5	108.3	 681	inefficient
 677	   4	88.5	105.6	 689	inefficient
 678	   4	90.4	105.9	 689	inefficient
 679	   4	93.0	107.1	 682	inefficient
 680	   4	92.1	106.5	 689	inefficient
 681	   4	86.7	105.2	 711	inefficient
 682	   4	88.6	105.0	 696	inefficient
 683	   4	87.7	105.0	 689	inefficient
 684	   4	90.7	105.2	 701	inefficient
 685	   4	90.8	108.0	 692	inefficient
 686	   4	89.1	106.2	 702	inefficient
 687	   4	88.1	105.0	 707	inefficient
 688	   4	87.7	104.7	 687	inefficient
 689	   4	90.3	106.8	 685	inefficient
 690	   4	89.5	105.1	 700	inefficient
 691	   4	89.7	106.2	 703	inefficient
 692	   4	90.0	106.0	 698	inefficient
 693	   4	89.9	105.7	 712	inefficient
 694	   4	89.6	106.0	 694	inefficient
 695	   4	89.7	105.3	 698	inefficient
 696	   4	89.1	105.4	 694	inefficient
 697	   4	91.2	107.1	 689	inefficient
 698	   4	89.8	107.3	 688	inefficient
 699	   4	90.3	107.1	 689	inefficient
 700	   4	87.7	104.5	 693	inefficient
 701	   4	87.4	104.7	 683	inefficient
 702	   4	89.6	106.1	 696	inefficient
 703	   4	91.3	107.6	 695	inefficient
 704	   4	91.0	106.0	 694	inefficient
 705	   4	88.7	106.0	 693	inefficient
 706	   4	89.0	104.9	 698	inefficient
 707	   4	85.2	104.1	 700	inefficient
 708	   4	90.4	106.4	 695	inefficient
 709	   4	85.9	103.8	 697	inefficient
 710	   4	89.8	106.0	 706	inefficient
 711	   4	87.2	104.6	 695	inefficient
 712	   4	88.6	106.2	 694	inefficient
 713	   4	85.1	104.2	 687	inefficient
 714	   4	87.4	106.1	 690	inefficient
 715	   4	86.9	106.8	 702	inefficient
 716	   4	85.9	105.8	 697	inefficient
 717	   4	88.2	106.0	 688	inefficient
 718	   4	89.3	107.9	 705	inefficient
 719	   4	89.5	107.0	 707	inefficient
 720	   4	89.0	106.3	 703	inefficient
 721	   4	85.1	105.2	 682	inefficient
 722	   4	87.5	105.6	 702	inefficient
 723	   4	85.5	104.6	 682	inefficient
 724	   4	87.5	106.0	 695	inefficient
 725	   4	90.5	105.8	 724	inefficient
 726	   4	86.6	104.0	 702	inefficient
 727	   4	84.1	104.2	 703	inefficient
 728	   4	86.5	104.9	 716	inefficient
 729	   4	88.0	105.9	 715	inefficient
 730	   4	88.1	105.3	 686	inefficient
 731	   4	90.2	106.8	 705	inefficient
 732	   4	86.5	104.6	 704	inefficient
 733	   4	87.4	104.1	 716	inefficient
 734	   4	87.2	106.1	 720	inefficient
 735	   4	88.2	105.0	 720	inefficient
 736	   4	85.4	106.4	 711	inefficient
 737	   4	87.7	105.4	 720	inefficient
 738	   4	88.5	106.5	 721	inefficient
 739	   4	86.9	105.5	 726	inefficient
 740	   4	85.4	103.4	 713	inefficient
 741	   4	86.9	104.8	 705	inefficient
 742	   4	84.1	103.5	 718	inefficient
 743	   4	87.0	105.4	 700	inefficient
 744	   4	88.5	106.4	 696	inefficient
 745	   4	85.0	104.1	 724	inefficient
 746	   4	87.9	105.6	 718	inefficient
 747	   4	85.3	104.2	 696	inefficient
 748	   4	90.1	107.3	 705	inefficient
 749	   4	90.0	107.5	 701	inefficient
 750	   4	85.3	104.3	 744	inefficient
 751	   4	88.4	105.6	 716	inefficient
 752	   4	85.9	103.7	 730	inefficient
 753	   4	88.1	106.6	 753	inefficient
 754	   4	88.8	107.0	 738	inefficient
 755	   4	84.2	103.9	 739	inefficient
 756	   4	87.0	105.2	 729	inefficient
 757	   4	84.7	105.3	 740	inefficient
 758	   4	87.6	105.4	 740	inefficient
 759	   4	89.5	106.3	 718	inefficient
 760	   4	88.5	107.1	 721	inefficient
 761	   4	84.2	103.4	 736	inefficient
 762	   4	86.2	105.3	 722	inefficient
 763	   4	86.2	105.7	 739	inefficient
 764	   4	87.4	106.4	 727	inefficient
 765	   4	87.8	104.3	 718	inefficient
 766	   4	86.5	103.1	 721	inefficient
 767	   4	90.0	105.6	 697	inefficient
 768	   4	87.7	115.3	 725	inefficient
 769	   4	87.5	113.8	 691	inefficient
 770	   4	86.1	115.0	 694	inefficient
 771	   4	88.3	116.8	 694	inefficient
 772	   4	88.7	115.9	 697	inefficient
 773	   4	88.2	114.5	 708	inefficient
 774	   4	90.7	114.2	 695	inefficient
 775	1501	0.0	0.0	   0	dead
 776	   4	86.7	113.0	 718	inefficient
 777	   4	89.7	113.4	 696	inefficient
 778	   4	89.4	116.9	 687	inefficient
 779	   4	91.5	114.8	 687	inefficient
 780	   4	90.9	116.0	 695	inefficient
 781	   4	91.6	114.8	 692	inefficient
 782	1501	0.0	0.0	   0	dead
 783	   4	87.6	113.7	 693	inefficient
 784	   4	90.9	114.8	 680	inefficient
 785	   4	88.7	116.1	 692	inefficient
 786	   4	89.7	115.6	 698	inefficient
 787	   4	91.3	115.6	 684	inefficient
 788	   4	89.1	116.7	 682	inefficient
 789	   4	87.1	114.6	 682	inefficient
 790	   4	90.0	116.9	 695	inefficient
 791	   4	88.6	115.9	 684	inefficient
 792	   4	87.1	113.6	 677	inefficient
 793	   4	92.0	116.4	 678	inefficient
 794	   4	89.4	114.6	 675	inefficient
 795	   4	87.4	113.9	 693	inefficient
 796	   4	88.8	113.8	 698	inefficient
 797	   4	91.7	116.3	 688	inefficient
 798	   4	91.3	115.0	 684	inefficient
 799	   4	89.8	113.1	 708	inefficient
 800	   4	89.7	114.4	 706	inefficient
 801	   4	89.7	113.8	 682	inefficient
 802	   4	89.3	112.9	 683	inefficient
 803	   4	89.9	117.0	 685	inefficient
 804	   4	89.8	115.7	 704	inefficient
 805	   4	88.9	115.7	 683	inefficient
 806	   4	91.4	117.6	 710	inefficient
 807	   4	88.8	114.5	 690	inefficient
 808	   4	90.1	116.8	 685	inefficient
 809	   4	88.8	115.1	 683	inefficient
 810	   4	92.2	116.6	 675	inefficient
 811	   4	88.8	114.6	 678	inefficient
 812	   4	90.2	114.1	 681	inefficient
 813	   4	88.0	113.4	 683	inefficient
 814	   4	90.4	116.1	 675	inefficient
 815	   4	89.9	116.8	 679	inefficient
 816	   4	90.3	115.2	 684	inefficient
 817	   4	88.6	113.7	 689	inefficient
 818	   4	85.0	114.9	 693	inefficient
 819	   4	89.3	114.1	 679	inefficient
 820	   4	89.9	115.1	 694	inefficient
 821	   4	84.8	112.9	 682	inefficient
 822	   4	89.1	115.5	 663	inefficient
 823	   4	89.4	113.4	 686	inefficient
 824	   4	88.0	114.0	 656	inefficient
 825	   4	86.3	112.6	 672	inefficient
 826	   4	90.1	113.2	 667	inefficient
 827	   4	87.4	113.5	 687	inefficient
 828	   4	93.7	116.1	 689	inefficient
 829	   4	89.4	112.9	 695	inefficient
 830	   4	90.8	116.8	 694	inefficient
 831	   4	89.1	114.3	 671	inefficient
 832	   4	88.1	115.0	 667	inefficient
 833	   4	90.8	115.3	 682	inefficient
 834	   4	89.3	114.2	 690	inefficient
 835	   4	89.1	115.7	 683	inefficient
 836	   4	88.5	115.8	 696	inefficient
 837	   4	87.0	112.6	 713	inefficient
 838	   4	88.7	114.3	 677	inefficient
 839	   4	87.6	113.2	 694	inefficient
 840	   4	88.5	114.6	 690	inefficient
 841	   4	85.0	114.6	 698	inefficient
 842	   4	86.7	114.7	 687	inefficient
 843	   4	86.2	113.6	 701	inefficient
 844	   4	87.6	114.0	 681	inefficient
 845	   4	88.6	117.0	 685	inefficient
 846	   4	87.5	113.1	 684	inefficient
 847	   4	86.2	113.0	 690	inefficient
 848	   4	87.4	114.2	 699	inefficient
 849	   4	88.6	115.5	 688	inefficient
 850	   4	86.1	113.4	 691	inefficient
 851	   4	88.6	114.3	 691	inefficient
 852	   4	87.6	114.4	 689	inefficient
 853	   4	88.0	114.6	 687	inefficient
 854	   4	90.7	115.6	 684	inefficient
 855	   4	89.4	114.2	 689	inefficient
 856	   4	87.4	112.4	 710	inefficient
 857	   4	88.2	114.3	 684	inefficient
 858	   4	88.8	114.0	 677	inefficient
 859	   4	87.6	115.4	 700	inefficient
 860	   4	84.7	114.8	 694	inefficient
 861	   4	88.0	114.4	 690	inefficient
 862	   4	88.8	115.8	 700	inefficient
 863	   4	88.6	115.2	 686	inefficient
 864	   4	88.5	113.6	 713	inefficient
 865	   4	88.1	113.6	 713	inefficient
 866	   4	90.9	116.7	 706	inefficient
 867	   4	88.5	114.9	 709	inefficient
 868	   4	89.4	114.5	 708	inefficient
 869	   4	86.8	114.6	 707	inefficient
 870	   4	87.6	113.3	 715	inefficient
 871	   4	85.7	112.7	 708	inefficient
 872	   4	86.8	113.9	 719	inefficient
 873	   4	87.3	115.4	 729	inefficient
 874	   4	87.0	114.8	 701	inefficient
 875	   4	89.1	115.4	 705	inefficient
 876	   4	88.4	115.1	 713	inefficient
 877	   4	89.0	114.2	 710	inefficient
 878	   4	90.6	114.1	 722	inefficient
 879	   4	87.4	116.0	 698	inefficient
 880	   4	88.9	115.1	 703	inefficient
 881	   4	88.7	114.0	 711	inefficient
 882	   4	87.8	114.7	 719	inefficient
 883	   4	88.6	114.8	 727	inefficient
 884	   4	88.4	115.2	 730	inefficient
 885	   4	86.4	116.3	 736	inefficient
 886	   4	86.6	115.9	 727	inefficient
 887	   4	89.8	116.8	 723	inefficient
 888	   4	85.8	113.4	 757	inefficient
 889	   4	86.7	116.0	 746	inefficient
 890	   4	90.0	116.5	 742	inefficient
 891	   4	85.4	113.9	 752	inefficient
 892	   4	87.4	114.5	 758	inefficient
 893	   4	89.0	116.0	 757	inefficient
 894	1501	0.0	0.0	   0	dead
 895	   4	85.7	113.6	 746	inefficient
 896	   4	90.5	114.2	 782	inefficient
 897	   4	87.8	112.6	 774	inefficient
 898	   4	89.7	111.6	 779	inefficient
 899	   4	91.0	114.3	 776	inefficient
 900	   4	91.9	113.6	 773	inefficient
 901	   4	89.2	114.2	 774	inefficient
 902	   4	90.7	112.4	 773	inefficient
 903	   4	88.5	112.8	 775	inefficient
 904	   4	86.1	112.3	 766	inefficient
 905	   4	90.0	114.1	 763	inefficient
 906	   4	91.7	113.0	 741	inefficient
 907	   4	89.3	114.1	 749	inefficient
 908	   4	88.7	112.4	 752	inefficient
 909	   4	87.3	111.7	 755	inefficient
 910	   4	92.5	114.1	 772	inefficient
 911	   4	90.0	113.4	 737	inefficient
 912	   4	91.8	114.9	 733	inefficient
 913	   4	89.6	111.2	 755	inefficient
 914	   4	89.6	111.8	 738	inefficient
 915	   4	89.3	111.8	 719	inefficient
 916	   4	89.5	112.1	 717	inefficient
 917	   4	87.6	113.5	 723	inefficient
 918	   4	86.6	110.9	 736	inefficient
 919	   4	89.5	111.5	 731	inefficient
 920	   4	87.3	110.9	 721	inefficient
 921	   4	87.9	112.1	 713	inefficient
 922	   4	91.1	113.3	 714	inefficient
 923	   4	93.2	113.8	 710	inefficient
 924	   4	88.2	111.7	 719	inefficient
 925	   4	88.4	112.5	 722	inefficient
 926	   4	90.3	111.5	 693	inefficient
 927	   4	90.3	111.6	 708	inefficient
 928	   4	89.6	112.6	 710	inefficient
 929	   4	88.5	112.3	 685	inefficient
 930	   4	89.3	113.1	 698	inefficient
 931	   4	91.6	114.2	 693	inefficient
 932	   4	89.3	112.3	 710	inefficient
 933	   4	89.8	112.6	 697	inefficient
 934	   4	88.6	110.6	 681	inefficient
 935	   4	90.3	113.6	 695	inefficient
 936	   4	89.7	114.3	 710	inefficient
 937	   4	87.8	110.4	 699	inefficient
 938	   4	85.4	111.4	 699	inefficient
 939	   4	91.2	113.3	 703	inefficient
 940	   4	88.3	112.3	 697	inefficient
 941	   4	89.1	112.7	 692	inefficient
 942	   4	89.0	111.0	 691	inefficient
 943	   4	87.4	111.5	 705	inefficient
 944	   4	88.2	113.0	 701	inefficient
 945	   4	87.7	112.4	 708	inefficient
 946	   4	88.9	110.8	 677	inefficient
 947	   4	86.3	109.6	 684	inefficient
 948	   4	90.2	114.7	 720	inefficient
 949	   4	88.6	113.3	 699	inefficient
 950	   4	90.5	111.7	 693	inefficient
 951	   4	90.5	113.5	 687	inefficient
 952	   4	91.3	113.5	 697	inefficient
 953	   4	87.5	111.5	 693	inefficient
 954	   4	88.0	110.1	 691	inefficient
 955	   4	86.7	109.4	 688	inefficient
 956	   4	87.6	110.7	 702	inefficient
 957	   4	90.2	113.3	 681	inefficient
 958	   4	92.5	113.4	 700	inefficient
 959	   4	87.9	110.8	 691	inefficient
 960	   4	88.6	111.9	 700	inefficient
 961	   4	87.3	111.0	 692	inefficient
 962	   4	84.5	108.7	 710	inefficient
 963	   4	87.1	113.0	 688	inefficient
 964	   4	89.0	112.2	 686	inefficient
 965	   4	86.8	111.1	 698	inefficient
 966	   4	87.5	111.5	 703	inefficient
 967	   4	86.4	109.7	 697	inefficient
 968	   4	88.2	112.8	 688	inefficient
 969	   4	89.2	111.7	 679	inefficient
 970	   4	89.4	111.8	 694	inefficient
 971	   4	87.3	111.4	 685	inefficient
 972	   4	90.0	110.7	 696	inefficient
 973	   4	90.6	112.2	 671	inefficient
 974	   4	86.8	110.6	 672	inefficient
 975	   4	87.4	111.8	 676	inefficient
 976	   4	86.2	109.2	 694	inefficient
 977	   4	89.8	110.9	 685	inefficient
 978	   4	87.3	111.2	 672	inefficient
 979	   4	87.8	110.5	 692	inefficient
 980	   4	86.8	110.8	 673	inefficient
 981	   4	84.2	108.7	 693	inefficient
 982	   4	89.5	111.1	 681	inefficient
 983	   4	87.8	112.2	 680	inefficient
 984	   4	88.5	111.8	 693	inefficient
 985	   4	84.3	108.9	 702	inefficient
 986	   4	89.2	112.2	 709	inefficient
 987	   4	88.1	110.8	 695	inefficient
 988	   4	88.8	112.3	 674	inefficient
 989	   4	84.0	110.2	 678	inefficient
 990	   4	88.3	112.2	 684	inefficient
 991	   4	85.7	111.2	 676	inefficient
 992	   4	86.7	111.9	 686	inefficient
 993	   4	87.3	109.9	 686	inefficient
 994	   4	86.7	111.4	 691	inefficient
 995	   4	86.1	108.9	 680	inefficient
 996	   4	88.9	112.2	 682	inefficient
 997	   4	87.1	111.4	 692	inefficient
 998	   4	85.1	112.1	 687	inefficient
 999	   4	87.1	111.4	 686	inefficient
1000	   4	88.5	112.1	 708	inefficient
1001	   4	83.9	110.6	 695	inefficient
1002	   4	87.8	111.8	 686	inefficient
1003	   4	87.3	110.3	 684	inefficient
1004	   4	86.4	110.3	 682	inefficient
1005	   4	90.1	112.6	 669	inefficient
1006	   4	88.1	110.5	 693	inefficient
1007	   4	88.9	112.1	 690	inefficient
1008	   4	88.2	111.0	 690	inefficient
1009	   4	87.3	111.2	 676	inefficient
1010	   4	85.8	110.9	 683	inefficient
1011	   4	91.7	112.9	 682	inefficient
1012	   4	88.8	112.2	 677	inefficient
1013	   4	86.4	110.0	 661	inefficient
1014	   4	89.0	112.6	 691	inefficient
1015	   4	89.1	113.8	 696	inefficient
1016	   4	87.5	110.8	 671	inefficient
1017	   4	88.5	112.6	 671	inefficient
1018	   4	90.1	111.8	 670	inefficient
1019	   4	90.1	112.3	 666	inefficient
1020	   4	89.7	113.7	 695	inefficient
1021	   4	85.5	110.4	 666	inefficient
1022	   4	92.0	114.1	 676	inefficient
1023	   4	87.6	110.8	 697	inefficient
1024	1501	0.0	0.0	   0	dead
1025	   4	94.8	116.5	 698	inefficient
1026	   4	93.4	115.1	 694	inefficient
1027	   4	93.0	117.5	 703	inefficient
1028	   4	93.0	116.6	 681	inefficient
1029	   4	90.9	114.4	 701	inefficient
1030	   4	93.9	116.2	 702	inefficient
1031	   4	92.7	116.9	 683	inefficient
1032	   4	92.8	114.2	 686	inefficient
1033	   4	89.5	114.8	 693	inefficient
1034	   4	93.0	115.4	 681	inefficient
1035	   4	92.9	115.8	 691	inefficient
1036	   4	93.1	116.4	 697	inefficient
1037	   4	88.1	114.8	 691	inefficient
1038	   4	93.9	115.9	 688	inefficient
1039	   4	91.9	115.6	 699	inefficient
1040	   4	92.1	114.6	 694	inefficient
1041	   4	93.4	117.4	 689	inefficient
1042	   4	91.3	114.3	 682	inefficient
1043	   4	90.7	114.4	 709	inefficient
1044	   4	88.8	115.9	 694	inefficient
1045	   4	92.4	117.4	 683	inefficient
1046	   4	92.2	116.7	 688	inefficient
1047	   4	92.0	115.8	 676	inefficient
1048	   4	92.8	116.8	 683	inefficient
1049	   4	90.2	114.5	 677	inefficient
1050	   4	90.5	114.7	 703	inefficient
1051	   4	92.1	115.2	 683	inefficient
1052	   4	91.5	115.7	 698	inefficient
1053	   4	92.3	115.4	 699	inefficient
1054	   4	91.0	113.7	 698	inefficient
1055	   4	91.9	116.6	 690	inefficient
1056	   4	93.0	115.7	 696	inefficient
1057	   4	85.5	112.8	 691	inefficient
1058	   4	91.3	114.5	 695	inefficient
1059	   4	89.2	113.0	 693	inefficient
1060	   4	92.8	116.0	 690	inefficient
1061	   4	90.0	113.8	 687	inefficient
1062	   4	91.3	116.0	 693	inefficient
1063	   4	90.5	114.6	 691	inefficient
1064	   4	92.6	116.9	 681	inefficient
1065	   4	91.4	114.9	 697	inefficient
1066	   4	90.1	113.8	 700	inefficient
1067	   4	91.5	116.7	 704	inefficient
1068	   4	89.5	113.1	 690	inefficient
1069	   4	90.5	113.8	 695	inefficient
1070	   4	91.1	115.7	 704	inefficient
1071	   4	87.8	112.6	 700	inefficient
1072	   4	92.6	116.0	 688	inefficient
1073	   4	92.8	114.8	 706	inefficient
1074	   4	92.4	114.6	 711	inefficient
1075	   4	88.2	113.6	 704	inefficient
1076	   4	90.0	115.1	 682	inefficient
1077	   4	90.9	115.4	 695	inefficient
1078	   4	88.0	113.6	 677	inefficient
1079	   4	91.1	114.8	 693	inefficient
1080	   4	92.3	114.2	 684	inefficient
1081	   4	91.3	115.5	 693	inefficient
1082	   4	91.1	113.4	 700	inefficient
1083	   4	89.8	113.1	 701	inefficient
1084	   4	91.8	114.4	 703	inefficient
1085	   4	88.9	113.6	 709	inefficient
1086	   4	90.7	114.3	 705	inefficient
1087	   4	89.5	114.5	 697	inefficient
1088	   4	90.9	115.0	 689	inefficient
1089	   4	89.6	114.7	 705	inefficient
1090	   4	90.0	113.6	 700	inefficient
1091	   4	88.2	111.7	 701	inefficient
1092	   4	92.6	114.8	 697	inefficient
1093	   4	86.5	111.7	 714	inefficient
1094	   4	89.7	114.4	 702	inefficient
1095	   4	89.8	113.5	 700	inefficient
1096	   4	91.2	115.1	 695	inefficient
1097	   4	88.2	112.7	 694	inefficient
1098	   4	91.1	115.2	 705	inefficient
1099	   4	87.7	113.1	 724	inefficient
1100	   4	88.8	112.2	 702	inefficient
1101	   4	88.9	112.5	 703	inefficient
1102	   4	92.3	115.0	 698	inefficient
1103	   4	86.9	114.4	 706	inefficient
1104	   4	88.7	113.5	 686	inefficient
1105	   4	87.0	114.1	 715	inefficient
1106	   4	86.0	113.4	 712	inefficient
1107	   4	87.0	111.9	 707	inefficient
1108	   4	90.1	114.9	 705	inefficient
1109	   4	87.2	112.0	 713	inefficient
1110	   4	92.6	115.0	 715	inefficient
1111	   4	90.2	113.1	 706	inefficient
1112	   4	89.3	113.3	 714	inefficient
1113	   4	85.5	112.6	 710	inefficient
1114	   4	87.7	113.4	 693	inefficient
1115	   4	91.1	114.8	 690	inefficient
1116	   4	87.9	113.6	 695	inefficient
1117	   4	88.3	113.2	 698	inefficient
1118	   4	89.3	114.4	 711	inefficient
1119	   4	91.0	113.7	 705	inefficient
1120	   4	85.8	112.3	 710	inefficient
1121	   4	89.3	114.4	 705	inefficient
1122	   4	91.7	116.1	 702	inefficient
1123	   4	87.6	113.0	 686	inefficient
1124	   4	88.2	113.6	 716	inefficient
1125	   4	87.7	112.8	 720	inefficient
1126	   4	86.7	112.0	 707	inefficient
1127	   4	86.7	112.7	 703	inefficient
1128	   4	86.4	111.5	 711	inefficient
1129	   4	89.2	113.9	 708	inefficient
1130	   4	89.1	114.0	 703	inefficient
1131	   4	86.8	112.7	 699	inefficient
1132	   4	88.1	113.1	 687	inefficient
1133	   4	88.2	113.6	 707	inefficient
1134	   4	89.9	114.0	 712	inefficient
1135	   4	90.4	114.9	 691	inefficient
1136	   4	92.1	114.1	 688	inefficient
1137	   4	90.9	113.7	 703	inefficient
1138	   4	88.2	111.6	 713	inefficient
1139	   4	86.9	111.3	 705	inefficient
1140	   4	90.6	115.4	 692	inefficient
1141	1501	0.0	0.0	   0	dead
1142	   4	88.6	113.0	 714	inefficient
1143	   4	90.2	113.1	 691	inefficient
1144	   4	92.6	116.6	 704	inefficient
1145	   4	89.8	115.9	 721	inefficient
1146	   4	92.0	114.5	 703	inefficient
1147	   4	88.2	113.8	 709	inefficient
1148	   4	89.0	115.2	 717	inefficient
1149	   4	90.4	113.9	 708	inefficient
1150	   4	89.5	113.8	 701	inefficient
1151	   4	89.4	114.2	 704	inefficient
1152	   4	96.0	118.4	 714	inefficient
1153	   4	94.2	116.4	 714	inefficient
1154	   4	97.2	117.0	 705	inefficient
1155	1501	0.0	0.0	   0	dead
1156	   4	95.2	116.4	 700	inefficient
1157	   4	92.7	114.7	 712	inefficient
1158	1501	0.0	0.0	   0	dead
1159	   4	92.9	115.8	 708	inefficient
1160	   4	93.3	115.0	 702	inefficient
1161	   4	94.2	114.8	 709	inefficient
1162	   4	96.7	118.9	 702	inefficient
1163	   4	96.0	117.5	 703	inefficient
1164	   4	89.3	113.8	 732	inefficient
1165	   4	96.3	117.4	 705	inefficient
1166	   4	92.7	114.9	 729	inefficient
1167	   4	97.5	116.8	 695	inefficient
1168	   4	92.1	114.1	 724	inefficient
1169	   4	92.4	116.8	 697	inefficient
1170	   4	93.5	115.0	 705	inefficient
1171	   4	91.3	113.1	 725	inefficient
1172	   4	92.5	115.6	 708	inefficient
1173	   4	94.8	115.0	 714	inefficient
1174	   4	94.9	116.8	 709	inefficient
1175	   4	91.1	114.5	 697	inefficient
1176	   4	95.0	115.5	 689	inefficient
1177	   4	97.1	118.3	 690	inefficient
1178	   4	92.9	116.1	 717	inefficient
1179	   4	91.7	116.5	 718	inefficient
1180	   4	96.9	117.3	 715	inefficient
1181	   4	93.1	116.4	 700	inefficient
1182	   4	93.4	114.0	 714	inefficient
1183	   4	91.3	115.5	 724	inefficient
1184	   4	92.5	115.3	 693	inefficient
1185	   4	94.4	116.3	 710	inefficient
1186	   4	91.3	115.4	 711	inefficient
1187	   4	94.9	118.6	 707	inefficient
1188	   4	94.7	117.7	 710	inefficient
1189	   4	93.4	116.2	 717	inefficient
1190	   4	93.6	115.3	 711	inefficient
1191	   4	93.9	117.1	 703	inefficient
1192	   4	91.0	113.1	 701	inefficient
1193	   4	89.6	113.9	 713	inefficient
1194	   4	93.5	117.6	 712	inefficient
1195	   4	93.8	115.9	 720	inefficient
1196	   4	90.7	116.5	 705	inefficient
1197	   4	94.6	117.8	 709	inefficient
1198	   4	93.6	117.6	 702	inefficient
1199	1501	0.0	0.0	   0	dead
1200	   4	91.5	113.9	 696	inefficient
1201	   4	92.4	115.6	 728	inefficient
1202	   4	92.6	115.4	 699	inefficient
1203	   4	91.1	117.2	 719	inefficient
1204	   4	93.9	117.9	 704	inefficient
1205	   4	91.7	114.2	 709	inefficient
1206	   4	94.8	118.0	 707	inefficient
1207	   4	91.9	116.4	 725	inefficient
1208	   4	89.2	114.9	 725	inefficient
1209	   4	95.1	117.6	 697	inefficient
1210	   4	93.3	118.1	 709	inefficient
1211	   4	94.1	118.9	 712	inefficient
1212	   4	93.6	118.4	 689	inefficient
1213	   4	90.5	114.2	 709	inefficient
1214	   4	93.2	115.5	 710	inefficient
1215	1501	0.0	0.0	   0	dead
1216	   4	97.3	116.3	 699	inefficient
1217	   4	91.3	115.3	 702	inefficient
1218	   4	89.3	116.2	 706	inefficient
1219	   4	91.2	117.1	 710	inefficient
1220	   4	93.2	117.3	 713	inefficient
1221	   4	94.1	116.3	 711	inefficient
1222	   4	92.0	116.1	 699	inefficient
1223	   4	90.9	115.7	 705	inefficient
1224	   4	90.0	114.2	 698	inefficient
1225	   4	92.0	117.2	 699	inefficient
1226	   4	90.8	113.6	 710	inefficient
1227	   4	91.5	114.4	 712	inefficient
1228	   4	91.3	113.9	 704	inefficient
1229	   4	90.8	113.8	 705	inefficient
1230	   4	92.9	115.6	 697	inefficient
1231	   4	91.7	115.8	 698	inefficient
1232	   4	93.8	117.1	 704	inefficient
1233	   4	92.0	116.5	 707	inefficient
1234	   4	93.1	118.0	 711	inefficient
1235	   4	91.6	115.5	 716	inefficient
1236	   4	94.6	115.5	 695	inefficient
1237	   4	90.5	115.0	 686	inefficient
1238	   4	90.9	115.3	 700	inefficient
1239	   4	91.7	114.4	 709	inefficient
1240	   4	90.7	115.7	 702	inefficient
1241	   4	94.5	115.8	 688	inefficient
1242	   4	94.8	116.9	 705	inefficient
1243	   4	92.7	116.3	 684	inefficient
1244	   4	94.6	116.8	 699	inefficient
1245	   4	90.8	114.3	 709	inefficient
1246	1501	0.0	0.0	   0	dead
1247	   4	94.8	115.1	 693	inefficient
1248	   4	91.5	113.8	 706	inefficient
1249	1501	0.0	0.0	   0	dead
1250	   4	92.2	115.5	 693	inefficient
1251	   4	92.5	114.4	 685	inefficient
1252	   4	95.0	116.7	 677	inefficient
1253	   4	92.0	114.1	 686	inefficient
1254	   4	96.1	117.0	 681	inefficient
1255	   4	93.1	115.9	 672	inefficient
1256	   4	92.6	114.1	 676	inefficient
1257	1501	0.0	0.0	   0	dead
1258	   4	92.6	116.6	 677	inefficient
1259	   4	94.9	114.9	 678	inefficient
1260	   4	92.7	116.6	 670	inefficient
1261	   4	92.0	115.3	 674	inefficient
1262	   4	93.0	116.3	 682	inefficient
1263	   4	94.7	116.2	 668	inefficient
1264	   4	96.0	116.9	 657	inefficient
1265	   4	93.2	116.8	 671	inefficient
1266	   4	92.3	115.2	 674	inefficient
1267	   4	91.5	113.7	 704	inefficient
1268	   4	92.8	114.7	 681	inefficient
1269	   4	91.4	115.3	 664	inefficient
1270	   4	94.4	116.3	 673	inefficient
1271	   4	93.9	116.2	 669	inefficient
1272	   4	94.4	116.8	 686	inefficient
1273	   4	91.2	114.3	 666	inefficient
1274	   4	96.4	117.4	 651	inefficient
1275	   4	94.7	116.8	 693	inefficient
1276	   4	93.3	116.1	 680	inefficient
1277	   4	93.3	115.9	 683	inefficient
1278	1501	0.0	0.0	   0	dead
1279	1501	0.0	0.0	   0	dead
1280	   4	85.6	111.4	 683	inefficient
1281	1101	0.0	0.0	   0	dead
1282	   4	87.2	110.2	 688	inefficient
1283	   4	85.6	109.1	 719	inefficient
1284	   4	85.3	110.2	 712	inefficient
1285	   4	86.9	108.9	 697	inefficient
1286	   4	85.2	111.0	 686	inefficient
1287	1101	0.0	0.0	   0	dead
1288	1101	0.0	0.0	   0	dead
1289	   4	85.4	109.4	 677	inefficient
1290	   4	83.2	108.0	 689	inefficient
1291	   4	86.0	111.7	 692	inefficient
1292	   4	87.2	110.7	 698	inefficient
1293	   4	86.6	111.4	 677	inefficient
1294	   4	83.7	108.9	 720	inefficient
1295	   4	86.0	110.1	 696	inefficient
1296	   4	87.7	110.6	 702	inefficient
1297	   4	83.4	108.9	 700	inefficient
1298	   4	84.3	109.1	 685	inefficient
1299	   4	85.9	109.9	 701	inefficient
1300	   4	84.9	109.5	 699	inefficient
1301	   4	83.4	110.4	 683	inefficient
1302	   4	85.3	109.2	 689	inefficient
1303	1101	0.0	0.0	   0	dead
1304	   4	85.7	108.4	 685	inefficient
1305	   4	83.7	108.1	 698	inefficient
1306	   4	83.9	108.2	 682	inefficient
1307	   4	84.1	108.2	 710	inefficient
1308	   4	85.9	109.3	 702	inefficient
1309	   4	84.6	110.8	 674	inefficient
1310	   4	84.2	108.9	 689	inefficient
1311	   4	85.6	109.2	 696	inefficient
1312	   4	83.9	110.5	 714	inefficient
1313	   4	85.0	109.8	 690	inefficient
1314	   4	83.7	108.9	 692	inefficient
1315	   4	86.0	109.2	 681	inefficient
1316	   4	83.2	108.3	 696	inefficient
1317	   4	86.4	110.5	 681	inefficient
1318	   4	84.5	110.2	 725	inefficient
1319	   4	86.2	110.1	 683	inefficient
1320	   4	85.2	108.5	 695	inefficient
1321	   4	82.2	108.6	 688	inefficient
1322	   4	86.9	111.1	 689	inefficient
1323	   4	85.9	110.3	 693	inefficient
1324	   4	83.2	109.4	 708	inefficient
1325	   4	84.0	107.7	 691	inefficient
1326	   4	85.0	108.9	 698	inefficient
1327	   4	85.1	110.0	 695	inefficient
1328	1101	0.0	0.0	   0	dead
1329	   4	86.7	110.8	 692	inefficient
1330	   4	84.3	110.7	 704	inefficient
1331	   4	86.2	110.6	 676	inefficient
1332	   4	87.4	109.5	 704	inefficient
1333	   4	85.5	108.9	 685	inefficient
1334	   4	86.6	110.9	 687	inefficient
1335	   4	83.2	107.7	 686	inefficient
1336	   4	86.2	111.8	 705	inefficient
1337	   4	85.1	110.7	 714	inefficient
1338	   4	87.4	110.8	 698	inefficient
1339	   4	84.9	107.9	 699	inefficient
1340	   4	86.0	109.3	 688	inefficient
1341	   4	85.7	110.4	 694	inefficient
1342	   4	84.8	111.0	 687	inefficient
1343	   4	86.7	109.9	 687	inefficient
1344	   4	84.4	109.2	 690	inefficient
1345	   4	85.5	110.1	 696	inefficient
1346	   4	81.9	109.3	 706	inefficient
1347	1101	0.0	0.0	   0	dead
1348	   4	83.9	109.8	 674	inefficient
1349	   4	83.2	109.4	 698	inefficient
1350	   4	86.5	111.3	 666	inefficient
1351	   4	83.3	108.2	 700	inefficient
1352	   4	83.1	108.4	 676	inefficient
1353	1101	0.0	0.0	   0	dead
1354	   4	84.7	109.6	 671	inefficient
1355	   4	84.0	108.9	 692	inefficient
1356	   4	82.5	108.0	 682	inefficient
1357	   4	86.2	108.2	 692	inefficient
1358	   4	84.6	108.8	 675	inefficient
1359	   4	81.4	108.8	 665	inefficient
1360	   4	84.1	108.9	 697	inefficient
1361	   4	84.9	110.8	 686	inefficient
1362	   4	84.7	110.0	 675	inefficient
1363	   4	81.6	108.3	 671	inefficient
1364	   4	86.0	108.9	 679	inefficient
1365	   4	84.0	109.3	 678	inefficient
1366	   4	84.1	108.4	 686	inefficient
1367	   4	85.0	110.6	 681	inefficient
1368	   4	86.6	109.4	 690	inefficient
1369	   4	83.5	108.6	 683	inefficient
1370	   4	81.8	108.8	 684	inefficient
1371	   4	82.3	108.3	 689	inefficient
1372	   4	81.2	108.1	 678	inefficient
1373	   4	83.3	108.6	 683	inefficient
1374	   4	83.0	109.2	 703	inefficient
1375	   4	84.9	110.7	 681	inefficient
1376	   4	86.5	109.5	 703	inefficient
1377	   4	83.4	107.0	 682	inefficient
1378	   4	86.1	108.7	 696	inefficient
1379	   4	81.6	109.2	 686	inefficient
1380	1101	0.0	0.0	   0	dead
1381	   4	86.4	109.2	 677	inefficient
1382	   4	85.5	109.2	 665	inefficient
1383	   4	81.0	108.8	 665	inefficient
1384	   4	84.7	108.7	 679	inefficient
1385	   4	84.1	107.8	 674	inefficient
1386	   4	83.4	110.1	 670	inefficient
1387	   4	86.0	110.1	 670	inefficient
1388	   4	83.3	108.7	 674	inefficient
1389	   4	84.5	108.8	 676	inefficient
1390	   4	81.9	106.9	 675	inefficient
1391	   4	86.0	111.3	 679	inefficient
1392	   4	86.5	111.9	 664	inefficient
1393	   4	82.2	108.7	 665	inefficient
1394	   4	85.6	110.2	 677	inefficient
1395	   4	84.9	109.7	 678	inefficient
1396	   4	83.6	108.2	 679	inefficient
1397	   4	85.2	110.8	 666	inefficient
1398	   4	85.9	111.0	 660	inefficient
1399	   4	83.2	109.2	 684	inefficient
1400	   4	86.4	111.2	 670	inefficient
1401	   4	87.7	111.4	 666	inefficient
1402	   4	86.6	109.6	 699	inefficient
1403	   4	86.7	111.5	 649	inefficient
1404	   4	86.4	109.7	 684	inefficient
1405	   4	88.8	109.6	 680	inefficient
1406	   4	87.4	111.2	 670	inefficient
1407	   4	88.3	111.1	 674	inefficient
1408	   4	93.7	106.9	 677	inefficient
1409	   4	91.0	107.9	 674	inefficient
1410	   4	89.7	106.7	 669	inefficient
1411	   4	94.1	108.3	 672	inefficient
1412	   4	92.6	107.3	 676	inefficient
1413	   4	91.7	109.3	 668	inefficient
1414	   4	91.9	107.4	 688	inefficient
1415	   4	90.2	108.1	 694	inefficient
1416	   4	92.7	108.7	 688	inefficient
1417	   4	90.1	107.4	 701	inefficient
1418	   4	94.0	107.3	 669	inefficient
1419	   4	97.0	110.3	 693	inefficient
1420	   4	89.7	107.4	 691	inefficient
1421	   4	93.8	109.5	 679	inefficient
1422	   4	90.8	108.5	 687	inefficient
1423	   4	91.7	107.9	 672	inefficient
1424	   4	93.1	108.5	 673	inefficient
1425	   4	89.2	107.4	 687	inefficient
1426	   4	92.5	110.0	 701	inefficient
1427	   4	90.4	108.8	 671	inefficient
1428	   4	90.0	108.6	 671	inefficient
1429	   4	91.6	107.9	 674	inefficient
1430	   4	91.6	108.0	 676	inefficient
1431	   4	89.1	107.3	 683	inefficient
1432	   4	89.3	108.6	 692	inefficient
1433	   4	90.1	107.7	 688	inefficient
1434	   4	88.5	107.4	 693	inefficient
1435	   4	89.8	107.9	 680	inefficient
1436	   4	87.3	106.5	 688	inefficient
1437	   4	91.2	107.4	 678	inefficient
1438	   4	91.7	108.2	 685	inefficient
1439	   4	93.6	108.9	 693	inefficient
1440	   4	90.0	108.0	 684	inefficient
1441	   4	89.7	106.7	 686	inefficient
1442	   4	87.3	107.6	 674	inefficient
1443	   4	88.4	107.1	 700	inefficient
1444	   4	89.9	106.6	 680	inefficient
1445	   4	89.2	108.1	 682	inefficient
1446	   4	89.4	106.9	 696	inefficient
1447	   4	87.2	107.2	 678	inefficient
1448	   4	91.3	109.0	 684	inefficient
1449	   4	88.7	106.2	 691	inefficient
1450	   4	88.4	106.3	 679	inefficient
1451	   4	91.1	106.9	 679	inefficient
1452	   4	91.1	108.5	 674	inefficient
1453	   4	91.2	108.7	 696	inefficient
1454	   4	89.8	107.0	 697	inefficient
1455	   4	87.5	107.3	 680	inefficient
1456	   4	89.6	107.1	 690	inefficient
1457	   4	86.2	106.0	 692	inefficient
1458	   4	87.4	107.1	 681	inefficient
1459	   4	89.4	108.2	 681	inefficient
1460	   4	93.6	109.1	 685	inefficient
1461	   4	88.8	106.5	 677	inefficient
1462	   4	92.0	108.7	 674	inefficient
1463	   4	93.3	109.2	 666	inefficient
1464	   4	90.2	107.5	 696	inefficient
1465	   4	89.6	108.0	 687	inefficient
1466	1501	0.0	0.0	   0	dead
1467	   4	94.3	110.6	 677	inefficient
1468	   4	92.2	109.2	 690	inefficient
1469	   4	88.4	106.8	 675	inefficient
1470	   4	95.0	110.3	 674	inefficient
1471	   4	92.0	109.4	 678	inefficient
1472	   4	91.7	109.1	 665	inefficient
1473	   4	87.5	107.6	 706	inefficient
1474	   4	89.8	106.6	 700	inefficient
1475	   4	86.2	105.5	 690	inefficient
1476	   4	90.3	108.0	 689	inefficient
1477	   4	88.8	106.5	 676	inefficient
1478	   4	91.8	108.6	 683	inefficient
1479	   4	91.8	108.3	 680	inefficient
1480	   4	88.6	108.1	 675	inefficient
1481	   4	88.7	106.5	 671	inefficient
1482	   4	89.9	107.5	 675	inefficient
1483	   4	86.4	107.4	 704	inefficient
1484	   4	86.1	104.6	 670	inefficient
1485	   4	89.5	107.6	 682	inefficient
1486	   4	87.7	107.1	 693	inefficient
1487	   4	87.9	106.5	 686	inefficient
1488	   4	89.3	106.9	 672	inefficient
1489	   4	87.3	105.6	 712	inefficient
1490	   4	87.8	105.4	 677	inefficient
1491	   4	88.8	108.1	 698	inefficient
1492	   4	86.8	105.8	 681	inefficient
1493	   4	90.8	108.2	 695	inefficient
1494	   4	86.7	106.2	 691	inefficient
1495	   4	85.6	105.9	 694	inefficient
1496	   4	90.7	109.5	 683	inefficient
1497	   4	87.1	107.7	 675	inefficient
1498	   4	88.1	108.6	 703	inefficient
1499	   4	88.0	107.3	 689	inefficient
1500	   4	88.0	107.4	 689	inefficient
1501	   4	89.3	107.0	 670	inefficient
1502	1501	0.0	0.0	   0	dead
1503	   4	86.3	105.6	 684	inefficient
1504	   4	87.1	106.0	 692	inefficient
1505	   4	89.7	106.9	 675	inefficient
1506	   4	87.5	107.7	 675	inefficient
1507	   4	90.6	107.9	 678	inefficient
1508	   4	87.6	107.7	 679	inefficient
1509	   4	87.6	107.1	 700	inefficient
1510	   4	89.6	106.9	 701	inefficient
1511	   4	89.4	106.7	 699	inefficient
1512	   4	90.5	108.9	 693	inefficient
1513	   4	88.5	107.0	 685	inefficient
1514	   4	92.3	108.1	 685	inefficient
1515	   4	88.4	107.7	 686	inefficient
1516	   4	92.3	109.9	 674	inefficient
1517	   4	91.0	107.0	 686	inefficient
1518	   4	92.1	108.4	 663	inefficient
1519	   4	91.5	109.3	 676	inefficient
1520	   4	84.9	106.5	 691	inefficient
1521	   4	89.5	106.8	 676	inefficient
1522	   4	93.3	109.6	 679	inefficient
1523	   4	87.3	107.4	 678	inefficient
1524	   4	88.2	108.0	 678	inefficient
1525	   4	89.4	108.1	 686	inefficient
1526	   4	91.1	108.3	 675	inefficient
1527	   4	90.8	108.7	 663	inefficient
1528	   4	92.6	108.5	 676	inefficient
1529	   4	90.5	107.8	 694	inefficient
1530	   4	88.4	108.1	 675	inefficient
1531	   4	92.4	108.1	 682	inefficient
1532	1501	0.0	0.0	   0	dead
1533	1501	0.0	0.0	   0	dead
1534	1501	0.0	0.0	   0	dead
1535	   4	88.1	105.9	 678	inefficient
1536	   4	91.8	113.4	 690	inefficient
1537	   4	92.6	113.5	 694	inefficient
1538	   4	90.1	113.3	 707	inefficient
1539	   4	90.5	113.1	 699	inefficient
1540	   4	92.6	113.1	 694	inefficient
1541	   4	89.9	110.8	 691	inefficient
1542	   4	93.0	114.7	 682	inefficient
1543	1501	0.0	0.0	   0	dead
1544	   4	90.7	111.0	 706	inefficient
1545	   4	90.1	114.1	 701	inefficient
1546	   4	89.8	112.1	 694	inefficient
1547	   4	92.5	113.9	 693	inefficient
1548	   4	91.2	112.7	 712	inefficient
1549	   4	87.1	111.5	 684	inefficient
1550	   4	91.7	113.1	 715	inefficient
1551	   4	92.2	113.7	 679	inefficient
1552	   4	92.6	112.4	 701	inefficient
1553	   4	91.2	112.0	 717	inefficient
1554	   4	91.6	113.1	 687	inefficient
1555	   4	90.0	112.2	 693	inefficient
1556	   4	89.7	111.5	 690	inefficient
1557	   4	88.1	110.4	 721	inefficient
1558	   4	91.4	115.5	 692	inefficient
1559	   4	88.5	113.2	 696	inefficient
1560	   4	90.7	112.0	 690	inefficient
1561	   4	92.4	113.1	 698	inefficient
1562	   4	92.3	113.3	 689	inefficient
1563	   4	89.3	111.8	 697	inefficient
1564	   4	88.4	112.6	 685	inefficient
1565	   4	89.9	111.3	 682	inefficient
1566	   4	93.0	116.1	 692	inefficient
1567	   4	96.0	115.1	 693	inefficient
1568	   4	86.9	110.3	 685	inefficient
1569	   4	91.7	113.9	 704	inefficient
1570	   4	88.4	112.1	 696	inefficient
1571	   4	90.8	111.9	 692	inefficient
1572	   4	93.9	112.2	 685	inefficient
1573	   4	91.4	111.1	 691	inefficient
1574	   4	89.1	114.3	 685	inefficient
1575	   4	87.7	110.2	 694	inefficient
1576	   4	89.6	112.7	 681	inefficient
1577	   4	88.4	112.1	 695	inefficient
1578	   4	89.2	112.3	 681	inefficient
1579	   4	88.9	111.6	 701	inefficient
1580	   4	88.8	111.4	 704	inefficient
1581	   4	90.6	113.6	 688	inefficient
1582	   4	89.5	113.8	 707	inefficient
1583	   4	91.4	112.9	 685	inefficient
1584	   4	89.8	111.0	 694	inefficient
1585	   4	93.4	113.7	 681	inefficient
1586	   4	89.5	113.1	 691	inefficient
1587	   4	91.2	113.4	 679	inefficient
1588	   4	90.9	111.4	 698	inefficient
1589	   4	91.4	112.8	 682	inefficient
1590	   4	94.1	113.5	 686	inefficient
1591	   4	90.5	112.9	 680	inefficient
1592	   4	90.7	112.4	 677	inefficient
1593	   4	88.6	111.2	 699	inefficient
1594	   4	91.5	112.0	 693	inefficient
1595	   4	88.4	112.4	 691	inefficient
1596	   4	93.2	112.3	 685	inefficient
1597	   4	90.9	111.5	 675	inefficient
1598	   4	89.5	110.9	 673	inefficient
1599	   4	94.2	115.3	 682	inefficient
1600	   4	90.2	111.8	 679	inefficient
1601	   4	89.6	111.8	 673	inefficient
1602	   4	90.1	114.5	 682	inefficient
1603	   4	89.9	110.7	 682	inefficient
1604	   4	92.2	113.0	 702	inefficient
1605	   4	91.9	113.2	 683	inefficient
1606	   4	90.7	111.9	 675	inefficient
1607	   4	90.4	110.7	 685	inefficient
1608	   4	89.5	112.9	 670	inefficient
1609	   4	91.6	112.3	 674	inefficient
1610	   4	89.1	110.6	 689	inefficient
1611	   4	89.2	111.7	 690	inefficient
1612	   4	89.2	111.0	 668	inefficient
1613	   4	88.7	111.8	 688	inefficient
1614	   4	88.3	110.3	 673	inefficient
1615	   4	90.6	113.6	 688	inefficient
1616	   4	89.4	111.6	 684	inefficient
1617	   4	91.6	112.3	 664	inefficient
1618	   4	90.5	111.2	 684	inefficient
1619	   4	89.9	110.7	 683	inefficient
1620	   4	88.2	112.8	 668	inefficient
1621	   4	88.8	113.2	 669	inefficient
1622	   4	93.9	114.1	 690	inefficient
1623	   4	90.4	113.0	 677	inefficient
1624	   4	89.8	111.3	 668	inefficient
1625	   4	88.3	111.8	 688	inefficient
1626	   4	92.2	113.3	 659	inefficient
1627	   4	90.1	112.9	 678	inefficient
1628	   4	89.6	113.0	 679	inefficient
1629	   4	87.1	111.3	 688	inefficient
1630	   4	94.8	114.1	 678	inefficient
1631	   4	89.2	111.6	 681	inefficient
1632	   4	95.1	112.8	 683	inefficient
1633	   4	91.0	114.0	 666	inefficient
1634	   4	89.8	112.6	 670	inefficient
1635	   4	89.6	112.4	 681	inefficient
1636	   4	90.4	113.0	 667	inefficient
1637	   4	92.5	113.5	 682	inefficient
1638	   4	91.9	111.8	 663	inefficient
1639	   4	90.1	113.2	 683	inefficient
1640	   4	93.3	113.8	 669	inefficient
1641	   4	89.0	110.4	 664	inefficient
1642	   4	89.1	112.1	 677	inefficient
1643	   4	90.9	114.7	 676	inefficient
1644	   4	95.3	115.9	 683	inefficient
1645	   4	91.3	113.6	 684	inefficient
1646	   4	93.0	114.3	 665	inefficient
1647	   4	87.9	112.9	 679	inefficient
1648	   4	92.9	112.8	 677	inefficient
1649	   4	90.2	113.5	 682	inefficient
1650	   4	90.8	112.9	 688	inefficient
1651	   4	90.9	111.9	 664	inefficient
1652	   4	91.9	113.4	 681	inefficient
1653	   4	91.1	114.3	 676	inefficient
1654	   4	91.6	112.3	 678	inefficient
1655	   4	92.0	113.1	 672	inefficient
1656	   4	93.9	115.4	 663	inefficient
1657	   4	91.6	113.5	 672	inefficient
1658	   4	93.5	114.1	 673	inefficient
1659	   4	95.1	113.9	 674	inefficient
1660	   4	90.0	111.7	 670	inefficient
1661	   4	92.7	112.7	 676	inefficient
1662	   4	91.8	113.6	 676	inefficient
1663	   4	93.5	114.9	 674	inefficient
1664	   4	96.0	111.3	 653	inefficient
1665	   4	95.3	110.8	 643	inefficient
1666	   4	96.9	112.1	 639	inefficient
1667	1501	0.0	0.0	   0	dead
1668	   4	92.9	111.5	 648	inefficient
1669	   4	92.4	110.6	 654	inefficient
1670	   4	93.6	111.3	 666	inefficient
1671	   4	91.6	109.4	 650	inefficient
1672	   4	95.5	112.3	 653	inefficient
1673	   4	93.3	111.6	 634	inefficient
1674	   4	94.3	110.6	 664	inefficient
1675	   4	92.3	111.6	 664	inefficient
1676	   4	93.9	112.0	 649	inefficient
1677	   4	94.7	113.1	 646	inefficient
1678	   4	95.2	111.7	 660	inefficient
1679	   4	91.4	109.7	 639	inefficient
1680	   4	90.8	110.3	 655	inefficient
1681	   4	91.5	109.9	 665	inefficient
1682	   4	91.7	111.2	 643	inefficient
1683	   4	91.0	110.3	 650	inefficient
1684	   4	93.9	110.2	 647	inefficient
1685	   4	93.6	109.8	 652	inefficient
1686	   4	95.2	112.2	 661	inefficient
1687	   4	92.7	110.0	 667	inefficient
1688	   4	93.2	110.8	 663	inefficient
1689	   4	91.7	110.0	 649	inefficient
1690	   4	90.9	109.6	 675	inefficient
1691	   4	91.3	110.1	 660	inefficient
1692	   4	92.8	111.3	 660	inefficient
1693	   4	93.3	112.0	 652	inefficient
1694	   4	93.5	112.4	 662	inefficient
1695	   4	90.9	111.0	 653	inefficient
1696	   4	92.3	111.3	 654	inefficient
1697	   4	92.6	110.5	 654	inefficient
1698	   4	91.9	109.6	 663	inefficient
1699	   4	90.4	110.9	 661	inefficient
1700	   4	89.6	109.9	 659	inefficient
1701	   4	95.1	112.2	 645	inefficient
1702	   4	90.0	109.7	 647	inefficient
1703	   4	92.0	111.0	 667	inefficient
1704	   4	91.5	109.9	 671	inefficient
1705	   4	92.9	109.9	 669	inefficient
1706	   4	94.5	112.8	 657	inefficient
1707	   4	93.7	111.1	 665	inefficient
1708	   4	91.6	111.9	 657	inefficient
1709	   4	91.4	111.2	 636	inefficient
1710	   4	93.2	110.1	 649	inefficient
1711	   4	93.1	109.5	 645	inefficient
1712	   4	93.5	112.1	 647	inefficient
1713	   4	91.1	110.0	 663	inefficient
1714	   4	95.0	112.1	 655	inefficient
1715	   4	95.6	110.3	 651	inefficient
1716	   4	98.0	113.0	 660	inefficient
1717	   4	92.1	109.6	 661	inefficient
1718	   4	90.4	109.7	 669	inefficient
1719	   4	90.3	110.6	 656	inefficient
1720	   4	95.8	112.0	 651	inefficient
1721	   4	93.3	110.4	 658	inefficient
1722	   4	96.0	110.9	 650	inefficient
1723	   4	91.7	109.8	 668	inefficient
1724	   4	94.9	112.3	 646	inefficient
1725	   4	92.1	109.5	 661	inefficient
1726	   4	91.9	111.5	 674	inefficient
1727	   4	95.5	111.4	 655	inefficient
1728	   4	93.9	112.5	 662	inefficient
1729	   4	94.0	109.8	 662	inefficient
1730	   4	92.2	109.0	 655	inefficient
1731	   4	91.0	110.9	 647	inefficient
1732	   4	91.8	109.9	 652	inefficient
1733	   4	91.5	109.3	 660	inefficient
1734	   4	90.3	109.7	 664	inefficient
1735	   4	92.0	111.5	 656	inefficient
1736	   4	94.9	111.9	 650	inefficient
1737	   4	91.8	109.4	 656	inefficient
1738	   4	89.4	109.3	 653	inefficient
1739	   4	90.4	110.1	 670	inefficient
1740	   4	89.7	108.9	 664	inefficient
1741	   4	92.1	110.9	 654	inefficient
1742	   4	96.6	112.9	 653	inefficient
1743	   4	92.3	109.7	 675	inefficient
1744	   4	90.6	109.0	 651	inefficient
1745	   4	86.7	108.3	 656	inefficient
1746	   4	93.1	110.6	 663	inefficient
1747	   4	89.6	109.0	 658	inefficient
1748	   4	95.3	113.4	 667	inefficient
1749	   4	92.7	110.2	 656	inefficient
1750	   4	90.2	109.1	 693	inefficient
1751	   4	93.5	111.0	 662	inefficient
1752	   4	92.0	111.1	 666	inefficient
1753	   4	92.0	110.3	 664	inefficient
1754	   4	92.6	110.6	 645	inefficient
1755	   4	93.3	111.7	 657	inefficient
1756	   4	90.7	109.8	 655	inefficient
1757	   4	90.5	110.3	 669	inefficient
1758	   4	91.0	109.9	 667	inefficient
1759	   4	91.6	110.3	 659	inefficient
1760	   4	92.2	109.4	 666	inefficient
1761	   4	90.3	110.7	 666	inefficient
1762	   4	90.8	109.3	 663	inefficient
1763	   4	90.6	110.2	 658	inefficient
1764	   4	90.9	111.1	 665	inefficient
1765	   4	88.8	108.2	 651	inefficient
1766	   4	90.1	109.3	 667	inefficient
1767	   4	90.9	109.5	 659	inefficient
1768	   4	91.3	110.2	 656	inefficient
1769	   4	90.8	111.1	 661	inefficient
1770	   4	89.1	109.5	 657	inefficient
1771	   4	92.8	110.2	 665	inefficient
1772	   4	87.9	109.4	 668	inefficient
1773	   4	89.8	109.7	 654	inefficient
1774	   4	92.2	110.9	 655	inefficient
1775	   4	89.8	110.8	 653	inefficient
1776	   4	89.6	109.6	 658	inefficient
1777	   4	91.7	110.3	 665	inefficient
1778	   4	86.5	109.5	 668	inefficient
1779	   4	90.2	109.6	 665	inefficient
1780	   4	89.3	108.3	 648	inefficient
1781	   4	90.6	110.1	 669	inefficient
1782	   4	94.4	111.3	 669	inefficient
1783	   4	91.9	111.4	 664	inefficient
1784	   4	93.4	110.9	 661	inefficient
1785	   4	90.6	109.3	 670	inefficient
1786	   4	91.9	110.4	 672	inefficient
1787	   4	93.3	110.6	 664	inefficient
1788	1501	0.0	0.0	   0	dead
1789	   4	92.0	109.4	 660	inefficient
1790	   4	91.5	110.2	 653	inefficient
1791	   4	92.7	108.8	 665	inefficient
1792	   4	91.6	115.7	 693	inefficient
1793	   4	91.0	115.1	 687	inefficient
1794	   4	95.5	116.7	 686	inefficient
1795	   4	94.1	115.0	 675	inefficient
1796	   4	96.0	116.1	 697	inefficient
1797	   4	90.6	114.1	 692	inefficient
1798	   4	91.7	113.2	 693	inefficient
1799	   4	93.4	116.3	 670	inefficient
1800	   4	89.5	113.6	 692	inefficient
1801	   4	94.1	115.9	 677	inefficient
1802	   4	91.7	112.8	 677	inefficient
1803	   4	93.7	114.3	 694	inefficient
1804	   4	92.6	115.8	 699	inefficient
1805	   4	91.3	115.6	 685	inefficient
1806	   4	92.5	113.6	 680	inefficient
1807	   4	91.1	114.8	 677	inefficient
1808	   4	93.2	116.4	 678	inefficient
1809	   4	91.6	114.8	 679	inefficient
1810	   4	92.6	115.6	 683	inefficient
1811	   4	93.5	114.7	 693	inefficient
1812	   4	92.5	114.3	 690	inefficient
1813	   4	91.8	115.8	 694	inefficient
1814	   4	92.5	114.6	 680	inefficient
1815	   4	92.2	113.8	 680	inefficient
1816	   4	92.2	116.3	 678	inefficient
1817	   4	89.6	114.2	 691	inefficient
1818	   4	92.1	114.7	 671	inefficient
1819	   4	90.2	113.7	 685	inefficient
1820	   4	89.9	113.4	 697	inefficient
1821	   4	95.0	115.7	 685	inefficient
1822	   4	91.7	117.0	 695	inefficient
1823	   4	91.5	114.0	 679	inefficient
1824	   4	92.3	115.6	 692	inefficient
1825	   4	92.6	114.3	 685	inefficient
1826	   4	90.3	113.8	 687	inefficient
1827	   4	92.4	115.2	 699	inefficient
1828	   4	91.2	115.4	 684	inefficient
1829	   4	91.9	116.6	 693	inefficient
1830	   4	91.8	116.0	 678	inefficient
1831	   4	90.6	113.6	 671	inefficient
1832	   4	91.4	115.5	 693	inefficient
1833	   4	90.6	114.9	 685	inefficient
1834	   4	92.3	114.7	 696	inefficient
1835	   4	91.4	114.3	 684	inefficient
1836	   4	89.3	114.3	 689	inefficient
1837	   4	93.8	114.8	 692	inefficient
1838	   4	93.0	114.7	 687	inefficient
1839	   4	94.4	116.5	 671	inefficient
1840	   4	91.6	115.1	 699	inefficient
1841	   4	91.6	114.2	 681	inefficient
1842	   4	93.4	116.5	 702	inefficient
1843	   4	89.9	117.1	 674	inefficient
1844	   4	91.3	116.8	 678	inefficient
1845	   4	93.7	117.9	 683	inefficient
1846	   4	89.5	114.8	 699	inefficient
1847	   4	96.1	117.4	 681	inefficient
1848	   4	95.9	116.7	 686	inefficient
1849	   4	92.1	116.6	 674	inefficient
1850	   4	91.2	114.3	 676	inefficient
1851	   4	93.8	116.5	 678	inefficient
1852	   4	92.3	115.8	 678	inefficient
1853	   4	93.4	117.3	 687	inefficient
1854	   4	95.9	118.5	 669	inefficient
1855	   4	96.0	118.2	 683	inefficient
1856	   4	91.2	116.2	 685	inefficient
1857	   4	92.7	116.1	 691	inefficient
1858	   4	91.9	115.3	 672	inefficient
1859	   4	93.2	114.2	 684	inefficient
1860	   4	92.9	115.0	 666	inefficient
1861	   4	90.0	115.5	 675	inefficient
1862	   4	92.4	114.3	 680	inefficient
1863	   4	91.4	114.7	 672	inefficient
1864	   4	91.5	113.8	 679	inefficient
1865	   4	90.7	116.3	 689	inefficient
1866	   4	90.0	114.0	 677	inefficient
1867	   4	90.5	112.9	 675	inefficient
1868	   4	90.4	114.3	 680	inefficient
1869	   4	90.3	113.8	 662	inefficient
1870	   4	90.5	114.8	 671	inefficient
1871	   4	92.1	115.8	 675	inefficient
1872	   4	92.4	116.1	 684	inefficient
1873	   4	91.2	114.0	 697	inefficient
1874	   4	90.2	114.7	 686	inefficient
1875	   4	91.8	114.6	 661	inefficient
1876	   4	92.9	115.8	 684	inefficient
1877	   4	89.5	112.6	 688	inefficient
1878	   4	90.7	115.8	 660	inefficient
1879	   4	89.2	113.3	 670	inefficient
1880	   4	91.2	114.4	 673	inefficient
1881	   4	90.2	114.0	 665	inefficient
1882	   4	93.7	114.0	 662	inefficient
1883	   4	93.1	117.0	 678	inefficient
1884	   4	91.6	115.5	 679	inefficient
1885	   4	89.2	114.4	 665	inefficient
1886	   4	92.6	116.9	 678	inefficient
1887	   4	89.8	114.3	 664	inefficient
1888	   4	91.0	116.6	 676	inefficient
1889	   4	91.3	115.2	 668	inefficient
1890	   4	90.2	115.4	 671	inefficient
1891	   4	91.9	115.9	 667	inefficient
1892	   4	90.8	116.5	 668	inefficient
1893	   4	91.4	113.5	 675	inefficient
1894	   4	88.7	115.4	 660	inefficient
1895	   4	91.2	115.7	 669	inefficient
1896	   4	92.6	114.8	 677	inefficient
1897	   4	89.0	112.4	 674	inefficient
1898	   4	89.7	114.7	 681	inefficient
1899	   4	91.3	114.9	 673	inefficient
1900	   4	93.3	116.4	 655	inefficient
1901	   4	92.0	114.7	 666	inefficient
1902	   4	92.5	116.2	 668	inefficient
1903	   4	90.8	112.6	 682	inefficient
1904	   4	91.4	113.6	 666	inefficient
1905	   4	92.5	113.7	 664	inefficient
1906	   4	89.3	114.9	 657	inefficient
1907	   4	89.4	112.5	 657	inefficient
1908	   4	90.8	113.8	 675	inefficient
1909	   4	93.2	115.2	 675	inefficient
1910	   4	87.9	113.5	 653	inefficient
1911	   4	92.5	114.9	 663	inefficient
1912	   4	91.8	113.5	 684	inefficient
1913	   4	91.0	113.9	 662	inefficient
1914	   4	89.3	113.5	 668	inefficient
1915	   4	92.1	115.3	 672	inefficient
1916	   4	92.2	114.0	 682	inefficient
1917	   4	94.0	113.6	 676	inefficient
1918	   4	90.9	113.1	 665	inefficient
1919	   4	89.5	108.2	 669	inefficient
1920	   4	92.2	105.1	 653	inefficient
1921	   4	92.5	106.3	 648	inefficient
1922	   4	87.3	104.5	 649	inefficient
1923	   4	89.7	107.0	 654	inefficient
1924	   4	90.4	108.0	 654	inefficient
1925	   4	87.8	105.5	 648	inefficient
1926	   4	89.5	106.0	 661	inefficient
1927	   4	87.9	105.8	 648	inefficient
1928	   4	85.8	106.1	 657	inefficient
1929	   4	91.8	105.7	 651	inefficient
1930	   4	89.0	105.3	 632	inefficient
1931	   4	91.4	106.1	 651	inefficient
1932	   4	90.6	107.5	 654	inefficient
1933	   4	88.1	106.1	 644	inefficient
1934	   4	90.2	106.3	 659	inefficient
1935	   4	88.3	104.7	 646	inefficient
1936	   4	91.6	107.4	 647	inefficient
1937	   4	89.4	107.0	 648	inefficient
1938	   4	88.2	105.7	 662	inefficient
1939	   4	88.7	107.6	 663	inefficient
1940	   4	94.1	106.1	 647	inefficient
1941	   4	88.5	107.1	 641	inefficient
1942	   4	92.1	106.1	 636	inefficient
1943	   4	87.9	106.0	 648	inefficient
1944	   4	91.2	108.9	 665	inefficient
1945	   4	88.5	105.9	 651	inefficient
1946	   4	88.3	106.8	 658	inefficient
1947	   4	89.5	106.8	 661	inefficient
1948	   4	91.9	107.2	 666	inefficient
1949	   4	92.4	107.3	 639	inefficient
1950	   4	90.4	107.3	 658	inefficient
1951	   4	88.8	105.6	 658	inefficient
1952	   4	90.2	107.6	 665	inefficient
1953	   4	88.4	107.0	 644	inefficient
1954	   4	89.5	106.5	 668	inefficient
1955	   4	87.7	106.0	 644	inefficient
1956	   4	92.5	107.6	 649	inefficient
1957	   4	90.3	107.6	 658	inefficient
1958	   4	87.3	104.0	 659	inefficient
1959	   4	89.4	105.7	 675	inefficient
1960	   4	89.9	105.9	 663	inefficient
1961	   4	89.2	106.9	 644	inefficient
1962	   4	88.2	105.3	 648	inefficient
1963	   4	88.5	106.1	 654	inefficient
1964	   4	89.2	106.4	 659	inefficient
1965	   4	87.5	106.0	 647	inefficient
1966	   4	89.9	105.6	 656	inefficient
1967	   4	91.7	106.6	 666	inefficient
1968	   4	88.4	105.0	 654	inefficient
1969	   4	91.7	107.7	 649	inefficient
1970	   4	89.1	107.2	 656	inefficient
1971	   4	88.0	106.4	 646	inefficient
1972	   4	89.7	107.3	 657	inefficient
1973	   4	89.6	107.1	 634	inefficient
1974	   4	89.3	106.4	 659	inefficient
1975	   4	90.7	108.1	 664	inefficient
1976	   4	90.6	107.2	 643	inefficient
1977	   4	89.7	105.5	 643	inefficient
1978	   4	91.8	107.5	 669	inefficient
1979	   4	90.8	106.5	 659	inefficient
1980	   4	89.7	106.0	 672	inefficient
1981	   4	91.6	107.7	 642	inefficient
1982	   4	86.2	105.2	 647	inefficient
1983	   4	93.0	106.5	 658	inefficient
1984	   4	87.3	106.4	 649	inefficient
1985	   4	89.1	107.0	 659	inefficient
1986	   4	86.1	106.3	 669	inefficient
1987	   4	88.6	106.6	 641	inefficient
1988	   4	86.2	106.5	 670	inefficient
1989	   4	88.7	105.3	 672	inefficient
1990	   4	86.7	104.5	 657	inefficient
1991	   4	84.9	104.0	 651	inefficient
1992	   4	88.3	106.5	 650	inefficient
1993	   4	85.8	104.7	 655	inefficient
1994	   4	88.0	106.2	 657	inefficient
1995	   4	87.3	105.9	 658	inefficient
1996	   4	87.5	106.8	 656	inefficient
1997	   4	86.9	105.6	 659	inefficient
1998	   4	87.1	105.2	 654	inefficient
1999	   4	88.1	107.7	 654	inefficient
2000	   4	88.5	106.3	 643	inefficient
2001	   4	88.0	105.0	 642	inefficient
2002	   4	86.3	105.3	 661	inefficient
2003	   4	89.6	106.6	 664	inefficient
2004	   4	88.0	104.9	 654	inefficient
2005	   4	87.8	104.6	 653	inefficient
2006	   4	89.2	107.0	 649	inefficient
2007	   4	84.8	103.6	 647	inefficient
2008	   4	87.4	105.1	 660	inefficient
2009	   4	84.8	105.4	 661	inefficient
2010	   4	88.0	105.8	 662	inefficient
2011	   4	88.1	107.0	 651	inefficient
2012	   4	85.0	104.5	 659	inefficient
2013	   4	84.8	103.9	 654	inefficient
2014	   4	89.0	106.6	 658	inefficient
2015	   4	87.8	105.5	 645	inefficient
2016	   4	86.9	107.4	 676	inefficient
2017	   4	87.0	105.5	 650	inefficient
2018	   4	87.2	105.5	 656	inefficient
2019	   4	86.1	104.7	 652	inefficient
2020	   4	86.2	105.3	 657	inefficient
2021	   4	87.9	107.0	 660	inefficient
2022	   4	87.8	105.1	 653	inefficient
2023	   4	87.3	106.2	 634	inefficient
2024	   4	87.1	105.2	 647	inefficient
2025	   4	86.3	105.5	 660	inefficient
2026	   4	89.1	106.2	 672	inefficient
2027	   4	88.7	106.7	 644	inefficient
2028	   4	86.9	104.6	 666	inefficient
2029	   4	86.4	105.9	 643	inefficient
2030	   4	83.7	104.9	 650	inefficient
2031	   4	88.2	105.6	 647	inefficient
2032	   4	86.1	105.8	 669	inefficient
2033	   4	86.1	106.4	 668	inefficient
2034	   4	86.9	105.2	 679	inefficient
2035	   4	89.0	106.2	 653	inefficient
2036	   4	85.5	105.8	 663	inefficient
2037	   4	86.4	106.0	 662	inefficient
2038	   4	88.5	107.1	 662	inefficient
2039	   4	89.3	105.6	 642	inefficient
2040	   4	88.4	104.7	 657	inefficient
2041	   4	90.9	108.2	 658	inefficient
2042	   4	88.5	106.0	 648	inefficient
2043	   4	92.6	107.0	 648	inefficient
2044	   4	88.0	105.2	 659	inefficient
2045	   4	85.6	106.2	 664	inefficient
2046	   4	87.3	105.8	 644	inefficient
2047	   4	88.3	105.0	 649	inefficient
2048	   4	88.8	116.5	 641	inefficient
2049	   4	90.8	116.1	 659	inefficient
2050	   4	89.0	114.5	 651	inefficient
2051	   4	92.2	115.4	 648	inefficient
2052	   4	91.1	115.2	 651	inefficient
2053	   4	88.6	115.0	 626	inefficient
2054	   4	93.0	115.1	 665	inefficient
2055	   4	88.5	113.5	 647	inefficient
2056	   4	91.1	113.9	 642	inefficient
2057	   4	90.2	114.5	 647	inefficient
2058	   4	87.2	115.5	 643	inefficient
2059	   4	89.1	114.5	 655	inefficient
2060	   4	91.4	115.6	 641	inefficient
2061	   4	86.7	113.0	 652	inefficient
2062	   4	86.5	114.8	 643	inefficient
2063	   4	89.0	116.5	 637	inefficient
2064	   4	91.2	116.7	 628	inefficient
2065	   4	87.8	113.4	 640	inefficient
2066	   4	90.1	115.0	 649	inefficient
2067	   4	88.3	113.1	 637	inefficient
2068	   4	88.7	113.7	 637	inefficient
2069	   4	91.0	116.1	 629	inefficient
2070	   4	88.5	114.2	 643	inefficient
2071	   4	92.6	115.9	 649	inefficient
2072	   4	89.7	113.7	 643	inefficient
2073	   4	89.3	114.9	 644	inefficient
2074	   4	87.3	113.0	 637	inefficient
2075	   4	89.2	115.7	 656	inefficient
2076	   4	87.8	112.8	 638	inefficient
2077	   4	91.0	116.0	 668	inefficient
2078	   4	88.2	113.7	 653	inefficient
2079	   4	91.1	115.5	 636	inefficient
2080	   4	88.5	113.7	 642	inefficient
2081	   4	91.0	116.0	 654	inefficient
2082	   4	87.3	113.3	 637	inefficient
2083	   4	87.3	114.9	 627	inefficient
2084	   4	88.2	115.3	 655	inefficient
2085	   4	88.6	113.9	 661	inefficient
2086	   4	85.9	113.4	 654	inefficient
2087	   4	90.1	115.1	 643	inefficient
2088	   4	88.2	113.0	 645	inefficient
2089	   4	89.6	113.3	 649	inefficient
2090	   4	89.9	115.9	 663	inefficient
2091	   4	88.5	113.2	 647	inefficient
2092	   4	90.2	115.1	 651	inefficient
2093	   4	91.5	113.7	 639	inefficient
2094	   4	88.1	113.4	 635	inefficient
2095	   4	89.4	114.5	 647	inefficient
2096	   4	85.1	113.4	 643	inefficient
2097	   4	89.1	114.7	 644	inefficient
2098	   4	88.4	115.6	 642	inefficient
2099	   4	90.5	115.7	 668	inefficient
2100	   4	91.0	114.9	 644	inefficient
2101	   4	90.8	114.5	 639	inefficient
2102	   4	89.3	114.9	 656	inefficient
2103	   4	87.4	114.3	 636	inefficient
2104	   4	88.4	113.3	 652	inefficient
2105	   4	87.1	113.3	 658	inefficient
2106	   4	91.1	114.6	 639	inefficient
2107	   4	88.0	113.2	 650	inefficient
2108	   4	91.6	116.9	 635	inefficient
2109	   4	90.1	115.7	 646	inefficient
2110	   4	91.8	115.3	 642	inefficient
2111	   4	90.0	114.4	 629	inefficient
2112	   4	86.0	112.4	 639	inefficient
2113	   4	88.4	113.7	 645	inefficient
2114	   4	89.4	116.5	 643	inefficient
2115	   4	83.0	113.2	 621	inefficient
2116	   4	88.3	113.5	 640	inefficient
2117	   4	86.6	114.0	 637	inefficient
2118	   4	89.6	117.9	 652	inefficient
2119	   4	88.1	114.6	 631	inefficient
2120	   4	87.0	114.8	 629	inefficient
2121	   4	86.8	113.5	 640	inefficient
2122	   4	84.8	112.4	 630	inefficient
2123	   4	86.7	114.6	 622	inefficient
2124	   4	89.5	114.7	 628	inefficient
2125	   4	86.8	112.0	 648	inefficient
2126	   4	87.0	112.5	 639	inefficient
2127	   4	89.8	115.9	 634	inefficient
2128	   4	89.6	113.5	 635	inefficient
2129	   4	86.4	114.6	 634	inefficient
2130	   4	87.2	112.5	 631	inefficient
2131	   4	89.2	115.2	 621	inefficient
2132	   4	87.4	114.2	 632	inefficient
2133	   4	90.4	114.3	 630	inefficient
2134	   4	89.9	113.7	 630	inefficient
2135	   4	88.1	114.4	 644	inefficient
2136	   4	86.8	115.3	 641	inefficient
2137	   4	88.9	113.7	 648	inefficient
2138	   4	87.4	115.8	 639	inefficient
2139	   4	86.8	114.0	 635	inefficient
2140	   4	91.8	116.8	 634	inefficient
2141	   4	88.3	114.7	 628	inefficient
2142	   4	88.7	116.3	 629	inefficient
2143	   4	87.3	115.5	 633	inefficient
2144	   4	87.2	114.8	 630	inefficient
2145	   4	91.1	114.9	 635	inefficient
2146	   4	89.4	115.4	 638	inefficient
2147	   4	88.2	114.4	 631	inefficient
2148	   4	85.5	114.5	 651	inefficient
2149	   4	90.1	115.4	 621	inefficient
2150	   4	88.7	115.7	 650	inefficient
2151	   4	89.5	115.5	 650	inefficient
2152	   4	87.1	113.3	 644	inefficient
2153	   4	85.7	112.8	 639	inefficient
2154	   4	87.1	114.8	 639	inefficient
2155	   4	87.2	113.8	 659	inefficient
2156	   4	89.8	118.4	 646	inefficient
2157	   4	89.7	117.8	 642	inefficient
2158	   4	89.4	115.7	 625	inefficient
2159	   4	89.5	116.3	 644	inefficient
2160	   4	90.1	117.2	 637	inefficient
2161	   4	86.0	114.8	 660	inefficient
2162	   4	88.7	114.8	 639	inefficient
2163	   4	89.5	116.1	 649	inefficient
2164	   4	91.4	115.7	 626	inefficient
2165	   4	89.6	114.9	 636	inefficient
2166	   4	89.0	114.3	 639	inefficient
2167	   4	87.2	114.4	 629	inefficient
2168	   4	86.2	112.9	 633	inefficient
2169	   4	87.6	114.8	 636	inefficient
2170	   4	84.6	115.2	 636	inefficient
2171	   4	86.2	111.8	 632	inefficient
2172	1501	0.0	0.0	   0	dead
2173	   4	87.0	114.2	 626	inefficient
2174	   4	83.0	111.8	 651	inefficient
2175	   4	88.5	115.2	 641	inefficient
2176	   4	90.3	111.6	 674	inefficient
2177	   4	89.9	112.1	 667	inefficient
2178	   4	89.1	112.5	 686	inefficient
2179	   4	89.1	111.5	 673	inefficient
2180	   4	88.5	112.0	 677	inefficient
2181	   4	88.5	110.3	 670	inefficient
2182	   4	90.2	113.7	 664	inefficient
2183	   4	91.0	112.3	 673	inefficient
2184	   4	87.4	111.9	 658	inefficient
2185	   4	88.6	113.1	 679	inefficient
2186	   4	88.7	112.3	 656	inefficient
2187	   4	91.3	112.9	 675	inefficient
2188	   4	93.3	114.2	 665	inefficient
2189	   4	88.2	111.8	 657	inefficient
2190	   4	88.5	111.6	 672	inefficient
2191	   4	88.4	111.2	 678	inefficient
2192	   4	89.5	114.3	 674	inefficient
2193	   4	89.4	111.2	 671	inefficient
2194	   4	89.8	111.3	 677	inefficient
2195	   4	87.8	112.6	 660	inefficient
2196	   4	88.4	112.1	 677	inefficient
2197	   4	89.3	111.8	 664	inefficient
2198	   4	90.4	113.1	 652	inefficient
2199	   4	92.3	114.5	 654	inefficient
2200	   4	87.8	112.0	 665	inefficient
2201	   4	89.2	112.7	 663	inefficient
2202	   4	88.3	112.0	 663	inefficient
2203	   4	88.8	111.2	 676	inefficient
2204	   4	88.9	111.5	 653	inefficient
2205	   4	87.7	111.9	 677	inefficient
2206	   4	87.9	111.2	 683	inefficient
2207	   4	85.9	111.9	 668	inefficient
2208	   4	89.9	113.5	 665	inefficient
2209	   4	88.4	111.9	 669	inefficient
2210	   4	88.7	113.4	 677	inefficient
2211	   4	88.7	111.5	 675	inefficient
2212	   4	88.0	110.7	 667	inefficient
2213	   4	86.5	111.5	 669	inefficient
2214	   4	88.0	110.5	 678	inefficient
2215	   4	90.1	113.0	 658	inefficient
2216	   4	89.2	111.8	 663	inefficient
2217	   4	91.6	114.4	 663	inefficient
2218	   4	85.0	111.7	 673	inefficient
2219	   4	87.9	110.7	 663	inefficient
2220	   4	89.4	110.5	 679	inefficient
2221	   4	89.0	111.7	 664	inefficient
2222	   4	85.7	110.3	 672	inefficient
2223	   4	88.9	113.6	 673	inefficient
2224	   4	87.7	111.5	 671	inefficient
2225	   4	85.1	110.3	 668	inefficient
2226	   4	86.2	109.6	 656	inefficient
2227	   4	86.1	108.6	 671	inefficient
2228	   4	88.2	112.1	 660	inefficient
2229	   4	89.3	111.5	 657	inefficient
2230	   4	90.5	112.6	 664	inefficient
2231	   4	89.5	111.9	 672	inefficient
2232	   4	87.6	110.2	 669	inefficient
2233	   4	86.7	110.1	 669	inefficient
2234	   4	88.5	111.4	 652	inefficient
2235	   4	87.9	109.5	 667	inefficient
2236	   4	89.3	111.1	 663	inefficient
2237	   4	90.0	113.1	 671	inefficient
2238	   4	87.4	111.5	 658	inefficient
2239	   4	91.5	114.1	 666	inefficient
2240	   4	88.5	111.6	 672	inefficient
2241	   4	88.5	112.4	 655	inefficient
2242	   4	88.8	111.3	 667	inefficient
2243	   4	83.8	109.2	 666	inefficient
2244	   4	86.1	109.4	 663	inefficient
2245	   4	86.8	110.0	 672	inefficient
2246	   4	87.0	110.9	 647	inefficient
2247	   4	88.2	112.6	 688	inefficient
2248	   4	86.3	111.0	 653	inefficient
2249	   4	85.3	111.0	 658	inefficient
2250	   4	83.4	110.1	 683	inefficient
2251	   4	85.1	110.6	 661	inefficient
2252	   4	87.7	111.8	 647	inefficient
2253	   4	87.0	111.0	 664	inefficient
2254	   4	88.5	110.2	 657	inefficient
2255	   4	86.8	110.1	 665	inefficient
2256	   4	84.5	111.1	 662	inefficient
2257	   4	88.1	113.8	 659	inefficient
2258	   4	88.4	112.1	 662	inefficient
2259	   4	88.2	112.4	 660	inefficient
2260	   4	86.6	109.4	 662	inefficient
2261	   4	88.2	111.4	 655	inefficient
2262	   4	89.3	111.0	 656	inefficient
2263	   4	90.2	110.8	 666	inefficient
2264	   4	85.1	110.5	 653	inefficient
2265	   4	87.2	112.7	 641	inefficient
2266	   4	85.0	111.1	 660	inefficient
2267	   4	89.0	112.3	 663	inefficient
2268	   4	89.3	112.4	 664	inefficient
2269	   4	86.6	110.6	 675	inefficient
2270	   4	87.2	111.8	 660	inefficient
2271	   4	85.9	111.1	 659	inefficient
2272	   4	86.6	111.0	 670	inefficient
2273	   4	87.9	112.8	 658	inefficient
2274	   4	89.4	112.7	 659	inefficient
2275	   4	86.4	112.4	 659	inefficient
2276	   4	85.3	111.0	 664	inefficient
2277	   4	85.6	108.8	 661	inefficient
2278	   4	87.0	110.0	 648	inefficient
2279	   4	87.1	111.1	 652	inefficient
2280	   4	87.3	111.7	 655	inefficient
2281	   4	88.5	111.3	 655	inefficient
2282	   4	87.6	111.2	 659	inefficient
2283	   4	87.1	112.3	 656	inefficient
2284	   4	86.2	110.2	 656	inefficient
2285	   4	90.4	113.4	 662	inefficient
2286	   4	90.4	112.1	 666	inefficient
2287	   4	87.9	111.9	 671	inefficient
2288	   4	87.2	112.3	 682	inefficient
2289	   4	88.5	112.5	 652	inefficient
2290	   4	87.7	111.9	 671	inefficient
2291	   4	87.9	111.8	 667	inefficient
2292	   4	86.6	111.8	 678	inefficient
2293	   4	86.3	112.4	 649	inefficient
2294	   4	84.0	111.5	 678	inefficient
2295	   4	86.1	111.3	 668	inefficient
2296	   4	85.9	111.4	 653	inefficient
2297	   4	86.0	111.6	 648	inefficient
2298	   4	89.4	111.9	 663	inefficient
2299	   4	89.0	112.9	 656	inefficient
2300	   4	87.9	112.6	 673	inefficient
2301	   4	86.4	111.2	 661	inefficient
2302	   4	88.0	109.8	 663	inefficient
2303	   4	87.8	112.2	 652	inefficient
2304	   4	94.0	115.3	 691	inefficient
2305	   4	91.9	114.9	 670	inefficient
2306	   4	91.9	116.2	 700	inefficient
2307	   4	93.2	116.2	 692	inefficient
2308	   4	88.3	113.3	 682	inefficient
2309	   4	91.8	113.4	 697	inefficient
2310	   4	91.9	115.7	 673	inefficient
2311	   4	89.4	113.9	 665	inefficient
2312	   4	88.8	113.3	 675	inefficient
2313	   4	89.8	114.6	 686	inefficient
2314	   4	93.0	116.7	 677	inefficient
2315	   4	90.9	114.8	 673	inefficient
2316	   4	94.8	116.1	 682	inefficient
2317	   4	93.7	116.1	 667	inefficient
2318	   4	92.2	116.2	 668	inefficient
2319	   4	88.3	113.4	 691	inefficient
2320	   4	92.4	115.3	 688	inefficient
2321	   4	89.7	114.2	 683	inefficient
2322	   4	90.0	115.9	 687	inefficient
2323	   4	88.3	113.7	 663	inefficient
2324	   4	92.4	114.4	 682	inefficient
2325	   4	92.1	114.9	 675	inefficient
2326	   4	91.9	116.4	 683	inefficient
2327	   4	92.2	114.8	 672	inefficient
2328	   4	89.9	113.1	 685	inefficient
2329	   4	91.1	115.1	 668	inefficient
2330	   4	91.1	114.6	 672	inefficient
2331	   4	92.3	115.4	 686	inefficient
2332	   4	88.8	113.5	 694	inefficient
2333	   4	88.8	113.1	 687	inefficient
2334	   4	92.2	116.0	 679	inefficient
2335	   4	92.2	113.5	 690	inefficient
2336	   4	88.7	113.6	 681	inefficient
2337	   4	91.1	114.2	 682	inefficient
2338	   4	91.4	113.5	 682	inefficient
2339	   4	87.9	113.2	 686	inefficient
2340	   4	88.1	113.2	 680	inefficient
2341	   4	89.7	114.7	 675	inefficient
2342	   4	92.9	114.5	 686	inefficient
2343	   4	92.3	114.0	 687	inefficient
2344	   4	91.9	115.1	 697	inefficient
2345	   4	92.9	115.6	 700	inefficient
2346	   4	91.4	114.1	 682	inefficient
2347	   4	88.0	113.8	 680	inefficient
2348	   4	90.9	114.0	 678	inefficient
2349	   4	89.2	114.0	 683	inefficient
2350	   4	89.8	115.3	 696	inefficient
2351	   4	93.5	114.7	 668	inefficient
2352	   4	88.7	112.2	 683	inefficient
2353	   4	91.0	114.7	 684	inefficient
2354	   4	87.8	112.9	 671	inefficient
2355	   4	90.6	115.5	 671	inefficient
2356	   4	92.3	114.6	 668	inefficient
2357	   4	89.4	114.4	 678	inefficient
2358	   4	90.4	115.4	 700	inefficient
2359	   4	89.7	112.5	 666	inefficient
2360	   4	90.5	114.5	 683	inefficient
2361	   4	89.3	115.2	 682	inefficient
2362	1501	0.0	0.0	   0	dead
2363	   4	92.4	114.9	 692	inefficient
2364	   4	91.6	115.2	 690	inefficient
2365	   4	88.4	113.5	 699	inefficient
2366	   4	90.4	114.4	 679	inefficient
2367	   4	93.4	115.3	 677	inefficient
2368	   4	90.1	112.9	 676	inefficient
2369	   4	89.1	114.1	 684	inefficient
2370	   4	92.4	114.9	 674	inefficient
2371	   4	90.8	113.8	 685	inefficient
2372	   4	88.2	112.4	 677	inefficient
2373	   4	91.8	115.9	 684	inefficient
2374	   4	91.0	114.4	 686	inefficient
2375	   4	88.2	112.2	 680	inefficient
2376	   4	90.9	113.1	 686	inefficient
2377	   4	88.1	112.3	 683	inefficient
2378	   4	87.9	112.7	 665	inefficient
2379	   4	87.9	114.1	 695	inefficient
2380	   4	88.5	114.5	 685	inefficient
2381	   4	87.8	111.9	 672	inefficient
2382	   4	88.6	115.0	 681	inefficient
2383	   4	84.3	110.4	 681	inefficient
2384	   4	89.4	113.1	 672	inefficient
2385	   4	87.7	112.2	 670	inefficient
2386	   4	90.9	114.0	 692	inefficient
2387	   4	84.8	112.3	 677	inefficient
2388	   4	88.2	112.8	 671	inefficient
2389	   4	89.4	115.6	 675	inefficient
2390	   4	87.6	113.0	 682	inefficient
2391	   4	87.2	112.1	 685	inefficient
2392	   4	87.6	112.9	 683	inefficient
2393	   4	86.8	113.9	 674	inefficient
2394	   4	88.8	113.6	 673	inefficient
2395	   4	88.6	112.3	 680	inefficient
2396	   4	91.4	113.6	 690	inefficient
2397	4004	89.1	113.8	 859	high noise
2398	4004	85.9	110.5	 845	high noise
2399	   4	88.8	112.4	 673	inefficient
2400	4004	88.6	112.4	 835	high noise
2401	4004	88.2	112.5	 836	high noise
2402	   4	87.9	112.9	 700	inefficient
2403	   4	88.1	112.7	 667	inefficient
2404	   4	88.7	113.9	 700	inefficient
2405	   4	88.8	112.8	 688	inefficient
2406	   4	89.5	114.0	 681	inefficient
2407	   4	86.6	113.0	 684	inefficient
2408	   4	92.9	115.0	 672	inefficient
2409	   4	89.3	113.1	 682	inefficient
2410	   4	90.6	114.1	 662	inefficient
2411	   4	89.8	115.1	 685	inefficient
2412	   4	87.3	113.9	 673	inefficient
2413	   4	90.0	113.8	 662	inefficient
2414	   4	88.7	113.7	 697	inefficient
2415	   4	89.1	114.4	 677	inefficient
2416	   4	88.6	112.8	 693	inefficient
2417	   4	89.1	112.8	 682	inefficient
2418	   4	94.0	115.7	 667	inefficient
2419	   4	85.5	112.1	 671	inefficient
2420	   4	88.3	113.4	 694	inefficient
2421	   4	90.9	115.2	 674	inefficient
2422	   4	90.8	115.3	 678	inefficient
2423	   4	88.0	112.0	 682	inefficient
2424	   4	89.7	114.4	 668	inefficient
2425	   4	89.6	115.0	 698	inefficient
2426	   4	88.8	114.1	 679	inefficient
2427	   4	88.8	112.4	 683	inefficient
2428	4004	88.4	112.6	1107	high noise
2429	4004	88.8	112.1	1256	high noise
2430	4004	91.5	112.2	1106	high noise
2431	   4	92.5	114.5	 661	inefficient
2432	   4	92.7	114.0	 687	inefficient
2433	   4	97.1	115.5	 669	inefficient
2434	   4	95.9	117.1	 683	inefficient
2435	   4	95.3	116.1	 674	inefficient
2436	   4	93.6	115.1	 688	inefficient
2437	   4	94.3	116.7	 664	inefficient
2438	   4	93.3	113.8	 679	inefficient
2439	4004	93.6	116.4	 914	high noise
2440	4004	94.0	115.8	1049	high noise
2441	4004	97.1	118.0	 847	high noise
2442	   4	95.2	116.1	 679	inefficient
2443	   4	93.1	116.1	 694	inefficient
2444	   4	91.1	114.6	 673	inefficient
2445	   4	97.9	118.6	 673	inefficient
2446	   4	96.3	117.0	 672	inefficient
2447	   4	93.1	115.1	 678	inefficient
2448	   4	96.0	115.8	 679	inefficient
2449	   4	92.0	114.4	 667	inefficient
2450	   4	91.0	115.7	 670	inefficient
2451	   4	94.5	116.5	 688	inefficient
2452	   4	93.8	116.7	 689	inefficient
2453	   4	94.1	116.6	 686	inefficient
2454	   4	95.8	116.5	 683	inefficient
2455	   4	95.5	118.3	 686	inefficient
2456	   4	95.6	117.5	 666	inefficient
2457	   4	93.4	115.2	 672	inefficient
2458	   4	92.3	114.3	 665	inefficient
2459	   4	93.1	114.0	 673	inefficient
2460	   4	92.2	115.5	 686	inefficient
2461	   4	92.0	114.4	 682	inefficient
2462	   4	92.9	115.8	 692	inefficient
2463	   4	90.4	114.5	 694	inefficient
2464	   4	92.8	118.0	 657	inefficient
2465	   4	95.0	115.7	 686	inefficient
2466	   4	93.8	114.7	 685	inefficient
2467	   4	92.1	114.4	 680	inefficient
2468	   4	96.3	117.5	 677	inefficient
2469	   4	94.1	117.2	 702	inefficient
2470	   4	91.7	115.4	 686	inefficient
2471	   4	91.2	113.7	 670	inefficient
2472	   4	92.8	116.6	 694	inefficient
2473	   4	95.0	115.6	 678	inefficient
2474	   4	92.5	115.1	 698	inefficient
2475	   4	93.5	116.9	 692	inefficient
2476	   4	92.3	117.1	 692	inefficient
2477	   4	92.8	115.4	 690	inefficient
2478	   4	94.9	116.9	 677	inefficient
2479	   4	91.5	115.7	 703	inefficient
2480	1501	0.0	0.0	   0	dead
2481	   4	90.4	114.8	 692	inefficient
2482	   4	93.7	117.5	 668	inefficient
2483	   4	90.9	116.0	 675	inefficient
2484	1501	0.0	0.0	   0	dead
2485	   4	90.6	113.9	 661	inefficient
2486	   4	92.0	115.5	 691	inefficient
2487	   4	91.2	117.4	 687	inefficient
2488	   4	93.4	119.1	 687	inefficient
2489	   4	94.6	117.5	 689	inefficient
2490	   4	91.4	116.8	 687	inefficient
2491	   4	93.9	116.9	 686	inefficient
2492	   4	95.8	118.8	 685	inefficient
2493	   4	95.5	116.9	 670	inefficient
2494	   4	95.6	117.6	 678	inefficient
2495	1501	0.0	0.0	   0	dead
2496	   4	96.4	118.5	 682	inefficient
2497	   4	93.1	114.7	 686	inefficient
2498	   4	92.5	116.4	 679	inefficient
2499	   4	92.9	117.6	 670	inefficient
2500	   4	94.5	118.1	 691	inefficient
2501	   4	93.5	115.0	 687	inefficient
2502	   4	92.9	115.9	 657	inefficient
2503	   4	92.3	116.4	 674	inefficient
2504	   4	93.8	116.8	 671	inefficient
2505	   4	93.3	115.7	 682	inefficient
2506	   4	94.0	117.7	 682	inefficient
2507	   4	94.4	114.8	 678	inefficient
2508	   4	90.9	114.9	 675	inefficient
2509	   4	92.6	115.0	 682	inefficient
2510	   4	92.6	116.3	 685	inefficient
2511	   4	90.0	115.0	 687	inefficient
2512	   4	94.6	115.8	 677	inefficient
2513	   4	93.0	115.1	 676	inefficient
2514	   4	91.6	114.8	 660	inefficient
2515	   4	92.2	115.3	 677	inefficient
2516	   4	92.7	116.5	 681	inefficient
2517	   4	94.7	116.6	 676	inefficient
2518	   4	93.8	116.5	 681	inefficient
2519	   4	90.8	115.6	 669	inefficient
2520	   4	91.7	114.5	 689	inefficient
2521	   4	92.6	115.6	 678	inefficient
2522	   4	93.3	115.9	 675	inefficient
2523	   4	93.1	115.0	 683	inefficient
2524	   4	91.2	114.5	 673	inefficient
2525	   4	91.0	114.9	 668	inefficient
2526	   4	92.6	117.5	 672	inefficient
2527	   4	90.4	113.5	 680	inefficient
2528	   4	90.9	114.9	 684	inefficient
2529	   4	95.2	117.8	 668	inefficient
2530	   4	91.2	115.1	 674	inefficient
2531	   4	92.5	115.1	 671	inefficient
2532	   4	94.0	114.5	 681	inefficient
2533	   4	90.2	115.4	 669	inefficient
2534	   4	91.7	114.7	 666	inefficient
2535	   4	93.4	115.5	 663	inefficient
2536	   4	92.9	115.6	 679	inefficient
2537	   4	92.5	115.5	 685	inefficient
2538	   4	91.0	114.4	 652	inefficient
2539	   4	93.4	114.7	 664	inefficient
2540	   4	91.8	114.1	 675	inefficient
2541	   4	92.6	115.6	 664	inefficient
2542	   4	92.6	115.0	 657	inefficient
2543	   4	92.6	115.4	 658	inefficient
2544	   4	91.8	114.3	 655	inefficient
2545	   4	95.3	115.6	 674	inefficient
2546	   4	90.0	114.6	 663	inefficient
2547	   4	93.3	116.4	 685	inefficient
2548	   4	93.2	116.1	 663	inefficient
2549	   4	89.2	111.3	 668	inefficient
2550	   4	94.4	116.9	 664	inefficient
2551	   4	90.8	114.6	 682	inefficient
2552	   4	92.7	114.9	 658	inefficient
2553	   4	93.3	115.8	 686	inefficient
2554	   4	92.2	113.2	 689	inefficient
2555	   4	94.4	114.8	 679	inefficient
2556	   4	92.5	116.1	 670	inefficient
2557	   4	93.3	115.2	 668	inefficient
2558	   4	94.0	113.5	 691	inefficient
2559	   4	93.3	112.9	 655	inefficient
