#chan	code	gain	vt50	innse	comment
   0	   0	82.1	150.7	 775	OK
   1	   0	83.0	152.4	 815	OK
   2	   0	82.1	151.8	 823	OK
   3	   0	83.2	156.3	 802	OK
   4	   0	82.4	153.8	 813	OK
   5	   0	80.7	150.1	 829	OK
   6	   0	80.3	146.8	 813	OK
   7	   0	80.9	149.8	 822	OK
   8	   0	81.1	151.8	 804	OK
   9	   0	80.7	150.3	 802	OK
  10	   0	82.9	155.1	 805	OK
  11	   0	80.0	148.4	 823	OK
  12	   0	81.7	148.5	 813	OK
  13	   0	81.6	152.0	 812	OK
  14	   0	82.3	150.0	 811	OK
  15	   0	80.7	151.1	 803	OK
  16	   0	80.8	151.0	 805	OK
  17	   0	80.5	149.4	 805	OK
  18	   0	83.2	154.9	 818	OK
  19	1101	0.0	0.0	   0	dead
  20	   0	81.6	151.7	 846	OK
  21	1101	0.0	0.0	   0	dead
  22	   0	80.9	149.9	 823	OK
  23	   0	81.7	149.9	 839	OK
  24	   0	80.7	151.3	 843	OK
  25	   0	79.4	145.8	 841	OK
  26	   0	81.2	152.0	 834	OK
  27	   0	80.6	150.1	 840	OK
  28	   0	80.1	148.2	 829	OK
  29	   0	79.6	146.6	 863	OK
  30	   0	80.9	149.9	 845	OK
  31	   0	80.0	149.7	 839	OK
  32	   0	81.2	151.9	 833	OK
  33	1101	0.0	0.0	   0	dead
  34	   0	82.0	152.2	 858	OK
  35	   0	80.4	150.5	 855	OK
  36	   0	80.6	150.3	 863	OK
  37	   0	80.3	149.2	 847	OK
  38	1101	0.0	0.0	   0	dead
  39	1101	0.0	0.0	   0	dead
  40	   0	81.1	149.8	 877	OK
  41	1101	0.0	0.0	   0	dead
  42	1101	0.0	0.0	   0	dead
  43	   0	79.9	147.7	 866	OK
  44	   0	79.3	147.0	 887	OK
  45	   0	82.6	154.1	 861	OK
  46	   0	79.3	146.6	 937	OK
  47	4000	78.9	146.4	1186	high noise
  48	4000	83.4	154.5	1124	high noise
  49	   0	82.0	151.7	 878	OK
  50	4000	81.3	149.8	1087	high noise
  51	4000	81.2	152.5	1099	high noise
  52	   0	80.6	149.1	 879	OK
  53	4000	80.6	147.5	1157	high noise
  54	4000	81.2	148.9	1398	high noise
  55	4000	81.4	147.2	1440	high noise
  56	4000	81.2	147.8	1457	high noise
  57	4000	80.5	146.9	1222	high noise
  58	4000	82.6	153.1	1102	high noise
  59	4000	82.3	153.6	1109	high noise
  60	4000	81.9	153.5	1035	high noise
  61	4000	80.8	150.1	1054	high noise
  62	   0	83.4	154.1	 885	OK
  63	   0	83.5	155.9	 871	OK
  64	   0	83.3	155.1	 865	OK
  65	1101	0.0	0.0	   0	dead
  66	1101	0.0	0.0	   0	dead
  67	   0	81.5	150.2	 868	OK
  68	   0	82.3	154.2	 874	OK
  69	4000	80.2	146.6	1038	high noise
  70	4000	82.1	151.5	1073	high noise
  71	   0	81.2	151.2	 865	OK
  72	4000	82.9	153.9	 959	high noise
  73	4000	79.3	148.3	 968	high noise
  74	   0	81.2	150.6	 897	OK
  75	   0	80.6	148.9	 907	OK
  76	   0	80.3	149.3	 930	OK
  77	   0	81.5	151.1	 923	OK
  78	   0	81.2	152.2	 916	OK
  79	   0	83.8	154.0	 872	OK
  80	4000	78.4	146.3	1183	high noise
  81	4000	79.6	146.3	1172	high noise
  82	   0	82.1	151.7	 870	OK
  83	4000	80.5	150.5	1031	high noise
  84	4000	80.9	149.0	1013	high noise
  85	   0	79.5	148.0	 881	OK
  86	   0	82.4	152.7	 940	OK
  87	4000	81.0	150.4	1198	high noise
  88	4000	81.5	149.8	1187	high noise
  89	   0	82.4	150.3	 887	OK
  90	   0	80.5	149.7	 893	OK
  91	   0	80.2	148.3	 893	OK
  92	   0	81.1	151.5	 883	OK
  93	   0	81.6	150.1	 888	OK
  94	   0	82.5	153.6	 887	OK
  95	   0	80.2	149.3	 900	OK
  96	   0	80.5	149.1	 907	OK
  97	   0	78.3	146.3	 891	OK
  98	   0	81.4	149.4	 894	OK
  99	   0	80.8	150.4	 902	OK
 100	   0	81.5	151.7	 885	OK
 101	   0	79.9	149.2	 877	OK
 102	   0	80.9	148.6	 900	OK
 103	   0	80.6	150.9	 901	OK
 104	1101	0.0	0.0	   0	dead
 105	1101	0.0	0.0	   0	dead
 106	   0	82.8	152.8	 899	OK
 107	1101	0.0	0.0	   0	dead
 108	1101	0.0	0.0	   0	dead
 109	   0	83.0	153.7	 908	OK
 110	   0	81.4	149.5	 901	OK
 111	1101	0.0	0.0	   0	dead
 112	   0	80.9	149.4	 911	OK
 113	   0	81.2	150.8	 908	OK
 114	   0	80.2	147.2	 895	OK
 115	   0	79.9	149.8	 894	OK
 116	   0	80.0	147.6	 905	OK
 117	   0	81.3	151.1	 887	OK
 118	   0	81.0	151.2	 889	OK
 119	   0	82.5	153.7	 891	OK
 120	   0	81.4	150.9	 890	OK
 121	   0	79.8	149.3	 898	OK
 122	   0	81.8	152.4	 898	OK
 123	   0	80.4	150.0	 899	OK
 124	   0	80.7	149.7	 905	OK
 125	   0	81.7	150.9	 896	OK
 126	   0	81.6	151.1	 885	OK
 127	   0	81.2	151.8	 889	OK
 128	   0	83.5	155.5	 866	OK
 129	   0	79.3	149.1	 882	OK
 130	   0	83.3	156.2	 877	OK
 131	   0	81.8	153.4	 863	OK
 132	   0	82.2	152.9	 867	OK
 133	   0	81.1	151.8	 860	OK
 134	   0	80.0	148.5	 865	OK
 135	   0	81.8	151.7	 865	OK
 136	   0	78.3	147.8	 877	OK
 137	   0	83.1	153.8	 868	OK
 138	   0	82.2	152.0	 865	OK
 139	   0	79.6	149.2	 875	OK
 140	   0	80.1	152.5	 863	OK
 141	   0	80.2	151.8	 870	OK
 142	   0	82.2	152.7	 869	OK
 143	   0	79.7	150.9	 860	OK
 144	   0	81.7	151.5	 872	OK
 145	   0	81.8	151.8	 871	OK
 146	   0	79.9	147.9	 874	OK
 147	   0	80.9	150.9	 862	OK
 148	   0	80.0	148.6	 860	OK
 149	   0	81.8	152.5	 863	OK
 150	   0	81.8	151.0	 876	OK
 151	   0	81.3	150.0	 861	OK
 152	   0	81.8	154.2	 855	OK
 153	   0	80.7	150.4	 873	OK
 154	   0	82.5	152.5	 878	OK
 155	   0	82.2	151.5	 861	OK
 156	   0	83.6	156.5	 860	OK
 157	   0	79.7	148.8	 868	OK
 158	   0	80.7	149.6	 856	OK
 159	   0	84.2	156.0	 864	OK
 160	   0	81.9	152.1	 856	OK
 161	   0	82.2	151.1	 861	OK
 162	   0	80.1	150.2	 851	OK
 163	   0	80.4	149.5	 859	OK
 164	   0	80.9	149.8	 864	OK
 165	   0	81.8	152.1	 863	OK
 166	   0	81.0	150.2	 859	OK
 167	   0	78.9	149.0	 860	OK
 168	   0	81.3	151.4	 851	OK
 169	   0	81.6	153.7	 877	OK
 170	   0	81.4	150.7	 862	OK
 171	   0	80.2	149.0	 851	OK
 172	   0	80.4	148.3	 855	OK
 173	   0	82.5	152.5	 847	OK
 174	   0	82.0	151.9	 857	OK
 175	   0	80.3	151.6	 856	OK
 176	   0	80.7	150.5	 864	OK
 177	   0	79.2	149.4	 860	OK
 178	   0	83.0	156.5	 832	OK
 179	   0	82.0	151.6	 863	OK
 180	   0	81.0	150.4	 840	OK
 181	   0	81.8	151.4	 835	OK
 182	   0	81.9	153.1	 845	OK
 183	   0	81.1	152.9	 846	OK
 184	   0	82.1	151.6	 854	OK
 185	   0	82.4	154.1	 838	OK
 186	   0	82.4	155.4	 845	OK
 187	   0	82.3	154.3	 824	OK
 188	   0	81.1	148.7	 850	OK
 189	   0	81.4	152.6	 833	OK
 190	   0	80.8	153.4	 847	OK
 191	   0	81.1	151.4	 833	OK
 192	   0	82.3	156.6	 839	OK
 193	   0	79.7	148.8	 843	OK
 194	   0	81.7	151.7	 850	OK
 195	   0	82.1	154.2	 846	OK
 196	   0	79.5	149.0	 847	OK
 197	   0	79.5	149.6	 836	OK
 198	   0	80.8	150.2	 863	OK
 199	   0	81.6	152.4	 851	OK
 200	   0	81.0	150.2	 846	OK
 201	   0	80.0	150.7	 834	OK
 202	   0	78.7	146.2	 848	OK
 203	   0	79.5	149.1	 848	OK
 204	   0	78.9	148.9	 841	OK
 205	   0	80.7	151.7	 833	OK
 206	   0	79.4	147.2	 841	OK
 207	   0	79.5	148.8	 839	OK
 208	   0	78.8	145.7	 844	OK
 209	   0	81.9	151.7	 840	OK
 210	   0	79.1	146.5	 840	OK
 211	   0	79.3	148.8	 837	OK
 212	   0	79.8	148.1	 840	OK
 213	   0	80.3	150.7	 859	OK
 214	   0	79.6	149.2	 846	OK
 215	   0	78.1	146.1	 838	OK
 216	   0	80.4	151.0	 831	OK
 217	   0	79.0	146.3	 854	OK
 218	   0	79.6	148.5	 846	OK
 219	   0	81.2	152.8	 821	OK
 220	   0	79.2	148.3	 836	OK
 221	   0	80.8	150.2	 861	OK
 222	   0	79.9	148.3	 843	OK
 223	   0	81.4	153.6	 837	OK
 224	   0	80.2	149.6	 881	OK
 225	   0	80.4	149.1	 852	OK
 226	   0	82.6	154.1	 850	OK
 227	   0	82.4	151.2	 836	OK
 228	   0	80.4	149.9	 830	OK
 229	   0	78.1	145.2	 836	OK
 230	   0	81.1	152.0	 854	OK
 231	   0	80.3	150.1	 852	OK
 232	   0	81.9	152.0	 836	OK
 233	   0	81.0	150.8	 855	OK
 234	   0	80.5	149.4	 833	OK
 235	   0	78.2	147.4	 856	OK
 236	   0	81.2	151.4	 846	OK
 237	   0	80.5	150.4	 841	OK
 238	   0	81.4	154.2	 851	OK
 239	   0	80.2	151.5	 859	OK
 240	   0	81.1	150.0	 851	OK
 241	   0	78.5	149.1	 841	OK
 242	   0	80.0	148.7	 869	OK
 243	   0	82.0	151.0	 864	OK
 244	   0	83.2	156.5	 843	OK
 245	   0	79.2	149.5	 851	OK
 246	   0	81.5	150.5	 864	OK
 247	   0	83.2	155.2	 860	OK
 248	   0	79.9	151.4	 854	OK
 249	   0	80.7	150.0	 841	OK
 250	   0	79.9	147.8	 847	OK
 251	   0	80.0	151.7	 857	OK
 252	   0	81.6	150.4	 865	OK
 253	   0	79.8	150.6	 866	OK
 254	   0	80.8	151.1	 859	OK
 255	   0	80.7	151.1	 872	OK
 256	   0	79.7	148.7	 844	OK
 257	   0	80.8	150.2	 846	OK
 258	   0	81.9	152.5	 851	OK
 259	   0	83.2	151.0	 859	OK
 260	   0	80.2	148.2	 862	OK
 261	   0	82.5	150.4	 838	OK
 262	   0	82.3	152.7	 835	OK
 263	   0	80.3	149.2	 845	OK
 264	   0	80.7	149.4	 850	OK
 265	   0	79.8	149.5	 852	OK
 266	   0	81.3	151.0	 827	OK
 267	   0	80.8	149.3	 839	OK
 268	   0	82.7	153.7	 829	OK
 269	   0	80.3	149.2	 831	OK
 270	   0	79.1	145.6	 858	OK
 271	   0	78.4	147.7	 847	OK
 272	   0	78.4	146.3	 846	OK
 273	   0	80.5	149.8	 849	OK
 274	   0	79.5	149.4	 860	OK
 275	   0	80.5	149.8	 850	OK
 276	   0	79.9	146.1	 862	OK
 277	   0	79.0	148.4	 859	OK
 278	   0	82.0	151.8	 840	OK
 279	   0	78.6	147.2	 837	OK
 280	   0	78.9	145.6	 849	OK
 281	   0	81.6	152.3	 855	OK
 282	   0	81.7	153.9	 835	OK
 283	   0	80.2	148.2	 856	OK
 284	   0	79.6	147.4	 865	OK
 285	   0	79.7	147.9	 853	OK
 286	   0	79.7	147.1	 838	OK
 287	   0	79.8	149.4	 859	OK
 288	   0	79.3	145.1	 842	OK
 289	   0	78.1	143.7	 848	OK
 290	   0	79.7	149.0	 843	OK
 291	   0	78.7	146.2	 849	OK
 292	   0	81.4	150.7	 846	OK
 293	   0	81.6	151.9	 845	OK
 294	   0	80.5	148.6	 844	OK
 295	   0	79.5	148.0	 848	OK
 296	   0	79.8	147.4	 849	OK
 297	   0	79.2	149.2	 843	OK
 298	   0	79.7	148.0	 848	OK
 299	   0	76.9	143.7	 860	OK
 300	   0	78.8	147.8	 857	OK
 301	   0	79.2	148.4	 834	OK
 302	   0	79.4	145.9	 842	OK
 303	   0	79.4	146.9	 852	OK
 304	   0	80.4	151.3	 854	OK
 305	   0	77.6	144.3	 852	OK
 306	   0	80.0	148.9	 870	OK
 307	   0	80.0	149.2	 861	OK
 308	   0	80.2	148.9	 833	OK
 309	   0	78.0	145.3	 847	OK
 310	   0	81.0	152.8	 853	OK
 311	   0	80.8	149.4	 858	OK
 312	   0	80.6	149.1	 845	OK
 313	   0	80.4	148.5	 832	OK
 314	   0	79.0	147.7	 833	OK
 315	   0	80.8	148.4	 865	OK
 316	   0	81.2	151.7	 842	OK
 317	   0	82.2	152.6	 858	OK
 318	   0	80.3	148.6	 846	OK
 319	   0	81.0	151.0	 834	OK
 320	   0	84.7	157.1	 851	OK
 321	   0	80.5	150.1	 829	OK
 322	   0	80.4	149.9	 828	OK
 323	   0	80.6	152.1	 862	OK
 324	   0	79.8	149.3	 850	OK
 325	   0	79.3	146.5	 841	OK
 326	   0	78.6	146.0	 853	OK
 327	   0	80.5	151.8	 832	OK
 328	   0	80.6	151.2	 844	OK
 329	   0	81.4	149.4	 845	OK
 330	   0	83.0	153.3	 859	OK
 331	   0	79.5	146.4	 844	OK
 332	   0	80.4	150.7	 849	OK
 333	   0	79.3	148.8	 845	OK
 334	   0	81.3	151.1	 843	OK
 335	   0	80.7	150.1	 842	OK
 336	   0	80.9	150.7	 848	OK
 337	   0	80.9	150.9	 858	OK
 338	   0	80.8	149.9	 855	OK
 339	   0	80.1	149.0	 848	OK
 340	   0	78.6	146.6	 833	OK
 341	   0	81.5	150.8	 852	OK
 342	   0	80.1	149.9	 856	OK
 343	   0	79.7	147.4	 856	OK
 344	   0	78.8	145.3	 859	OK
 345	   0	80.5	148.2	 846	OK
 346	   0	80.3	149.4	 845	OK
 347	   0	79.6	150.2	 853	OK
 348	   0	79.1	146.1	 841	OK
 349	   0	79.7	149.6	 829	OK
 350	   0	81.9	149.9	 851	OK
 351	   0	80.9	150.8	 859	OK
 352	   0	78.8	147.1	 856	OK
 353	   0	79.5	146.3	 862	OK
 354	   0	78.9	146.4	 836	OK
 355	   0	80.9	151.4	 830	OK
 356	   0	79.5	148.1	 851	OK
 357	   0	83.6	156.0	 849	OK
 358	   0	81.8	152.4	 852	OK
 359	   0	80.4	150.4	 837	OK
 360	   0	82.0	152.2	 838	OK
 361	   0	80.5	150.7	 822	OK
 362	   0	81.0	151.9	 841	OK
 363	   0	80.9	150.2	 826	OK
 364	   0	80.3	149.3	 837	OK
 365	   0	80.3	147.4	 851	OK
 366	   0	81.3	148.7	 854	OK
 367	   0	81.9	151.0	 834	OK
 368	   0	81.7	151.2	 835	OK
 369	   0	79.4	147.4	 845	OK
 370	   0	79.7	148.0	 844	OK
 371	   0	82.0	152.9	 824	OK
 372	   0	81.8	149.3	 836	OK
 373	   0	80.6	148.3	 836	OK
 374	   0	81.7	151.4	 822	OK
 375	   0	80.6	148.0	 838	OK
 376	   0	80.8	152.4	 825	OK
 377	   0	80.1	148.0	 839	OK
 378	   0	82.7	153.9	 848	OK
 379	   0	79.4	146.6	 825	OK
 380	   0	81.1	150.3	 841	OK
 381	   0	81.2	149.7	 852	OK
 382	   0	80.8	149.1	 844	OK
 383	   0	79.5	146.1	 829	OK
 384	   0	81.8	150.2	 889	OK
 385	   0	82.2	154.0	 886	OK
 386	   0	83.6	155.3	 884	OK
 387	   0	80.6	151.1	 882	OK
 388	   0	81.0	152.5	 879	OK
 389	   0	81.5	151.6	 888	OK
 390	   0	83.4	154.3	 878	OK
 391	   0	82.0	153.9	 878	OK
 392	   0	81.9	152.5	 878	OK
 393	   0	83.6	155.0	 861	OK
 394	   0	80.8	153.7	 881	OK
 395	   0	82.6	154.7	 856	OK
 396	   0	79.9	148.1	 867	OK
 397	   0	82.7	150.9	 874	OK
 398	   0	82.2	154.6	 862	OK
 399	   0	82.3	154.9	 869	OK
 400	   0	77.5	144.9	 870	OK
 401	   0	81.6	152.8	 871	OK
 402	   0	79.8	148.7	 869	OK
 403	   0	78.8	146.8	 865	OK
 404	   0	80.6	151.7	 850	OK
 405	   0	80.9	151.1	 861	OK
 406	   0	82.4	153.9	 865	OK
 407	   0	82.9	153.7	 881	OK
 408	   0	80.1	148.0	 858	OK
 409	   0	83.1	155.8	 863	OK
 410	   0	80.9	148.5	 864	OK
 411	   0	83.1	154.0	 858	OK
 412	   0	83.1	153.6	 858	OK
 413	   0	81.7	154.0	 865	OK
 414	   0	80.7	148.7	 863	OK
 415	   0	81.5	153.1	 867	OK
 416	   0	79.3	148.7	 861	OK
 417	   0	78.6	148.1	 875	OK
 418	   0	81.1	151.7	 847	OK
 419	   0	80.4	151.3	 854	OK
 420	   0	80.2	149.9	 884	OK
 421	   0	77.4	146.2	 865	OK
 422	   0	83.1	155.2	 884	OK
 423	   0	82.8	152.0	 884	OK
 424	   0	82.2	150.3	 858	OK
 425	   0	83.9	155.8	 879	OK
 426	   0	79.9	149.1	 877	OK
 427	   0	80.7	150.3	 869	OK
 428	   0	80.7	149.9	 908	OK
 429	   0	81.6	153.5	 875	OK
 430	   0	82.5	155.1	 865	OK
 431	   0	81.9	151.5	 864	OK
 432	   0	80.9	149.8	 879	OK
 433	   0	82.2	153.1	 860	OK
 434	   0	81.8	151.0	 864	OK
 435	   0	81.2	148.5	 863	OK
 436	   0	80.2	150.6	 879	OK
 437	   0	79.5	147.1	 846	OK
 438	   0	80.0	151.2	 860	OK
 439	   0	82.5	155.6	 880	OK
 440	   0	82.0	151.9	 864	OK
 441	   0	81.1	150.2	 885	OK
 442	   0	80.1	150.0	 869	OK
 443	   0	81.5	151.5	 871	OK
 444	   0	81.0	152.0	 866	OK
 445	   0	81.5	153.1	 873	OK
 446	   0	80.4	150.6	 873	OK
 447	   0	82.2	151.7	 880	OK
 448	   0	81.6	152.4	 885	OK
 449	   0	78.8	149.6	 882	OK
 450	   0	80.1	152.2	 886	OK
 451	   0	81.4	151.0	 887	OK
 452	   0	79.6	147.8	 880	OK
 453	   0	80.6	149.8	 867	OK
 454	   0	81.2	151.4	 880	OK
 455	   0	82.8	153.1	 874	OK
 456	   0	80.5	151.8	 866	OK
 457	   0	78.5	146.4	 881	OK
 458	   0	79.8	149.2	 864	OK
 459	   0	80.8	151.9	 863	OK
 460	   0	80.9	151.7	 894	OK
 461	   0	79.8	147.9	 878	OK
 462	   0	82.4	152.8	 862	OK
 463	   0	80.5	149.5	 878	OK
 464	   0	83.3	154.0	 877	OK
 465	   0	81.1	150.0	 886	OK
 466	   0	81.8	152.9	 888	OK
 467	   0	80.4	148.9	 859	OK
 468	   0	80.0	152.1	 855	OK
 469	   0	80.9	151.2	 871	OK
 470	   0	77.5	148.2	 866	OK
 471	   0	81.3	151.1	 875	OK
 472	   0	81.4	152.5	 885	OK
 473	   0	81.0	149.0	 871	OK
 474	   0	79.7	148.6	 869	OK
 475	   0	81.2	150.1	 863	OK
 476	   0	79.0	148.3	 872	OK
 477	   0	81.3	150.5	 856	OK
 478	   0	79.2	149.8	 869	OK
 479	   0	82.3	154.2	 880	OK
 480	   0	79.4	149.9	 886	OK
 481	   0	82.7	153.9	 881	OK
 482	   0	82.2	153.2	 892	OK
 483	   0	82.4	153.0	 877	OK
 484	   0	82.8	153.8	 872	OK
 485	   0	80.8	152.2	 893	OK
 486	   0	78.8	148.0	 878	OK
 487	   0	82.0	153.7	 873	OK
 488	   0	80.0	149.4	 889	OK
 489	   0	81.5	152.9	 878	OK
 490	   0	80.3	149.5	 884	OK
 491	   0	83.0	155.6	 887	OK
 492	   0	80.7	151.8	 884	OK
 493	   0	81.0	152.1	 866	OK
 494	   0	80.6	150.6	 884	OK
 495	   0	82.0	152.9	 869	OK
 496	   0	80.5	149.6	 883	OK
 497	   0	79.8	149.9	 887	OK
 498	   0	81.4	150.7	 883	OK
 499	   0	80.1	151.5	 889	OK
 500	   0	80.5	151.8	 876	OK
 501	   0	80.7	149.9	 868	OK
 502	   0	82.4	154.1	 869	OK
 503	   0	81.9	154.8	 886	OK
 504	   0	81.8	152.3	 884	OK
 505	   0	79.9	150.0	 889	OK
 506	   0	81.3	151.8	 880	OK
 507	   0	79.4	145.8	 888	OK
 508	   0	81.0	152.5	 882	OK
 509	   0	79.6	149.7	 884	OK
 510	   0	81.8	152.9	 878	OK
 511	   0	80.1	149.7	 898	OK
 512	   0	83.7	156.2	 898	OK
 513	   0	81.0	151.0	 897	OK
 514	   0	80.3	148.8	 900	OK
 515	   0	81.4	151.8	 887	OK
 516	   0	80.8	151.3	 916	OK
 517	   0	81.2	149.8	 893	OK
 518	   0	80.3	151.7	 888	OK
 519	   0	79.0	145.9	 895	OK
 520	   0	81.0	150.7	 914	OK
 521	   0	79.1	150.0	 889	OK
 522	   0	79.4	147.9	 887	OK
 523	   0	81.6	152.4	 881	OK
 524	   0	81.9	152.4	 903	OK
 525	   0	77.6	144.5	 906	OK
 526	   0	79.3	147.2	 893	OK
 527	   0	82.5	153.3	 875	OK
 528	   0	79.4	145.8	 894	OK
 529	   0	81.5	153.9	 889	OK
 530	   0	79.9	147.9	 894	OK
 531	   0	79.9	148.6	 887	OK
 532	   0	80.0	148.7	 899	OK
 533	   0	79.9	148.1	 895	OK
 534	   0	80.9	152.1	 885	OK
 535	   0	79.2	146.7	 902	OK
 536	   0	81.3	150.0	 907	OK
 537	   0	80.0	150.1	 887	OK
 538	   0	78.5	146.5	 900	OK
 539	   0	80.8	150.7	 895	OK
 540	   0	77.7	145.5	 895	OK
 541	   0	78.5	146.0	 910	OK
 542	   0	78.7	146.4	 901	OK
 543	   0	82.1	152.7	 867	OK
 544	   0	79.4	149.1	 893	OK
 545	   0	80.6	151.0	 892	OK
 546	   0	82.3	150.0	 869	OK
 547	   0	80.4	148.8	 896	OK
 548	   0	79.3	147.4	 883	OK
 549	   0	79.8	148.7	 895	OK
 550	   0	82.0	154.1	 882	OK
 551	   0	80.9	149.7	 905	OK
 552	   0	80.3	146.6	 882	OK
 553	   0	80.6	149.8	 886	OK
 554	   0	80.2	148.7	 909	OK
 555	   0	80.8	148.5	 895	OK
 556	   0	80.2	150.0	 884	OK
 557	   0	79.1	147.8	 907	OK
 558	   0	77.9	144.5	 882	OK
 559	   0	77.4	144.9	 896	OK
 560	   0	81.4	152.5	 878	OK
 561	   0	79.8	147.5	 885	OK
 562	   0	80.1	148.4	 902	OK
 563	   0	82.3	152.8	 909	OK
 564	   0	82.8	152.4	 893	OK
 565	   0	82.5	151.2	 892	OK
 566	   0	78.9	145.8	 898	OK
 567	   0	80.1	150.5	 884	OK
 568	   0	80.0	151.0	 896	OK
 569	   0	79.7	147.6	 884	OK
 570	   0	81.8	154.5	 892	OK
 571	   0	80.4	150.3	 879	OK
 572	   0	81.8	153.7	 896	OK
 573	   0	80.3	150.2	 882	OK
 574	   0	80.4	151.7	 909	OK
 575	   0	80.4	151.6	 893	OK
 576	   0	78.5	146.1	 912	OK
 577	   0	78.5	145.8	 903	OK
 578	   0	80.7	149.6	 879	OK
 579	   0	80.5	151.0	 896	OK
 580	   0	79.7	149.3	 909	OK
 581	   0	77.6	145.1	 901	OK
 582	   0	79.4	148.3	 881	OK
 583	   0	79.8	150.8	 901	OK
 584	   0	79.4	150.1	 899	OK
 585	   0	82.0	151.5	 896	OK
 586	   0	80.3	149.0	 892	OK
 587	   0	80.6	151.0	 900	OK
 588	   0	79.7	147.5	 899	OK
 589	   0	80.8	150.1	 893	OK
 590	   0	78.2	145.4	 882	OK
 591	   0	80.5	151.1	 880	OK
 592	   0	78.8	146.7	 895	OK
 593	   0	78.6	144.4	 892	OK
 594	   0	81.8	153.2	 897	OK
 595	   0	77.1	144.2	 873	OK
 596	   0	82.8	154.3	 893	OK
 597	   0	80.5	150.0	 883	OK
 598	   0	80.1	149.1	 900	OK
 599	   0	78.9	148.3	 887	OK
 600	   0	79.2	150.4	 901	OK
 601	   0	79.2	146.7	 883	OK
 602	   0	80.4	147.7	 903	OK
 603	   0	81.5	152.2	 915	OK
 604	   0	80.1	147.7	 906	OK
 605	   0	81.1	152.7	 865	OK
 606	   0	80.3	147.8	 888	OK
 607	   0	78.6	146.7	 895	OK
 608	   0	81.7	153.0	 871	OK
 609	   0	82.6	153.8	 891	OK
 610	   0	79.5	146.9	 883	OK
 611	   0	79.7	148.2	 879	OK
 612	   0	78.2	145.5	 865	OK
 613	   0	80.1	149.5	 902	OK
 614	   0	79.9	148.8	 885	OK
 615	   0	78.8	149.0	 879	OK
 616	   0	80.4	150.3	 896	OK
 617	   0	78.2	145.7	 873	OK
 618	   0	80.7	151.0	 883	OK
 619	   0	79.9	148.5	 877	OK
 620	   0	78.8	147.3	 887	OK
 621	   0	77.7	145.8	 880	OK
 622	   0	80.7	150.5	 884	OK
 623	   0	79.6	151.5	 881	OK
 624	   0	79.0	148.6	 892	OK
 625	   0	81.8	152.0	 865	OK
 626	   0	79.5	147.4	 895	OK
 627	   0	81.8	152.1	 877	OK
 628	   0	79.8	148.3	 884	OK
 629	   0	80.0	148.0	 876	OK
 630	   0	81.6	152.8	 884	OK
 631	   0	79.5	148.7	 875	OK
 632	   0	80.7	151.7	 875	OK
 633	   0	81.1	150.6	 904	OK
 634	   0	80.1	147.5	 895	OK
 635	   0	80.7	150.9	 894	OK
 636	   0	81.4	150.6	 884	OK
 637	   0	79.5	148.5	 902	OK
 638	   0	79.6	148.9	 907	OK
 639	   0	82.5	152.3	 896	OK
 640	   0	82.7	153.8	 874	OK
 641	   0	83.7	157.2	 862	OK
 642	   0	84.8	157.3	 886	OK
 643	   0	82.5	156.0	 884	OK
 644	   0	82.9	155.6	 874	OK
 645	   0	81.8	151.7	 883	OK
 646	   0	81.1	153.9	 877	OK
 647	   0	80.4	149.8	 873	OK
 648	   0	81.4	149.9	 893	OK
 649	   0	79.2	147.5	 892	OK
 650	   0	80.4	149.4	 883	OK
 651	   0	81.2	152.7	 867	OK
 652	   0	81.2	151.1	 884	OK
 653	   0	82.0	153.9	 876	OK
 654	   0	82.1	152.0	 894	OK
 655	   0	80.9	150.4	 875	OK
 656	   0	80.2	149.5	 880	OK
 657	   0	80.7	150.1	 884	OK
 658	   0	79.2	149.3	 878	OK
 659	   0	82.9	155.7	 890	OK
 660	   0	81.6	152.7	 867	OK
 661	   0	80.1	151.3	 877	OK
 662	   0	80.7	151.8	 913	OK
 663	   0	80.5	152.8	 887	OK
 664	   0	82.6	153.7	 874	OK
 665	   0	79.8	149.2	 884	OK
 666	   0	80.4	151.3	 876	OK
 667	   0	80.6	150.8	 882	OK
 668	   0	80.2	151.9	 893	OK
 669	   0	80.5	151.4	 883	OK
 670	   0	78.6	149.4	 908	OK
 671	   0	80.5	151.8	 869	OK
 672	   0	80.9	150.3	 891	OK
 673	   0	78.6	147.9	 883	OK
 674	   0	79.0	148.7	 889	OK
 675	   0	79.8	149.5	 880	OK
 676	   0	80.9	150.2	 885	OK
 677	   0	81.5	152.3	 916	OK
 678	   0	79.0	149.8	 894	OK
 679	   0	80.5	150.3	 902	OK
 680	   0	80.2	149.4	 878	OK
 681	   0	80.3	150.7	 916	OK
 682	   0	80.1	149.8	 889	OK
 683	   0	79.2	148.1	 910	OK
 684	   0	78.4	148.0	 876	OK
 685	   0	80.6	150.3	 883	OK
 686	   0	81.2	153.6	 909	OK
 687	   0	80.7	150.9	 914	OK
 688	   0	81.3	153.8	 870	OK
 689	   0	81.9	152.6	 890	OK
 690	   0	81.0	152.2	 890	OK
 691	   0	82.5	153.5	 911	OK
 692	   0	78.5	148.2	 912	OK
 693	   0	79.8	150.4	 903	OK
 694	   0	79.9	152.4	 901	OK
 695	   0	80.7	150.2	 879	OK
 696	   0	80.4	151.6	 911	OK
 697	   0	79.2	148.9	 892	OK
 698	   0	81.5	152.4	 897	OK
 699	   0	82.0	151.6	 910	OK
 700	   0	81.5	153.2	 894	OK
 701	   0	81.4	151.8	 891	OK
 702	   0	82.1	153.1	 895	OK
 703	   0	81.1	152.2	 884	OK
 704	   0	81.7	150.1	 887	OK
 705	   0	81.3	151.5	 885	OK
 706	   0	81.3	152.4	 906	OK
 707	   0	80.6	152.2	 903	OK
 708	   0	79.9	148.8	 909	OK
 709	   0	79.9	151.8	 886	OK
 710	   0	78.9	147.7	 899	OK
 711	   0	79.9	148.0	 883	OK
 712	   0	81.5	151.3	 914	OK
 713	   0	80.4	149.7	 899	OK
 714	   0	80.8	149.9	 886	OK
 715	   0	81.4	152.2	 893	OK
 716	   0	80.6	149.5	 886	OK
 717	   0	80.9	150.7	 886	OK
 718	   0	80.0	149.6	 916	OK
 719	   0	80.5	151.7	 899	OK
 720	   0	79.9	149.6	 908	OK
 721	   0	81.4	150.0	 890	OK
 722	   0	79.6	148.2	 894	OK
 723	   0	78.7	148.6	 883	OK
 724	   0	79.5	150.8	 895	OK
 725	   0	80.2	150.8	 893	OK
 726	   0	80.1	149.5	 926	OK
 727	   0	78.4	147.1	 907	OK
 728	   0	80.6	151.3	 904	OK
 729	   0	78.4	145.7	 925	OK
 730	   0	81.3	152.6	 948	OK
 731	   0	79.7	148.9	 951	OK
 732	   0	80.9	149.9	 953	OK
 733	   0	78.6	147.6	 938	OK
 734	   0	78.5	148.1	 949	OK
 735	   0	78.4	146.6	 962	OK
 736	   0	80.4	150.9	 943	OK
 737	   0	79.7	152.3	 949	OK
 738	   0	79.8	149.7	 980	OK
 739	   0	79.6	149.6	 981	OK
 740	   0	80.9	152.0	 964	OK
 741	   0	81.6	152.3	 979	OK
 742	   0	78.8	146.8	 982	OK
 743	   0	80.0	149.9	 969	OK
 744	   0	80.1	147.1	 961	OK
 745	   0	81.0	150.5	 965	OK
 746	   0	80.4	150.0	 945	OK
 747	   0	82.5	154.2	 946	OK
 748	   0	78.6	146.2	 924	OK
 749	   0	79.4	150.9	 937	OK
 750	   0	81.0	149.8	 937	OK
 751	   0	80.4	149.7	 922	OK
 752	   0	81.4	152.0	 921	OK
 753	   0	81.9	154.4	 940	OK
 754	   0	80.9	150.8	 942	OK
 755	   0	80.7	152.2	 946	OK
 756	   0	79.7	149.4	 958	OK
 757	   0	82.3	154.9	 983	OK
 758	   0	80.6	151.0	 987	OK
 759	   0	81.6	153.0	 992	OK
 760	   0	82.9	155.6	 996	OK
 761	   0	80.9	150.9	 986	OK
 762	   0	78.1	147.1	1029	OK
 763	   0	80.8	151.7	1010	OK
 764	   0	81.5	148.7	1030	OK
 765	   0	79.1	146.6	1048	OK
 766	   0	83.1	154.0	1027	OK
 767	   0	80.3	150.2	1029	OK
 768	   0	79.6	150.8	1047	OK
 769	   0	79.2	147.5	1044	OK
 770	   0	79.4	147.6	1027	OK
 771	   0	79.5	148.3	1027	OK
 772	   0	79.9	147.4	1006	OK
 773	   0	79.5	149.5	 984	OK
 774	   0	80.3	149.8	1005	OK
 775	   0	76.9	143.0	 979	OK
 776	   0	77.5	145.1	 990	OK
 777	   0	78.1	146.4	 982	OK
 778	   0	80.1	146.6	 980	OK
 779	   0	80.0	148.5	 978	OK
 780	   0	76.8	142.7	 978	OK
 781	   0	78.4	145.3	 944	OK
 782	   0	80.7	149.1	 982	OK
 783	   0	78.5	146.5	 955	OK
 784	   0	77.9	144.5	 939	OK
 785	   0	79.6	147.6	 964	OK
 786	   0	78.8	148.1	 955	OK
 787	   0	77.8	144.1	 960	OK
 788	   0	78.0	148.2	 953	OK
 789	   0	79.3	146.7	 975	OK
 790	   0	80.3	149.6	 967	OK
 791	   0	77.6	145.9	 961	OK
 792	   0	77.4	146.9	 959	OK
 793	   0	79.0	146.3	 954	OK
 794	   0	78.8	144.3	 980	OK
 795	   0	77.3	142.9	 984	OK
 796	   0	79.5	148.7	 983	OK
 797	   0	78.1	145.4	 988	OK
 798	   0	77.7	145.1	 981	OK
 799	   0	78.4	145.0	1004	OK
 800	   0	79.2	146.7	 980	OK
 801	   0	78.3	145.9	 967	OK
 802	   0	78.6	144.2	 995	OK
 803	   0	79.1	147.4	 980	OK
 804	   0	79.0	146.2	 988	OK
 805	   0	78.6	148.8	 962	OK
 806	   0	78.0	145.2	 957	OK
 807	   0	76.2	142.4	 948	OK
 808	   0	77.5	144.1	 974	OK
 809	   0	78.2	144.1	 967	OK
 810	   0	78.9	146.5	 948	OK
 811	   0	78.4	147.1	 949	OK
 812	   0	81.3	149.9	 945	OK
 813	   0	78.6	145.5	 944	OK
 814	   0	76.8	143.7	 939	OK
 815	   0	77.3	143.3	 927	OK
 816	   0	76.7	142.3	 943	OK
 817	   0	78.6	147.6	 910	OK
 818	   0	79.6	148.9	 907	OK
 819	   0	78.0	148.0	 898	OK
 820	   0	76.7	143.6	 903	OK
 821	   0	77.8	147.8	 895	OK
 822	   0	79.6	148.6	 924	OK
 823	   0	79.5	147.8	 904	OK
 824	   0	77.0	144.3	 891	OK
 825	   0	78.1	145.0	 867	OK
 826	   0	78.4	147.8	 887	OK
 827	   0	78.0	148.6	 895	OK
 828	   0	80.7	151.9	 905	OK
 829	   0	81.3	152.4	 894	OK
 830	   0	80.5	150.1	 892	OK
 831	   0	81.3	151.6	 901	OK
 832	   0	77.9	147.8	 879	OK
 833	   0	80.2	149.0	 898	OK
 834	   0	79.6	150.7	 892	OK
 835	   0	79.8	149.2	 912	OK
 836	   0	78.6	148.7	 927	OK
 837	   0	79.3	146.8	 893	OK
 838	   0	77.9	145.8	 894	OK
 839	   0	81.2	149.8	 903	OK
 840	   0	77.3	145.6	 917	OK
 841	   0	80.6	150.4	 906	OK
 842	   0	77.0	145.8	 912	OK
 843	   0	78.3	144.5	 911	OK
 844	   0	77.9	146.7	 912	OK
 845	   0	76.4	142.6	 896	OK
 846	   0	77.2	145.2	 906	OK
 847	   0	78.7	148.4	 905	OK
 848	   0	79.5	147.6	 900	OK
 849	   0	77.1	147.2	 909	OK
 850	   0	77.1	145.7	 886	OK
 851	   0	77.9	147.8	 903	OK
 852	   0	77.3	145.5	 918	OK
 853	   0	78.1	146.7	 909	OK
 854	   0	76.5	144.6	 914	OK
 855	   0	77.1	144.8	 905	OK
 856	   0	78.3	147.3	 904	OK
 857	   0	78.8	149.6	 892	OK
 858	   0	76.9	145.2	 927	OK
 859	   0	78.4	149.4	 918	OK
 860	   0	76.8	145.1	 917	OK
 861	   0	78.9	146.3	 918	OK
 862	   0	80.3	148.5	 938	OK
 863	   0	77.7	145.7	 917	OK
 864	   0	79.8	148.6	 933	OK
 865	   0	76.7	143.4	 922	OK
 866	   0	78.9	146.8	 929	OK
 867	   0	78.5	146.8	 928	OK
 868	   0	76.9	145.5	 926	OK
 869	   0	79.5	149.6	 929	OK
 870	   0	76.6	144.5	 937	OK
 871	   0	79.5	146.8	 930	OK
 872	   0	79.0	147.1	 930	OK
 873	   0	79.0	147.8	 950	OK
 874	   0	77.1	144.8	 948	OK
 875	   0	76.8	145.3	 951	OK
 876	   0	78.1	147.2	 936	OK
 877	   0	76.7	144.7	 961	OK
 878	   0	78.1	147.5	 940	OK
 879	   0	78.2	147.0	 933	OK
 880	   0	77.8	145.9	 955	OK
 881	   0	80.0	147.9	 941	OK
 882	   0	78.8	146.7	 963	OK
 883	   0	78.8	146.2	 938	OK
 884	   0	79.2	147.9	 950	OK
 885	   0	77.2	146.8	 969	OK
 886	   0	79.2	147.7	 974	OK
 887	   0	79.7	150.2	 980	OK
 888	   0	79.6	148.8	 980	OK
 889	   0	78.6	144.9	 983	OK
 890	   0	80.3	150.5	 990	OK
 891	   0	78.7	145.8	1004	OK
 892	   0	77.2	144.9	1030	OK
 893	   0	78.8	148.3	1023	OK
 894	   0	80.3	152.9	1027	OK
 895	   0	77.4	147.0	1034	OK
 896	   0	82.7	153.4	1019	OK
 897	   0	83.4	155.5	1027	OK
 898	4000	81.8	152.3	1048	high noise
 899	   0	81.8	156.1	1020	OK
 900	   0	81.5	151.5	1013	OK
 901	   0	81.3	151.0	1033	OK
 902	   0	80.6	151.6	1020	OK
 903	   0	82.1	156.0	1022	OK
 904	   0	79.3	149.2	1026	OK
 905	   0	81.2	153.3	 997	OK
 906	   0	78.9	148.8	1006	OK
 907	   0	80.5	154.1	 985	OK
 908	   0	82.3	155.3	1002	OK
 909	   0	81.4	156.7	 955	OK
 910	   0	80.0	148.8	 980	OK
 911	   0	80.2	150.0	 974	OK
 912	   0	79.0	147.6	 955	OK
 913	   0	79.1	150.1	 962	OK
 914	   0	81.2	151.4	 959	OK
 915	   0	81.3	151.0	 943	OK
 916	   0	80.0	149.4	 940	OK
 917	   0	79.5	149.3	 936	OK
 918	   0	80.8	152.3	 931	OK
 919	   0	79.7	151.6	 917	OK
 920	   0	79.9	149.7	 918	OK
 921	   0	80.4	150.2	 903	OK
 922	   0	80.7	150.6	 919	OK
 923	   0	79.5	150.8	 915	OK
 924	   0	80.5	150.4	 913	OK
 925	   0	78.9	149.7	 900	OK
 926	   0	79.8	151.3	 891	OK
 927	   0	79.5	149.6	 901	OK
 928	   0	80.8	150.5	 899	OK
 929	   0	80.7	149.4	 883	OK
 930	   0	79.8	147.7	 877	OK
 931	   0	80.9	151.5	 884	OK
 932	   0	80.2	152.1	 871	OK
 933	   0	81.3	152.9	 880	OK
 934	   0	80.8	151.2	 869	OK
 935	   0	81.7	155.5	 868	OK
 936	   0	80.5	151.1	 875	OK
 937	   0	82.2	154.2	 858	OK
 938	   0	80.2	151.3	 861	OK
 939	   0	77.0	146.3	 870	OK
 940	   0	79.3	151.0	 873	OK
 941	   0	81.4	153.8	 873	OK
 942	   0	78.6	146.6	 890	OK
 943	   0	77.7	148.4	 893	OK
 944	   0	80.1	151.8	 865	OK
 945	   0	81.3	153.3	 876	OK
 946	   0	79.0	150.7	 868	OK
 947	   0	79.4	149.9	 882	OK
 948	   0	79.5	147.8	 882	OK
 949	   0	77.7	147.5	 864	OK
 950	   0	80.5	151.3	 887	OK
 951	   0	79.4	151.0	 874	OK
 952	   0	76.6	144.1	 890	OK
 953	   0	79.8	150.7	 893	OK
 954	   0	80.2	152.9	 875	OK
 955	   0	79.2	147.9	 886	OK
 956	   0	78.0	149.0	 872	OK
 957	   0	83.7	157.1	 876	OK
 958	   0	77.6	147.8	 863	OK
 959	   0	80.4	150.5	 872	OK
 960	   0	81.2	153.7	 870	OK
 961	   0	82.0	154.6	 869	OK
 962	   0	80.2	151.2	 877	OK
 963	   0	81.2	152.6	 876	OK
 964	   0	77.7	146.2	 876	OK
 965	   0	79.6	149.6	 872	OK
 966	   0	79.0	148.7	 897	OK
 967	   0	79.1	149.1	 871	OK
 968	   0	80.2	150.8	 892	OK
 969	   0	79.4	149.1	 874	OK
 970	   0	77.5	146.9	 871	OK
 971	   0	78.1	148.2	 895	OK
 972	   0	78.6	148.1	 882	OK
 973	   0	78.4	149.0	 874	OK
 974	   0	80.9	152.0	 883	OK
 975	   0	77.6	147.7	 847	OK
 976	   0	76.0	143.0	 873	OK
 977	   0	77.7	147.8	 897	OK
 978	   0	77.9	148.0	 899	OK
 979	   0	77.1	145.7	 867	OK
 980	   0	77.3	144.8	 899	OK
 981	   0	78.4	149.1	 868	OK
 982	   0	83.3	156.0	 880	OK
 983	   0	77.4	146.2	 874	OK
 984	   0	79.0	147.3	 897	OK
 985	   0	81.0	152.2	 868	OK
 986	   0	79.0	146.6	 871	OK
 987	   0	78.6	147.4	 878	OK
 988	   0	77.5	145.6	 874	OK
 989	   0	78.6	149.2	 879	OK
 990	   0	79.3	149.3	 877	OK
 991	   0	80.0	151.2	 873	OK
 992	   0	78.2	147.5	 894	OK
 993	   0	79.7	149.4	 874	OK
 994	   0	77.4	147.8	 874	OK
 995	   0	80.8	153.3	 872	OK
 996	   0	76.8	145.1	 902	OK
 997	   0	80.1	151.1	 875	OK
 998	   0	79.7	149.2	 880	OK
 999	   0	76.5	145.2	 893	OK
1000	   0	77.4	146.1	 893	OK
1001	   0	78.5	146.2	 878	OK
1002	   0	80.9	152.3	 886	OK
1003	   0	78.8	149.9	 890	OK
1004	   0	78.2	148.6	 880	OK
1005	   0	77.5	145.6	 868	OK
1006	   0	79.6	148.8	 856	OK
1007	   0	79.7	150.7	 890	OK
1008	   0	79.7	153.0	 888	OK
1009	   0	79.6	150.6	 872	OK
1010	   0	78.7	147.5	 873	OK
1011	   0	78.7	149.5	 907	OK
1012	   0	79.5	149.9	 884	OK
1013	   0	80.9	151.1	 899	OK
1014	   0	82.0	152.7	 876	OK
1015	   0	79.4	148.8	 871	OK
1016	   0	80.2	151.8	 876	OK
1017	   0	81.5	154.8	 879	OK
1018	   0	78.9	148.9	 881	OK
1019	   0	79.9	151.0	 870	OK
1020	   0	81.7	153.2	 877	OK
1021	   0	78.1	146.7	 883	OK
1022	   0	77.8	147.9	 872	OK
1023	   0	81.0	150.7	 866	OK
1024	   0	77.2	148.5	 882	OK
1025	   0	76.5	145.3	 887	OK
1026	   0	76.6	147.2	 900	OK
1027	   0	77.0	144.8	 877	OK
1028	   0	78.3	147.6	 883	OK
1029	   0	76.0	144.8	 894	OK
1030	   0	77.9	146.5	 866	OK
1031	   0	80.5	151.3	 872	OK
1032	   0	75.3	143.2	 870	OK
1033	   0	75.2	142.5	 880	OK
1034	   0	77.1	147.2	 875	OK
1035	   0	77.3	145.3	 876	OK
1036	   0	74.9	142.5	 868	OK
1037	   0	77.1	146.6	 846	OK
1038	   0	78.4	149.4	 867	OK
1039	   0	75.4	143.2	 882	OK
1040	   0	77.4	145.7	 865	OK
1041	   0	77.6	144.9	 869	OK
1042	   0	74.7	141.8	 867	OK
1043	   0	74.7	143.3	 872	OK
1044	   0	76.9	144.7	 866	OK
1045	   0	76.5	144.9	 876	OK
1046	   0	74.8	142.1	 854	OK
1047	   0	75.7	145.9	 870	OK
1048	   0	75.6	143.5	 871	OK
1049	   0	75.0	142.6	 880	OK
1050	   0	76.9	144.4	 879	OK
1051	   0	76.0	144.9	 856	OK
1052	   0	75.7	142.4	 899	OK
1053	   0	75.9	144.4	 863	OK
1054	   0	75.8	144.3	 863	OK
1055	   0	76.9	146.8	 874	OK
1056	   0	76.1	146.6	 868	OK
1057	   0	75.3	144.5	 862	OK
1058	   0	75.5	144.9	 868	OK
1059	   0	75.1	142.9	 881	OK
1060	   0	76.0	142.8	 868	OK
1061	   0	76.5	144.1	 873	OK
1062	   0	76.7	144.9	 867	OK
1063	   0	76.1	143.5	 877	OK
1064	   0	73.7	142.3	 873	OK
1065	   0	73.8	141.7	 873	OK
1066	   0	75.1	142.6	 880	OK
1067	   0	78.0	146.9	 863	OK
1068	   0	74.0	141.5	 885	OK
1069	   0	76.4	145.3	 881	OK
1070	   0	76.1	144.7	 867	OK
1071	   0	76.7	145.1	 882	OK
1072	   0	75.8	142.3	 866	OK
1073	   0	73.1	142.4	 881	OK
1074	   0	75.8	145.1	 868	OK
1075	   0	74.8	141.2	 880	OK
1076	   0	76.2	143.5	 877	OK
1077	   0	76.9	145.9	 887	OK
1078	   0	76.5	146.1	 866	OK
1079	   0	76.1	144.8	 890	OK
1080	   0	76.7	146.6	 891	OK
1081	   0	74.6	142.6	 887	OK
1082	   0	77.1	144.5	 880	OK
1083	   0	76.5	144.9	 912	OK
1084	   0	73.8	139.0	 896	OK
1085	   0	76.6	145.2	 896	OK
1086	   0	77.6	150.3	 891	OK
1087	   0	77.3	147.8	 892	OK
1088	   0	77.0	145.2	 878	OK
1089	   0	75.6	144.9	 888	OK
1090	   0	75.0	142.1	 892	OK
1091	   0	74.2	142.6	 870	OK
1092	   0	75.9	148.5	 884	OK
1093	   0	76.7	146.6	 884	OK
1094	   0	76.9	145.1	 887	OK
1095	   0	77.1	145.8	 876	OK
1096	   0	75.9	145.8	 888	OK
1097	   0	74.3	142.1	 881	OK
1098	   0	75.9	142.9	 896	OK
1099	   0	78.1	146.0	 893	OK
1100	   0	74.1	139.3	 883	OK
1101	   0	74.3	140.1	 882	OK
1102	   0	76.1	144.8	 903	OK
1103	   0	75.3	142.9	 901	OK
1104	   0	75.3	144.6	 889	OK
1105	   0	76.0	145.0	 873	OK
1106	   0	75.4	143.2	 892	OK
1107	   0	74.0	141.6	 889	OK
1108	   0	74.6	142.9	 901	OK
1109	   0	76.4	146.5	 876	OK
1110	   0	75.7	143.6	 882	OK
1111	   0	76.4	145.0	 907	OK
1112	   0	75.6	144.4	 901	OK
1113	   0	74.1	142.1	 900	OK
1114	   0	74.8	142.7	 885	OK
1115	   0	78.4	146.5	 881	OK
1116	   0	76.7	146.9	 901	OK
1117	   0	74.4	140.3	 878	OK
1118	   0	73.9	139.6	 882	OK
1119	   0	74.6	142.6	 892	OK
1120	   0	75.6	142.3	 904	OK
1121	   0	75.2	142.3	 885	OK
1122	   0	73.1	139.5	 885	OK
1123	   0	76.6	146.5	 863	OK
1124	   0	77.1	147.3	 890	OK
1125	   0	75.3	143.6	 895	OK
1126	   0	74.8	142.2	 897	OK
1127	   0	75.7	144.6	 889	OK
1128	   0	74.9	141.3	 885	OK
1129	   0	75.3	142.0	 893	OK
1130	   0	74.6	139.2	 887	OK
1131	   0	76.0	144.9	 859	OK
1132	   0	76.0	144.1	 891	OK
1133	   0	75.0	142.8	 885	OK
1134	   0	75.6	144.8	 881	OK
1135	   0	76.2	144.0	 900	OK
1136	   0	75.1	143.0	 891	OK
1137	   0	75.2	142.1	 881	OK
1138	   0	76.8	144.3	 887	OK
1139	   0	75.7	142.9	 879	OK
1140	   0	76.5	143.9	 900	OK
1141	   0	74.5	140.3	 904	OK
1142	   0	75.5	144.3	 881	OK
1143	   0	77.7	146.3	 882	OK
1144	   0	78.3	147.3	 881	OK
1145	   0	75.0	142.6	 896	OK
1146	   0	77.9	148.5	 887	OK
1147	   0	76.9	145.8	 886	OK
1148	   0	76.6	144.4	 875	OK
1149	   0	75.1	141.3	 898	OK
1150	   0	78.3	147.0	 892	OK
1151	   0	77.8	148.5	 883	OK
1152	   0	78.7	147.2	 905	OK
1153	   0	76.0	143.2	 905	OK
1154	   0	77.1	145.9	 902	OK
1155	   0	75.0	144.3	 928	OK
1156	   0	74.9	142.2	 895	OK
1157	   0	76.6	145.1	 906	OK
1158	   0	75.4	143.0	 895	OK
1159	   0	76.3	146.1	 890	OK
1160	   0	77.3	145.3	 899	OK
1161	   0	77.6	150.0	 905	OK
1162	   0	76.0	143.4	 898	OK
1163	   0	75.9	142.3	 910	OK
1164	   0	75.7	142.6	 908	OK
1165	   0	75.0	141.4	 923	OK
1166	   0	77.2	145.5	 897	OK
1167	   0	76.6	144.8	 912	OK
1168	   0	75.7	143.7	 893	OK
1169	   0	74.1	138.2	 890	OK
1170	   0	76.7	144.0	 892	OK
1171	   0	76.8	146.6	 897	OK
1172	   0	76.7	145.6	 898	OK
1173	   0	76.8	146.4	 878	OK
1174	   0	74.0	139.4	 894	OK
1175	   0	76.0	144.9	 903	OK
1176	   0	74.9	142.4	 921	OK
1177	   0	74.7	141.1	 898	OK
1178	   0	75.4	143.1	 908	OK
1179	1101	0.0	0.0	   0	dead
1180	1101	0.0	0.0	   0	dead
1181	   0	76.9	144.6	 886	OK
1182	   0	76.0	143.4	 889	OK
1183	   0	75.9	144.0	 902	OK
1184	   0	77.6	143.6	 899	OK
1185	   0	76.7	145.7	 913	OK
1186	   0	77.3	143.0	 912	OK
1187	   0	75.6	144.6	 904	OK
1188	   0	75.2	143.5	 915	OK
1189	   0	75.4	141.9	 898	OK
1190	4000	75.8	141.3	1206	high noise
1191	4000	75.1	138.7	1221	high noise
1192	1101	0.0	0.0	   0	dead
1193	4000	74.0	139.8	1142	high noise
1194	4000	76.0	143.0	1251	high noise
1195	4000	74.9	141.0	1093	high noise
1196	1101	0.0	0.0	   0	dead
1197	   0	76.1	142.7	 901	OK
1198	   0	76.8	143.5	 908	OK
1199	1101	0.0	0.0	   0	dead
1200	   0	73.9	141.0	 898	OK
1201	   0	74.2	139.8	 896	OK
1202	   0	75.4	144.0	 919	OK
1203	   0	76.4	143.1	 901	OK
1204	   0	75.7	142.2	 893	OK
1205	1101	0.0	0.0	   0	dead
1206	1101	0.0	0.0	   0	dead
1207	1101	0.0	0.0	   0	dead
1208	1101	0.0	0.0	   0	dead
1209	1101	0.0	0.0	   0	dead
1210	4000	74.7	140.2	1003	high noise
1211	4000	75.3	142.4	1014	high noise
1212	   0	76.4	144.6	 899	OK
1213	   0	76.0	144.6	 910	OK
1214	   0	78.2	146.6	 883	OK
1215	   0	78.9	151.7	 923	OK
1216	   0	75.7	145.4	 920	OK
1217	4000	75.0	142.4	1190	high noise
1218	4000	75.4	141.4	1256	high noise
1219	4000	75.4	141.7	1009	high noise
1220	   0	73.6	140.1	 914	OK
1221	   0	75.6	145.0	 911	OK
1222	   0	76.1	147.0	 905	OK
1223	   0	73.7	139.4	 906	OK
1224	4000	74.9	142.7	 985	high noise
1225	4000	73.1	142.1	 977	high noise
1226	   0	74.6	142.3	 903	OK
1227	   0	74.5	143.6	 903	OK
1228	   0	73.3	138.1	 891	OK
1229	   0	76.0	145.3	 893	OK
1230	   0	74.2	141.7	 885	OK
1231	   0	75.3	141.6	 918	OK
1232	1101	0.0	0.0	   0	dead
1233	1101	0.0	0.0	   0	dead
1234	   0	75.2	143.3	 917	OK
1235	   0	74.4	140.4	 900	OK
1236	   0	76.6	146.7	 896	OK
1237	   0	75.9	143.8	 902	OK
1238	   0	74.3	143.7	 896	OK
1239	1101	0.0	0.0	   0	dead
1240	1101	0.0	0.0	   0	dead
1241	   0	73.1	140.2	 910	OK
1242	   0	74.1	140.3	 908	OK
1243	   0	73.3	138.6	 914	OK
1244	   0	74.3	142.0	 895	OK
1245	   0	75.3	144.3	 886	OK
1246	   0	75.2	141.2	 877	OK
1247	   0	77.1	147.5	 893	OK
1248	   0	75.9	144.4	 900	OK
1249	   0	75.6	142.2	 887	OK
1250	   0	74.9	141.1	 887	OK
1251	   0	75.9	145.7	 902	OK
1252	   0	75.3	142.3	 890	OK
1253	   0	75.9	145.0	 870	OK
1254	   0	73.8	141.7	 889	OK
1255	   0	72.1	138.0	 888	OK
1256	   0	74.5	143.3	 879	OK
1257	   0	74.4	142.6	 904	OK
1258	   0	76.4	144.8	 881	OK
1259	   0	77.7	147.6	 873	OK
1260	   0	76.9	146.4	 872	OK
1261	   0	74.7	143.0	 877	OK
1262	   0	74.0	140.2	 880	OK
1263	   0	74.2	141.8	 865	OK
1264	   0	76.7	146.5	 853	OK
1265	   0	73.6	141.5	 875	OK
1266	   0	76.5	144.3	 852	OK
1267	   0	74.8	145.1	 858	OK
1268	   0	76.3	145.3	 865	OK
1269	   0	75.3	144.4	 851	OK
1270	   0	74.8	142.1	 875	OK
1271	   0	75.9	144.0	 868	OK
1272	   0	76.2	142.9	 848	OK
1273	   0	75.5	143.5	 868	OK
1274	   0	76.2	146.4	 854	OK
1275	   0	76.5	146.3	 847	OK
1276	   0	77.0	145.5	 869	OK
1277	   0	74.7	141.9	 841	OK
1278	   0	76.4	144.1	 869	OK
1279	   0	75.4	143.1	 823	OK
1280	   0	82.4	152.3	 773	OK
1281	   0	81.6	153.5	 817	OK
1282	   0	82.3	154.1	 815	OK
1283	   0	84.2	155.7	 785	OK
1284	   0	84.2	155.7	 787	OK
1285	   0	80.8	150.1	 823	OK
1286	   0	80.2	150.6	 801	OK
1287	   0	83.3	152.8	 808	OK
1288	   0	81.6	150.7	 803	OK
1289	   0	80.3	150.1	 799	OK
1290	   0	82.6	153.2	 785	OK
1291	   0	80.9	151.5	 807	OK
1292	   0	82.6	153.7	 806	OK
1293	   0	81.2	150.7	 818	OK
1294	   0	83.2	155.6	 789	OK
1295	   0	80.7	148.7	 819	OK
1296	   0	80.9	152.0	 824	OK
1297	   0	81.3	152.4	 816	OK
1298	   0	80.3	149.6	 803	OK
1299	1101	0.0	0.0	   0	dead
1300	1101	0.0	0.0	   0	dead
1301	   0	82.0	152.8	 794	OK
1302	   0	81.6	151.1	 798	OK
1303	   0	80.0	151.5	 793	OK
1304	   0	81.6	150.8	 798	OK
1305	   0	81.8	152.4	 806	OK
1306	   0	83.9	155.4	 798	OK
1307	   0	82.8	154.2	 780	OK
1308	   0	81.6	151.3	 807	OK
1309	   0	83.2	155.0	 821	OK
1310	   0	82.1	152.5	 820	OK
1311	   0	79.1	149.0	 810	OK
1312	1101	0.0	0.0	   0	dead
1313	   0	81.9	152.5	 809	OK
1314	   0	79.9	150.3	 826	OK
1315	   0	81.5	152.4	 811	OK
1316	   0	84.5	156.6	 802	OK
1317	   0	78.6	147.8	 822	OK
1318	   0	79.7	148.0	 821	OK
1319	   0	81.3	151.5	 811	OK
1320	   0	82.1	152.7	 826	OK
1321	   0	79.3	145.1	 812	OK
1322	4000	79.2	146.8	 835	high noise
1323	   0	81.7	151.2	 813	OK
1324	   0	82.5	151.2	 823	OK
1325	4000	80.6	151.3	 838	high noise
1326	   0	80.7	149.2	 829	OK
1327	   0	78.8	146.8	 832	OK
1328	   0	81.6	150.9	 830	OK
1329	   0	84.2	157.3	 791	OK
1330	   0	80.2	150.8	 825	OK
1331	4000	80.4	148.1	 835	high noise
1332	   0	81.1	150.1	 817	OK
1333	   0	82.2	152.7	 802	OK
1334	   0	82.4	152.7	 828	OK
1335	   0	79.8	151.1	 811	OK
1336	   0	81.8	154.1	 821	OK
1337	   0	80.3	150.3	 818	OK
1338	   0	81.5	152.0	 818	OK
1339	   0	82.6	153.7	 810	OK
1340	   0	81.5	152.7	 797	OK
1341	   0	83.4	155.2	 819	OK
1342	4000	81.2	151.0	 839	high noise
1343	   0	83.0	153.9	 817	OK
1344	   0	82.3	154.0	 815	OK
1345	   0	81.4	151.5	 830	OK
1346	   0	80.5	150.9	 814	OK
1347	   0	82.4	154.2	 829	OK
1348	   0	81.0	148.9	 812	OK
1349	   0	81.7	151.7	 795	OK
1350	   0	82.0	151.3	 814	OK
1351	   0	82.3	152.3	 820	OK
1352	   0	83.1	154.4	 813	OK
1353	   0	82.2	151.6	 816	OK
1354	   0	81.0	149.8	 806	OK
1355	   0	82.8	153.3	 819	OK
1356	   0	81.8	151.7	 817	OK
1357	   0	82.9	153.6	 810	OK
1358	   0	83.9	155.0	 808	OK
1359	   0	81.0	151.5	 817	OK
1360	1101	0.0	0.0	   0	dead
1361	1101	0.0	0.0	   0	dead
1362	1101	0.0	0.0	   0	dead
1363	   0	80.1	148.6	 830	OK
1364	   0	81.8	152.9	 814	OK
1365	   0	80.5	150.6	 819	OK
1366	1101	0.0	0.0	   0	dead
1367	   0	80.1	150.0	 832	OK
1368	1101	0.0	0.0	   0	dead
1369	1101	0.0	0.0	   0	dead
1370	   0	80.7	151.4	 802	OK
1371	   0	82.5	153.5	 817	OK
1372	   0	82.9	153.6	 778	OK
1373	   0	82.1	151.7	 803	OK
1374	1101	0.0	0.0	   0	dead
1375	1101	0.0	0.0	   0	dead
1376	   0	82.8	155.2	 819	OK
1377	   0	81.7	150.5	 833	OK
1378	   0	79.9	151.3	 823	OK
1379	   0	83.5	155.1	 821	OK
1380	   0	80.8	150.9	 831	OK
1381	   0	78.9	146.7	 810	OK
1382	4000	80.9	151.0	 848	high noise
1383	   0	79.5	148.0	 831	OK
1384	1101	0.0	0.0	   0	dead
1385	   0	78.5	147.0	 833	OK
1386	   0	80.3	151.2	 806	OK
1387	   0	80.9	148.7	 817	OK
1388	1101	0.0	0.0	   0	dead
1389	4000	78.8	146.4	 839	high noise
1390	   0	82.1	152.7	 810	OK
1391	1101	0.0	0.0	   0	dead
1392	   0	80.2	150.4	 815	OK
1393	4000	80.4	148.4	 836	high noise
1394	   0	79.8	149.8	 823	OK
1395	   0	82.1	151.5	 795	OK
1396	   0	80.0	149.4	 812	OK
1397	   0	80.0	149.4	 820	OK
1398	   0	80.4	150.9	 833	OK
1399	   0	78.7	146.8	 807	OK
1400	   0	81.4	151.9	 812	OK
1401	   0	80.0	149.2	 822	OK
1402	   0	81.8	152.2	 813	OK
1403	   0	81.3	150.1	 796	OK
1404	   0	82.5	153.4	 811	OK
1405	   0	80.9	150.9	 803	OK
1406	   0	82.5	153.9	 813	OK
1407	   0	81.9	152.9	 823	OK
1408	   0	80.9	151.2	 815	OK
1409	   0	82.6	154.6	 816	OK
1410	   0	82.8	153.5	 797	OK
1411	   0	80.3	152.5	 779	OK
1412	   0	81.9	153.5	 795	OK
1413	   0	80.5	152.5	 769	OK
1414	   0	81.1	153.0	 804	OK
1415	   0	80.7	149.7	 797	OK
1416	   0	80.6	148.1	 793	OK
1417	   0	84.4	156.8	 785	OK
1418	   0	81.7	152.0	 800	OK
1419	   0	77.1	144.8	 774	OK
1420	   0	81.3	151.2	 774	OK
1421	   0	81.6	151.7	 796	OK
1422	   0	81.0	152.5	 778	OK
1423	   0	81.8	153.3	 795	OK
1424	   0	81.9	152.5	 799	OK
1425	   0	80.1	151.6	 787	OK
1426	   0	81.6	149.9	 804	OK
1427	   0	81.8	153.8	 773	OK
1428	   0	80.3	151.8	 795	OK
1429	   0	78.2	145.6	 790	OK
1430	   0	80.2	153.4	 796	OK
1431	   0	79.5	150.9	 786	OK
1432	   0	80.3	150.6	 792	OK
1433	   0	84.4	156.7	 789	OK
1434	   0	82.2	153.0	 781	OK
1435	   0	80.0	148.0	 808	OK
1436	   0	78.8	148.0	 766	OK
1437	   0	82.3	155.4	 787	OK
1438	   0	82.1	151.6	 796	OK
1439	   0	80.9	155.3	 792	OK
1440	   0	82.7	154.3	 782	OK
1441	   0	78.0	146.5	 804	OK
1442	   0	80.6	152.1	 789	OK
1443	   0	81.8	152.5	 794	OK
1444	   0	80.6	151.3	 794	OK
1445	   0	81.7	153.6	 792	OK
1446	   0	82.4	154.8	 785	OK
1447	   0	82.6	154.1	 812	OK
1448	   0	82.2	154.6	 780	OK
1449	   0	81.7	152.4	 805	OK
1450	   0	81.3	150.9	 802	OK
1451	   0	79.5	148.6	 806	OK
1452	   0	79.9	149.3	 786	OK
1453	   0	79.9	150.2	 792	OK
1454	   0	81.7	154.7	 794	OK
1455	   0	80.9	151.8	 808	OK
1456	   0	77.8	145.0	 794	OK
1457	   0	79.9	151.9	 787	OK
1458	   0	78.9	147.5	 787	OK
1459	   0	79.3	147.5	 799	OK
1460	   0	82.4	153.0	 809	OK
1461	   0	82.9	154.7	 784	OK
1462	   0	80.7	150.0	 793	OK
1463	   0	80.2	149.7	 780	OK
1464	   0	78.3	145.6	 777	OK
1465	   0	81.1	153.0	 795	OK
1466	   0	81.9	152.6	 801	OK
1467	   0	81.2	153.5	 788	OK
1468	   0	80.4	150.8	 794	OK
1469	   0	82.0	154.9	 791	OK
1470	   0	81.7	151.8	 802	OK
1471	   0	82.7	155.1	 784	OK
1472	   0	82.8	154.6	 800	OK
1473	   0	79.9	151.2	 798	OK
1474	   0	78.7	148.2	 797	OK
1475	   0	79.5	150.9	 788	OK
1476	   0	80.1	150.1	 798	OK
1477	   0	81.1	151.5	 789	OK
1478	   0	78.8	149.1	 778	OK
1479	   0	79.5	148.8	 786	OK
1480	   0	80.3	150.7	 782	OK
1481	   0	79.3	150.3	 785	OK
1482	   0	79.8	151.9	 786	OK
1483	   0	80.7	151.2	 790	OK
1484	   0	77.6	147.4	 787	OK
1485	   0	78.8	149.8	 784	OK
1486	   0	78.6	144.7	 776	OK
1487	   0	82.0	154.5	 809	OK
1488	   0	78.1	146.9	 779	OK
1489	   0	80.8	151.7	 813	OK
1490	   0	80.6	151.1	 784	OK
1491	   0	81.6	152.1	 781	OK
1492	   0	81.7	153.4	 795	OK
1493	   0	78.7	146.4	 797	OK
1494	   0	81.7	151.9	 797	OK
1495	   0	80.0	148.4	 780	OK
1496	   0	80.5	152.8	 790	OK
1497	   0	78.2	145.3	 782	OK
1498	   0	79.9	150.9	 774	OK
1499	   0	78.6	149.0	 801	OK
1500	   0	80.8	151.4	 789	OK
1501	   0	78.7	149.2	 769	OK
1502	   0	80.4	151.4	 797	OK
1503	   0	81.0	150.7	 795	OK
1504	   0	80.3	149.4	 776	OK
1505	   0	78.6	148.4	 783	OK
1506	   0	79.9	150.3	 796	OK
1507	   0	79.8	150.3	 788	OK
1508	   0	80.4	151.5	 804	OK
1509	   0	80.5	152.6	 800	OK
1510	   0	78.6	147.6	 774	OK
1511	   0	80.1	150.0	 799	OK
1512	   0	80.4	151.3	 804	OK
1513	   0	79.4	147.2	 798	OK
1514	   0	79.1	146.5	 766	OK
1515	   0	80.3	150.8	 802	OK
1516	   0	82.8	155.2	 802	OK
1517	   0	80.1	149.6	 787	OK
1518	   0	79.5	149.0	 788	OK
1519	   0	81.1	151.7	 771	OK
1520	   0	81.9	154.1	 780	OK
1521	   0	81.4	151.3	 779	OK
1522	   0	81.8	153.7	 781	OK
1523	   0	82.5	155.9	 781	OK
1524	   0	82.1	154.1	 800	OK
1525	   0	82.1	154.2	 779	OK
1526	   0	80.5	149.7	 783	OK
1527	   0	80.6	152.6	 799	OK
1528	   0	79.6	150.2	 795	OK
1529	   0	80.3	150.4	 800	OK
1530	   0	82.0	153.6	 790	OK
1531	   0	82.6	154.2	 783	OK
1532	   0	82.4	152.8	 781	OK
1533	   0	81.9	154.9	 770	OK
1534	   0	81.7	152.4	 790	OK
1535	   0	82.1	153.2	 775	OK
1536	   0	81.0	150.9	 771	OK
1537	   0	81.3	150.2	 791	OK
1538	   0	80.4	147.8	 784	OK
1539	   0	81.8	151.7	 757	OK
1540	   0	83.7	156.2	 782	OK
1541	   0	81.1	150.4	 775	OK
1542	   0	82.9	153.6	 774	OK
1543	   0	80.6	149.5	 777	OK
1544	   0	81.1	150.5	 779	OK
1545	   0	79.4	149.3	 778	OK
1546	   0	82.1	154.6	 767	OK
1547	   0	79.0	147.8	 772	OK
1548	   0	80.6	150.4	 776	OK
1549	   0	82.5	153.1	 758	OK
1550	   0	79.7	150.3	 775	OK
1551	   0	78.9	146.5	 771	OK
1552	   0	78.2	146.0	 766	OK
1553	   0	80.4	148.7	 777	OK
1554	   0	77.2	143.5	 792	OK
1555	   0	80.2	149.1	 769	OK
1556	   0	79.0	148.4	 783	OK
1557	   0	80.4	148.1	 766	OK
1558	   0	80.0	148.5	 775	OK
1559	   0	80.6	148.6	 770	OK
1560	   0	80.0	147.3	 785	OK
1561	   0	78.4	146.2	 773	OK
1562	   0	79.3	147.5	 787	OK
1563	   0	81.4	152.2	 774	OK
1564	   0	78.5	146.6	 759	OK
1565	   0	79.9	148.3	 754	OK
1566	   0	78.2	147.7	 768	OK
1567	   0	77.2	145.0	 770	OK
1568	   0	79.1	147.8	 793	OK
1569	   0	78.9	146.9	 792	OK
1570	   0	79.9	149.9	 792	OK
1571	   0	79.3	147.0	 784	OK
1572	   0	78.5	146.1	 776	OK
1573	   0	80.2	149.7	 772	OK
1574	   0	80.4	149.8	 773	OK
1575	   0	79.2	150.5	 778	OK
1576	   0	78.7	147.9	 790	OK
1577	   0	79.6	148.2	 785	OK
1578	   0	80.0	148.0	 787	OK
1579	   0	78.6	146.4	 789	OK
1580	   0	78.5	146.3	 776	OK
1581	   0	80.8	148.8	 795	OK
1582	   0	78.8	147.5	 792	OK
1583	   0	77.8	147.1	 759	OK
1584	   0	79.1	146.7	 768	OK
1585	   0	77.1	142.9	 770	OK
1586	   0	81.0	152.5	 770	OK
1587	   0	78.9	148.9	 776	OK
1588	   0	79.2	145.7	 768	OK
1589	   0	78.9	146.9	 750	OK
1590	   0	79.2	146.9	 788	OK
1591	   0	79.6	149.3	 779	OK
1592	   0	78.8	149.6	 789	OK
1593	   0	83.0	152.3	 762	OK
1594	   0	80.7	151.2	 784	OK
1595	   0	80.9	151.4	 783	OK
1596	   0	83.2	155.3	 778	OK
1597	   0	81.3	149.7	 778	OK
1598	   0	82.3	153.6	 778	OK
1599	   0	81.9	154.3	 763	OK
1600	   0	80.0	151.0	 762	OK
1601	   0	83.8	154.8	 758	OK
1602	   0	79.0	147.9	 781	OK
1603	   0	81.6	154.7	 778	OK
1604	   0	79.5	149.3	 789	OK
1605	   0	78.8	147.3	 774	OK
1606	   0	80.9	151.4	 775	OK
1607	   0	80.1	149.1	 782	OK
1608	   0	78.9	149.5	 797	OK
1609	   0	79.9	149.1	 772	OK
1610	   0	79.8	147.6	 796	OK
1611	   0	79.5	148.0	 775	OK
1612	   0	79.1	146.9	 768	OK
1613	   0	78.8	147.2	 765	OK
1614	   0	79.2	148.6	 802	OK
1615	   0	82.0	154.0	 780	OK
1616	   0	79.6	147.7	 787	OK
1617	   0	79.6	149.6	 769	OK
1618	   0	79.6	147.8	 806	OK
1619	   0	80.9	150.7	 752	OK
1620	   0	79.2	148.9	 767	OK
1621	   0	80.8	151.4	 767	OK
1622	   0	80.1	149.5	 770	OK
1623	   0	79.2	146.8	 767	OK
1624	   0	80.5	151.6	 773	OK
1625	   0	81.4	152.4	 777	OK
1626	   0	78.5	146.7	 789	OK
1627	   0	80.7	150.0	 770	OK
1628	   0	78.8	148.2	 787	OK
1629	   0	81.1	150.3	 763	OK
1630	   0	83.0	155.8	 762	OK
1631	   0	80.5	151.1	 745	OK
1632	   0	81.2	150.0	 778	OK
1633	   0	80.6	149.3	 760	OK
1634	   0	81.0	150.6	 775	OK
1635	   0	80.3	148.1	 763	OK
1636	   0	78.6	148.1	 760	OK
1637	   0	79.6	149.3	 765	OK
1638	   0	77.9	144.2	 785	OK
1639	   0	80.5	149.0	 760	OK
1640	   0	80.8	148.8	 757	OK
1641	   0	79.9	148.5	 759	OK
1642	   0	80.8	151.4	 768	OK
1643	   0	79.5	147.6	 767	OK
1644	   0	81.0	152.5	 789	OK
1645	   0	81.0	151.4	 751	OK
1646	   0	82.7	155.0	 773	OK
1647	   0	80.0	147.4	 761	OK
1648	   0	80.3	148.3	 775	OK
1649	   0	79.7	149.4	 776	OK
1650	   0	81.8	151.1	 774	OK
1651	   0	81.6	152.2	 768	OK
1652	   0	81.6	153.0	 768	OK
1653	   0	78.3	145.9	 771	OK
1654	   0	80.9	151.8	 764	OK
1655	   0	81.3	152.0	 743	OK
1656	   0	82.4	154.2	 746	OK
1657	   0	78.8	148.1	 774	OK
1658	   0	80.3	150.1	 759	OK
1659	   0	81.4	150.5	 764	OK
1660	   0	80.5	150.8	 753	OK
1661	   0	81.2	154.0	 783	OK
1662	   0	81.2	150.7	 768	OK
1663	   0	79.4	147.8	 749	OK
1664	   0	80.7	150.7	 813	OK
1665	   0	82.4	154.3	 805	OK
1666	   0	82.0	151.0	 817	OK
1667	   0	80.1	150.8	 818	OK
1668	   0	81.8	151.7	 827	OK
1669	   0	80.9	152.1	 824	OK
1670	   0	83.6	156.8	 815	OK
1671	   0	82.5	153.4	 816	OK
1672	   0	82.3	154.4	 808	OK
1673	   0	82.1	154.8	 805	OK
1674	   0	81.9	153.2	 803	OK
1675	   0	82.5	154.2	 814	OK
1676	   0	81.5	150.4	 818	OK
1677	   0	82.2	156.6	 806	OK
1678	   0	80.3	150.6	 816	OK
1679	   0	80.8	152.1	 804	OK
1680	   0	81.2	153.6	 814	OK
1681	   0	82.8	156.1	 808	OK
1682	   0	82.1	152.9	 822	OK
1683	   0	81.9	153.7	 816	OK
1684	   0	82.2	151.2	 796	OK
1685	   0	80.6	152.0	 817	OK
1686	   0	80.4	149.8	 795	OK
1687	   0	82.2	154.1	 802	OK
1688	   0	81.2	153.2	 818	OK
1689	   0	81.4	152.3	 818	OK
1690	   0	82.5	154.0	 808	OK
1691	   0	80.7	150.7	 803	OK
1692	   0	79.6	149.4	 811	OK
1693	   0	81.2	151.1	 809	OK
1694	   0	79.3	148.6	 814	OK
1695	   0	81.2	153.4	 816	OK
1696	   0	78.6	148.4	 810	OK
1697	   0	81.8	151.3	 822	OK
1698	   0	82.9	154.6	 819	OK
1699	   0	81.6	151.5	 825	OK
1700	   0	79.2	148.5	 831	OK
1701	   0	80.7	152.3	 822	OK
1702	   0	81.5	151.2	 821	OK
1703	   0	81.2	152.1	 828	OK
1704	   0	81.8	154.1	 828	OK
1705	   0	79.9	150.5	 825	OK
1706	   0	81.8	154.2	 828	OK
1707	   0	80.1	149.8	 826	OK
1708	   0	80.6	151.6	 805	OK
1709	   0	82.7	155.5	 802	OK
1710	   0	81.1	151.4	 812	OK
1711	   0	80.7	152.8	 821	OK
1712	   0	81.0	150.8	 814	OK
1713	   0	79.9	150.9	 805	OK
1714	   0	80.5	152.1	 810	OK
1715	   0	82.2	154.5	 790	OK
1716	   0	80.5	151.2	 820	OK
1717	   0	81.2	152.5	 821	OK
1718	   0	81.3	153.0	 814	OK
1719	   0	79.3	150.1	 826	OK
1720	   0	81.5	153.2	 815	OK
1721	   0	82.9	154.3	 819	OK
1722	   0	82.1	153.8	 811	OK
1723	   0	80.7	151.5	 818	OK
1724	   0	80.9	153.5	 827	OK
1725	   0	78.9	148.1	 798	OK
1726	   0	82.4	151.9	 834	OK
1727	   0	81.8	153.9	 826	OK
1728	   0	80.9	154.3	 813	OK
1729	   0	80.1	151.0	 809	OK
1730	   0	82.4	157.1	 810	OK
1731	   0	79.7	150.0	 814	OK
1732	   0	78.9	149.2	 825	OK
1733	   0	79.0	149.6	 812	OK
1734	   0	80.3	152.0	 822	OK
1735	   0	80.6	152.2	 801	OK
1736	   0	80.8	152.7	 824	OK
1737	   0	79.2	148.8	 796	OK
1738	   0	81.2	153.0	 827	OK
1739	   0	80.6	150.3	 804	OK
1740	   0	80.8	154.7	 830	OK
1741	   0	82.0	154.1	 823	OK
1742	   0	80.6	152.7	 810	OK
1743	   0	82.9	155.0	 809	OK
1744	   0	78.8	149.1	 841	OK
1745	   0	80.3	151.4	 816	OK
1746	   0	79.7	148.8	 818	OK
1747	   0	80.1	149.8	 818	OK
1748	   0	82.7	153.0	 825	OK
1749	   0	80.1	152.6	 804	OK
1750	   0	79.9	149.8	 838	OK
1751	   0	82.1	155.0	 830	OK
1752	   0	81.6	153.6	 822	OK
1753	   0	78.8	147.5	 816	OK
1754	   0	80.4	150.7	 791	OK
1755	   0	81.5	152.6	 814	OK
1756	   0	80.3	150.1	 802	OK
1757	   0	78.8	147.9	 804	OK
1758	   0	81.1	151.5	 829	OK
1759	   0	82.3	155.0	 809	OK
1760	   0	81.8	154.1	 797	OK
1761	   0	79.6	150.8	 811	OK
1762	   0	81.6	151.5	 821	OK
1763	   0	82.4	153.9	 803	OK
1764	   0	80.9	151.6	 812	OK
1765	   0	81.0	150.1	 815	OK
1766	   0	79.8	151.0	 822	OK
1767	   0	80.2	152.1	 801	OK
1768	   0	78.5	148.5	 816	OK
1769	   0	79.6	149.5	 814	OK
1770	   0	83.0	155.2	 802	OK
1771	   0	79.5	147.8	 816	OK
1772	   0	82.2	154.0	 818	OK
1773	   0	82.1	154.9	 822	OK
1774	   0	80.7	149.2	 809	OK
1775	   0	80.3	153.6	 807	OK
1776	   0	79.9	151.7	 804	OK
1777	   0	79.7	149.1	 793	OK
1778	   0	80.6	150.0	 812	OK
1779	   0	80.9	152.7	 817	OK
1780	   0	81.4	152.6	 813	OK
1781	   0	81.9	155.8	 799	OK
1782	   0	80.2	151.0	 809	OK
1783	   0	82.7	154.7	 814	OK
1784	   0	80.9	152.6	 808	OK
1785	   0	81.8	153.7	 815	OK
1786	   0	82.2	152.6	 814	OK
1787	   0	80.8	152.8	 820	OK
1788	   0	80.6	149.7	 803	OK
1789	   0	80.5	151.6	 799	OK
1790	   0	80.2	150.1	 806	OK
1791	   0	80.9	152.1	 818	OK
1792	   0	81.4	154.8	 813	OK
1793	   0	82.1	154.0	 827	OK
1794	   0	81.2	152.0	 817	OK
1795	   0	82.1	153.7	 792	OK
1796	   0	79.7	150.1	 803	OK
1797	   0	82.2	154.5	 806	OK
1798	   0	81.0	152.1	 804	OK
1799	   0	80.1	152.2	 792	OK
1800	   0	81.4	151.4	 818	OK
1801	   0	80.8	151.7	 815	OK
1802	   0	78.9	148.7	 837	OK
1803	   0	80.2	149.4	 828	OK
1804	   0	79.4	149.0	 807	OK
1805	   0	81.2	149.7	 819	OK
1806	   0	78.6	147.0	 807	OK
1807	   0	79.7	149.1	 820	OK
1808	   0	82.8	153.2	 817	OK
1809	   0	80.8	151.7	 825	OK
1810	   0	79.5	147.8	 802	OK
1811	   0	78.8	148.1	 811	OK
1812	   0	80.3	150.5	 821	OK
1813	   0	81.0	152.3	 807	OK
1814	   0	80.9	149.9	 827	OK
1815	   0	79.9	148.2	 823	OK
1816	   0	81.1	150.1	 790	OK
1817	   0	82.7	153.4	 820	OK
1818	   0	79.1	149.9	 817	OK
1819	   0	79.4	149.2	 815	OK
1820	   0	77.7	143.4	 816	OK
1821	   0	80.1	149.4	 818	OK
1822	   0	79.7	148.7	 819	OK
1823	   0	80.4	148.6	 812	OK
1824	   0	80.3	150.3	 795	OK
1825	   0	79.9	148.0	 808	OK
1826	   0	78.2	145.8	 821	OK
1827	   0	79.4	147.7	 814	OK
1828	   0	78.7	147.9	 817	OK
1829	   0	78.5	147.4	 835	OK
1830	   0	79.4	149.6	 813	OK
1831	   0	79.7	148.8	 818	OK
1832	   0	79.6	147.3	 818	OK
1833	   0	80.9	151.4	 833	OK
1834	   0	79.3	148.6	 817	OK
1835	   0	79.5	149.3	 846	OK
1836	   0	77.9	146.8	 818	OK
1837	   0	79.0	148.7	 816	OK
1838	   0	79.7	148.9	 832	OK
1839	   0	81.7	151.1	 814	OK
1840	   0	82.5	152.6	 822	OK
1841	   0	81.0	152.4	 820	OK
1842	   0	80.8	150.1	 823	OK
1843	   0	80.4	151.5	 813	OK
1844	   0	80.7	150.8	 806	OK
1845	   0	80.6	150.5	 819	OK
1846	   0	81.1	152.9	 824	OK
1847	   0	79.1	149.9	 829	OK
1848	   0	77.2	145.5	 790	OK
1849	   0	80.8	151.5	 843	OK
1850	   0	79.8	149.7	 814	OK
1851	   0	79.2	148.4	 815	OK
1852	   0	79.6	150.9	 821	OK
1853	   0	78.9	149.2	 829	OK
1854	   0	81.7	153.0	 820	OK
1855	   0	81.7	152.5	 813	OK
1856	   0	77.6	145.9	 830	OK
1857	   0	81.5	151.7	 829	OK
1858	   0	81.1	149.4	 818	OK
1859	   0	80.3	149.7	 810	OK
1860	   0	80.1	149.0	 819	OK
1861	   0	77.3	145.5	 813	OK
1862	   0	79.0	149.4	 806	OK
1863	   0	79.7	149.6	 816	OK
1864	   0	79.7	149.5	 826	OK
1865	   0	80.2	149.7	 816	OK
1866	   0	79.2	149.2	 809	OK
1867	   0	81.5	151.7	 815	OK
1868	   0	78.4	145.7	 792	OK
1869	   0	79.0	149.8	 820	OK
1870	   0	78.5	147.1	 810	OK
1871	   0	80.7	151.0	 812	OK
1872	   0	79.9	148.7	 820	OK
1873	   0	79.0	146.3	 817	OK
1874	   0	81.5	150.5	 812	OK
1875	   0	81.0	151.5	 808	OK
1876	   0	80.1	149.8	 816	OK
1877	   0	78.2	146.1	 798	OK
1878	   0	81.2	153.1	 805	OK
1879	   0	78.7	149.4	 799	OK
1880	   0	79.5	148.5	 823	OK
1881	   0	78.6	145.2	 810	OK
1882	   0	79.4	146.8	 814	OK
1883	   0	79.5	150.4	 795	OK
1884	   0	79.8	151.2	 810	OK
1885	   0	78.2	147.4	 820	OK
1886	   0	79.7	146.2	 837	OK
1887	   0	78.8	145.6	 817	OK
1888	   0	80.0	147.3	 828	OK
1889	   0	77.4	146.7	 810	OK
1890	   0	80.3	151.0	 823	OK
1891	   0	80.0	150.7	 802	OK
1892	   0	79.1	147.0	 807	OK
1893	   0	79.2	148.7	 807	OK
1894	   0	79.2	148.9	 804	OK
1895	   0	80.5	149.2	 830	OK
1896	   0	81.3	151.3	 803	OK
1897	   0	80.7	154.0	 806	OK
1898	   0	78.1	145.6	 830	OK
1899	   0	80.9	150.9	 813	OK
1900	   0	80.1	150.6	 804	OK
1901	   0	79.0	149.6	 801	OK
1902	   0	80.3	148.2	 824	OK
1903	   0	77.8	148.4	 821	OK
1904	   0	80.3	150.6	 819	OK
1905	   0	80.5	148.1	 802	OK
1906	   0	79.6	150.0	 807	OK
1907	   0	82.6	153.7	 805	OK
1908	   0	78.4	146.9	 815	OK
1909	   0	78.4	146.6	 785	OK
1910	   0	79.9	148.3	 782	OK
1911	   0	79.3	149.3	 801	OK
1912	   0	79.3	148.3	 780	OK
1913	   0	80.4	149.4	 803	OK
1914	   0	79.4	149.4	 797	OK
1915	   0	82.4	152.0	 811	OK
1916	   0	80.0	150.5	 826	OK
1917	   0	79.9	150.3	 813	OK
1918	   0	79.8	148.0	 797	OK
1919	   0	78.2	143.7	 830	OK
1920	   0	83.6	154.4	 804	OK
1921	   0	81.5	151.9	 801	OK
1922	   0	81.0	152.0	 788	OK
1923	   0	84.3	158.2	 786	OK
1924	   0	81.0	152.2	 801	OK
1925	   0	79.5	149.6	 802	OK
1926	   0	81.1	150.9	 806	OK
1927	   0	80.4	150.3	 802	OK
1928	   0	83.7	156.3	 793	OK
1929	   0	80.8	151.9	 798	OK
1930	   0	80.9	151.1	 790	OK
1931	   0	80.2	153.1	 796	OK
1932	   0	79.1	148.7	 811	OK
1933	   0	81.7	152.3	 784	OK
1934	   0	79.3	149.8	 795	OK
1935	   0	81.4	150.3	 790	OK
1936	   0	77.9	146.2	 806	OK
1937	   0	82.8	153.7	 787	OK
1938	   0	79.6	150.7	 812	OK
1939	   0	80.2	150.9	 803	OK
1940	   0	80.5	152.0	 805	OK
1941	   0	80.2	151.3	 793	OK
1942	   0	80.4	152.0	 800	OK
1943	   0	80.5	150.4	 797	OK
1944	   0	81.2	151.8	 802	OK
1945	   0	80.3	150.5	 792	OK
1946	   0	80.2	149.6	 795	OK
1947	   0	81.6	153.4	 803	OK
1948	   0	82.5	153.7	 786	OK
1949	   0	80.2	149.8	 812	OK
1950	   0	79.2	151.1	 802	OK
1951	   0	80.2	150.2	 775	OK
1952	   0	79.3	151.3	 790	OK
1953	   0	80.2	152.9	 787	OK
1954	   0	80.1	147.9	 800	OK
1955	   0	81.4	154.6	 787	OK
1956	   0	83.9	156.9	 794	OK
1957	   0	82.0	153.7	 773	OK
1958	   0	81.8	156.5	 799	OK
1959	   0	79.7	150.0	 820	OK
1960	   0	78.3	148.6	 810	OK
1961	   0	80.4	150.7	 786	OK
1962	   0	81.8	152.8	 801	OK
1963	   0	80.0	151.9	 802	OK
1964	   0	81.8	153.5	 786	OK
1965	   0	80.2	148.8	 802	OK
1966	   0	82.5	156.8	 797	OK
1967	   0	79.8	150.6	 797	OK
1968	   0	80.9	152.8	 806	OK
1969	   0	80.9	152.6	 776	OK
1970	   0	80.2	153.6	 786	OK
1971	   0	78.6	148.2	 785	OK
1972	   0	81.6	151.6	 783	OK
1973	   0	82.3	154.1	 788	OK
1974	   0	81.6	151.3	 813	OK
1975	   0	80.2	151.2	 815	OK
1976	   0	80.7	151.7	 799	OK
1977	   0	82.2	152.2	 790	OK
1978	   0	80.8	149.9	 797	OK
1979	   0	82.5	153.9	 781	OK
1980	   0	79.3	149.5	 798	OK
1981	   0	80.4	150.2	 798	OK
1982	   0	82.8	155.4	 819	OK
1983	   0	82.0	154.4	 806	OK
1984	   0	79.7	150.5	 798	OK
1985	   0	80.5	150.4	 809	OK
1986	   0	80.7	152.1	 788	OK
1987	   0	77.9	148.0	 798	OK
1988	   0	80.3	151.7	 792	OK
1989	   0	79.0	150.2	 802	OK
1990	   0	80.7	153.5	 811	OK
1991	   0	78.6	146.9	 782	OK
1992	   0	81.2	153.9	 804	OK
1993	   0	81.8	153.2	 787	OK
1994	   0	79.1	147.7	 781	OK
1995	   0	80.0	150.2	 801	OK
1996	   0	79.3	148.3	 817	OK
1997	   0	79.2	151.0	 789	OK
1998	   0	81.1	153.5	 816	OK
1999	   0	79.6	148.3	 799	OK
2000	   0	79.1	149.9	 798	OK
2001	   0	81.3	153.1	 820	OK
2002	   0	79.7	150.3	 805	OK
2003	   0	79.3	150.7	 800	OK
2004	   0	79.7	149.2	 788	OK
2005	   0	81.9	153.4	 804	OK
2006	   0	80.6	149.2	 797	OK
2007	   0	80.3	148.8	 796	OK
2008	   0	81.3	152.0	 813	OK
2009	   0	80.6	151.7	 795	OK
2010	   0	79.2	151.4	 802	OK
2011	   0	76.1	144.6	 827	OK
2012	   0	79.1	147.9	 787	OK
2013	   0	81.1	151.6	 809	OK
2014	   0	77.2	144.9	 803	OK
2015	   0	79.9	150.4	 794	OK
2016	   0	81.4	153.3	 787	OK
2017	   0	78.8	150.3	 799	OK
2018	   0	79.3	151.4	 827	OK
2019	   0	80.2	152.6	 795	OK
2020	   0	80.3	149.8	 803	OK
2021	   0	80.1	151.5	 793	OK
2022	   0	78.6	150.3	 790	OK
2023	   0	79.6	151.6	 806	OK
2024	   0	80.9	153.1	 810	OK
2025	   0	80.0	151.8	 798	OK
2026	   0	80.6	152.6	 811	OK
2027	   0	78.4	147.2	 802	OK
2028	   0	78.9	147.1	 806	OK
2029	   0	79.9	150.3	 787	OK
2030	   0	80.7	150.9	 789	OK
2031	   0	78.5	148.6	 830	OK
2032	   0	80.3	150.7	 812	OK
2033	   0	81.4	154.3	 794	OK
2034	   0	79.6	150.8	 790	OK
2035	   0	81.4	152.7	 807	OK
2036	   0	79.7	152.0	 796	OK
2037	   0	79.6	149.7	 797	OK
2038	   0	82.3	154.0	 792	OK
2039	   0	78.8	147.4	 814	OK
2040	   0	81.4	152.2	 794	OK
2041	   0	81.7	153.6	 805	OK
2042	   0	80.0	150.1	 814	OK
2043	   0	80.6	151.2	 786	OK
2044	   0	82.7	156.3	 798	OK
2045	   0	81.2	152.7	 810	OK
2046	   0	81.3	152.5	 784	OK
2047	   0	81.9	153.6	 811	OK
2048	   0	77.9	147.5	 834	OK
2049	   0	78.7	148.7	 827	OK
2050	   0	78.8	146.3	 838	OK
2051	   0	78.7	146.0	 839	OK
2052	   0	78.3	148.5	 848	OK
2053	   0	79.4	149.6	 826	OK
2054	   0	77.1	145.5	 835	OK
2055	   0	77.3	144.6	 829	OK
2056	   0	80.1	148.9	 835	OK
2057	   0	79.2	147.9	 806	OK
2058	   0	77.7	146.5	 796	OK
2059	   0	81.0	151.5	 815	OK
2060	   0	79.0	146.8	 815	OK
2061	   0	77.1	146.2	 807	OK
2062	   0	77.8	146.5	 826	OK
2063	   0	79.0	149.0	 840	OK
2064	   0	78.3	145.5	 814	OK
2065	   0	76.3	144.5	 825	OK
2066	   0	79.1	146.7	 821	OK
2067	   0	78.6	147.1	 831	OK
2068	   0	79.6	148.8	 832	OK
2069	   0	78.6	147.6	 818	OK
2070	   0	78.5	148.2	 839	OK
2071	   0	78.4	145.7	 795	OK
2072	   0	76.9	145.0	 828	OK
2073	   0	79.1	147.4	 823	OK
2074	   0	79.4	149.8	 838	OK
2075	   0	79.3	149.4	 841	OK
2076	   0	79.7	148.7	 819	OK
2077	   0	77.4	146.3	 833	OK
2078	   0	76.7	145.1	 824	OK
2079	   0	78.3	145.7	 822	OK
2080	   0	77.8	145.4	 832	OK
2081	   0	78.2	144.3	 813	OK
2082	   0	79.7	150.0	 815	OK
2083	   0	77.0	144.9	 828	OK
2084	   0	78.6	146.9	 815	OK
2085	   0	79.0	147.1	 808	OK
2086	   0	77.6	147.0	 839	OK
2087	   0	78.4	146.7	 818	OK
2088	   0	77.6	146.7	 815	OK
2089	   0	76.5	143.0	 830	OK
2090	   0	78.1	146.5	 829	OK
2091	   0	76.4	142.6	 836	OK
2092	   0	79.0	150.8	 816	OK
2093	   0	78.1	147.6	 845	OK
2094	   0	76.1	143.1	 827	OK
2095	   0	78.7	149.4	 813	OK
2096	   0	79.0	146.8	 834	OK
2097	   0	80.4	152.5	 806	OK
2098	   0	77.3	148.3	 821	OK
2099	   0	76.9	146.0	 808	OK
2100	   0	79.2	147.7	 839	OK
2101	   0	76.8	146.4	 820	OK
2102	   0	79.5	149.3	 821	OK
2103	   0	78.0	147.5	 824	OK
2104	   0	79.6	149.9	 819	OK
2105	   0	79.4	149.3	 825	OK
2106	   0	78.9	146.6	 833	OK
2107	   0	78.3	146.4	 824	OK
2108	   0	77.1	144.8	 824	OK
2109	   0	80.0	149.9	 829	OK
2110	   0	81.0	153.0	 814	OK
2111	   0	79.0	148.1	 818	OK
2112	   0	76.1	145.5	 838	OK
2113	   0	78.5	146.8	 819	OK
2114	   0	77.9	147.0	 815	OK
2115	   0	77.6	145.2	 817	OK
2116	   0	77.4	146.9	 826	OK
2117	   0	77.7	146.9	 820	OK
2118	   0	77.8	146.2	 828	OK
2119	   0	77.6	145.9	 838	OK
2120	   0	79.2	147.9	 823	OK
2121	   0	76.7	145.2	 830	OK
2122	   0	76.5	145.0	 826	OK
2123	   0	78.3	146.6	 810	OK
2124	   0	77.3	144.3	 832	OK
2125	   0	75.9	142.8	 810	OK
2126	   0	76.9	144.1	 824	OK
2127	   0	78.7	148.6	 807	OK
2128	   0	77.9	144.7	 839	OK
2129	   0	75.5	143.0	 828	OK
2130	   0	81.1	153.1	 831	OK
2131	   0	75.9	142.4	 830	OK
2132	   0	79.3	146.6	 806	OK
2133	   0	79.5	150.7	 839	OK
2134	   0	80.9	149.8	 817	OK
2135	   0	77.8	147.9	 819	OK
2136	   0	77.9	145.7	 843	OK
2137	   0	76.3	143.4	 813	OK
2138	   0	79.3	149.0	 836	OK
2139	   0	77.7	145.3	 815	OK
2140	   0	79.0	147.8	 812	OK
2141	   0	78.1	147.3	 816	OK
2142	   0	77.8	145.3	 832	OK
2143	   0	77.8	145.0	 827	OK
2144	   0	79.6	148.0	 828	OK
2145	   0	79.2	149.1	 832	OK
2146	   0	77.5	146.3	 831	OK
2147	   0	76.6	143.1	 821	OK
2148	   0	78.6	146.2	 844	OK
2149	   0	77.0	143.7	 827	OK
2150	   0	78.5	144.4	 838	OK
2151	   0	78.2	148.0	 819	OK
2152	   0	79.2	149.0	 823	OK
2153	   0	77.5	146.9	 817	OK
2154	   0	76.0	142.9	 829	OK
2155	   0	74.7	142.7	 808	OK
2156	   0	76.3	144.5	 817	OK
2157	   0	77.5	146.2	 820	OK
2158	   0	81.7	153.7	 821	OK
2159	   0	77.3	145.9	 819	OK
2160	   0	77.1	143.3	 836	OK
2161	   0	80.5	151.8	 821	OK
2162	   0	74.9	139.4	 824	OK
2163	   0	77.2	147.3	 814	OK
2164	   0	78.8	147.4	 831	OK
2165	   0	77.6	146.7	 834	OK
2166	   0	78.1	146.7	 825	OK
2167	   0	79.3	148.8	 810	OK
2168	   0	80.5	151.5	 813	OK
2169	   0	80.8	150.0	 818	OK
2170	   0	78.5	147.8	 816	OK
2171	   0	80.2	152.3	 822	OK
2172	   0	79.7	148.4	 825	OK
2173	   0	77.1	144.7	 809	OK
2174	   0	78.7	147.9	 816	OK
2175	   0	76.8	145.5	 831	OK
2176	   0	80.5	151.6	 829	OK
2177	   0	80.7	151.7	 814	OK
2178	   0	80.2	152.3	 816	OK
2179	   0	80.9	151.9	 817	OK
2180	   0	81.2	151.8	 838	OK
2181	   0	81.1	152.1	 830	OK
2182	   0	79.6	148.6	 845	OK
2183	   0	77.6	145.3	 850	OK
2184	   0	78.1	147.3	 819	OK
2185	   0	79.3	149.1	 810	OK
2186	   0	82.5	155.9	 817	OK
2187	   0	82.2	154.8	 820	OK
2188	   0	80.1	149.0	 825	OK
2189	   0	78.9	148.2	 819	OK
2190	   0	82.0	155.2	 830	OK
2191	   0	80.8	152.9	 803	OK
2192	   0	79.8	150.6	 816	OK
2193	   0	81.7	153.4	 833	OK
2194	   0	79.0	149.9	 816	OK
2195	   0	81.8	155.0	 818	OK
2196	   0	82.1	155.3	 810	OK
2197	   0	80.2	151.3	 818	OK
2198	   0	80.1	150.5	 835	OK
2199	   0	77.3	146.0	 853	OK
2200	   0	79.5	149.1	 832	OK
2201	   0	78.5	148.5	 814	OK
2202	   0	81.9	155.1	 830	OK
2203	   0	79.2	150.8	 833	OK
2204	   0	81.3	153.4	 824	OK
2205	   0	79.4	149.4	 816	OK
2206	   0	82.0	155.6	 835	OK
2207	   0	80.4	150.4	 808	OK
2208	   0	81.2	153.2	 822	OK
2209	   0	81.0	152.8	 848	OK
2210	   0	80.4	150.4	 824	OK
2211	   0	80.6	153.6	 820	OK
2212	   0	79.8	150.3	 818	OK
2213	   0	78.2	148.9	 835	OK
2214	   0	82.1	155.3	 829	OK
2215	   0	78.8	148.6	 827	OK
2216	   0	81.7	152.5	 830	OK
2217	   0	79.1	153.2	 826	OK
2218	   0	80.7	151.6	 835	OK
2219	   0	79.8	150.2	 808	OK
2220	   0	79.6	151.0	 828	OK
2221	   0	79.3	149.9	 851	OK
2222	   0	78.0	146.1	 831	OK
2223	   0	81.0	151.9	 818	OK
2224	   0	78.6	149.1	 810	OK
2225	   0	79.0	150.6	 848	OK
2226	   0	79.0	147.6	 814	OK
2227	   0	78.0	146.5	 830	OK
2228	   0	78.3	146.9	 816	OK
2229	   0	78.5	148.9	 822	OK
2230	   0	77.7	146.3	 821	OK
2231	   0	78.9	148.1	 818	OK
2232	   0	80.6	151.3	 805	OK
2233	   0	78.7	147.1	 834	OK
2234	   0	82.8	154.9	 850	OK
2235	   0	79.7	150.5	 821	OK
2236	   0	80.6	152.9	 814	OK
2237	   0	80.6	154.0	 813	OK
2238	   0	82.3	153.3	 824	OK
2239	   0	80.9	151.7	 824	OK
2240	   0	79.4	151.1	 841	OK
2241	   0	80.0	151.9	 824	OK
2242	   0	78.9	148.6	 846	OK
2243	   0	78.0	146.7	 836	OK
2244	   0	79.5	149.8	 840	OK
2245	   0	78.3	148.5	 846	OK
2246	   0	79.8	150.9	 838	OK
2247	   0	80.7	151.2	 833	OK
2248	   0	78.9	150.0	 823	OK
2249	   0	78.0	148.2	 829	OK
2250	   0	78.1	148.2	 843	OK
2251	   0	77.6	148.8	 833	OK
2252	   0	78.4	149.0	 818	OK
2253	   0	78.9	149.5	 834	OK
2254	   0	78.7	148.6	 831	OK
2255	   0	78.1	149.2	 835	OK
2256	   0	78.2	147.3	 839	OK
2257	   0	76.6	145.1	 844	OK
2258	   0	79.9	151.9	 816	OK
2259	   0	78.1	147.3	 837	OK
2260	   0	80.2	150.1	 847	OK
2261	   0	78.4	147.8	 835	OK
2262	   0	77.3	147.6	 837	OK
2263	   0	79.9	149.4	 819	OK
2264	   0	78.6	149.9	 829	OK
2265	   0	80.2	152.0	 839	OK
2266	   0	77.7	147.8	 843	OK
2267	   0	80.7	149.9	 838	OK
2268	   0	79.0	148.4	 816	OK
2269	   0	79.1	150.6	 846	OK
2270	   0	81.7	154.1	 830	OK
2271	   0	80.0	149.9	 829	OK
2272	   0	79.3	150.1	 837	OK
2273	   0	78.4	148.3	 832	OK
2274	   0	79.9	151.0	 845	OK
2275	   0	77.9	146.1	 812	OK
2276	   0	79.3	147.9	 837	OK
2277	   0	78.8	149.6	 845	OK
2278	   0	80.6	152.4	 840	OK
2279	   0	78.3	149.7	 831	OK
2280	   0	77.2	147.4	 842	OK
2281	   0	78.3	147.7	 854	OK
2282	   0	79.1	150.0	 822	OK
2283	   0	79.2	149.1	 830	OK
2284	   0	77.5	147.5	 823	OK
2285	   0	76.9	147.3	 836	OK
2286	   0	77.1	147.5	 844	OK
2287	   0	78.9	147.8	 822	OK
2288	   0	79.5	149.7	 841	OK
2289	   0	80.7	152.0	 846	OK
2290	   0	80.9	150.1	 832	OK
2291	   0	79.6	150.4	 848	OK
2292	   0	79.0	150.3	 833	OK
2293	   0	79.0	152.4	 826	OK
2294	   0	81.5	154.4	 834	OK
2295	   0	77.9	147.7	 828	OK
2296	   0	79.0	150.7	 836	OK
2297	   0	80.4	151.9	 835	OK
2298	   0	78.4	147.0	 820	OK
2299	   0	81.0	152.0	 828	OK
2300	   0	79.3	151.3	 832	OK
2301	   0	80.1	150.1	 822	OK
2302	   0	81.3	154.9	 832	OK
2303	   0	80.4	151.1	 855	OK
2304	   0	75.9	143.0	 851	OK
2305	   0	75.2	143.3	 874	OK
2306	   0	76.4	143.7	 861	OK
2307	   0	78.6	146.9	 851	OK
2308	   0	78.1	147.9	 863	OK
2309	   0	74.8	141.6	 851	OK
2310	   0	77.2	144.6	 853	OK
2311	   0	73.5	141.3	 847	OK
2312	   0	76.3	144.8	 836	OK
2313	   0	77.7	148.4	 846	OK
2314	   0	76.5	146.9	 840	OK
2315	   0	75.2	145.2	 836	OK
2316	   0	76.4	147.5	 830	OK
2317	   0	75.9	142.4	 843	OK
2318	   0	77.3	148.8	 861	OK
2319	   0	75.2	143.4	 854	OK
2320	   0	75.9	143.7	 848	OK
2321	   0	74.7	142.5	 829	OK
2322	   0	75.8	145.5	 834	OK
2323	   0	75.6	143.6	 864	OK
2324	   0	73.7	142.1	 846	OK
2325	   0	77.6	148.3	 844	OK
2326	   0	74.4	143.2	 854	OK
2327	   0	73.3	142.2	 864	OK
2328	   0	73.7	139.0	 841	OK
2329	   0	75.0	142.7	 856	OK
2330	   0	73.8	141.8	 840	OK
2331	   0	74.2	142.9	 848	OK
2332	   0	77.5	148.3	 847	OK
2333	   0	74.3	143.1	 842	OK
2334	   0	76.5	144.2	 838	OK
2335	   0	75.1	144.2	 822	OK
2336	   0	73.7	142.3	 858	OK
2337	   0	74.6	141.2	 845	OK
2338	   0	75.7	143.7	 841	OK
2339	   0	75.5	145.1	 860	OK
2340	   0	75.4	143.3	 836	OK
2341	   0	75.4	143.3	 847	OK
2342	   0	74.4	142.9	 860	OK
2343	   0	74.7	143.4	 851	OK
2344	   0	76.2	143.8	 850	OK
2345	   0	76.5	145.5	 851	OK
2346	   0	76.5	144.0	 858	OK
2347	   0	74.4	141.9	 845	OK
2348	   0	76.5	144.4	 848	OK
2349	   0	75.4	144.9	 829	OK
2350	   0	73.9	141.4	 843	OK
2351	   0	76.6	146.7	 851	OK
2352	   0	74.5	142.9	 842	OK
2353	   0	75.7	143.1	 840	OK
2354	   0	76.5	145.3	 852	OK
2355	   0	74.8	144.8	 856	OK
2356	   0	77.0	144.7	 831	OK
2357	   0	74.1	143.5	 854	OK
2358	   0	76.0	142.9	 829	OK
2359	   0	75.4	142.7	 853	OK
2360	   0	77.3	145.7	 854	OK
2361	   0	76.3	145.2	 843	OK
2362	   0	77.9	146.2	 843	OK
2363	   0	76.1	145.3	 864	OK
2364	   0	76.5	146.6	 852	OK
2365	   0	76.3	145.1	 845	OK
2366	   0	76.9	146.4	 834	OK
2367	   0	75.2	144.5	 841	OK
2368	   0	75.3	144.8	 849	OK
2369	   0	75.7	146.0	 834	OK
2370	   0	75.0	144.6	 831	OK
2371	   0	76.1	144.7	 861	OK
2372	   0	74.5	144.6	 843	OK
2373	   0	73.8	141.4	 830	OK
2374	   0	75.2	145.0	 819	OK
2375	   0	73.8	141.4	 840	OK
2376	   0	76.9	146.0	 843	OK
2377	   0	74.1	142.8	 852	OK
2378	   0	73.9	141.6	 840	OK
2379	   0	76.1	144.5	 864	OK
2380	   0	76.1	146.5	 826	OK
2381	   0	75.8	143.5	 825	OK
2382	   0	75.8	143.5	 840	OK
2383	   0	75.7	144.8	 839	OK
2384	   0	75.8	147.6	 840	OK
2385	   0	74.6	142.7	 840	OK
2386	   0	76.8	145.9	 856	OK
2387	   0	75.3	145.1	 838	OK
2388	   0	78.2	149.8	 836	OK
2389	   0	74.2	142.2	 856	OK
2390	   0	76.3	145.2	 836	OK
2391	   0	75.6	143.6	 833	OK
2392	   0	75.8	144.1	 810	OK
2393	   0	75.7	144.8	 846	OK
2394	   0	73.6	140.1	 846	OK
2395	   0	75.8	145.2	 833	OK
2396	   0	73.1	138.9	 829	OK
2397	   0	74.2	141.8	 850	OK
2398	   0	75.6	142.6	 827	OK
2399	   0	74.7	142.8	 834	OK
2400	   0	75.4	144.3	 825	OK
2401	   0	74.2	141.5	 852	OK
2402	   0	77.4	147.8	 843	OK
2403	   0	74.5	142.1	 835	OK
2404	   0	74.5	142.6	 825	OK
2405	   0	73.9	140.4	 866	OK
2406	   0	74.8	141.2	 825	OK
2407	   0	75.6	143.3	 832	OK
2408	   0	75.3	142.8	 819	OK
2409	   0	75.2	145.0	 817	OK
2410	   0	77.0	147.4	 864	OK
2411	   0	76.5	148.2	 839	OK
2412	   0	74.6	141.4	 857	OK
2413	   0	74.8	141.9	 846	OK
2414	   0	77.4	147.8	 831	OK
2415	   0	77.0	144.4	 832	OK
2416	   0	76.4	145.1	 832	OK
2417	   0	75.4	145.4	 822	OK
2418	   0	75.0	145.7	 825	OK
2419	   0	76.6	146.3	 845	OK
2420	   0	76.8	148.5	 809	OK
2421	   0	76.6	146.9	 808	OK
2422	   0	78.1	149.1	 826	OK
2423	   0	76.0	147.3	 837	OK
2424	   0	74.4	140.6	 848	OK
2425	   0	75.6	145.7	 830	OK
2426	   0	73.2	138.9	 836	OK
2427	   0	74.8	142.2	 813	OK
2428	   0	76.3	144.6	 840	OK
2429	   0	78.4	149.5	 817	OK
2430	   0	76.7	146.7	 814	OK
2431	   0	77.6	144.3	 818	OK
2432	   0	76.9	145.4	 856	OK
2433	   0	75.9	144.4	 841	OK
2434	   0	77.1	145.1	 862	OK
2435	   0	78.5	149.1	 849	OK
2436	   0	75.9	145.2	 838	OK
2437	   0	75.8	145.3	 851	OK
2438	   0	76.9	146.2	 835	OK
2439	   0	78.1	148.4	 834	OK
2440	   0	74.3	142.2	 849	OK
2441	4000	77.5	144.5	1024	high noise
2442	4000	75.7	143.8	1007	high noise
2443	   0	76.6	144.3	 844	OK
2444	   0	77.6	147.5	 852	OK
2445	   0	75.0	142.2	 856	OK
2446	   0	77.2	144.9	 835	OK
2447	   0	75.6	143.8	 846	OK
2448	   0	76.2	142.9	 867	OK
2449	   0	77.0	145.7	 828	OK
2450	   0	73.6	141.3	 847	OK
2451	   0	77.2	145.0	 841	OK
2452	   0	76.7	146.6	 839	OK
2453	   0	75.7	143.2	 860	OK
2454	   0	73.4	140.7	 848	OK
2455	1101	0.0	0.0	   0	dead
2456	   0	76.8	145.3	 902	OK
2457	   0	74.2	140.9	 900	OK
2458	1101	0.0	0.0	   0	dead
2459	1101	0.0	0.0	   0	dead
2460	1101	0.0	0.0	   0	dead
2461	   0	77.0	145.9	 835	OK
2462	   0	72.7	139.4	 853	OK
2463	   0	76.8	145.6	 853	OK
2464	4000	75.4	143.7	1030	high noise
2465	4000	75.9	143.2	1018	high noise
2466	   0	76.6	146.9	 856	OK
2467	   0	76.9	143.7	 850	OK
2468	   0	75.1	143.6	 855	OK
2469	   0	74.5	141.3	 863	OK
2470	   0	76.2	145.0	 852	OK
2471	   0	75.3	142.9	 839	OK
2472	1101	0.0	0.0	   0	dead
2473	   0	76.0	144.3	 860	OK
2474	   0	76.4	143.6	 852	OK
2475	1101	0.0	0.0	   0	dead
2476	4000	74.8	141.8	1034	high noise
2477	4000	75.6	143.5	1035	high noise
2478	   0	75.9	144.0	 870	OK
2479	   0	74.8	142.2	 851	OK
2480	   0	75.2	144.6	 861	OK
2481	   0	74.5	144.2	 878	OK
2482	4000	74.4	140.5	1023	high noise
2483	4000	74.9	143.5	1026	high noise
2484	   0	75.4	143.2	 869	OK
2485	   0	75.3	142.4	 863	OK
2486	   0	76.3	143.0	 973	OK
2487	   0	74.9	141.7	 916	OK
2488	   0	77.0	145.9	 853	OK
2489	   0	76.1	143.7	 831	OK
2490	   0	76.0	141.3	 865	OK
2491	   0	76.1	146.8	 856	OK
2492	   0	76.0	144.2	 853	OK
2493	   0	76.6	146.9	 861	OK
2494	   0	75.7	143.3	 850	OK
2495	   0	76.3	143.3	 859	OK
2496	   0	75.4	142.1	 859	OK
2497	   0	76.1	143.9	 866	OK
2498	   0	76.5	144.8	 849	OK
2499	   0	74.0	140.9	 858	OK
2500	   0	74.1	140.0	 868	OK
2501	   0	74.5	143.0	 863	OK
2502	   0	75.0	142.6	 853	OK
2503	   0	75.8	144.1	 844	OK
2504	   0	74.1	142.1	 875	OK
2505	   0	73.5	140.4	 964	OK
2506	   0	74.7	140.0	 943	OK
2507	   0	73.3	140.8	 855	OK
2508	   0	76.9	144.8	 862	OK
2509	   0	77.7	147.7	 851	OK
2510	   0	73.4	141.0	 862	OK
2511	   0	75.0	140.8	 863	OK
2512	4000	75.0	141.7	1132	high noise
2513	4000	75.2	140.3	1367	high noise
2514	4000	71.0	131.9	1243	high noise
2515	   0	73.0	140.6	 853	OK
2516	   0	74.8	141.4	 865	OK
2517	   0	75.6	142.7	 912	OK
2518	4000	75.0	140.0	1091	high noise
2519	4000	73.3	138.2	1071	high noise
2520	4000	75.3	140.0	1224	high noise
2521	4000	74.9	143.0	1257	high noise
2522	   0	74.4	140.9	 919	OK
2523	   0	74.0	140.5	 871	OK
2524	   0	75.4	143.1	 862	OK
2525	   0	75.7	145.0	 857	OK
2526	4000	75.6	142.9	1200	high noise
2527	4000	75.7	143.1	1161	high noise
2528	   0	74.8	143.3	 885	OK
2529	   0	73.4	138.7	 855	OK
2530	   0	75.4	143.7	 849	OK
2531	   0	72.8	140.6	 847	OK
2532	   0	73.6	141.9	 861	OK
2533	   0	74.5	140.9	 855	OK
2534	   0	74.7	144.0	 864	OK
2535	   0	74.6	145.5	 972	OK
2536	4000	74.6	140.9	 997	high noise
2537	   0	74.0	141.9	 851	OK
2538	   0	76.1	143.8	 864	OK
2539	   0	74.6	141.9	 862	OK
2540	   0	74.9	141.0	 855	OK
2541	   0	73.5	140.4	 849	OK
2542	   0	73.9	140.6	 830	OK
2543	   0	74.3	143.3	 853	OK
2544	   0	75.4	143.2	 878	OK
2545	   0	75.9	144.0	 860	OK
2546	   0	75.7	142.5	 864	OK
2547	   0	75.2	142.4	 848	OK
2548	   0	77.9	149.9	 839	OK
2549	   0	75.3	145.0	 845	OK
2550	   0	74.1	141.7	 836	OK
2551	   0	77.0	146.9	 853	OK
2552	   0	75.3	143.4	 842	OK
2553	   0	75.6	143.7	 845	OK
2554	   0	76.3	144.9	 843	OK
2555	   0	76.2	146.1	 845	OK
2556	   0	74.6	141.1	 852	OK
2557	   0	74.6	143.0	 851	OK
2558	   0	76.2	143.8	 849	OK
2559	   0	76.6	144.1	 828	OK
