#chan	code	gain	vt50	innse	comment
   0	   0	82.6	111.8	 834	OK
   1	   0	84.3	112.9	 813	OK
   2	   0	84.5	112.5	 816	OK
   3	   0	84.3	112.2	 835	OK
   4	   0	84.2	113.7	 831	OK
   5	   0	83.1	109.5	 816	OK
   6	   0	86.9	115.4	 824	OK
   7	   0	83.3	111.6	 815	OK
   8	   0	85.0	114.0	 817	OK
   9	   0	82.7	113.0	 828	OK
  10	   0	84.0	113.1	 826	OK
  11	   0	80.7	109.7	 814	OK
  12	   0	85.8	113.7	 820	OK
  13	   0	84.4	113.9	 830	OK
  14	   0	84.7	113.4	 803	OK
  15	   0	83.4	112.7	 827	OK
  16	   0	83.3	111.6	 819	OK
  17	   0	82.2	108.4	 835	OK
  18	   0	81.0	109.7	 812	OK
  19	   0	82.4	113.1	 828	OK
  20	   0	82.3	109.1	 844	OK
  21	   0	80.9	110.7	 814	OK
  22	   0	84.3	114.8	 805	OK
  23	   0	83.3	115.2	 839	OK
  24	   0	81.1	111.1	 851	OK
  25	   0	81.2	108.8	 827	OK
  26	   0	83.5	113.6	 827	OK
  27	   0	81.8	109.1	 826	OK
  28	   0	85.6	114.8	 838	OK
  29	   0	82.9	111.1	 805	OK
  30	   0	81.7	112.0	 817	OK
  31	   0	82.1	111.6	 822	OK
  32	   0	80.1	109.7	 850	OK
  33	   0	82.9	113.8	 835	OK
  34	   0	80.6	110.2	 828	OK
  35	   0	83.7	114.1	 809	OK
  36	   0	80.7	111.4	 843	OK
  37	   0	82.1	110.5	 836	OK
  38	   0	82.7	111.7	 824	OK
  39	   0	84.9	114.5	 835	OK
  40	   0	82.2	111.5	 816	OK
  41	   0	80.8	108.3	 837	OK
  42	   0	80.6	111.1	 849	OK
  43	   0	82.7	112.6	 835	OK
  44	   0	82.6	112.4	 831	OK
  45	   0	83.5	111.7	 827	OK
  46	   0	80.8	109.8	 825	OK
  47	   0	81.5	108.6	 837	OK
  48	   0	85.0	113.0	 838	OK
  49	   0	82.6	112.8	 829	OK
  50	   0	82.8	112.3	 832	OK
  51	   0	82.3	110.0	 850	OK
  52	   0	83.8	111.2	 840	OK
  53	   0	82.4	111.1	 840	OK
  54	   0	82.6	113.6	 852	OK
  55	   0	86.9	115.6	 861	OK
  56	   0	83.0	111.3	 846	OK
  57	   0	83.8	114.3	 862	OK
  58	   0	83.7	113.6	 852	OK
  59	   0	84.0	112.0	 847	OK
  60	   0	82.5	112.0	 834	OK
  61	   0	85.4	115.3	 840	OK
  62	   0	86.1	116.6	 836	OK
  63	   0	83.9	112.7	 830	OK
  64	   0	84.5	115.0	 858	OK
  65	   0	81.8	112.3	 845	OK
  66	   0	81.7	110.2	 840	OK
  67	   0	81.4	110.8	 862	OK
  68	   0	82.1	110.3	 850	OK
  69	   0	82.2	110.4	 856	OK
  70	   0	81.3	109.5	 849	OK
  71	   0	82.6	112.7	 843	OK
  72	   0	81.7	111.0	 845	OK
  73	   0	81.8	112.0	 843	OK
  74	   0	79.6	109.3	 856	OK
  75	   0	81.9	111.4	 855	OK
  76	   0	82.0	110.1	 835	OK
  77	   0	80.7	109.3	 857	OK
  78	   0	81.8	112.2	 853	OK
  79	   0	83.2	113.4	 838	OK
  80	   0	81.1	110.6	 842	OK
  81	   0	81.2	108.5	 828	OK
  82	   0	83.0	110.8	 852	OK
  83	   0	82.3	112.0	 846	OK
  84	   0	84.4	114.3	 854	OK
  85	   0	80.2	111.0	 854	OK
  86	   0	82.2	112.3	 848	OK
  87	   0	82.7	110.3	 814	OK
  88	   0	82.3	110.4	 844	OK
  89	   0	81.6	112.0	 826	OK
  90	   0	81.8	109.9	 832	OK
  91	   0	79.9	109.7	 843	OK
  92	   0	83.0	112.1	 823	OK
  93	   0	79.3	109.7	 816	OK
  94	   0	81.0	109.9	 821	OK
  95	   0	82.8	111.7	 833	OK
  96	   0	82.5	110.8	 842	OK
  97	   0	82.8	112.7	 815	OK
  98	   0	83.1	112.4	 822	OK
  99	   0	82.5	112.2	 836	OK
 100	   0	83.1	113.8	 820	OK
 101	   0	82.4	110.6	 804	OK
 102	   0	82.7	110.6	 805	OK
 103	   0	84.3	112.9	 815	OK
 104	   0	82.0	111.1	 838	OK
 105	   0	83.3	114.1	 825	OK
 106	   0	81.4	111.1	 803	OK
 107	   0	82.7	112.5	 806	OK
 108	   0	83.5	113.6	 799	OK
 109	   0	81.8	112.0	 819	OK
 110	   0	85.0	113.8	 777	OK
 111	   0	82.5	112.0	 786	OK
 112	   0	81.1	110.5	 790	OK
 113	   0	83.5	114.2	 796	OK
 114	   0	83.5	114.1	 787	OK
 115	   0	82.9	111.6	 814	OK
 116	   0	84.1	113.2	 788	OK
 117	   0	83.8	111.1	 790	OK
 118	   0	81.6	113.1	 789	OK
 119	   0	82.0	111.0	 781	OK
 120	   0	82.4	112.7	 781	OK
 121	   0	82.1	111.8	 777	OK
 122	   0	84.3	113.4	 782	OK
 123	   0	85.6	115.2	 775	OK
 124	   0	83.1	112.9	 795	OK
 125	   0	85.4	113.3	 782	OK
 126	   0	83.8	113.4	 787	OK
 127	   0	84.6	113.0	 751	OK
 128	   0	79.8	108.8	 861	OK
 129	   0	78.5	106.9	 864	OK
 130	   0	79.5	109.8	 842	OK
 131	   0	80.1	109.5	 819	OK
 132	   0	79.0	110.2	 851	OK
 133	   0	78.4	106.1	 837	OK
 134	   0	79.6	109.7	 849	OK
 135	   0	78.2	108.2	 855	OK
 136	   0	76.8	106.9	 830	OK
 137	   0	77.9	108.2	 842	OK
 138	   0	77.9	109.1	 855	OK
 139	   0	78.7	108.6	 830	OK
 140	   0	76.4	106.2	 833	OK
 141	   0	78.5	107.3	 841	OK
 142	   0	79.7	109.3	 849	OK
 143	   0	75.2	105.2	 844	OK
 144	   0	78.4	106.8	 846	OK
 145	   0	78.5	107.5	 850	OK
 146	   0	77.2	107.4	 835	OK
 147	   0	77.8	106.8	 834	OK
 148	   0	77.8	108.3	 834	OK
 149	   0	76.0	105.6	 853	OK
 150	   0	80.2	109.1	 831	OK
 151	   0	77.6	107.3	 843	OK
 152	   0	76.8	108.5	 849	OK
 153	   0	74.7	104.1	 857	OK
 154	   0	78.9	109.0	 853	OK
 155	   0	78.0	108.1	 860	OK
 156	   0	76.9	106.3	 834	OK
 157	   0	80.8	109.9	 853	OK
 158	   0	77.9	106.3	 837	OK
 159	   0	78.9	109.6	 856	OK
 160	   0	79.8	110.1	 855	OK
 161	   0	78.6	108.6	 850	OK
 162	   0	78.9	107.8	 849	OK
 163	   0	76.7	106.6	 853	OK
 164	   0	77.0	107.0	 851	OK
 165	   0	75.1	103.7	 853	OK
 166	   0	78.7	107.4	 857	OK
 167	   0	75.7	103.6	 850	OK
 168	   0	78.6	108.3	 852	OK
 169	   0	81.2	109.8	 849	OK
 170	   0	76.3	107.5	 867	OK
 171	   0	79.1	108.3	 845	OK
 172	   0	79.5	108.6	 847	OK
 173	   0	80.8	108.6	 842	OK
 174	   0	79.2	109.6	 864	OK
 175	   0	80.7	109.7	 866	OK
 176	   0	78.2	110.4	 848	OK
 177	   0	77.4	107.9	 859	OK
 178	   0	80.5	111.0	 875	OK
 179	   0	77.6	107.4	 853	OK
 180	   0	79.5	108.2	 880	OK
 181	   0	78.0	108.9	 861	OK
 182	   0	78.6	107.4	 867	OK
 183	   0	76.7	105.9	 864	OK
 184	   0	79.4	110.8	 816	OK
 185	   0	80.0	109.3	 845	OK
 186	   0	80.2	111.7	 855	OK
 187	   0	79.4	108.7	 856	OK
 188	   0	79.9	108.2	 842	OK
 189	   0	78.1	108.4	 855	OK
 190	   0	78.5	107.9	 843	OK
 191	   0	77.8	108.2	 854	OK
 192	   0	78.7	107.5	 859	OK
 193	   0	78.7	107.5	 862	OK
 194	   0	77.1	105.7	 832	OK
 195	   0	77.7	109.3	 843	OK
 196	   0	75.5	105.2	 858	OK
 197	   0	78.8	108.3	 841	OK
 198	   0	78.2	106.1	 834	OK
 199	   0	75.6	107.4	 837	OK
 200	   0	77.0	108.5	 840	OK
 201	   0	76.9	106.2	 857	OK
 202	   0	76.7	105.2	 839	OK
 203	   0	75.4	105.2	 856	OK
 204	   0	77.3	108.2	 837	OK
 205	   0	76.8	108.2	 853	OK
 206	   0	78.8	109.6	 851	OK
 207	   0	77.9	109.1	 858	OK
 208	   0	79.8	110.4	 835	OK
 209	   0	79.1	108.7	 838	OK
 210	   0	78.1	107.9	 845	OK
 211	   0	78.5	109.2	 842	OK
 212	   0	77.8	106.1	 844	OK
 213	   0	77.9	106.7	 851	OK
 214	   0	76.5	107.5	 842	OK
 215	   0	77.7	108.9	 833	OK
 216	   0	79.2	109.9	 856	OK
 217	   0	78.2	107.8	 844	OK
 218	   0	79.7	110.1	 826	OK
 219	   0	77.2	105.3	 826	OK
 220	   0	76.2	104.1	 811	OK
 221	   0	77.6	109.3	 848	OK
 222	   0	79.3	108.7	 838	OK
 223	   0	79.6	108.7	 832	OK
 224	   0	77.2	105.8	 822	OK
 225	   0	77.8	109.6	 849	OK
 226	   0	78.3	106.9	 836	OK
 227	   0	78.7	108.5	 814	OK
 228	   0	80.8	112.5	 841	OK
 229	   0	80.3	110.8	 827	OK
 230	   0	76.9	108.2	 852	OK
 231	   0	77.2	107.2	 828	OK
 232	   0	77.9	107.2	 848	OK
 233	   0	76.3	105.2	 832	OK
 234	   0	77.0	107.1	 844	OK
 235	   0	78.0	106.3	 834	OK
 236	   0	77.6	107.8	 835	OK
 237	   0	78.3	109.5	 840	OK
 238	   0	78.3	107.2	 857	OK
 239	   0	78.4	110.1	 836	OK
 240	   0	76.5	106.5	 844	OK
 241	   0	79.4	108.5	 820	OK
 242	   0	79.0	106.8	 846	OK
 243	   0	78.3	107.0	 850	OK
 244	   0	77.6	107.5	 815	OK
 245	   0	76.4	106.5	 843	OK
 246	   0	76.5	107.7	 822	OK
 247	   0	77.9	108.4	 848	OK
 248	   0	81.7	110.6	 856	OK
 249	   0	79.1	107.3	 842	OK
 250	   0	78.4	108.1	 864	OK
 251	   0	78.4	109.2	 837	OK
 252	   0	77.3	106.6	 848	OK
 253	   0	81.0	111.2	 844	OK
 254	   0	79.0	108.5	 838	OK
 255	   0	79.5	108.9	 837	OK
 256	4000	82.8	111.9	 999	high noise
 257	4000	81.3	110.2	1010	high noise
 258	4000	83.0	113.8	 997	high noise
 259	   0	81.3	109.0	 975	OK
 260	4000	80.2	114.3	 983	high noise
 261	   0	81.4	110.4	 975	OK
 262	   0	81.7	109.8	 968	OK
 263	   0	80.6	109.8	 953	OK
 264	   0	80.7	111.2	 962	OK
 265	   0	81.1	108.0	 954	OK
 266	   0	80.8	110.6	 931	OK
 267	   0	81.0	108.7	 938	OK
 268	   0	78.0	106.9	 935	OK
 269	   0	78.7	107.4	 931	OK
 270	   0	80.1	109.4	 914	OK
 271	   0	80.4	109.3	 904	OK
 272	   0	79.7	109.2	 926	OK
 273	   0	80.2	112.5	 915	OK
 274	   0	82.1	111.2	 910	OK
 275	   0	78.7	108.0	 892	OK
 276	   0	79.8	109.1	 898	OK
 277	   0	80.4	108.9	 868	OK
 278	   0	81.2	110.9	 877	OK
 279	   0	81.2	112.0	 880	OK
 280	   0	78.6	109.9	 867	OK
 281	   0	75.0	104.3	 877	OK
 282	   0	77.6	105.8	 865	OK
 283	   0	78.8	107.8	 864	OK
 284	   0	78.9	106.3	 851	OK
 285	   0	79.3	108.3	 838	OK
 286	   0	76.9	105.6	 878	OK
 287	   0	79.0	109.2	 838	OK
 288	   0	79.8	108.4	 832	OK
 289	   0	78.6	109.2	 817	OK
 290	   0	81.6	111.9	 823	OK
 291	   0	82.2	111.9	 826	OK
 292	   0	78.4	107.3	 842	OK
 293	   0	78.8	106.7	 824	OK
 294	   0	80.1	109.4	 824	OK
 295	   0	80.4	112.6	 800	OK
 296	   0	80.4	111.3	 840	OK
 297	   0	80.8	109.5	 828	OK
 298	   0	80.4	111.0	 824	OK
 299	   0	80.5	110.0	 839	OK
 300	   0	81.9	110.7	 829	OK
 301	   0	79.8	110.6	 836	OK
 302	   0	78.1	107.6	 833	OK
 303	   0	79.5	108.5	 818	OK
 304	   0	81.6	111.4	 856	OK
 305	   0	80.1	110.6	 844	OK
 306	   0	78.4	108.6	 843	OK
 307	   0	80.9	110.0	 841	OK
 308	   0	82.6	112.2	 839	OK
 309	   0	77.9	106.0	 844	OK
 310	   0	79.2	108.9	 836	OK
 311	   0	79.3	107.0	 823	OK
 312	   0	82.1	111.9	 841	OK
 313	   0	80.1	111.3	 839	OK
 314	   0	82.2	112.4	 841	OK
 315	   0	80.0	109.0	 820	OK
 316	   0	81.3	111.1	 829	OK
 317	   0	79.7	111.2	 835	OK
 318	   0	78.4	109.7	 848	OK
 319	   0	81.4	112.5	 850	OK
 320	   0	81.3	112.6	 831	OK
 321	   0	78.0	108.7	 841	OK
 322	   0	79.8	109.5	 840	OK
 323	   0	82.3	113.3	 832	OK
 324	   0	80.5	110.2	 845	OK
 325	   0	75.8	105.6	 850	OK
 326	   0	78.2	108.6	 851	OK
 327	   0	78.2	108.7	 841	OK
 328	   0	79.3	110.6	 827	OK
 329	   0	79.2	108.7	 842	OK
 330	   0	78.7	108.8	 826	OK
 331	   0	78.2	108.3	 836	OK
 332	   0	80.2	109.3	 831	OK
 333	   0	76.5	106.0	 843	OK
 334	   0	78.3	108.6	 855	OK
 335	   0	78.8	109.4	 848	OK
 336	   0	77.5	106.1	 832	OK
 337	   0	79.6	108.7	 832	OK
 338	   0	78.4	106.8	 834	OK
 339	   0	78.2	110.0	 841	OK
 340	   0	80.4	111.7	 830	OK
 341	   0	79.7	109.7	 831	OK
 342	   0	81.1	112.2	 835	OK
 343	   0	79.0	110.7	 838	OK
 344	   0	77.5	107.7	 826	OK
 345	   0	79.5	110.4	 798	OK
 346	   0	78.7	108.1	 813	OK
 347	   0	78.3	109.5	 832	OK
 348	   0	79.4	108.8	 821	OK
 349	   0	78.6	109.5	 841	OK
 350	   0	79.8	109.5	 821	OK
 351	   0	79.1	109.6	 827	OK
 352	   0	80.2	108.4	 831	OK
 353	   0	79.1	107.1	 835	OK
 354	   0	78.6	109.2	 828	OK
 355	   0	79.3	110.8	 811	OK
 356	   0	78.5	107.5	 842	OK
 357	   0	78.7	108.1	 811	OK
 358	   0	77.6	107.6	 803	OK
 359	   0	79.6	107.8	 828	OK
 360	   0	80.7	112.5	 828	OK
 361	   0	79.0	107.9	 823	OK
 362	   0	78.4	109.1	 836	OK
 363	   0	78.3	106.1	 825	OK
 364	   0	78.9	106.8	 829	OK
 365	   0	75.9	105.3	 819	OK
 366	   0	79.0	107.7	 831	OK
 367	   0	79.9	110.0	 827	OK
 368	   0	79.5	107.4	 818	OK
 369	   0	81.3	112.4	 833	OK
 370	   0	85.4	114.9	 819	OK
 371	   0	81.3	111.3	 831	OK
 372	   0	80.5	107.4	 817	OK
 373	   0	79.8	110.7	 828	OK
 374	   0	78.8	110.0	 816	OK
 375	   0	78.5	106.8	 818	OK
 376	   0	77.9	106.5	 823	OK
 377	   0	77.8	107.4	 825	OK
 378	   0	79.5	108.4	 819	OK
 379	   0	77.5	106.9	 813	OK
 380	   0	83.1	113.6	 814	OK
 381	   0	80.9	109.3	 825	OK
 382	   0	79.6	110.9	 813	OK
 383	   0	81.1	110.5	 818	OK
 384	   0	80.3	108.7	 889	OK
 385	   0	78.9	108.9	 921	OK
 386	   0	77.6	106.1	 909	OK
 387	   0	80.1	110.3	 886	OK
 388	   0	78.6	108.5	 925	OK
 389	   0	78.1	108.1	 912	OK
 390	   0	77.6	106.4	 911	OK
 391	   0	77.3	106.9	 948	OK
 392	   0	78.0	107.8	 912	OK
 393	   0	74.6	103.4	 919	OK
 394	   0	79.4	108.0	 898	OK
 395	   0	78.6	109.8	 910	OK
 396	   0	77.4	108.0	 923	OK
 397	   0	79.9	110.7	 906	OK
 398	   0	80.4	111.2	 906	OK
 399	   0	79.9	110.6	 889	OK
 400	   0	78.8	108.7	 901	OK
 401	   0	75.7	106.6	 908	OK
 402	   0	75.6	105.3	 920	OK
 403	   0	75.6	105.2	 926	OK
 404	   0	78.0	106.7	 917	OK
 405	   0	78.9	108.3	 912	OK
 406	   0	75.7	103.7	 946	OK
 407	   0	76.0	105.9	 940	OK
 408	   0	75.5	106.2	 948	OK
 409	   0	76.8	105.6	 921	OK
 410	   0	76.3	104.7	 940	OK
 411	   0	75.1	103.8	 957	OK
 412	   0	78.1	106.4	 933	OK
 413	   0	74.2	104.2	 937	OK
 414	   0	76.5	104.1	 958	OK
 415	   0	78.1	107.6	 954	OK
 416	   0	74.9	103.8	 964	OK
 417	   0	76.2	105.5	 936	OK
 418	   0	78.2	106.4	 953	OK
 419	   0	77.5	107.4	 954	OK
 420	   0	76.3	109.8	 927	OK
 421	   0	75.3	103.9	 924	OK
 422	   0	75.4	103.0	 928	OK
 423	   0	78.2	106.3	 912	OK
 424	   0	77.1	108.2	 922	OK
 425	   0	75.7	107.0	 905	OK
 426	   0	78.8	106.0	 898	OK
 427	   0	75.4	108.9	 891	OK
 428	   0	78.2	107.7	 912	OK
 429	   0	77.1	104.5	 910	OK
 430	   0	76.9	107.2	 887	OK
 431	   0	76.4	105.4	 897	OK
 432	   0	75.4	105.7	 900	OK
 433	   0	77.4	105.9	 897	OK
 434	   0	76.3	105.9	 889	OK
 435	   0	77.0	109.8	 902	OK
 436	   0	74.9	106.0	 909	OK
 437	   0	77.0	105.7	 900	OK
 438	   0	76.4	106.9	 888	OK
 439	   0	74.5	104.7	 894	OK
 440	   0	77.5	107.1	 885	OK
 441	   0	74.8	103.5	 900	OK
 442	   0	79.8	108.7	 888	OK
 443	   0	77.3	106.8	 902	OK
 444	   0	76.7	106.4	 883	OK
 445	   0	78.7	108.8	 898	OK
 446	   0	78.5	107.8	 893	OK
 447	   0	79.0	106.4	 895	OK
 448	   0	80.4	110.4	 927	OK
 449	   0	76.2	105.2	 938	OK
 450	   0	75.6	104.7	 904	OK
 451	   0	78.0	109.3	 916	OK
 452	   0	75.8	104.1	 923	OK
 453	   0	77.1	107.3	 919	OK
 454	   0	74.3	104.9	 918	OK
 455	   0	79.2	109.7	 930	OK
 456	   0	77.2	108.0	 940	OK
 457	   0	77.5	107.0	 912	OK
 458	   0	75.5	105.8	 904	OK
 459	   0	76.4	104.2	 885	OK
 460	   0	74.5	106.0	 908	OK
 461	   0	75.8	105.1	 889	OK
 462	   0	75.8	104.7	 883	OK
 463	   0	74.9	102.7	 915	OK
 464	   0	75.6	105.1	 916	OK
 465	   0	76.1	104.4	 917	OK
 466	   0	77.5	107.7	 909	OK
 467	   0	76.6	106.8	 908	OK
 468	   0	77.2	107.5	 911	OK
 469	   0	74.6	105.2	 901	OK
 470	   0	77.9	106.4	 887	OK
 471	   0	75.9	107.1	 905	OK
 472	   0	76.3	106.8	 920	OK
 473	   0	77.4	107.7	 903	OK
 474	   0	74.7	104.6	 890	OK
 475	   0	77.9	106.2	 910	OK
 476	   0	76.1	103.9	 908	OK
 477	   0	76.3	107.5	 897	OK
 478	   0	78.1	107.5	 905	OK
 479	   0	79.3	107.6	 904	OK
 480	   0	76.9	105.4	 939	OK
 481	   0	75.4	104.5	 930	OK
 482	   0	76.8	104.8	 927	OK
 483	   0	75.0	105.5	 918	OK
 484	   0	75.9	105.5	 914	OK
 485	   0	79.3	109.6	 921	OK
 486	   0	76.8	106.5	 943	OK
 487	   0	77.6	104.9	 931	OK
 488	   0	76.4	104.9	 893	OK
 489	   0	75.2	103.7	 928	OK
 490	   0	78.8	108.6	 912	OK
 491	   0	75.6	105.2	 914	OK
 492	   0	78.4	107.2	 917	OK
 493	   0	74.9	104.6	 913	OK
 494	   0	78.0	108.2	 928	OK
 495	   0	78.8	109.2	 919	OK
 496	   0	77.4	107.8	 926	OK
 497	   0	78.9	109.6	 932	OK
 498	   0	77.5	106.5	 933	OK
 499	   0	77.8	107.3	 941	OK
 500	   0	79.2	108.4	 973	OK
 501	   0	79.8	109.0	 968	OK
 502	   0	78.9	109.3	 985	OK
 503	   0	78.6	109.0	1010	OK
 504	   0	78.2	105.9	1007	OK
 505	   0	75.3	106.8	1012	OK
 506	   0	78.8	106.5	1035	OK
 507	   0	78.0	106.6	1022	OK
 508	   0	81.1	112.3	1005	OK
 509	   0	77.6	109.7	1021	OK
 510	   0	78.5	108.3	1030	OK
 511	   0	77.9	107.5	1028	OK
 512	   0	79.5	110.0	 879	OK
 513	   0	79.2	106.8	 885	OK
 514	   0	77.8	107.7	 888	OK
 515	   0	77.8	109.0	 892	OK
 516	   0	78.5	106.9	 902	OK
 517	   0	78.4	109.4	 881	OK
 518	   0	76.3	105.5	 906	OK
 519	   0	79.6	110.4	 899	OK
 520	   0	79.0	108.2	 901	OK
 521	   0	78.2	105.5	 903	OK
 522	   0	77.9	107.3	 868	OK
 523	   0	77.9	108.1	 866	OK
 524	   0	76.2	107.7	 889	OK
 525	   0	78.3	106.5	 876	OK
 526	   0	79.7	110.3	 883	OK
 527	   0	79.1	107.9	 882	OK
 528	   0	76.4	105.7	 886	OK
 529	   0	77.4	109.0	 873	OK
 530	   0	78.9	109.1	 859	OK
 531	   0	79.2	107.0	 870	OK
 532	   0	75.7	105.0	 866	OK
 533	   0	77.1	108.1	 882	OK
 534	   0	79.6	110.0	 883	OK
 535	   0	80.4	109.6	 879	OK
 536	   0	78.2	108.4	 874	OK
 537	   0	78.0	108.6	 874	OK
 538	   0	79.0	107.9	 865	OK
 539	   0	75.7	106.8	 891	OK
 540	   0	78.0	109.5	 877	OK
 541	   0	78.0	107.1	 875	OK
 542	   0	78.2	106.3	 867	OK
 543	   0	77.9	106.4	 875	OK
 544	   0	78.8	108.7	 858	OK
 545	   0	77.6	107.0	 889	OK
 546	   0	78.1	110.6	 868	OK
 547	   0	77.5	106.4	 875	OK
 548	   0	76.8	105.7	 880	OK
 549	   0	75.6	107.1	 880	OK
 550	   0	76.1	105.0	 871	OK
 551	   0	77.3	106.1	 873	OK
 552	   0	78.2	107.5	 893	OK
 553	   0	76.9	107.6	 855	OK
 554	   0	77.4	108.5	 852	OK
 555	   0	77.3	106.9	 877	OK
 556	   0	77.2	107.6	 863	OK
 557	   0	77.8	106.6	 874	OK
 558	   0	77.0	108.1	 850	OK
 559	   0	77.7	107.1	 873	OK
 560	   0	76.8	105.8	 849	OK
 561	   0	75.9	106.3	 863	OK
 562	   0	75.9	105.7	 872	OK
 563	   0	77.7	105.6	 875	OK
 564	   0	79.7	109.3	 857	OK
 565	   0	77.6	109.9	 837	OK
 566	   0	77.8	109.7	 851	OK
 567	   0	76.4	107.2	 864	OK
 568	   0	77.9	107.7	 859	OK
 569	   0	76.0	105.9	 857	OK
 570	   0	78.4	108.6	 860	OK
 571	   0	79.1	108.8	 862	OK
 572	   0	78.7	107.7	 846	OK
 573	   0	78.9	109.9	 852	OK
 574	   0	79.6	109.5	 857	OK
 575	   0	80.5	110.6	 858	OK
 576	   0	78.8	109.0	 849	OK
 577	   0	79.6	110.6	 860	OK
 578	   0	80.0	111.2	 861	OK
 579	   0	81.1	109.7	 871	OK
 580	   0	75.6	106.6	 855	OK
 581	   0	75.8	104.6	 839	OK
 582	   0	78.8	107.2	 851	OK
 583	   0	75.2	106.5	 869	OK
 584	   0	76.0	106.2	 862	OK
 585	   0	76.1	104.3	 839	OK
 586	   0	78.8	109.1	 856	OK
 587	   0	77.3	108.6	 850	OK
 588	   0	76.8	107.0	 856	OK
 589	   0	78.0	106.5	 869	OK
 590	   0	73.7	104.5	 855	OK
 591	   0	77.9	106.6	 840	OK
 592	   0	78.1	110.0	 839	OK
 593	   0	77.0	107.4	 826	OK
 594	   0	77.1	106.0	 847	OK
 595	   0	77.4	106.9	 845	OK
 596	   0	77.8	107.9	 867	OK
 597	   0	76.7	107.3	 858	OK
 598	   0	77.3	109.7	 858	OK
 599	   0	74.4	103.6	 886	OK
 600	   0	74.5	103.4	 865	OK
 601	   0	75.5	106.5	 875	OK
 602	   0	76.5	105.7	 885	OK
 603	   0	77.6	106.2	 907	OK
 604	   0	77.5	107.6	 891	OK
 605	   0	76.0	106.2	 902	OK
 606	   0	78.4	108.3	 901	OK
 607	   0	76.5	107.6	 898	OK
 608	   0	77.4	108.3	 909	OK
 609	   0	78.3	108.2	 904	OK
 610	   0	75.6	106.3	 893	OK
 611	   0	78.3	106.6	 895	OK
 612	   0	75.8	106.6	 902	OK
 613	   0	77.8	107.5	 867	OK
 614	   0	75.9	105.5	 867	OK
 615	   0	75.6	103.6	 861	OK
 616	   0	76.9	104.7	 851	OK
 617	   0	79.2	109.7	 847	OK
 618	   0	77.9	109.4	 861	OK
 619	   0	76.7	108.4	 850	OK
 620	   0	75.9	107.0	 852	OK
 621	   0	75.7	106.2	 868	OK
 622	   0	80.7	107.7	 860	OK
 623	   0	77.9	105.6	 877	OK
 624	   0	79.0	109.3	 853	OK
 625	   0	75.6	106.7	 910	OK
 626	   0	78.1	110.2	 885	OK
 627	   0	80.0	110.9	 895	OK
 628	   0	76.3	107.1	 908	OK
 629	   0	78.2	109.3	 918	OK
 630	   0	77.9	106.8	 918	OK
 631	   0	77.4	107.5	 907	OK
 632	   0	76.5	105.9	 932	OK
 633	   0	77.1	106.0	 962	OK
 634	   0	77.5	107.8	 923	OK
 635	   0	78.4	109.3	 931	OK
 636	   0	78.3	105.9	 895	OK
 637	   0	76.8	104.9	 887	OK
 638	   0	79.2	109.1	 904	OK
 639	   0	80.4	109.9	 884	OK
 640	   0	81.2	111.4	 836	OK
 641	   0	82.1	111.8	 839	OK
 642	   0	83.1	112.4	 850	OK
 643	   0	80.5	110.4	 836	OK
 644	   0	80.1	111.3	 843	OK
 645	   0	82.0	110.2	 854	OK
 646	   0	80.8	110.4	 838	OK
 647	   0	82.5	111.9	 841	OK
 648	   0	80.6	109.4	 821	OK
 649	   0	81.8	111.4	 852	OK
 650	   0	82.7	112.7	 850	OK
 651	   0	80.5	109.6	 821	OK
 652	   0	78.2	109.0	 861	OK
 653	   0	82.1	110.6	 807	OK
 654	   0	81.0	109.2	 836	OK
 655	   0	80.5	109.8	 848	OK
 656	   0	83.0	112.2	 827	OK
 657	   0	83.4	112.3	 834	OK
 658	   0	82.2	110.6	 848	OK
 659	   0	79.4	110.4	 826	OK
 660	   0	81.4	110.1	 827	OK
 661	   0	81.0	110.4	 849	OK
 662	   0	80.1	109.8	 833	OK
 663	   0	80.6	110.9	 826	OK
 664	   0	81.4	108.9	 835	OK
 665	   0	80.9	108.4	 849	OK
 666	   0	81.5	109.7	 827	OK
 667	   0	83.0	111.2	 845	OK
 668	   0	80.1	107.8	 853	OK
 669	   0	80.3	110.3	 855	OK
 670	   0	80.2	110.6	 825	OK
 671	   0	80.7	112.2	 825	OK
 672	   0	80.3	110.9	 848	OK
 673	   0	78.8	109.1	 823	OK
 674	   0	81.1	109.9	 846	OK
 675	   0	79.1	107.8	 846	OK
 676	   0	81.9	109.1	 852	OK
 677	   0	80.1	109.6	 839	OK
 678	   0	80.4	109.5	 833	OK
 679	   0	78.7	106.6	 843	OK
 680	   0	80.1	107.6	 842	OK
 681	   0	79.1	109.1	 821	OK
 682	   0	80.9	110.0	 849	OK
 683	   0	80.6	108.8	 868	OK
 684	   0	80.1	110.5	 836	OK
 685	   0	80.1	107.6	 842	OK
 686	   0	79.7	110.5	 824	OK
 687	   0	79.0	108.5	 830	OK
 688	   0	81.1	113.7	 839	OK
 689	   0	79.3	108.6	 836	OK
 690	   0	79.6	108.2	 837	OK
 691	   0	80.8	110.8	 850	OK
 692	   0	82.0	111.9	 836	OK
 693	   0	81.8	111.3	 859	OK
 694	   0	78.4	110.1	 848	OK
 695	   0	79.0	108.1	 848	OK
 696	   0	77.3	105.7	 837	OK
 697	   0	80.4	109.9	 831	OK
 698	   0	81.5	112.1	 860	OK
 699	   0	82.4	112.2	 856	OK
 700	   0	84.3	114.4	 849	OK
 701	   0	80.7	109.2	 830	OK
 702	   0	82.9	111.4	 842	OK
 703	   0	81.5	110.1	 852	OK
 704	   0	80.8	111.1	 829	OK
 705	   0	77.5	106.2	 862	OK
 706	   0	78.1	108.3	 858	OK
 707	   0	80.5	111.9	 843	OK
 708	   0	82.8	112.0	 846	OK
 709	   0	79.2	109.9	 835	OK
 710	   0	82.0	109.9	 843	OK
 711	   0	80.1	112.1	 848	OK
 712	   0	81.2	111.2	 844	OK
 713	   0	81.1	111.8	 849	OK
 714	   0	80.9	109.9	 840	OK
 715	   0	83.6	113.2	 833	OK
 716	   0	77.9	108.2	 853	OK
 717	   0	79.4	111.2	 853	OK
 718	   0	77.7	107.7	 874	OK
 719	   0	79.0	109.8	 850	OK
 720	   0	81.8	111.6	 860	OK
 721	   0	76.5	106.6	 854	OK
 722	   0	81.2	110.3	 841	OK
 723	   0	77.6	107.2	 871	OK
 724	   0	79.9	108.4	 845	OK
 725	   0	79.8	109.8	 841	OK
 726	   0	78.8	107.4	 841	OK
 727	   0	80.1	110.1	 850	OK
 728	   0	79.7	109.3	 842	OK
 729	   0	80.0	110.1	 847	OK
 730	   0	76.6	106.6	 856	OK
 731	   0	80.5	111.4	 843	OK
 732	   0	80.4	108.1	 845	OK
 733	   0	79.4	108.3	 837	OK
 734	   0	78.1	106.6	 843	OK
 735	   0	78.5	108.5	 865	OK
 736	   0	81.2	110.2	 851	OK
 737	   0	80.7	108.3	 860	OK
 738	   0	80.5	111.4	 857	OK
 739	   0	80.6	112.8	 850	OK
 740	   0	79.8	110.9	 870	OK
 741	   0	81.7	111.5	 852	OK
 742	   0	77.8	107.4	 856	OK
 743	   0	79.7	108.4	 858	OK
 744	   0	80.5	107.4	 857	OK
 745	   0	80.0	108.1	 872	OK
 746	   0	77.5	108.9	 847	OK
 747	   0	80.9	109.0	 846	OK
 748	   0	80.0	109.3	 855	OK
 749	   0	81.5	110.9	 863	OK
 750	   0	79.6	109.5	 849	OK
 751	   0	80.7	111.1	 866	OK
 752	   0	81.2	110.9	 862	OK
 753	   0	80.6	109.6	 861	OK
 754	   0	81.1	110.4	 854	OK
 755	   0	79.6	107.6	 836	OK
 756	   0	78.5	108.9	 885	OK
 757	   0	80.7	110.0	 861	OK
 758	   0	80.6	111.0	 883	OK
 759	   0	79.3	106.8	 843	OK
 760	   0	81.2	109.3	 859	OK
 761	   0	81.3	110.8	 857	OK
 762	   0	81.8	111.6	 864	OK
 763	   0	80.4	110.3	 877	OK
 764	   0	80.1	110.5	 879	OK
 765	   0	79.3	107.4	 878	OK
 766	   0	81.4	112.4	 856	OK
 767	   0	80.8	110.6	 875	OK
 768	   0	83.6	112.2	 820	OK
 769	   0	80.4	110.0	 851	OK
 770	   0	80.4	112.5	 848	OK
 771	   0	79.8	108.5	 832	OK
 772	   0	80.1	110.3	 834	OK
 773	   0	76.6	106.1	 825	OK
 774	   0	81.3	112.6	 821	OK
 775	   0	82.0	112.2	 820	OK
 776	   0	82.1	113.6	 808	OK
 777	   0	81.2	109.6	 826	OK
 778	   0	82.5	112.4	 834	OK
 779	   0	81.5	112.9	 829	OK
 780	   0	81.9	112.3	 842	OK
 781	   0	81.8	111.0	 837	OK
 782	   0	80.2	109.7	 825	OK
 783	   0	81.2	112.1	 851	OK
 784	   0	81.7	109.8	 851	OK
 785	   0	82.5	113.7	 839	OK
 786	   0	80.4	109.0	 837	OK
 787	   0	80.0	111.6	 828	OK
 788	   0	79.0	107.8	 845	OK
 789	   0	78.9	109.4	 858	OK
 790	   0	79.3	108.9	 841	OK
 791	   0	82.2	111.3	 844	OK
 792	   0	80.2	108.1	 855	OK
 793	   0	80.8	110.6	 833	OK
 794	   0	78.9	109.1	 841	OK
 795	   0	79.1	108.3	 851	OK
 796	   0	77.7	106.6	 840	OK
 797	   0	77.4	107.7	 880	OK
 798	   0	78.6	108.4	 847	OK
 799	   0	80.6	112.0	 859	OK
 800	   0	78.1	108.5	 842	OK
 801	   0	80.6	110.6	 878	OK
 802	   0	78.6	109.8	 866	OK
 803	   0	79.2	109.1	 899	OK
 804	   0	79.9	110.6	 860	OK
 805	   0	77.5	106.3	 881	OK
 806	   0	76.6	106.4	 867	OK
 807	   0	76.7	105.1	 879	OK
 808	   0	80.8	110.4	 871	OK
 809	   0	80.1	110.3	 884	OK
 810	   0	78.8	108.2	 874	OK
 811	   0	79.9	108.8	 871	OK
 812	   0	80.7	111.2	 876	OK
 813	   0	76.7	105.4	 881	OK
 814	   0	79.2	113.5	 875	OK
 815	   0	77.8	107.8	 886	OK
 816	   0	81.4	111.6	 876	OK
 817	   0	80.7	111.6	 879	OK
 818	   0	83.5	113.2	 886	OK
 819	   0	82.3	112.7	 877	OK
 820	   0	78.3	109.7	 883	OK
 821	   0	79.2	106.6	 884	OK
 822	   0	78.6	110.7	 887	OK
 823	   0	80.6	111.3	 884	OK
 824	   0	79.4	108.8	 898	OK
 825	   0	80.9	111.6	 885	OK
 826	   0	78.8	109.1	 872	OK
 827	   0	78.5	110.1	 889	OK
 828	   0	80.2	109.5	 882	OK
 829	   0	77.9	108.8	 891	OK
 830	   0	79.6	110.7	 866	OK
 831	   0	79.7	109.2	 871	OK
 832	   0	80.2	109.8	 869	OK
 833	   0	81.0	111.8	 874	OK
 834	   0	79.7	111.8	 875	OK
 835	   0	77.5	107.3	 873	OK
 836	   0	80.0	108.8	 886	OK
 837	   0	78.2	110.3	 879	OK
 838	   0	79.1	109.6	 863	OK
 839	   0	79.8	111.4	 884	OK
 840	   0	77.0	106.9	 872	OK
 841	   0	77.0	106.2	 873	OK
 842	   0	79.8	111.5	 878	OK
 843	   0	77.1	109.3	 868	OK
 844	   0	79.1	108.3	 854	OK
 845	   0	79.3	107.4	 873	OK
 846	   0	78.8	109.4	 885	OK
 847	   0	78.9	108.2	 866	OK
 848	   0	78.7	109.5	 869	OK
 849	   0	77.0	107.6	 878	OK
 850	   0	77.3	107.5	 864	OK
 851	   0	78.6	108.6	 862	OK
 852	   0	78.1	108.4	 852	OK
 853	   0	79.2	106.3	 872	OK
 854	   0	79.2	108.6	 876	OK
 855	   0	76.5	106.5	 851	OK
 856	   0	80.2	109.1	 859	OK
 857	   0	78.4	106.8	 845	OK
 858	   0	78.7	106.4	 879	OK
 859	   0	77.8	106.5	 854	OK
 860	   0	79.0	108.5	 862	OK
 861	   0	77.5	109.0	 853	OK
 862	   0	78.1	107.9	 884	OK
 863	   0	76.7	107.0	 860	OK
 864	   0	76.9	106.8	 868	OK
 865	   0	78.7	107.2	 866	OK
 866	   0	79.5	109.1	 872	OK
 867	   0	78.2	106.9	 865	OK
 868	   0	79.4	110.8	 860	OK
 869	   0	78.5	108.3	 881	OK
 870	   0	76.3	104.9	 877	OK
 871	   0	76.6	107.5	 854	OK
 872	   0	78.4	109.0	 869	OK
 873	   0	78.0	106.2	 877	OK
 874	   0	79.2	107.9	 867	OK
 875	   0	77.6	108.0	 867	OK
 876	   0	77.5	105.5	 884	OK
 877	   0	75.3	104.0	 860	OK
 878	   0	77.1	106.1	 857	OK
 879	   0	77.3	107.7	 870	OK
 880	   0	79.7	108.6	 853	OK
 881	   0	77.6	107.5	 839	OK
 882	   0	78.3	111.1	 865	OK
 883	   0	76.9	106.9	 865	OK
 884	   0	78.9	107.4	 864	OK
 885	   0	77.7	106.8	 856	OK
 886	   0	80.5	109.1	 848	OK
 887	   0	79.3	106.6	 861	OK
 888	   0	77.4	108.3	 831	OK
 889	   0	79.1	111.1	 864	OK
 890	   0	81.2	109.9	 845	OK
 891	   0	80.3	110.2	 884	OK
 892	   0	80.6	110.6	 854	OK
 893	   0	78.7	109.8	 859	OK
 894	   0	80.3	110.3	 855	OK
 895	   0	78.6	108.9	 844	OK
 896	   0	83.1	112.9	 859	OK
 897	   0	85.7	115.6	 846	OK
 898	   0	84.4	112.5	 838	OK
 899	   0	84.0	112.6	 843	OK
 900	   0	85.5	114.9	 834	OK
 901	   0	84.3	116.6	 819	OK
 902	   0	87.0	115.5	 840	OK
 903	   0	83.5	111.1	 830	OK
 904	   0	83.1	115.2	 844	OK
 905	   0	84.8	113.4	 837	OK
 906	   0	88.5	115.7	 835	OK
 907	   0	84.9	114.1	 830	OK
 908	   0	82.4	111.1	 823	OK
 909	   0	82.9	113.2	 838	OK
 910	   0	81.4	112.1	 837	OK
 911	   0	84.2	113.1	 829	OK
 912	   0	83.1	113.6	 838	OK
 913	   0	82.1	109.7	 844	OK
 914	   0	82.3	112.4	 831	OK
 915	   0	83.1	113.5	 842	OK
 916	   0	83.9	114.5	 842	OK
 917	   0	82.6	112.1	 844	OK
 918	   0	83.3	113.7	 844	OK
 919	   0	82.3	111.1	 840	OK
 920	   0	83.6	112.8	 825	OK
 921	   0	83.2	114.8	 830	OK
 922	   0	80.1	109.7	 829	OK
 923	   0	81.7	111.4	 844	OK
 924	   0	84.0	116.3	 846	OK
 925	   0	81.8	109.1	 838	OK
 926	   0	84.0	113.9	 841	OK
 927	   0	81.9	114.1	 832	OK
 928	   0	84.7	112.6	 848	OK
 929	   0	82.6	110.0	 843	OK
 930	   0	81.9	112.7	 841	OK
 931	   0	81.5	109.9	 837	OK
 932	   0	83.6	111.0	 845	OK
 933	   0	82.9	112.8	 852	OK
 934	   0	84.0	113.1	 858	OK
 935	   0	82.0	114.2	 834	OK
 936	   0	81.9	112.6	 840	OK
 937	   0	82.2	110.4	 845	OK
 938	   0	81.1	109.6	 824	OK
 939	   0	82.3	111.7	 852	OK
 940	   0	81.4	111.3	 860	OK
 941	   0	83.0	111.4	 845	OK
 942	   0	84.7	113.5	 834	OK
 943	   0	83.7	112.9	 849	OK
 944	   0	82.2	112.0	 847	OK
 945	   0	81.5	110.9	 859	OK
 946	   0	83.7	112.8	 828	OK
 947	   0	78.6	107.4	 858	OK
 948	   0	83.8	113.3	 835	OK
 949	   0	84.9	115.5	 840	OK
 950	   0	81.7	112.1	 848	OK
 951	   0	84.1	113.0	 844	OK
 952	   0	83.7	113.9	 861	OK
 953	   0	81.6	111.6	 840	OK
 954	   0	81.2	111.0	 852	OK
 955	   0	85.2	114.7	 856	OK
 956	   0	83.2	111.1	 848	OK
 957	   0	85.3	114.6	 854	OK
 958	   0	84.6	111.9	 831	OK
 959	   0	84.6	114.5	 872	OK
 960	   0	82.4	112.7	 858	OK
 961	   0	82.1	112.6	 836	OK
 962	   0	83.5	112.9	 849	OK
 963	   0	82.2	112.8	 829	OK
 964	   0	82.8	113.1	 828	OK
 965	   0	82.7	112.4	 836	OK
 966	   0	82.5	111.0	 841	OK
 967	   0	84.9	114.2	 844	OK
 968	   0	81.0	110.7	 833	OK
 969	   0	80.2	110.6	 844	OK
 970	   0	82.6	113.9	 840	OK
 971	   0	81.6	111.0	 829	OK
 972	   0	79.5	107.4	 847	OK
 973	   0	83.0	111.2	 826	OK
 974	   0	82.3	110.7	 854	OK
 975	   0	81.6	111.3	 852	OK
 976	   0	82.8	110.7	 815	OK
 977	   0	81.5	112.3	 863	OK
 978	   0	82.8	115.1	 833	OK
 979	   0	80.4	110.0	 840	OK
 980	   0	81.9	111.0	 823	OK
 981	   0	81.7	110.8	 833	OK
 982	   0	83.7	113.2	 829	OK
 983	   0	81.6	110.1	 846	OK
 984	   0	83.7	113.2	 835	OK
 985	   0	81.5	111.3	 819	OK
 986	   0	81.4	110.9	 846	OK
 987	   0	82.6	114.0	 828	OK
 988	   0	82.7	114.2	 836	OK
 989	   0	83.7	111.6	 819	OK
 990	   0	81.2	110.6	 819	OK
 991	   0	82.4	110.9	 833	OK
 992	   0	80.9	110.5	 830	OK
 993	   0	81.9	111.5	 830	OK
 994	   0	80.8	110.2	 828	OK
 995	   0	83.2	110.6	 822	OK
 996	   0	82.5	111.8	 834	OK
 997	   0	85.3	112.2	 808	OK
 998	   0	83.6	114.2	 819	OK
 999	   0	81.9	112.7	 825	OK
1000	   0	81.3	110.1	 827	OK
1001	   0	82.7	109.8	 823	OK
1002	   0	80.5	110.6	 833	OK
1003	   0	82.2	112.9	 829	OK
1004	   0	81.4	109.8	 828	OK
1005	   0	83.1	111.3	 809	OK
1006	   0	82.9	111.6	 826	OK
1007	   0	82.7	111.0	 820	OK
1008	   0	81.8	111.1	 803	OK
1009	   0	85.3	114.9	 825	OK
1010	   0	81.9	111.3	 811	OK
1011	   0	81.7	107.8	 823	OK
1012	   0	80.5	109.9	 829	OK
1013	   0	84.2	112.6	 810	OK
1014	   0	82.6	111.3	 821	OK
1015	   0	81.3	111.7	 810	OK
1016	   0	81.1	110.5	 808	OK
1017	   0	83.6	111.6	 783	OK
1018	   0	82.2	111.8	 810	OK
1019	   0	80.5	109.6	 803	OK
1020	   0	84.6	113.3	 810	OK
1021	   0	83.6	112.7	 813	OK
1022	   0	84.2	114.8	 814	OK
1023	   0	82.2	111.3	 803	OK
1024	   0	85.0	114.3	 823	OK
1025	   0	84.6	117.4	 807	OK
1026	   0	83.4	114.5	 831	OK
1027	   0	83.0	111.8	 838	OK
1028	   0	84.1	115.1	 809	OK
1029	   0	83.5	114.3	 820	OK
1030	   0	83.9	115.4	 828	OK
1031	   0	84.3	113.4	 813	OK
1032	   0	81.8	112.1	 836	OK
1033	   0	82.8	112.8	 816	OK
1034	   0	80.4	109.2	 819	OK
1035	   0	81.9	111.2	 845	OK
1036	   0	82.5	113.4	 828	OK
1037	   0	82.9	112.1	 826	OK
1038	   0	84.4	114.8	 823	OK
1039	   0	83.7	112.9	 829	OK
1040	   0	83.6	114.4	 831	OK
1041	   0	80.3	110.2	 816	OK
1042	   0	83.5	112.7	 834	OK
1043	   0	85.6	116.1	 831	OK
1044	   0	84.6	115.2	 806	OK
1045	   0	84.2	116.2	 838	OK
1046	   0	83.4	114.0	 810	OK
1047	   0	83.4	110.6	 818	OK
1048	   0	81.5	112.0	 823	OK
1049	   0	82.2	111.2	 810	OK
1050	   0	82.8	113.8	 832	OK
1051	   0	82.1	112.6	 806	OK
1052	   0	83.1	113.6	 815	OK
1053	   0	82.8	113.2	 811	OK
1054	   0	81.4	112.1	 819	OK
1055	   0	82.2	112.4	 841	OK
1056	   0	83.1	113.3	 830	OK
1057	   0	80.9	110.6	 820	OK
1058	   0	85.0	113.4	 836	OK
1059	   0	82.3	112.4	 810	OK
1060	   0	83.8	113.1	 840	OK
1061	   0	84.2	113.5	 812	OK
1062	   0	85.2	114.4	 841	OK
1063	   0	85.9	116.6	 849	OK
1064	   0	82.7	113.7	 833	OK
1065	   0	80.7	112.5	 810	OK
1066	   0	83.6	113.0	 810	OK
1067	   0	79.8	111.2	 814	OK
1068	   0	84.1	115.4	 815	OK
1069	   0	81.5	109.8	 823	OK
1070	   0	82.3	111.1	 825	OK
1071	   0	81.6	111.9	 833	OK
1072	   0	83.6	111.9	 814	OK
1073	   0	82.5	110.6	 835	OK
1074	   0	83.1	113.7	 831	OK
1075	   0	85.4	116.0	 849	OK
1076	   0	83.9	114.0	 821	OK
1077	   0	83.4	113.4	 840	OK
1078	   0	81.5	112.1	 829	OK
1079	   0	83.2	115.0	 822	OK
1080	   0	81.8	114.1	 844	OK
1081	   0	81.3	112.5	 825	OK
1082	   0	83.4	114.8	 845	OK
1083	   0	83.3	112.9	 825	OK
1084	   0	82.3	113.6	 821	OK
1085	   0	84.4	114.7	 845	OK
1086	   0	82.7	111.9	 820	OK
1087	   0	84.3	113.4	 824	OK
1088	   0	85.2	114.9	 849	OK
1089	   0	83.8	112.6	 865	OK
1090	   0	82.7	111.5	 834	OK
1091	   0	81.0	112.1	 814	OK
1092	   0	83.0	113.2	 828	OK
1093	   0	83.5	114.9	 829	OK
1094	   0	81.9	112.2	 855	OK
1095	   0	82.7	114.0	 831	OK
1096	   0	83.3	112.7	 826	OK
1097	   0	82.7	113.1	 819	OK
1098	   0	85.1	116.2	 839	OK
1099	   0	84.9	114.9	 849	OK
1100	   0	82.0	111.7	 821	OK
1101	   0	84.4	113.7	 828	OK
1102	   0	82.8	112.7	 827	OK
1103	   0	80.4	111.7	 836	OK
1104	   0	82.4	111.4	 813	OK
1105	   0	83.5	114.2	 835	OK
1106	   0	84.7	115.8	 842	OK
1107	   0	83.6	115.2	 838	OK
1108	   0	81.7	113.0	 820	OK
1109	   0	83.6	112.5	 825	OK
1110	   0	82.7	113.6	 814	OK
1111	   0	84.2	114.0	 831	OK
1112	   0	82.6	113.5	 832	OK
1113	   0	83.2	115.6	 824	OK
1114	   0	82.4	111.1	 830	OK
1115	   0	83.0	114.1	 820	OK
1116	   0	81.0	109.8	 821	OK
1117	   0	83.2	112.7	 815	OK
1118	   0	83.3	113.6	 829	OK
1119	   0	82.9	114.8	 825	OK
1120	   0	82.1	112.4	 819	OK
1121	   0	85.4	115.0	 823	OK
1122	   0	81.6	112.8	 816	OK
1123	   0	80.2	109.7	 822	OK
1124	   0	82.7	112.3	 840	OK
1125	   0	82.5	111.6	 837	OK
1126	   0	82.5	112.6	 838	OK
1127	   0	84.8	113.1	 837	OK
1128	   0	83.6	111.1	 827	OK
1129	   0	83.5	113.4	 836	OK
1130	   0	81.2	110.9	 822	OK
1131	   0	82.0	110.6	 830	OK
1132	   0	82.1	111.3	 823	OK
1133	   0	78.4	109.7	 812	OK
1134	   0	83.4	113.8	 832	OK
1135	   0	83.8	113.7	 829	OK
1136	   0	81.6	115.1	 825	OK
1137	   0	81.2	110.4	 839	OK
1138	   0	82.7	111.5	 821	OK
1139	   0	81.5	110.9	 834	OK
1140	   0	81.9	111.5	 835	OK
1141	   0	83.6	113.9	 820	OK
1142	   0	86.2	116.7	 826	OK
1143	   0	82.9	112.1	 836	OK
1144	   0	85.9	115.4	 825	OK
1145	   0	84.4	115.6	 854	OK
1146	   0	85.0	114.7	 845	OK
1147	   0	82.5	113.1	 813	OK
1148	   0	83.1	115.1	 836	OK
1149	   0	81.9	113.0	 846	OK
1150	   0	83.0	112.7	 836	OK
1151	   0	83.6	114.2	 831	OK
1152	   0	78.8	108.6	 769	OK
1153	   0	79.7	109.2	 794	OK
1154	   0	80.9	110.1	 793	OK
1155	   0	77.4	105.6	 786	OK
1156	   0	78.9	108.2	 780	OK
1157	   0	79.2	110.2	 793	OK
1158	   0	77.6	108.4	 818	OK
1159	   0	76.8	105.5	 794	OK
1160	   0	77.8	106.2	 784	OK
1161	   0	79.4	107.4	 802	OK
1162	   0	77.3	108.2	 815	OK
1163	   0	80.3	109.2	 811	OK
1164	   0	76.9	104.8	 824	OK
1165	   0	77.6	106.0	 813	OK
1166	   0	77.4	106.9	 804	OK
1167	   0	77.8	106.4	 824	OK
1168	   0	78.5	107.3	 823	OK
1169	   0	77.0	104.5	 830	OK
1170	   0	76.6	107.0	 831	OK
1171	   0	77.8	107.9	 819	OK
1172	   0	78.5	106.8	 814	OK
1173	   0	77.0	108.3	 821	OK
1174	   0	77.9	107.2	 831	OK
1175	   0	76.3	106.2	 839	OK
1176	   0	78.1	105.8	 810	OK
1177	   0	79.8	108.0	 834	OK
1178	   0	77.3	105.0	 822	OK
1179	   0	77.6	107.7	 842	OK
1180	   0	77.8	107.3	 850	OK
1181	   0	78.4	108.0	 828	OK
1182	   0	79.7	108.7	 839	OK
1183	   0	77.2	107.2	 854	OK
1184	   0	76.5	102.8	 860	OK
1185	   0	78.2	108.4	 823	OK
1186	   0	77.7	105.5	 846	OK
1187	   0	76.1	104.5	 845	OK
1188	   0	77.5	105.8	 840	OK
1189	   0	77.7	106.8	 840	OK
1190	   0	77.2	107.5	 845	OK
1191	   0	75.2	105.7	 841	OK
1192	   0	74.4	105.9	 862	OK
1193	   0	78.5	108.7	 840	OK
1194	   0	78.2	109.1	 838	OK
1195	   0	75.9	103.4	 849	OK
1196	   0	78.4	105.2	 862	OK
1197	   0	76.6	104.4	 846	OK
1198	   0	75.3	104.2	 863	OK
1199	   0	77.4	105.4	 851	OK
1200	   0	76.0	106.6	 844	OK
1201	   0	75.0	103.6	 836	OK
1202	   0	78.5	108.1	 823	OK
1203	   0	76.6	106.5	 847	OK
1204	   0	77.0	106.2	 839	OK
1205	   0	78.5	105.9	 841	OK
1206	   0	78.8	107.0	 855	OK
1207	   0	76.5	106.5	 862	OK
1208	   0	78.2	107.8	 842	OK
1209	   0	78.3	107.4	 834	OK
1210	   0	77.8	108.5	 839	OK
1211	   0	77.9	108.2	 834	OK
1212	   0	77.8	106.8	 827	OK
1213	   0	77.1	106.6	 841	OK
1214	   0	77.4	105.2	 846	OK
1215	   0	78.8	109.6	 840	OK
1216	   0	77.0	104.9	 825	OK
1217	   0	76.3	105.6	 867	OK
1218	   0	75.1	104.0	 826	OK
1219	   0	76.2	105.0	 824	OK
1220	   0	77.3	107.9	 817	OK
1221	   0	77.1	108.2	 832	OK
1222	   0	78.9	105.9	 817	OK
1223	   0	79.2	107.8	 797	OK
1224	   0	77.8	107.9	 844	OK
1225	   0	74.0	105.2	 819	OK
1226	   0	77.0	104.9	 808	OK
1227	   0	78.4	107.2	 819	OK
1228	   0	73.9	101.2	 814	OK
1229	   0	77.3	107.6	 820	OK
1230	   0	77.9	106.4	 829	OK
1231	   0	74.5	104.2	 834	OK
1232	   0	75.9	104.5	 826	OK
1233	   0	76.7	105.3	 837	OK
1234	   0	77.1	107.1	 823	OK
1235	   0	77.5	106.0	 815	OK
1236	   0	78.8	108.4	 829	OK
1237	   0	75.3	105.7	 798	OK
1238	   0	77.4	106.3	 824	OK
1239	   0	77.1	104.7	 816	OK
1240	   0	77.0	105.9	 825	OK
1241	   0	75.8	104.1	 803	OK
1242	   0	76.9	106.1	 832	OK
1243	   0	77.0	105.4	 823	OK
1244	   0	75.7	105.0	 819	OK
1245	   0	77.1	106.2	 825	OK
1246	   0	78.5	107.6	 823	OK
1247	   0	76.2	106.6	 803	OK
1248	   0	75.1	105.1	 809	OK
1249	   0	77.4	105.9	 826	OK
1250	   0	76.6	105.4	 806	OK
1251	   0	77.4	106.6	 826	OK
1252	   0	78.4	107.2	 834	OK
1253	   0	75.2	104.2	 820	OK
1254	   0	76.8	106.2	 789	OK
1255	   0	77.2	107.1	 817	OK
1256	   0	77.0	105.3	 833	OK
1257	   0	76.4	105.9	 827	OK
1258	   0	76.8	106.2	 814	OK
1259	   0	78.0	106.0	 817	OK
1260	   0	76.7	105.8	 810	OK
1261	   0	75.2	104.0	 822	OK
1262	   0	77.8	106.3	 802	OK
1263	   0	77.4	108.8	 824	OK
1264	   0	76.1	105.9	 813	OK
1265	   0	76.8	106.2	 799	OK
1266	   0	77.4	105.3	 833	OK
1267	   0	78.2	107.6	 807	OK
1268	   0	77.6	104.9	 812	OK
1269	   0	76.3	106.4	 813	OK
1270	   0	75.7	105.6	 825	OK
1271	   0	77.3	106.6	 839	OK
1272	   0	76.7	106.1	 821	OK
1273	   0	76.8	105.8	 815	OK
1274	   0	78.2	107.9	 826	OK
1275	   0	76.5	104.0	 816	OK
1276	   0	75.5	103.7	 827	OK
1277	   0	75.9	103.9	 815	OK
1278	   0	77.1	108.2	 800	OK
1279	   0	75.8	106.6	 822	OK
1280	   0	84.2	113.6	 791	OK
1281	   0	81.8	110.5	 806	OK
1282	   0	84.2	111.4	 804	OK
1283	   0	84.6	113.5	 801	OK
1284	   0	82.2	111.4	 799	OK
1285	   0	83.5	111.9	 797	OK
1286	   0	84.0	112.6	 809	OK
1287	   0	82.5	113.0	 793	OK
1288	   0	82.0	112.3	 812	OK
1289	   0	80.7	109.3	 805	OK
1290	   0	80.9	109.8	 802	OK
1291	   0	81.8	111.7	 797	OK
1292	   0	84.7	112.9	 817	OK
1293	   0	82.4	111.7	 788	OK
1294	   0	82.3	112.8	 817	OK
1295	   0	84.1	112.5	 795	OK
1296	   0	83.6	111.7	 812	OK
1297	   0	81.2	110.1	 795	OK
1298	   0	83.6	113.9	 799	OK
1299	   0	81.5	111.3	 799	OK
1300	   0	83.6	114.9	 787	OK
1301	   0	81.7	110.0	 784	OK
1302	   0	81.5	111.3	 791	OK
1303	   0	80.5	107.9	 806	OK
1304	   0	81.4	110.5	 808	OK
1305	   0	80.2	110.6	 806	OK
1306	   0	81.5	111.6	 818	OK
1307	   0	82.3	111.6	 796	OK
1308	   0	82.8	110.2	 804	OK
1309	   0	79.6	109.2	 808	OK
1310	   0	83.4	113.9	 807	OK
1311	   0	81.6	110.5	 816	OK
1312	   0	82.4	112.6	 788	OK
1313	   0	83.1	112.9	 815	OK
1314	   0	80.1	111.6	 797	OK
1315	   0	83.4	112.7	 802	OK
1316	   0	83.2	113.6	 813	OK
1317	   0	80.1	107.8	 794	OK
1318	   0	83.8	112.9	 811	OK
1319	   0	79.9	110.0	 781	OK
1320	   0	81.8	111.5	 785	OK
1321	   0	84.1	111.4	 799	OK
1322	   0	80.9	109.2	 793	OK
1323	   0	83.5	115.2	 810	OK
1324	   0	84.7	114.0	 806	OK
1325	   0	82.0	111.5	 805	OK
1326	   0	83.7	113.0	 810	OK
1327	   0	81.5	109.5	 819	OK
1328	   0	83.4	112.7	 797	OK
1329	   0	82.6	112.6	 799	OK
1330	   0	84.2	114.6	 810	OK
1331	   0	85.1	115.3	 791	OK
1332	   0	82.1	110.3	 788	OK
1333	   0	82.6	115.3	 805	OK
1334	   0	82.2	110.7	 788	OK
1335	   0	80.5	112.1	 792	OK
1336	   0	84.3	113.2	 779	OK
1337	   0	83.1	113.5	 788	OK
1338	   0	83.5	112.7	 793	OK
1339	   0	83.3	114.0	 807	OK
1340	   0	80.5	110.8	 811	OK
1341	   0	83.3	111.9	 794	OK
1342	   0	84.2	112.9	 814	OK
1343	   0	84.3	113.2	 800	OK
1344	   0	83.8	114.8	 800	OK
1345	   0	83.6	115.2	 807	OK
1346	   0	85.6	116.1	 780	OK
1347	   0	84.5	113.8	 784	OK
1348	   0	82.4	111.5	 807	OK
1349	   0	78.0	109.0	 793	OK
1350	   0	81.8	111.0	 783	OK
1351	   0	81.6	110.9	 795	OK
1352	   0	82.5	112.8	 776	OK
1353	   0	83.5	111.8	 795	OK
1354	   0	82.7	112.6	 795	OK
1355	   0	81.5	110.4	 802	OK
1356	   0	81.8	111.2	 792	OK
1357	   0	83.6	111.7	 799	OK
1358	   0	82.0	111.1	 780	OK
1359	   0	83.1	113.8	 788	OK
1360	   0	83.4	114.2	 792	OK
1361	   0	83.6	113.8	 800	OK
1362	   0	80.4	112.0	 803	OK
1363	   0	80.5	110.5	 794	OK
1364	   0	83.0	112.3	 799	OK
1365	   0	82.2	111.7	 781	OK
1366	   0	82.1	110.2	 781	OK
1367	   0	81.3	112.1	 771	OK
1368	   0	80.8	110.0	 801	OK
1369	   0	83.3	111.9	 790	OK
1370	   0	79.8	110.2	 806	OK
1371	   0	83.0	112.8	 771	OK
1372	   0	81.2	111.3	 792	OK
1373	   0	81.2	112.0	 784	OK
1374	   0	83.3	113.2	 796	OK
1375	   0	81.0	111.9	 793	OK
1376	   0	82.9	110.9	 794	OK
1377	   0	82.4	112.2	 776	OK
1378	   0	83.3	111.7	 807	OK
1379	   0	81.9	112.1	 775	OK
1380	   0	83.3	112.8	 790	OK
1381	   0	81.9	111.7	 791	OK
1382	   0	81.9	111.9	 784	OK
1383	   0	81.4	113.1	 781	OK
1384	   0	82.1	111.1	 775	OK
1385	   0	84.3	113.5	 778	OK
1386	   0	83.3	112.0	 787	OK
1387	   0	80.1	109.4	 787	OK
1388	   0	84.0	114.5	 764	OK
1389	   0	80.3	109.7	 771	OK
1390	   0	81.0	111.1	 774	OK
1391	   0	83.4	114.4	 775	OK
1392	   0	84.1	114.9	 794	OK
1393	   0	82.5	113.5	 791	OK
1394	   0	80.8	110.9	 779	OK
1395	   0	83.4	111.8	 799	OK
1396	   0	81.7	110.8	 778	OK
1397	   0	82.8	112.3	 786	OK
1398	   0	83.2	114.5	 790	OK
1399	   0	83.1	112.0	 775	OK
1400	   0	83.3	113.6	 795	OK
1401	   0	80.6	109.5	 799	OK
1402	   0	82.6	114.6	 782	OK
1403	   0	80.8	110.2	 783	OK
1404	   0	84.9	116.3	 788	OK
1405	   0	83.8	114.1	 792	OK
1406	   0	86.5	116.6	 789	OK
1407	   0	85.3	112.6	 767	OK
1408	   0	79.2	107.9	 823	OK
1409	   0	77.9	107.3	 866	OK
1410	   0	78.3	106.7	 829	OK
1411	   0	76.4	107.3	 847	OK
1412	   0	77.6	108.9	 839	OK
1413	   0	79.8	109.5	 810	OK
1414	   0	81.1	110.0	 810	OK
1415	   0	78.3	110.4	 832	OK
1416	   0	79.0	109.9	 826	OK
1417	   0	82.4	113.4	 820	OK
1418	   0	78.2	108.2	 823	OK
1419	   0	76.5	105.1	 845	OK
1420	   0	77.0	109.6	 821	OK
1421	   0	75.3	105.7	 816	OK
1422	   0	78.0	107.0	 825	OK
1423	   0	75.0	105.9	 818	OK
1424	   0	78.8	111.1	 825	OK
1425	   0	78.3	107.7	 809	OK
1426	   0	78.1	107.4	 812	OK
1427	   0	76.1	104.2	 823	OK
1428	   0	79.0	108.3	 812	OK
1429	   0	77.7	106.9	 814	OK
1430	   0	79.4	108.3	 822	OK
1431	   0	78.8	109.9	 832	OK
1432	   0	76.9	107.5	 838	OK
1433	   0	78.2	109.6	 810	OK
1434	   0	75.7	107.9	 808	OK
1435	   0	78.4	108.5	 812	OK
1436	   0	78.8	110.0	 821	OK
1437	   0	77.9	108.1	 827	OK
1438	   0	78.4	105.7	 857	OK
1439	   0	79.5	110.7	 830	OK
1440	   0	77.2	108.7	 834	OK
1441	   0	79.4	107.8	 818	OK
1442	   0	80.7	108.9	 824	OK
1443	   0	77.6	108.1	 834	OK
1444	   0	75.8	106.4	 816	OK
1445	   0	74.7	104.2	 833	OK
1446	   0	78.5	108.4	 822	OK
1447	   0	78.5	109.0	 812	OK
1448	   0	77.5	108.1	 810	OK
1449	   0	77.2	107.6	 841	OK
1450	   0	78.4	109.5	 823	OK
1451	   0	76.9	108.9	 830	OK
1452	   0	80.4	108.9	 833	OK
1453	   0	79.1	109.7	 825	OK
1454	   0	76.6	107.7	 836	OK
1455	   0	77.0	108.4	 822	OK
1456	   0	80.9	111.1	 815	OK
1457	   0	76.2	106.8	 827	OK
1458	   0	77.4	108.1	 825	OK
1459	   0	78.4	108.1	 821	OK
1460	   0	79.4	107.7	 842	OK
1461	   0	77.3	107.4	 815	OK
1462	   0	77.9	107.6	 838	OK
1463	   0	80.4	109.5	 811	OK
1464	   0	80.3	111.4	 852	OK
1465	   0	80.3	112.3	 834	OK
1466	   0	77.5	107.6	 821	OK
1467	   0	81.6	110.5	 821	OK
1468	   0	76.8	107.6	 810	OK
1469	   0	78.2	109.0	 818	OK
1470	   0	79.1	108.8	 814	OK
1471	   0	77.5	108.2	 817	OK
1472	   0	76.9	106.9	 830	OK
1473	   0	79.1	108.7	 819	OK
1474	   0	75.9	104.7	 837	OK
1475	   0	76.4	107.3	 809	OK
1476	   0	77.1	109.4	 805	OK
1477	   0	77.9	108.8	 820	OK
1478	   0	77.5	106.3	 819	OK
1479	   0	77.1	109.3	 824	OK
1480	   0	77.3	107.0	 807	OK
1481	   0	78.0	108.2	 828	OK
1482	   0	78.1	108.3	 817	OK
1483	   0	78.2	108.3	 815	OK
1484	   0	78.6	109.7	 801	OK
1485	   0	79.4	110.4	 820	OK
1486	   0	76.8	105.0	 817	OK
1487	   0	76.6	107.0	 805	OK
1488	   0	79.5	110.6	 808	OK
1489	   0	78.8	110.9	 811	OK
1490	   0	78.6	108.4	 831	OK
1491	   0	78.7	109.8	 809	OK
1492	   0	78.2	108.9	 837	OK
1493	   0	75.1	104.7	 813	OK
1494	   0	79.4	108.8	 822	OK
1495	   0	76.7	107.5	 823	OK
1496	   0	77.6	107.7	 833	OK
1497	   0	77.9	108.1	 799	OK
1498	   0	75.2	105.1	 814	OK
1499	   0	77.3	106.6	 818	OK
1500	   0	77.5	106.9	 817	OK
1501	   0	78.2	109.0	 823	OK
1502	   0	75.5	104.2	 817	OK
1503	   0	77.1	109.8	 822	OK
1504	   0	76.6	107.7	 819	OK
1505	   0	79.5	109.6	 805	OK
1506	   0	79.0	107.4	 805	OK
1507	   0	77.9	108.7	 818	OK
1508	   0	80.1	111.4	 796	OK
1509	   0	79.6	110.2	 828	OK
1510	   0	78.1	107.6	 804	OK
1511	   0	80.0	108.4	 826	OK
1512	   0	76.4	105.7	 838	OK
1513	   0	76.8	105.1	 826	OK
1514	   0	79.9	109.6	 828	OK
1515	   0	78.7	109.5	 822	OK
1516	   0	78.5	109.3	 824	OK
1517	   0	77.3	105.8	 820	OK
1518	   0	79.6	110.8	 818	OK
1519	   0	81.9	111.3	 788	OK
1520	   0	79.2	111.2	 807	OK
1521	   0	78.5	109.6	 813	OK
1522	   0	76.6	107.4	 810	OK
1523	   0	75.4	106.3	 811	OK
1524	   0	77.3	109.0	 816	OK
1525	   0	79.8	111.5	 788	OK
1526	   0	79.2	108.0	 801	OK
1527	   0	77.8	109.6	 823	OK
1528	   0	78.6	109.9	 814	OK
1529	   0	80.0	108.8	 799	OK
1530	   0	78.5	109.7	 825	OK
1531	   0	77.8	108.2	 818	OK
1532	   0	79.8	108.0	 814	OK
1533	   0	79.3	109.6	 807	OK
1534	   0	78.7	109.8	 804	OK
1535	   0	79.9	111.0	 797	OK
1536	   0	84.2	114.4	 823	OK
1537	   0	80.4	109.8	 800	OK
1538	   0	81.2	111.2	 816	OK
1539	   0	80.8	110.3	 827	OK
1540	   0	79.8	109.2	 814	OK
1541	   0	80.2	110.9	 807	OK
1542	   0	81.3	110.3	 816	OK
1543	   0	79.5	110.8	 814	OK
1544	   0	80.5	112.0	 809	OK
1545	   0	83.5	112.0	 813	OK
1546	   0	78.3	107.4	 820	OK
1547	   0	77.6	107.6	 810	OK
1548	   0	79.3	107.7	 812	OK
1549	   0	79.8	111.2	 791	OK
1550	   0	78.8	108.4	 810	OK
1551	   0	78.5	107.7	 791	OK
1552	   0	78.3	110.4	 800	OK
1553	   0	81.8	111.2	 803	OK
1554	   0	77.7	108.2	 814	OK
1555	   0	79.1	107.2	 807	OK
1556	   0	80.4	110.3	 818	OK
1557	   0	80.6	111.6	 820	OK
1558	   0	78.9	109.9	 806	OK
1559	   0	78.0	108.5	 793	OK
1560	   0	80.0	109.9	 827	OK
1561	   0	79.6	107.6	 825	OK
1562	   0	77.8	106.3	 798	OK
1563	   0	79.0	109.4	 807	OK
1564	   0	79.6	110.1	 801	OK
1565	   0	81.3	111.0	 801	OK
1566	   0	77.6	106.5	 815	OK
1567	   0	78.0	107.4	 797	OK
1568	   0	77.0	108.3	 810	OK
1569	   0	79.6	109.2	 796	OK
1570	   0	79.9	110.2	 784	OK
1571	   0	78.4	107.3	 824	OK
1572	   0	81.4	110.8	 811	OK
1573	   0	80.6	109.9	 819	OK
1574	   0	78.6	108.3	 787	OK
1575	   0	78.6	108.5	 831	OK
1576	   0	81.7	110.6	 804	OK
1577	   0	79.4	109.1	 833	OK
1578	   0	79.2	108.0	 819	OK
1579	   0	81.6	111.9	 810	OK
1580	   0	78.4	110.2	 805	OK
1581	   0	79.0	110.2	 804	OK
1582	   0	80.8	110.6	 820	OK
1583	   0	79.4	110.3	 811	OK
1584	   0	80.1	109.7	 805	OK
1585	   0	79.7	109.1	 825	OK
1586	   0	78.7	109.4	 802	OK
1587	   0	79.9	109.4	 808	OK
1588	   0	77.9	108.3	 806	OK
1589	   0	79.9	108.8	 798	OK
1590	   0	78.2	109.1	 803	OK
1591	   0	79.6	110.8	 819	OK
1592	   0	80.1	111.0	 799	OK
1593	   0	77.1	106.8	 803	OK
1594	   0	81.6	109.9	 810	OK
1595	   0	77.0	105.1	 825	OK
1596	   0	80.3	110.4	 797	OK
1597	   0	80.5	111.4	 803	OK
1598	   0	79.6	108.2	 803	OK
1599	   0	79.0	111.3	 794	OK
1600	   0	81.6	109.9	 823	OK
1601	   0	78.8	108.5	 802	OK
1602	   0	80.3	109.9	 808	OK
1603	   0	79.4	109.2	 815	OK
1604	   0	78.3	109.4	 809	OK
1605	   0	77.6	106.9	 790	OK
1606	   0	78.1	106.5	 793	OK
1607	   0	81.5	112.0	 805	OK
1608	   0	78.6	107.8	 801	OK
1609	   0	79.9	110.8	 821	OK
1610	   0	82.0	112.2	 797	OK
1611	   0	80.4	110.0	 806	OK
1612	   0	79.8	109.6	 791	OK
1613	   0	78.8	108.7	 791	OK
1614	   0	77.8	107.0	 812	OK
1615	   0	79.0	110.4	 800	OK
1616	   0	78.7	107.6	 794	OK
1617	   0	79.0	108.3	 799	OK
1618	   0	80.7	110.7	 786	OK
1619	   0	80.6	110.0	 801	OK
1620	   0	79.1	109.9	 798	OK
1621	   0	79.0	109.3	 810	OK
1622	   0	78.7	106.3	 802	OK
1623	   0	78.8	111.5	 813	OK
1624	   0	79.6	108.7	 814	OK
1625	   0	79.4	107.3	 814	OK
1626	   0	77.6	107.5	 834	OK
1627	   0	79.8	109.7	 817	OK
1628	   0	79.3	108.3	 810	OK
1629	   0	78.3	107.8	 801	OK
1630	   0	76.6	106.7	 808	OK
1631	   0	79.0	110.7	 815	OK
1632	   0	81.0	111.1	 801	OK
1633	   0	80.6	109.5	 816	OK
1634	   0	78.7	109.5	 791	OK
1635	   0	78.1	108.8	 794	OK
1636	   0	80.9	112.3	 813	OK
1637	   0	79.4	108.2	 803	OK
1638	   0	78.0	109.0	 803	OK
1639	   0	77.9	108.9	 797	OK
1640	   0	77.6	107.8	 811	OK
1641	   0	78.3	107.7	 798	OK
1642	   0	77.7	107.4	 813	OK
1643	   0	78.3	109.7	 803	OK
1644	   0	80.9	112.9	 824	OK
1645	   0	79.6	109.6	 809	OK
1646	   0	76.4	106.2	 801	OK
1647	   0	79.1	111.0	 804	OK
1648	   0	78.9	110.0	 808	OK
1649	   0	81.6	111.3	 797	OK
1650	   0	78.9	108.6	 815	OK
1651	   0	81.7	113.1	 784	OK
1652	   0	80.4	110.9	 806	OK
1653	   0	79.8	110.5	 799	OK
1654	   0	79.4	111.3	 813	OK
1655	   0	79.0	110.6	 812	OK
1656	   0	81.5	110.5	 795	OK
1657	   0	78.1	107.7	 785	OK
1658	   0	78.1	107.7	 807	OK
1659	   0	80.6	110.9	 805	OK
1660	   0	80.9	111.7	 801	OK
1661	   0	80.5	109.7	 799	OK
1662	   0	79.9	110.6	 812	OK
1663	   0	79.7	108.6	 797	OK
1664	   0	77.7	107.7	 841	OK
1665	   0	76.8	105.3	 823	OK
1666	   0	79.5	108.9	 842	OK
1667	   0	76.4	106.1	 845	OK
1668	   0	76.9	104.4	 842	OK
1669	   0	77.7	105.7	 838	OK
1670	   0	80.9	109.9	 847	OK
1671	   0	79.4	107.0	 825	OK
1672	   0	77.1	108.1	 872	OK
1673	   0	77.3	107.6	 852	OK
1674	   0	76.0	105.1	 840	OK
1675	   0	75.2	105.1	 835	OK
1676	   0	75.9	107.6	 865	OK
1677	   0	80.3	109.0	 842	OK
1678	   0	76.7	106.9	 832	OK
1679	   0	79.8	108.3	 836	OK
1680	   0	76.8	107.5	 844	OK
1681	   0	76.9	108.4	 846	OK
1682	   0	76.4	108.1	 847	OK
1683	   0	76.4	106.9	 857	OK
1684	   0	76.3	106.6	 837	OK
1685	   0	78.8	108.5	 849	OK
1686	   0	75.8	107.3	 850	OK
1687	   0	75.6	106.5	 864	OK
1688	   0	76.0	106.2	 851	OK
1689	   0	76.3	105.6	 840	OK
1690	   0	75.8	107.0	 842	OK
1691	   0	76.3	107.1	 831	OK
1692	   0	77.0	106.3	 850	OK
1693	   0	75.1	106.8	 841	OK
1694	   0	77.6	108.5	 855	OK
1695	   0	74.4	104.8	 847	OK
1696	   0	78.2	107.6	 845	OK
1697	   0	76.1	104.7	 849	OK
1698	   0	75.6	103.6	 841	OK
1699	   0	76.6	107.1	 838	OK
1700	   0	77.9	109.7	 833	OK
1701	   0	77.4	106.0	 850	OK
1702	   0	76.2	107.3	 841	OK
1703	   0	76.2	107.5	 854	OK
1704	   0	78.4	108.4	 842	OK
1705	   0	76.4	105.7	 839	OK
1706	   0	76.1	105.0	 838	OK
1707	   0	75.4	104.5	 859	OK
1708	   0	74.3	105.4	 839	OK
1709	   0	76.1	106.4	 840	OK
1710	   0	75.5	104.6	 843	OK
1711	   0	75.7	105.3	 857	OK
1712	   0	77.1	106.1	 856	OK
1713	   0	77.3	107.8	 833	OK
1714	   0	76.2	106.5	 852	OK
1715	   0	75.8	104.6	 859	OK
1716	   0	74.2	105.8	 835	OK
1717	   0	76.8	107.0	 856	OK
1718	   0	78.6	107.0	 837	OK
1719	   0	76.3	104.5	 841	OK
1720	   0	76.5	108.3	 850	OK
1721	   0	80.3	110.1	 837	OK
1722	   0	76.7	109.8	 855	OK
1723	   0	78.1	107.7	 831	OK
1724	   0	79.3	109.7	 855	OK
1725	   0	78.4	110.5	 840	OK
1726	   0	77.4	106.5	 848	OK
1727	   0	81.6	110.6	 821	OK
1728	   0	76.5	106.9	 839	OK
1729	   0	76.1	105.6	 834	OK
1730	   0	74.6	105.3	 846	OK
1731	   0	78.7	108.0	 837	OK
1732	   0	79.5	107.8	 834	OK
1733	   0	78.6	110.1	 860	OK
1734	   0	78.7	108.4	 823	OK
1735	   0	80.9	108.9	 820	OK
1736	   0	75.9	104.9	 853	OK
1737	   0	76.9	107.7	 848	OK
1738	   0	75.5	105.1	 844	OK
1739	   0	75.9	105.7	 850	OK
1740	   0	75.4	105.3	 836	OK
1741	   0	76.5	105.2	 821	OK
1742	   0	78.1	109.0	 826	OK
1743	   0	75.3	104.8	 846	OK
1744	   0	76.1	106.9	 824	OK
1745	   0	77.0	104.5	 843	OK
1746	   0	74.5	104.5	 832	OK
1747	   0	76.1	104.9	 848	OK
1748	   0	76.2	106.2	 839	OK
1749	   0	74.7	105.5	 826	OK
1750	   0	76.3	106.4	 845	OK
1751	   0	74.8	104.4	 847	OK
1752	   0	76.5	105.9	 845	OK
1753	   0	75.6	105.0	 852	OK
1754	   0	77.8	108.1	 831	OK
1755	   0	74.2	103.1	 843	OK
1756	   0	75.8	105.2	 828	OK
1757	   0	75.7	105.0	 844	OK
1758	   0	77.3	108.7	 820	OK
1759	   0	78.4	108.2	 836	OK
1760	   0	78.0	109.5	 839	OK
1761	   0	76.0	105.2	 847	OK
1762	   0	76.9	107.4	 835	OK
1763	   0	77.6	107.5	 820	OK
1764	   0	75.3	105.5	 847	OK
1765	   0	78.3	107.5	 838	OK
1766	   0	76.6	106.4	 829	OK
1767	   0	77.6	109.6	 826	OK
1768	   0	76.1	105.6	 833	OK
1769	   0	76.0	105.6	 851	OK
1770	   0	76.3	107.7	 829	OK
1771	   0	77.5	108.2	 842	OK
1772	   0	76.6	104.8	 827	OK
1773	   0	78.1	108.0	 835	OK
1774	   0	75.8	105.4	 833	OK
1775	   0	77.2	107.8	 832	OK
1776	   0	75.6	104.7	 847	OK
1777	   0	75.9	103.3	 848	OK
1778	   0	76.2	105.5	 839	OK
1779	   0	75.8	104.4	 834	OK
1780	   0	75.7	107.3	 828	OK
1781	   0	76.8	107.5	 841	OK
1782	   0	79.7	110.8	 846	OK
1783	   0	78.8	109.0	 846	OK
1784	   0	74.9	104.7	 819	OK
1785	   0	76.5	105.1	 837	OK
1786	   0	76.3	105.9	 840	OK
1787	   0	80.5	110.8	 831	OK
1788	   0	79.6	109.0	 822	OK
1789	   0	79.3	110.0	 828	OK
1790	   0	78.4	109.2	 836	OK
1791	   0	78.7	108.8	 819	OK
1792	   0	81.3	110.9	 812	OK
1793	   0	78.0	107.9	 814	OK
1794	   0	77.9	107.6	 814	OK
1795	   0	80.1	109.2	 813	OK
1796	   0	79.6	107.9	 821	OK
1797	   0	80.5	109.7	 796	OK
1798	   0	78.3	106.8	 806	OK
1799	   0	78.4	109.2	 809	OK
1800	   0	79.0	110.1	 818	OK
1801	   0	76.9	108.6	 815	OK
1802	   0	77.6	107.1	 806	OK
1803	   0	79.4	108.5	 823	OK
1804	   0	77.2	108.0	 799	OK
1805	   0	77.4	109.6	 796	OK
1806	   0	77.6	107.1	 819	OK
1807	   0	77.9	107.3	 813	OK
1808	   0	78.0	108.2	 824	OK
1809	   0	80.1	109.7	 828	OK
1810	   0	79.0	109.3	 806	OK
1811	   0	80.3	110.4	 813	OK
1812	   0	78.3	106.3	 807	OK
1813	   0	78.9	109.4	 807	OK
1814	   0	78.8	108.1	 819	OK
1815	   0	78.0	107.8	 824	OK
1816	   0	77.7	107.3	 809	OK
1817	   0	77.3	108.6	 821	OK
1818	   0	76.9	107.9	 793	OK
1819	   0	76.8	107.7	 815	OK
1820	   0	77.3	107.7	 809	OK
1821	   0	78.7	109.4	 816	OK
1822	   0	79.1	107.1	 814	OK
1823	   0	78.8	109.4	 827	OK
1824	   0	76.8	106.5	 819	OK
1825	   0	78.6	109.1	 826	OK
1826	   0	76.4	105.8	 797	OK
1827	   0	79.3	108.1	 828	OK
1828	   0	77.8	107.9	 814	OK
1829	   0	76.6	105.3	 822	OK
1830	   0	77.5	106.7	 812	OK
1831	   0	76.6	106.5	 815	OK
1832	   0	77.0	106.1	 795	OK
1833	   0	75.0	106.3	 837	OK
1834	   0	76.2	105.2	 841	OK
1835	   0	74.4	105.7	 824	OK
1836	   0	75.8	106.2	 829	OK
1837	   0	76.8	107.4	 814	OK
1838	   0	75.8	107.0	 809	OK
1839	   0	77.0	108.3	 827	OK
1840	   0	77.6	106.9	 813	OK
1841	   0	77.4	107.5	 816	OK
1842	   0	78.0	107.5	 818	OK
1843	   0	77.9	107.6	 832	OK
1844	   0	77.7	107.0	 825	OK
1845	   0	78.0	109.2	 828	OK
1846	   0	79.2	107.4	 825	OK
1847	   0	80.0	110.6	 822	OK
1848	   0	77.0	108.2	 813	OK
1849	   0	76.5	107.9	 828	OK
1850	   0	79.1	109.0	 811	OK
1851	   0	76.7	107.5	 816	OK
1852	   0	77.8	106.5	 821	OK
1853	   0	77.6	107.1	 820	OK
1854	   0	79.4	110.3	 816	OK
1855	   0	79.4	109.3	 802	OK
1856	   0	77.7	108.0	 833	OK
1857	   0	76.6	103.6	 810	OK
1858	   0	78.8	108.8	 838	OK
1859	   0	77.5	108.2	 822	OK
1860	   0	79.9	111.0	 822	OK
1861	   0	78.7	109.5	 833	OK
1862	   0	76.6	108.6	 816	OK
1863	   0	77.9	107.2	 803	OK
1864	   0	77.0	106.9	 814	OK
1865	   0	78.9	107.1	 800	OK
1866	   0	76.8	105.9	 823	OK
1867	   0	79.4	108.5	 821	OK
1868	   0	78.0	109.8	 820	OK
1869	   0	76.6	106.7	 808	OK
1870	   0	75.4	105.3	 825	OK
1871	   0	78.3	107.4	 817	OK
1872	   0	75.6	106.7	 816	OK
1873	   0	74.5	103.9	 807	OK
1874	   0	77.9	107.4	 813	OK
1875	   0	76.1	104.1	 809	OK
1876	   0	78.2	109.0	 819	OK
1877	   0	76.9	105.3	 822	OK
1878	   0	75.6	105.1	 812	OK
1879	   0	74.3	104.0	 819	OK
1880	   0	79.9	112.1	 830	OK
1881	   0	77.2	107.1	 818	OK
1882	   0	76.9	105.5	 806	OK
1883	   0	75.2	105.4	 839	OK
1884	   0	74.7	105.9	 824	OK
1885	   0	75.5	106.5	 810	OK
1886	   0	76.4	106.4	 810	OK
1887	   0	77.7	107.6	 818	OK
1888	   0	76.1	108.2	 825	OK
1889	   0	78.4	109.2	 821	OK
1890	   0	77.8	106.5	 819	OK
1891	   0	75.7	105.9	 823	OK
1892	   0	76.5	105.4	 819	OK
1893	   0	77.4	107.3	 821	OK
1894	   0	75.1	106.7	 820	OK
1895	   0	75.6	106.8	 831	OK
1896	   0	77.0	105.8	 817	OK
1897	   0	77.2	108.2	 827	OK
1898	   0	78.5	109.1	 827	OK
1899	   0	77.8	108.1	 818	OK
1900	   0	77.0	105.7	 817	OK
1901	   0	77.1	106.9	 840	OK
1902	   0	79.2	107.9	 786	OK
1903	   0	75.9	106.9	 824	OK
1904	   0	79.3	109.2	 795	OK
1905	   0	79.6	107.4	 810	OK
1906	   0	79.7	110.6	 824	OK
1907	   0	78.5	110.4	 802	OK
1908	   0	75.7	103.8	 815	OK
1909	   0	78.6	109.9	 806	OK
1910	   0	75.4	105.9	 821	OK
1911	   0	75.0	106.2	 829	OK
1912	   0	76.4	105.0	 817	OK
1913	   0	77.9	109.6	 808	OK
1914	   0	78.3	109.3	 818	OK
1915	   0	78.0	108.2	 832	OK
1916	   0	77.5	109.0	 817	OK
1917	   0	77.3	108.8	 834	OK
1918	   0	79.9	110.4	 821	OK
1919	   0	77.6	108.7	 827	OK
1920	   0	81.3	109.8	 798	OK
1921	   0	81.0	110.3	 796	OK
1922	   0	81.9	111.3	 816	OK
1923	   0	78.9	109.0	 811	OK
1924	   0	80.3	109.7	 791	OK
1925	   0	81.8	111.1	 794	OK
1926	   0	80.9	109.3	 807	OK
1927	   0	80.2	110.8	 802	OK
1928	   0	80.4	112.2	 804	OK
1929	   0	80.8	111.3	 781	OK
1930	   0	83.3	113.0	 795	OK
1931	   0	81.9	111.2	 770	OK
1932	   0	80.6	111.6	 792	OK
1933	   0	81.4	111.7	 793	OK
1934	   0	81.7	113.8	 780	OK
1935	   0	80.5	109.0	 785	OK
1936	   0	81.2	110.7	 781	OK
1937	   0	82.5	112.9	 791	OK
1938	   0	78.4	108.5	 800	OK
1939	   0	83.5	112.5	 774	OK
1940	   0	81.2	110.4	 796	OK
1941	   0	83.5	113.8	 783	OK
1942	   0	79.9	108.3	 791	OK
1943	   0	81.2	111.4	 814	OK
1944	   0	80.5	109.6	 793	OK
1945	   0	79.9	109.7	 800	OK
1946	   0	79.6	109.9	 802	OK
1947	   0	81.0	110.3	 798	OK
1948	   0	81.8	113.2	 794	OK
1949	   0	81.5	113.3	 792	OK
1950	   0	81.3	109.3	 799	OK
1951	   0	80.3	108.5	 805	OK
1952	   0	80.3	111.0	 793	OK
1953	   0	80.6	110.5	 805	OK
1954	   0	81.0	110.1	 791	OK
1955	   0	80.0	110.0	 811	OK
1956	   0	79.1	109.6	 801	OK
1957	   0	75.9	105.7	 777	OK
1958	   0	81.0	110.3	 785	OK
1959	   0	79.6	110.6	 819	OK
1960	   0	82.9	111.9	 796	OK
1961	   0	79.9	108.7	 811	OK
1962	   0	78.8	110.3	 809	OK
1963	   0	80.9	111.3	 795	OK
1964	   0	79.9	109.6	 790	OK
1965	   0	81.7	111.3	 796	OK
1966	   0	79.7	107.1	 790	OK
1967	   0	77.3	107.5	 803	OK
1968	   0	79.4	110.1	 789	OK
1969	   0	78.6	107.3	 803	OK
1970	   0	79.2	109.7	 815	OK
1971	   0	80.1	109.4	 788	OK
1972	   0	79.9	111.1	 795	OK
1973	   0	79.4	110.3	 811	OK
1974	   0	78.6	107.9	 782	OK
1975	   0	80.8	110.7	 789	OK
1976	   0	79.3	108.8	 804	OK
1977	   0	80.0	111.4	 784	OK
1978	   0	80.2	109.4	 802	OK
1979	   0	80.5	109.8	 783	OK
1980	   0	82.6	112.1	 785	OK
1981	   0	81.2	111.8	 778	OK
1982	   0	79.8	109.4	 808	OK
1983	   0	84.0	114.2	 820	OK
1984	   0	79.9	110.3	 811	OK
1985	   0	78.6	109.5	 812	OK
1986	   0	78.5	106.8	 792	OK
1987	   0	80.9	111.1	 784	OK
1988	   0	80.5	111.7	 807	OK
1989	   0	77.8	109.5	 793	OK
1990	   0	79.2	110.3	 791	OK
1991	   0	81.0	110.4	 786	OK
1992	   0	80.2	111.1	 796	OK
1993	   0	76.2	105.0	 800	OK
1994	   0	80.6	109.9	 800	OK
1995	   0	80.7	110.9	 795	OK
1996	   0	80.9	109.2	 798	OK
1997	   0	81.3	112.0	 809	OK
1998	   0	79.0	108.1	 789	OK
1999	   0	79.6	106.9	 789	OK
2000	   0	79.7	109.9	 799	OK
2001	   0	79.6	111.8	 785	OK
2002	   0	81.4	111.7	 801	OK
2003	   0	77.2	107.8	 803	OK
2004	   0	79.5	109.3	 801	OK
2005	   0	81.0	109.7	 805	OK
2006	   0	79.3	110.7	 796	OK
2007	   0	80.1	111.3	 785	OK
2008	   0	78.0	108.3	 799	OK
2009	   0	80.4	108.6	 793	OK
2010	   0	81.4	111.4	 802	OK
2011	   0	79.7	109.2	 785	OK
2012	   0	78.0	107.2	 780	OK
2013	   0	78.2	108.0	 795	OK
2014	   0	80.1	110.8	 788	OK
2015	   0	79.5	110.0	 768	OK
2016	   0	76.1	106.1	 802	OK
2017	   0	78.7	110.8	 799	OK
2018	   0	81.2	111.4	 783	OK
2019	   0	81.7	112.3	 791	OK
2020	   0	80.1	109.7	 777	OK
2021	   0	79.8	110.4	 808	OK
2022	   0	80.2	110.0	 791	OK
2023	   0	78.3	108.7	 799	OK
2024	   0	79.8	111.2	 799	OK
2025	   0	78.3	107.4	 796	OK
2026	   0	80.2	109.7	 791	OK
2027	   0	81.2	111.4	 805	OK
2028	   0	80.2	111.6	 792	OK
2029	   0	80.0	109.8	 806	OK
2030	   0	79.1	109.1	 787	OK
2031	   0	81.8	110.9	 787	OK
2032	   0	79.8	109.5	 795	OK
2033	   0	79.4	108.7	 811	OK
2034	   0	81.8	111.6	 801	OK
2035	   0	82.4	111.1	 784	OK
2036	   0	79.8	108.2	 794	OK
2037	   0	78.8	107.6	 810	OK
2038	   0	80.4	109.4	 785	OK
2039	   0	80.1	110.8	 810	OK
2040	   0	80.6	110.0	 790	OK
2041	   0	78.6	108.3	 786	OK
2042	   0	80.5	111.8	 809	OK
2043	   0	80.1	109.2	 783	OK
2044	   0	79.2	107.1	 795	OK
2045	   0	78.3	107.4	 795	OK
2046	   0	80.3	109.1	 804	OK
2047	   0	80.5	110.8	 794	OK
2048	   0	79.5	108.4	 818	OK
2049	   0	80.8	112.2	 817	OK
2050	   0	81.1	111.0	 809	OK
2051	   0	80.4	111.6	 811	OK
2052	   0	78.2	109.1	 818	OK
2053	   0	77.7	107.9	 803	OK
2054	   0	82.6	113.0	 810	OK
2055	   0	80.0	111.5	 803	OK
2056	   0	80.8	113.4	 818	OK
2057	   0	81.0	110.2	 831	OK
2058	   0	79.2	110.2	 821	OK
2059	   0	79.1	110.0	 805	OK
2060	   0	81.1	112.5	 789	OK
2061	   0	77.5	109.1	 791	OK
2062	   0	81.2	109.7	 792	OK
2063	   0	81.8	113.2	 784	OK
2064	   0	81.2	111.2	 799	OK
2065	   0	79.0	108.2	 807	OK
2066	   0	79.1	111.0	 802	OK
2067	   0	78.2	109.5	 806	OK
2068	   0	79.1	109.6	 798	OK
2069	   0	78.5	108.8	 805	OK
2070	   0	80.8	109.6	 810	OK
2071	   0	80.7	110.8	 808	OK
2072	   0	79.2	109.0	 815	OK
2073	   0	80.3	109.5	 809	OK
2074	   0	78.2	108.5	 816	OK
2075	   0	80.5	112.2	 792	OK
2076	   0	78.4	109.9	 810	OK
2077	   0	79.3	108.9	 805	OK
2078	   0	80.9	111.9	 820	OK
2079	   0	79.2	109.6	 789	OK
2080	   0	79.0	109.4	 807	OK
2081	   0	79.1	109.9	 811	OK
2082	   0	77.1	106.3	 815	OK
2083	   0	80.3	109.9	 792	OK
2084	   0	79.5	110.4	 818	OK
2085	   0	79.7	109.4	 803	OK
2086	   0	76.7	106.9	 784	OK
2087	   0	77.1	108.9	 781	OK
2088	   0	78.6	107.3	 818	OK
2089	   0	79.1	109.4	 794	OK
2090	   0	80.4	109.9	 811	OK
2091	   0	78.2	107.4	 822	OK
2092	   0	78.9	109.0	 805	OK
2093	   0	79.0	110.8	 792	OK
2094	   0	81.4	112.5	 801	OK
2095	   0	78.7	108.6	 808	OK
2096	   0	81.3	113.0	 803	OK
2097	   0	80.8	111.4	 805	OK
2098	   0	77.7	105.3	 837	OK
2099	   0	79.0	108.1	 813	OK
2100	   0	77.6	107.6	 821	OK
2101	   0	77.6	105.8	 797	OK
2102	   0	80.0	111.1	 810	OK
2103	   0	78.5	109.4	 807	OK
2104	   0	76.9	110.1	 823	OK
2105	   0	80.3	111.1	 809	OK
2106	   0	78.1	109.3	 790	OK
2107	   0	79.1	108.4	 805	OK
2108	   0	79.6	110.1	 813	OK
2109	   0	81.5	111.6	 806	OK
2110	   0	80.9	111.1	 815	OK
2111	   0	80.0	111.2	 811	OK
2112	   0	78.6	110.9	 812	OK
2113	   0	75.2	104.8	 803	OK
2114	   0	76.5	108.5	 820	OK
2115	   0	77.0	107.6	 820	OK
2116	   0	78.9	110.2	 803	OK
2117	   0	77.8	106.9	 798	OK
2118	   0	79.3	109.7	 822	OK
2119	   0	77.8	108.3	 818	OK
2120	   0	80.6	111.6	 807	OK
2121	   0	77.8	108.0	 809	OK
2122	   0	82.0	111.5	 797	OK
2123	   0	79.6	109.3	 797	OK
2124	   0	80.2	109.3	 806	OK
2125	   0	75.1	105.1	 813	OK
2126	   0	77.4	106.7	 824	OK
2127	   0	78.5	110.2	 816	OK
2128	   0	76.3	105.6	 806	OK
2129	   0	77.3	109.1	 819	OK
2130	   0	78.7	110.0	 804	OK
2131	   0	76.7	106.1	 819	OK
2132	   0	77.7	107.4	 791	OK
2133	   0	78.8	108.3	 811	OK
2134	   0	79.7	108.8	 796	OK
2135	   0	76.9	106.7	 816	OK
2136	   0	79.9	110.2	 811	OK
2137	   0	75.6	104.5	 777	OK
2138	   0	77.9	109.2	 807	OK
2139	   0	77.3	107.7	 801	OK
2140	   0	76.4	105.6	 803	OK
2141	   0	75.2	105.7	 793	OK
2142	   0	76.2	105.3	 793	OK
2143	   0	77.7	107.6	 801	OK
2144	   0	79.2	109.7	 799	OK
2145	   0	78.2	108.7	 799	OK
2146	   0	74.7	103.7	 815	OK
2147	   0	76.0	105.5	 806	OK
2148	   0	77.0	108.7	 826	OK
2149	   0	76.3	108.9	 809	OK
2150	   0	78.1	109.4	 817	OK
2151	   0	77.7	110.4	 801	OK
2152	   0	79.5	110.9	 818	OK
2153	   0	80.2	112.0	 798	OK
2154	   0	77.9	108.9	 804	OK
2155	   0	78.2	107.2	 798	OK
2156	   0	77.7	108.3	 780	OK
2157	   0	79.0	106.9	 796	OK
2158	   0	79.1	109.2	 823	OK
2159	   0	78.5	106.6	 799	OK
2160	   0	80.1	108.8	 799	OK
2161	   0	79.3	108.7	 812	OK
2162	   0	78.9	109.3	 811	OK
2163	   0	77.3	107.2	 796	OK
2164	   0	80.1	109.4	 807	OK
2165	   0	77.3	106.9	 806	OK
2166	   0	78.5	106.7	 816	OK
2167	   0	81.7	111.1	 813	OK
2168	   0	78.2	106.4	 820	OK
2169	   0	76.7	107.7	 807	OK
2170	   0	78.7	109.8	 786	OK
2171	   0	78.1	106.6	 798	OK
2172	   0	78.4	109.0	 806	OK
2173	   0	78.0	109.4	 806	OK
2174	   0	80.2	107.7	 791	OK
2175	   0	81.0	111.9	 803	OK
2176	   0	84.4	114.6	 801	OK
2177	   0	83.6	113.1	 795	OK
2178	   0	84.5	113.0	 807	OK
2179	   0	83.2	111.4	 777	OK
2180	   0	82.9	113.1	 802	OK
2181	   0	84.1	113.1	 786	OK
2182	   0	82.9	112.1	 792	OK
2183	   0	82.2	111.4	 780	OK
2184	   0	84.6	113.5	 798	OK
2185	   0	84.4	112.9	 807	OK
2186	   0	84.6	114.6	 785	OK
2187	   0	85.1	116.1	 794	OK
2188	   0	83.8	112.9	 780	OK
2189	   0	86.7	116.3	 776	OK
2190	   0	82.6	110.0	 804	OK
2191	   0	83.7	114.6	 797	OK
2192	   0	82.2	110.9	 789	OK
2193	   0	82.2	110.9	 807	OK
2194	   0	81.8	113.8	 803	OK
2195	   0	80.6	111.5	 785	OK
2196	   0	83.4	112.0	 786	OK
2197	   0	83.8	111.4	 794	OK
2198	   0	82.3	110.3	 798	OK
2199	   0	82.5	111.1	 796	OK
2200	   0	83.0	113.9	 796	OK
2201	   0	83.8	113.1	 797	OK
2202	   0	83.4	115.1	 788	OK
2203	   0	84.9	115.7	 789	OK
2204	   0	84.3	114.4	 786	OK
2205	   0	81.3	110.3	 804	OK
2206	   0	80.6	112.0	 816	OK
2207	   0	83.0	111.5	 793	OK
2208	   0	79.9	108.5	 787	OK
2209	   0	81.5	111.9	 803	OK
2210	   0	81.2	113.2	 806	OK
2211	   0	82.2	113.2	 803	OK
2212	   0	82.5	112.7	 780	OK
2213	   0	80.2	110.0	 781	OK
2214	   0	80.9	108.9	 788	OK
2215	   0	82.6	112.4	 799	OK
2216	   0	82.4	113.5	 782	OK
2217	   0	81.3	111.6	 804	OK
2218	   0	83.1	113.5	 805	OK
2219	   0	81.6	112.0	 804	OK
2220	   0	80.7	110.3	 789	OK
2221	   0	83.7	112.6	 794	OK
2222	   0	82.0	113.0	 804	OK
2223	   0	82.7	112.7	 803	OK
2224	   0	81.9	113.4	 802	OK
2225	   0	83.8	114.6	 799	OK
2226	   0	82.4	111.9	 785	OK
2227	   0	82.0	112.6	 790	OK
2228	   0	83.5	113.8	 790	OK
2229	   0	80.8	110.4	 795	OK
2230	   0	81.9	111.4	 793	OK
2231	   0	82.7	111.7	 789	OK
2232	   0	84.8	114.6	 787	OK
2233	   0	82.4	114.0	 816	OK
2234	   0	80.4	109.5	 805	OK
2235	   0	83.4	113.4	 797	OK
2236	   0	85.2	114.8	 791	OK
2237	   0	84.5	113.0	 780	OK
2238	   0	84.8	114.1	 799	OK
2239	   0	84.9	114.6	 773	OK
2240	   0	79.6	109.9	 775	OK
2241	   0	80.1	109.0	 786	OK
2242	   0	83.0	112.5	 792	OK
2243	   0	83.6	114.1	 780	OK
2244	   0	81.5	113.2	 789	OK
2245	   0	80.5	111.3	 785	OK
2246	   0	82.7	110.6	 801	OK
2247	   0	80.8	111.1	 786	OK
2248	   0	81.7	113.1	 778	OK
2249	   0	81.6	113.4	 772	OK
2250	   0	81.6	109.8	 787	OK
2251	   0	81.9	109.8	 792	OK
2252	   0	80.7	110.8	 777	OK
2253	   0	81.1	112.5	 795	OK
2254	   0	80.2	110.2	 783	OK
2255	   0	81.1	112.3	 790	OK
2256	   0	80.1	109.8	 780	OK
2257	   0	81.8	114.9	 777	OK
2258	   0	80.6	110.5	 783	OK
2259	   0	83.6	111.7	 797	OK
2260	   0	83.9	114.4	 780	OK
2261	   0	85.0	114.2	 791	OK
2262	   0	82.6	111.2	 778	OK
2263	   0	82.1	111.4	 790	OK
2264	   0	84.4	114.5	 796	OK
2265	   0	82.8	114.8	 777	OK
2266	   0	80.1	109.0	 798	OK
2267	   0	84.4	111.8	 772	OK
2268	   0	82.4	112.2	 801	OK
2269	   0	81.2	110.1	 772	OK
2270	   0	81.4	112.1	 780	OK
2271	   0	81.2	111.0	 794	OK
2272	   0	83.2	113.5	 785	OK
2273	   0	81.3	111.4	 795	OK
2274	   0	83.2	112.8	 789	OK
2275	   0	83.1	114.0	 788	OK
2276	   0	82.5	113.7	 777	OK
2277	   0	82.3	112.4	 784	OK
2278	   0	81.8	113.1	 789	OK
2279	   0	79.7	109.9	 798	OK
2280	   0	81.9	111.8	 794	OK
2281	   0	83.0	113.2	 784	OK
2282	   0	80.5	110.4	 786	OK
2283	   0	79.5	107.2	 778	OK
2284	   0	78.9	109.8	 785	OK
2285	   0	82.5	111.2	 790	OK
2286	   0	81.3	110.9	 786	OK
2287	   0	82.9	113.1	 778	OK
2288	   0	79.5	109.5	 770	OK
2289	   0	83.2	114.3	 783	OK
2290	   0	83.2	112.0	 790	OK
2291	   0	81.1	108.6	 788	OK
2292	   0	79.6	110.4	 793	OK
2293	   0	84.6	115.5	 769	OK
2294	   0	80.6	111.4	 779	OK
2295	   0	80.3	109.8	 786	OK
2296	   0	82.3	112.5	 790	OK
2297	   0	82.2	109.3	 791	OK
2298	   0	82.1	112.7	 775	OK
2299	   0	85.4	115.1	 789	OK
2300	   0	83.8	114.8	 787	OK
2301	   0	82.1	113.4	 785	OK
2302	   0	84.4	115.8	 789	OK
2303	   0	81.9	113.9	 806	OK
2304	   0	82.6	111.9	 799	OK
2305	   0	83.0	112.7	 804	OK
2306	   0	84.2	113.3	 774	OK
2307	   0	84.9	113.8	 785	OK
2308	   0	83.1	112.5	 788	OK
2309	   0	84.9	116.1	 774	OK
2310	   0	81.0	109.3	 788	OK
2311	   0	81.4	113.4	 785	OK
2312	   0	81.3	110.9	 788	OK
2313	   0	81.9	109.7	 782	OK
2314	   0	83.4	114.0	 776	OK
2315	   0	83.5	113.4	 799	OK
2316	   0	84.0	112.6	 792	OK
2317	   0	82.6	114.1	 790	OK
2318	   0	84.5	115.0	 779	OK
2319	   0	81.6	111.1	 793	OK
2320	   0	82.7	111.4	 790	OK
2321	   0	84.1	114.5	 780	OK
2322	   0	85.7	116.6	 801	OK
2323	   0	85.2	116.3	 768	OK
2324	   0	82.3	111.1	 786	OK
2325	   0	84.3	115.9	 778	OK
2326	   0	85.3	115.1	 768	OK
2327	   0	84.7	116.1	 773	OK
2328	   0	79.8	109.4	 784	OK
2329	   0	84.2	113.3	 792	OK
2330	   0	81.1	112.3	 790	OK
2331	   0	83.9	114.3	 777	OK
2332	   0	81.1	109.2	 795	OK
2333	   0	82.4	111.1	 789	OK
2334	   0	84.4	114.8	 778	OK
2335	   0	82.8	112.1	 789	OK
2336	   0	82.0	113.7	 782	OK
2337	   0	83.6	113.5	 784	OK
2338	   0	83.6	114.0	 792	OK
2339	   0	83.9	114.0	 800	OK
2340	   0	83.6	114.9	 785	OK
2341	   0	82.9	114.5	 788	OK
2342	   0	81.6	112.1	 766	OK
2343	   0	81.2	110.2	 772	OK
2344	   0	83.5	113.9	 792	OK
2345	   0	80.0	110.3	 785	OK
2346	   0	80.5	111.2	 771	OK
2347	   0	82.0	112.5	 783	OK
2348	   0	82.3	110.2	 798	OK
2349	   0	82.9	112.9	 789	OK
2350	   0	82.9	112.0	 793	OK
2351	   0	82.6	113.9	 790	OK
2352	   0	84.0	115.2	 793	OK
2353	   0	82.0	114.1	 764	OK
2354	   0	83.6	113.1	 776	OK
2355	   0	83.9	111.7	 784	OK
2356	   0	82.3	112.1	 782	OK
2357	   0	83.0	112.3	 791	OK
2358	   0	80.0	108.6	 786	OK
2359	   0	83.3	114.8	 781	OK
2360	   0	81.7	113.1	 779	OK
2361	   0	78.7	108.3	 788	OK
2362	   0	82.3	110.4	 811	OK
2363	   0	83.8	114.4	 787	OK
2364	   0	80.4	112.9	 791	OK
2365	   0	84.7	115.2	 788	OK
2366	   0	85.5	116.6	 791	OK
2367	   0	84.0	114.2	 790	OK
2368	   0	82.4	113.7	 787	OK
2369	   0	83.7	113.5	 797	OK
2370	   0	81.2	112.1	 794	OK
2371	   0	81.9	112.6	 805	OK
2372	   0	81.1	110.7	 770	OK
2373	   0	80.5	112.5	 766	OK
2374	   0	84.6	116.3	 789	OK
2375	   0	82.8	112.9	 790	OK
2376	   0	82.2	111.7	 784	OK
2377	   0	81.6	113.7	 786	OK
2378	   0	80.5	110.8	 773	OK
2379	   0	82.3	111.6	 789	OK
2380	   0	84.0	112.6	 793	OK
2381	   0	82.5	112.6	 787	OK
2382	   0	81.6	113.3	 784	OK
2383	   0	83.3	116.1	 789	OK
2384	   0	85.0	114.3	 812	OK
2385	   0	82.7	113.2	 798	OK
2386	   0	83.9	113.8	 781	OK
2387	   0	83.6	114.0	 790	OK
2388	   0	83.3	113.6	 782	OK
2389	   0	82.3	113.7	 785	OK
2390	   0	82.6	113.6	 787	OK
2391	   0	82.5	112.0	 797	OK
2392	   0	83.7	113.8	 779	OK
2393	   0	84.6	116.7	 808	OK
2394	   0	82.5	113.3	 787	OK
2395	   0	83.2	115.0	 795	OK
2396	   0	81.0	111.5	 808	OK
2397	   0	79.3	108.5	 779	OK
2398	   0	83.4	111.8	 802	OK
2399	   0	82.2	111.7	 789	OK
2400	   0	82.6	114.6	 784	OK
2401	   0	84.7	116.5	 792	OK
2402	   0	83.0	112.3	 800	OK
2403	   0	81.4	112.2	 787	OK
2404	   0	84.4	115.1	 773	OK
2405	   0	79.6	110.0	 801	OK
2406	   0	82.2	113.5	 786	OK
2407	   0	82.2	111.1	 790	OK
2408	   0	84.9	114.9	 783	OK
2409	   0	84.2	115.1	 789	OK
2410	   0	83.8	115.8	 795	OK
2411	   0	81.1	111.6	 780	OK
2412	   0	82.7	112.7	 788	OK
2413	   0	83.5	115.1	 795	OK
2414	   0	83.1	114.0	 789	OK
2415	   0	86.3	116.1	 800	OK
2416	   0	86.1	116.9	 784	OK
2417	   0	84.3	115.4	 787	OK
2418	   0	85.9	114.9	 783	OK
2419	   0	85.0	116.1	 802	OK
2420	   0	84.9	114.8	 794	OK
2421	   0	83.6	112.9	 792	OK
2422	   0	82.7	114.8	 774	OK
2423	   0	84.5	115.7	 787	OK
2424	   0	83.9	114.8	 789	OK
2425	   0	84.2	114.6	 787	OK
2426	   0	82.1	111.1	 796	OK
2427	   0	84.5	114.2	 797	OK
2428	   0	82.0	112.5	 788	OK
2429	   0	83.1	112.6	 777	OK
2430	   0	81.6	110.3	 782	OK
2431	   0	83.8	115.3	 785	OK
2432	   0	76.7	103.1	 779	OK
2433	   0	78.2	108.0	 797	OK
2434	   0	76.6	106.9	 787	OK
2435	   0	79.8	109.4	 792	OK
2436	   0	79.6	108.1	 801	OK
2437	   0	78.0	109.5	 781	OK
2438	   0	79.8	108.6	 769	OK
2439	   0	77.5	106.5	 787	OK
2440	   0	80.0	107.8	 806	OK
2441	   0	78.3	106.8	 780	OK
2442	   0	77.4	105.4	 786	OK
2443	   0	79.1	107.0	 781	OK
2444	   0	79.3	109.6	 784	OK
2445	   0	78.5	108.3	 777	OK
2446	   0	76.6	105.7	 781	OK
2447	   0	79.1	108.9	 781	OK
2448	   0	77.5	107.3	 782	OK
2449	   0	77.3	107.3	 784	OK
2450	   0	80.3	110.8	 806	OK
2451	   0	76.1	107.0	 773	OK
2452	   0	78.6	108.3	 795	OK
2453	   0	75.0	106.6	 778	OK
2454	   0	76.2	104.7	 799	OK
2455	   0	75.3	103.4	 781	OK
2456	   0	77.6	107.1	 791	OK
2457	   0	77.3	105.6	 786	OK
2458	   0	77.2	107.1	 800	OK
2459	   0	78.1	110.4	 789	OK
2460	   0	75.3	104.8	 788	OK
2461	   0	76.8	106.7	 787	OK
2462	   0	77.2	105.0	 802	OK
2463	   0	78.5	109.6	 790	OK
2464	   0	77.2	104.6	 788	OK
2465	   0	78.3	106.1	 797	OK
2466	   0	76.8	106.8	 795	OK
2467	   0	77.8	107.9	 807	OK
2468	   0	77.7	105.0	 789	OK
2469	   0	77.4	106.2	 799	OK
2470	   0	77.2	105.2	 810	OK
2471	   0	76.3	106.2	 791	OK
2472	   0	77.1	107.8	 776	OK
2473	   0	78.8	108.3	 771	OK
2474	   0	79.8	109.4	 776	OK
2475	   0	78.0	107.1	 805	OK
2476	   0	80.0	106.5	 803	OK
2477	   0	76.0	104.3	 789	OK
2478	   0	75.7	104.8	 809	OK
2479	   0	77.3	107.4	 786	OK
2480	   0	77.6	106.9	 814	OK
2481	   0	80.3	109.6	 800	OK
2482	   0	76.6	106.2	 806	OK
2483	   0	77.8	108.7	 817	OK
2484	   0	76.1	107.0	 780	OK
2485	   0	75.9	105.7	 784	OK
2486	   0	81.0	110.4	 791	OK
2487	   0	77.6	106.8	 800	OK
2488	   0	77.9	107.2	 791	OK
2489	   0	79.4	109.8	 794	OK
2490	   0	78.5	106.8	 790	OK
2491	   0	78.4	107.0	 807	OK
2492	   0	78.1	107.1	 794	OK
2493	   0	78.0	107.3	 788	OK
2494	   0	80.2	108.7	 800	OK
2495	   0	79.1	108.5	 789	OK
2496	   0	75.0	105.3	 797	OK
2497	   0	78.1	107.5	 799	OK
2498	   0	77.0	105.8	 793	OK
2499	   0	78.0	107.8	 798	OK
2500	   0	76.9	107.2	 791	OK
2501	   0	75.4	104.6	 793	OK
2502	   0	80.3	108.4	 776	OK
2503	   0	74.3	101.9	 813	OK
2504	   0	76.6	107.1	 788	OK
2505	   0	77.1	107.8	 819	OK
2506	   0	74.8	106.0	 807	OK
2507	   0	76.6	107.2	 806	OK
2508	   0	77.6	106.9	 773	OK
2509	   0	75.8	104.4	 787	OK
2510	   0	78.1	106.1	 797	OK
2511	   0	77.7	107.1	 788	OK
2512	   0	77.1	108.6	 788	OK
2513	   0	75.9	107.3	 804	OK
2514	   0	75.5	103.7	 785	OK
2515	   0	77.0	106.2	 795	OK
2516	   0	77.7	105.5	 774	OK
2517	   0	76.9	106.3	 782	OK
2518	   0	76.4	105.5	 781	OK
2519	   0	76.4	105.2	 788	OK
2520	   0	77.3	108.1	 777	OK
2521	   0	76.4	105.8	 785	OK
2522	   0	76.3	106.1	 812	OK
2523	   0	76.0	105.8	 784	OK
2524	   0	76.0	106.7	 815	OK
2525	   0	75.2	105.1	 801	OK
2526	   0	74.9	103.2	 799	OK
2527	   0	77.9	106.1	 798	OK
2528	   0	75.3	103.7	 792	OK
2529	   0	76.4	105.0	 776	OK
2530	   0	76.4	106.8	 820	OK
2531	   0	75.9	105.9	 801	OK
2532	   0	77.3	107.9	 785	OK
2533	   0	73.5	103.6	 802	OK
2534	   0	76.4	106.7	 790	OK
2535	   0	77.9	106.0	 791	OK
2536	   0	76.2	105.5	 793	OK
2537	   0	76.8	107.8	 802	OK
2538	   0	76.1	106.3	 802	OK
2539	   0	75.8	106.8	 799	OK
2540	   0	77.2	104.9	 795	OK
2541	   0	77.6	106.6	 780	OK
2542	   0	78.2	106.8	 766	OK
2543	   0	75.3	106.0	 785	OK
2544	   0	75.5	103.7	 790	OK
2545	   0	75.7	105.9	 785	OK
2546	   0	77.3	105.7	 783	OK
2547	   0	73.4	103.5	 799	OK
2548	   0	75.9	104.1	 781	OK
2549	   0	78.6	107.2	 776	OK
2550	   0	80.3	106.2	 775	OK
2551	   0	73.4	102.3	 790	OK
2552	   0	76.5	105.6	 781	OK
2553	   0	77.9	106.5	 781	OK
2554	   0	77.5	108.2	 776	OK
2555	   0	77.9	106.2	 786	OK
2556	   0	76.7	106.4	 759	OK
2557	   0	77.3	106.4	 809	OK
2558	   0	76.7	105.9	 793	OK
2559	   0	79.3	106.6	 786	OK
