#
%NewTest
#
SERIAL NUMBER  : SCIPP-M3-04
TEST MADE BY   : ee
LOCATION NAME  : BNL_4MODULEBOX
Run number     : 149-8
TEST_DATE      : 04/11/2019
PASSED         : YES
PROBLEM        : NO
#
%DAQ_INFO
#
#HOST
"localhost"
#VERSION
"3.43"
#DUT
"Star_Test 	#AMAC 11 ComID 0 HCC"
#TIME
"12:49:27"
#
%DCS_INFO
#
#T0	T1
. 	. 	
#VDET	IDET
. 	. 	
#VCC	ICC
. 	. 	
#VDD	IDD
. 	. 	
#TIME_POWERED
. 
#
%StrobeDelay
#
#DELAY
#  M00  S01  S02  S03  S04  S05  S06  S07  S08  E09
20 18 20 18 23 19 22 24 20 22 -1 -1 -1 -1 -1 -1 
#
#  M00  S01  S02  S03  S04  S05  S06  S07  S08  E09
20 18 20 18 23 19 22 24 20 22 -1 -1 -1 -1 -1 -1 
#
#No defects found!
%Comment
COMMENT        : Strobe Delay Fraction 0.57
#
#
%NewTest
#
SERIAL NUMBER  : SCIPP-M3-04
TEST MADE BY   : ee
LOCATION NAME  : BNL_4MODULEBOX
Run number     : 149-9
TEST_DATE      : 04/11/2019
PASSED         : NO
PROBLEM        : NO
#
%DAQ_INFO
#
#HOST
"localhost"
#VERSION
"3.43"
#DUT
"Star_Test 	#AMAC 11 ComID 0 HCC"
#TIME
"12:49:57"
#
%DCS_INFO
#
#T0	T1
. 	. 	
#VDET	IDET
. 	. 	
#VCC	ICC
. 	. 	
#VDD	IDD
. 	. 	
#TIME_POWERED
. 
#
#
%SCAN_INFO
#
#POINT_TYPE
"QCAL (fC)"
#N_POINTS
3
#POINTS
0.50 	1.00 	1.50 	
#
#
%ThreePointGain
#
#Loop A - Fit
#	func	p0	p1	p2
#M00
	4 	29.45 	84.88 	0.00
#S01
	4 	29.76 	84.71 	0.00
#S02
	4 	28.86 	86.63 	0.00
#S03
	4 	29.51 	83.26 	0.00
#S04
	4 	28.37 	82.22 	0.00
#S05
	4 	29.22 	83.51 	0.00
#S06
	4 	29.98 	82.71 	0.00
#S07
	4 	29.41 	80.49 	0.00
#S08
	4 	29.11 	84.00 	0.00
#E09
	4 	30.18 	78.93 	0.00
#M00
	4 	29.81 	84.61 	0.00
#S01
	4 	29.76 	84.71 	0.00
#S02
	4 	29.29 	86.16 	0.00
#S03
	4 	29.76 	82.90 	0.00
#S04
	4 	28.64 	82.09 	0.00
#S05
	4 	29.45 	83.78 	0.00
#S06
	4 	29.94 	83.15 	0.00
#S07
	4 	29.65 	80.52 	0.00
#S08
	4 	29.40 	83.51 	0.00
#E09
	4 	30.34 	78.84 	0.00
#
#Loop B - Gain, Offset, Noise at 1.00fC
#	vt50 	rms  	gain	rms 	offset	rms  	outnse	innse	rms
#M00
	113.6 	 2.23 	84.9 	2.02 	 84.9 	 2.02 	10.10 	  748 	  67
#S01
	113.9 	 2.43 	84.7 	1.93 	 84.7 	 1.93 	9.99 	  740 	  64
#S02
	114.6 	 2.22 	86.6 	1.95 	 86.6 	 1.95 	10.28 	  743 	  59
#S03
	112.0 	 2.14 	83.2 	1.93 	 83.2 	 1.93 	9.92 	  746 	  58
#S04
	109.8 	 1.68 	82.2 	1.86 	 82.2 	 1.86 	9.85 	  752 	  61
#S05
	112.1 	 2.14 	83.6 	1.86 	 83.6 	 1.86 	10.62 	  817 	  99
#S06
	###    Too many defects in this chip!    ###
#S07
	109.2 	 1.80 	80.5 	1.67 	 80.5 	 1.67 	9.97 	  791 	  84
#S08
	112.3 	 2.00 	84.0 	1.80 	 84.0 	 1.80 	9.49 	  709 	  63
#E09
	108.4 	 1.98 	78.9 	1.69 	 78.9 	 1.69 	9.44 	  754 	  65
#M00
	113.7 	 2.21 	84.6 	2.00 	 84.6 	 2.00 	9.72 	  720 	  59
#S01
	113.8 	 1.84 	84.6 	1.96 	 84.6 	 1.96 	9.43 	  702 	  61
#S02
	114.7 	 2.29 	86.2 	1.73 	 86.2 	 1.73 	9.61 	  703 	  61
#S03
	112.0 	 2.25 	82.9 	1.86 	 82.9 	 1.86 	9.21 	  695 	  47
#S04
	109.9 	 2.00 	82.1 	1.71 	 82.1 	 1.71 	9.17 	  704 	  58
#S05
	112.5 	 1.94 	83.8 	1.72 	 83.8 	 1.72 	9.51 	  714 	  61
#S06
	112.3 	 2.15 	83.0 	1.91 	 83.0 	 1.91 	9.35 	  711 	  62
#S07
	109.5 	 1.94 	80.5 	1.85 	 80.5 	 1.85 	9.33 	  732 	  68
#S08
	112.1 	 1.90 	83.5 	2.07 	 83.5 	 2.07 	9.23 	  692 	  54
#E09
	108.4 	 1.64 	78.8 	1.57 	 78.8 	 1.57 	9.10 	  727 	  66
#
#Loop C - Comment
#  M00  S01  S02  S03  S04  S05  S06  S07  S08  E09
"OK" 	"OK" 	"OK" 	"OK" 	"OK" 	"OK" 	"high noise" 	"OK" 	"OK" 	"OK" 	
#  M00  S01  S02  S03  S04  S05  S06  S07  S08  E09
"OK" 	"OK" 	"OK" 	"OK" 	"OK" 	"OK" 	"OK" 	"OK" 	"OK" 	"OK" 	
#BadChannelSummary - not for the database
#  at 1.00fC
#		lost	dodgy	dead	stuck	ineff	unbon	lo_gn	hi_gn	lo_off	hi_off	partbon	hi_nse
#Chip M00:	  0	  4	  0	  0	  0	  0	  0	  0	  0	  0	  0	  4
#Chip S01:	  1	  2	  0	  0	  0	  1	  0	  0	  0	  0	  0	  2
#Chip S02:	  1	  1	  0	  0	  0	  1	  0	  0	  0	  0	  0	  1
#Chip S03:	  0	  1	  0	  0	  0	  0	  0	  0	  0	  0	  0	  1
#Chip S04:	  0	  2	  0	  0	  0	  0	  0	  0	  0	  0	  0	  2
#Chip S05:	  0	 11	  0	  0	  0	  0	  0	  0	  0	  0	  0	 11
#Chip S06:	  0	 19	  0	  0	  0	  0	  0	  0	  0	  0	  0	 19
#Chip S07:	  0	 12	  0	  0	  0	  0	  0	  0	  0	  0	  0	 12
#Chip S08:	  1	  3	  0	  0	  0	  1	  0	  0	  0	  0	  0	  3
#Chip E09:	  0	  5	  0	  0	  0	  0	  0	  0	  0	  0	  0	  5
#Chip M00:	  0	  2	  0	  0	  0	  0	  0	  0	  0	  0	  0	  2
#Chip S01:	  0	  6	  0	  0	  0	  0	  0	  0	  0	  0	  0	  6
#Chip S02:	  1	  6	  0	  0	  0	  1	  0	  0	  0	  0	  0	  6
#Chip S03:	  0	  1	  0	  0	  0	  0	  0	  0	  0	  0	  0	  1
#Chip S04:	  1	  5	  0	  0	  0	  1	  0	  0	  0	  0	  0	  5
#Chip S05:	  0	  4	  0	  0	  0	  0	  0	  0	  0	  0	  0	  4
#Chip S06:	  1	  8	  0	  0	  0	  1	  0	  0	  0	  0	  0	  8
#Chip S07:	  0	  6	  0	  0	  0	  0	  0	  0	  0	  0	  0	  6
#Chip S08:	  1	  2	  0	  0	  0	  1	  0	  0	  0	  0	  0	  2
#Chip E09:	  1	  5	  0	  0	  0	  1	  0	  0	  0	  0	  0	  5
#Link 0:	  3	 60	  0	  0	  0	  3	  0	  0	  0	  0	  0	 60
#Link 1:	  5	 45	  0	  0	  0	  5	  0	  0	  0	  0	  0	 45
#Link 2:	  8	105	  0	  0	  0	  8	  0	  0	  0	  0	  0	105
%Defect
DEFECT NAME    : NOISY
FIRST CHANNEL  : 16
LAST CHANNEL   : 16
#
%Defect
DEFECT NAME    : NOISY
FIRST CHANNEL  : 29
LAST CHANNEL   : 29
#
%Defect
DEFECT NAME    : NOISY
FIRST CHANNEL  : 85
LAST CHANNEL   : 85
#
%Defect
DEFECT NAME    : NOISY
FIRST CHANNEL  : 104
LAST CHANNEL   : 104
#
%Defect
DEFECT NAME    : NOISY
FIRST CHANNEL  : 139
LAST CHANNEL   : 139
#
%Defect
DEFECT NAME    : NOISY
FIRST CHANNEL  : 167
LAST CHANNEL   : 167
#
%Defect
DEFECT NAME    : UNBONDED
FIRST CHANNEL  : 190
LAST CHANNEL   : 190
#
%Defect
DEFECT NAME    : NOISY
FIRST CHANNEL  : 279
LAST CHANNEL   : 279
#
%Defect
DEFECT NAME    : UNBONDED
FIRST CHANNEL  : 376
LAST CHANNEL   : 376
#
%Defect
DEFECT NAME    : NOISY
FIRST CHANNEL  : 482
LAST CHANNEL   : 482
#
%Defect
DEFECT NAME    : NOISY
FIRST CHANNEL  : 515
LAST CHANNEL   : 515
#
%Defect
DEFECT NAME    : NOISY
FIRST CHANNEL  : 583
LAST CHANNEL   : 583
#
%Defect
DEFECT NAME    : NOISY
FIRST CHANNEL  : 757
LAST CHANNEL   : 769
#
%Defect
DEFECT NAME    : NOISY
FIRST CHANNEL  : 771
LAST CHANNEL   : 773
#
%Defect
DEFECT NAME    : NOISY
FIRST CHANNEL  : 775
LAST CHANNEL   : 787
#
%Defect
DEFECT NAME    : NOISY
FIRST CHANNEL  : 789
LAST CHANNEL   : 789
#
%Defect
DEFECT NAME    : NOISY
FIRST CHANNEL  : 901
LAST CHANNEL   : 901
#
%Defect
DEFECT NAME    : NOISY
FIRST CHANNEL  : 903
LAST CHANNEL   : 903
#
%Defect
DEFECT NAME    : NOISY
FIRST CHANNEL  : 906
LAST CHANNEL   : 906
#
%Defect
DEFECT NAME    : NOISY
FIRST CHANNEL  : 908
LAST CHANNEL   : 908
#
%Defect
DEFECT NAME    : NOISY
FIRST CHANNEL  : 912
LAST CHANNEL   : 914
#
%Defect
DEFECT NAME    : NOISY
FIRST CHANNEL  : 917
LAST CHANNEL   : 918
#
%Defect
DEFECT NAME    : NOISY
FIRST CHANNEL  : 926
LAST CHANNEL   : 926
#
%Defect
DEFECT NAME    : NOISY
FIRST CHANNEL  : 930
LAST CHANNEL   : 930
#
%Defect
DEFECT NAME    : NOISY
FIRST CHANNEL  : 942
LAST CHANNEL   : 942
#
%Defect
DEFECT NAME    : NOISY
FIRST CHANNEL  : 1046
LAST CHANNEL   : 1046
#
%Defect
DEFECT NAME    : NOISY
FIRST CHANNEL  : 1054
LAST CHANNEL   : 1054
#
%Defect
DEFECT NAME    : UNBONDED
FIRST CHANNEL  : 1071
LAST CHANNEL   : 1071
#
%Defect
DEFECT NAME    : NOISY
FIRST CHANNEL  : 1151
LAST CHANNEL   : 1151
#
%Defect
DEFECT NAME    : NOISY
FIRST CHANNEL  : 1163
LAST CHANNEL   : 1163
#
%Defect
DEFECT NAME    : NOISY
FIRST CHANNEL  : 1176
LAST CHANNEL   : 1176
#
%Defect
DEFECT NAME    : NOISY
FIRST CHANNEL  : 1182
LAST CHANNEL   : 1182
#
%Defect
DEFECT NAME    : NOISY
FIRST CHANNEL  : 1187
LAST CHANNEL   : 1187
#
%Defect
DEFECT NAME    : NOISY
FIRST CHANNEL  : 1242
LAST CHANNEL   : 1242
#
%Defect
DEFECT NAME    : NOISY
FIRST CHANNEL  : 1331
LAST CHANNEL   : 1331
#
%Defect
DEFECT NAME    : NOISY
FIRST CHANNEL  : 1367
LAST CHANNEL   : 1367
#
%Defect
DEFECT NAME    : NOISY
FIRST CHANNEL  : 1423
LAST CHANNEL   : 1423
#
%Defect
DEFECT NAME    : NOISY
FIRST CHANNEL  : 1431
LAST CHANNEL   : 1431
#
%Defect
DEFECT NAME    : NOISY
FIRST CHANNEL  : 1451
LAST CHANNEL   : 1451
#
%Defect
DEFECT NAME    : NOISY
FIRST CHANNEL  : 1501
LAST CHANNEL   : 1501
#
%Defect
DEFECT NAME    : NOISY
FIRST CHANNEL  : 1506
LAST CHANNEL   : 1506
#
%Defect
DEFECT NAME    : NOISY
FIRST CHANNEL  : 1508
LAST CHANNEL   : 1508
#
%Defect
DEFECT NAME    : NOISY
FIRST CHANNEL  : 1538
LAST CHANNEL   : 1538
#
%Defect
DEFECT NAME    : NOISY
FIRST CHANNEL  : 1574
LAST CHANNEL   : 1574
#
%Defect
DEFECT NAME    : NOISY
FIRST CHANNEL  : 1587
LAST CHANNEL   : 1587
#
%Defect
DEFECT NAME    : NOISY
FIRST CHANNEL  : 1607
LAST CHANNEL   : 1607
#
%Defect
DEFECT NAME    : NOISY
FIRST CHANNEL  : 1612
LAST CHANNEL   : 1612
#
%Defect
DEFECT NAME    : UNBONDED
FIRST CHANNEL  : 1614
LAST CHANNEL   : 1614
#
%Defect
DEFECT NAME    : NOISY
FIRST CHANNEL  : 1648
LAST CHANNEL   : 1648
#
%Defect
DEFECT NAME    : NOISY
FIRST CHANNEL  : 1688
LAST CHANNEL   : 1688
#
%Defect
DEFECT NAME    : NOISY
FIRST CHANNEL  : 1831
LAST CHANNEL   : 1831
#
%Defect
DEFECT NAME    : UNBONDED
FIRST CHANNEL  : 1835
LAST CHANNEL   : 1835
#
%Defect
DEFECT NAME    : NOISY
FIRST CHANNEL  : 1839
LAST CHANNEL   : 1839
#
%Defect
DEFECT NAME    : NOISY
FIRST CHANNEL  : 1854
LAST CHANNEL   : 1854
#
%Defect
DEFECT NAME    : NOISY
FIRST CHANNEL  : 1890
LAST CHANNEL   : 1891
#
%Defect
DEFECT NAME    : NOISY
FIRST CHANNEL  : 1962
LAST CHANNEL   : 1963
#
%Defect
DEFECT NAME    : NOISY
FIRST CHANNEL  : 1986
LAST CHANNEL   : 1986
#
%Defect
DEFECT NAME    : NOISY
FIRST CHANNEL  : 2037
LAST CHANNEL   : 2037
#
%Defect
DEFECT NAME    : NOISY
FIRST CHANNEL  : 2058
LAST CHANNEL   : 2058
#
%Defect
DEFECT NAME    : NOISY
FIRST CHANNEL  : 2081
LAST CHANNEL   : 2081
#
%Defect
DEFECT NAME    : NOISY
FIRST CHANNEL  : 2095
LAST CHANNEL   : 2095
#
%Defect
DEFECT NAME    : NOISY
FIRST CHANNEL  : 2106
LAST CHANNEL   : 2106
#
%Defect
DEFECT NAME    : NOISY
FIRST CHANNEL  : 2127
LAST CHANNEL   : 2127
#
%Defect
DEFECT NAME    : NOISY
FIRST CHANNEL  : 2143
LAST CHANNEL   : 2143
#
%Defect
DEFECT NAME    : UNBONDED
FIRST CHANNEL  : 2150
LAST CHANNEL   : 2150
#
%Defect
DEFECT NAME    : NOISY
FIRST CHANNEL  : 2165
LAST CHANNEL   : 2165
#
%Defect
DEFECT NAME    : NOISY
FIRST CHANNEL  : 2170
LAST CHANNEL   : 2170
#
%Defect
DEFECT NAME    : NOISY
FIRST CHANNEL  : 2178
LAST CHANNEL   : 2178
#
%Defect
DEFECT NAME    : NOISY
FIRST CHANNEL  : 2185
LAST CHANNEL   : 2185
#
%Defect
DEFECT NAME    : NOISY
FIRST CHANNEL  : 2210
LAST CHANNEL   : 2210
#
%Defect
DEFECT NAME    : NOISY
FIRST CHANNEL  : 2223
LAST CHANNEL   : 2223
#
%Defect
DEFECT NAME    : NOISY
FIRST CHANNEL  : 2238
LAST CHANNEL   : 2238
#
%Defect
DEFECT NAME    : NOISY
FIRST CHANNEL  : 2299
LAST CHANNEL   : 2299
#
%Defect
DEFECT NAME    : NOISY
FIRST CHANNEL  : 2329
LAST CHANNEL   : 2329
#
%Defect
DEFECT NAME    : NOISY
FIRST CHANNEL  : 2349
LAST CHANNEL   : 2349
#
%Defect
DEFECT NAME    : UNBONDED
FIRST CHANNEL  : 2422
LAST CHANNEL   : 2422
#
%Defect
DEFECT NAME    : NOISY
FIRST CHANNEL  : 2432
LAST CHANNEL   : 2432
#
%Defect
DEFECT NAME    : NOISY
FIRST CHANNEL  : 2438
LAST CHANNEL   : 2438
#
%Defect
DEFECT NAME    : UNBONDED
FIRST CHANNEL  : 2466
LAST CHANNEL   : 2466
#
%Defect
DEFECT NAME    : NOISY
FIRST CHANNEL  : 2523
LAST CHANNEL   : 2523
#
%Defect
DEFECT NAME    : NOISY
FIRST CHANNEL  : 2554
LAST CHANNEL   : 2554
#
%Defect
DEFECT NAME    : NOISY
FIRST CHANNEL  : 2556
LAST CHANNEL   : 2556
#
#82 defects found affecting 113 strips
#13 maximum consecutive defects
%Comment
COMMENT        : SELECT = 0
#
%Comment
COMMENT        : FAIL due to 113 bad strips (more than 15)
#
%Comment
COMMENT        : FAIL due to 13 consecutive bad strips (more than 8)
#
#
%TEST Rawdata
FILENAME       : /home/qcbox/Desktop/stars/itsdaq-sw/DATA/results/SCIPP-M3-04_RC_149_9.txt
#
#
%NewTest
#
SERIAL NUMBER  : SCIPP-M3-04
TEST MADE BY   : ee
LOCATION NAME  : BNL_4MODULEBOX
Run number     : 149-13
TEST_DATE      : 04/11/2019
PASSED         : NO
PROBLEM        : YES
#
%DAQ_INFO
#
#HOST
"localhost"
#VERSION
"3.43"
#DUT
"Star_Test 	#AMAC 11 ComID 0 HCC"
#TIME
"13:53:30"
#
%DCS_INFO
#
#T0	T1
. 	. 	
#VDET	IDET
. 	. 	
#VCC	ICC
. 	. 	
#VDD	IDD
. 	. 	
#TIME_POWERED
. 
#
#
%SCAN_INFO
#
#POINT_TYPE
"TrimDAC (bits)"
#N_POINTS
5
#POINTS
0.00 	8.00 	16.00 	24.00 	31.00 	
#
%Trim
#
#TRIM	CHARGE	TYPE	ALGORITHM
	1.0 	2 	0
#(trim whole module)
#
#	range	target	ntrim	vt50	vt50rms	tr_off	off_rms	tr_step	step_rms
#Ch0
	2	26.0	254	 26.0	 0.24	-20.7	 8.0	 0.61	 0.06
#Ch1
	2	26.0	255	 26.0	 0.23	-21.4	 7.6	 0.60	 0.06
#Ch2
	2	26.0	252	 26.0	 0.23	-19.8	 7.4	 0.60	 0.07
#Ch3
	2	26.0	237	 25.9	 0.25	-17.9	 7.6	 0.61	 0.06
#Ch4
	2	26.0	246	 26.0	 0.22	-22.3	 7.3	 0.56	 0.06
#Ch5
	2	26.0	255	 26.0	 0.24	-22.9	 8.1	 0.57	 0.05
#Ch6
	2	26.0	252	 26.0	 0.23	-22.0	 7.3	 0.59	 0.06
#Ch7
	2	26.0	254	 26.0	 0.22	-23.0	 7.7	 0.55	 0.06
#Ch8
	2	26.0	254	 26.0	 0.21	-19.3	 7.6	 0.58	 0.06
#Ch9
	2	26.0	256	 26.0	 0.24	-21.0	 8.1	 0.60	 0.06
#Ch0
	2	26.0	254	 26.0	 0.24	-21.3	 7.2	 0.59	 0.06
#Ch1
	2	26.0	255	 26.0	 0.24	-21.7	 7.1	 0.59	 0.05
#Ch2
	2	26.0	252	 26.0	 0.24	-19.5	 8.2	 0.60	 0.06
#Ch3
	2	26.0	237	 26.0	 0.25	-18.4	 7.5	 0.60	 0.06
#Ch4
	2	26.0	246	 26.0	 0.24	-21.3	 6.3	 0.56	 0.04
#Ch5
	2	26.0	255	 26.0	 0.23	-22.5	 7.0	 0.58	 0.06
#Ch6
	2	26.0	252	 26.0	 0.22	-23.3	 6.8	 0.58	 0.06
#Ch7
	2	26.0	254	 26.0	 0.24	-22.3	 7.5	 0.55	 0.06
#Ch8
	2	26.0	254	 26.0	 0.24	-19.6	 7.4	 0.57	 0.06
#Ch9
	2	26.0	256	 26.0	 0.24	-21.1	 7.4	 0.60	 0.05
#
%Defect
DEFECT NAME    : TR_RANGE
FIRST CHANNEL  : 0
LAST CHANNEL   : 255
#
%Defect
DEFECT NAME    : TR_RANGE
FIRST CHANNEL  : 256
LAST CHANNEL   : 511
#
%Defect
DEFECT NAME    : TR_RANGE
FIRST CHANNEL  : 512
LAST CHANNEL   : 767
#
%Defect
DEFECT NAME    : TR_RANGE
FIRST CHANNEL  : 768
LAST CHANNEL   : 1023
#
%Defect
DEFECT NAME    : TR_RANGE
FIRST CHANNEL  : 1024
LAST CHANNEL   : 1279
#
%Defect
DEFECT NAME    : TR_RANGE
FIRST CHANNEL  : 1280
LAST CHANNEL   : 1535
#
%Defect
DEFECT NAME    : TR_RANGE
FIRST CHANNEL  : 1536
LAST CHANNEL   : 1791
#
%Defect
DEFECT NAME    : TR_RANGE
FIRST CHANNEL  : 1792
LAST CHANNEL   : 2047
#
%Defect
DEFECT NAME    : TR_RANGE
FIRST CHANNEL  : 2048
LAST CHANNEL   : 2303
#
%Defect
DEFECT NAME    : TR_RANGE
FIRST CHANNEL  : 2304
LAST CHANNEL   : 2559
#
%Defect
DEFECT NAME    : TR_RANGE
FIRST CHANNEL  : 1536
LAST CHANNEL   : 1791
#
%Defect
DEFECT NAME    : TR_RANGE
FIRST CHANNEL  : 1792
LAST CHANNEL   : 2047
#
%Defect
DEFECT NAME    : TR_RANGE
FIRST CHANNEL  : 2048
LAST CHANNEL   : 2303
#
%Defect
DEFECT NAME    : TR_RANGE
FIRST CHANNEL  : 2304
LAST CHANNEL   : 2559
#
%Defect
DEFECT NAME    : TR_RANGE
FIRST CHANNEL  : 2560
LAST CHANNEL   : 2815
#
%Defect
DEFECT NAME    : TR_RANGE
FIRST CHANNEL  : 2816
LAST CHANNEL   : 3071
#
%Defect
DEFECT NAME    : TR_RANGE
FIRST CHANNEL  : 3072
LAST CHANNEL   : 3327
#
%Defect
DEFECT NAME    : TR_RANGE
FIRST CHANNEL  : 3328
LAST CHANNEL   : 3583
#
%Defect
DEFECT NAME    : TR_RANGE
FIRST CHANNEL  : 3584
LAST CHANNEL   : 3839
#
%Defect
DEFECT NAME    : TR_RANGE
FIRST CHANNEL  : 3840
LAST CHANNEL   : 4095
#
%Defect
DEFECT NAME    : TR_NOTRIM
FIRST CHANNEL  : 182
LAST CHANNEL   : 182
#
%Defect
DEFECT NAME    : TR_NOTRIM
FIRST CHANNEL  : 467
LAST CHANNEL   : 467
#
%Defect
DEFECT NAME    : TR_NOTRIM
FIRST CHANNEL  : 777
LAST CHANNEL   : 777
#
%Defect
DEFECT NAME    : TR_NOTRIM
FIRST CHANNEL  : 1007
LAST CHANNEL   : 1007
#
%Defect
DEFECT NAME    : TR_NOTRIM
FIRST CHANNEL  : 4547
LAST CHANNEL   : 4547
#
%Defect
DEFECT NAME    : TR_NOTRIM
FIRST CHANNEL  : 4820
LAST CHANNEL   : 4820
#
%Defect
DEFECT NAME    : TR_NOTRIM
FIRST CHANNEL  : 4878
LAST CHANNEL   : 4878
#
%Defect
DEFECT NAME    : TR_NOTRIM
FIRST CHANNEL  : 5103
LAST CHANNEL   : 5103
#
#28 defects found
%Comment
COMMENT        : L0Ch0 TR 2 step 0.89 (ideal 1.63 error 45.63%)
#
%Comment
COMMENT        : L0Ch1 TR 2 step 0.88 (ideal 1.70 error 48.34%)
#
%Comment
COMMENT        : L0Ch2 TR 2 step 0.89 (ideal 1.52 error 41.49%)
#
%Comment
COMMENT        : L0Ch3 TR 2 step 0.88 (ideal 1.49 error 40.61%)
#
%Comment
COMMENT        : L0Ch4 TR 2 step 0.84 (ideal 1.80 error 53.68%)
#
%Comment
COMMENT        : L0Ch5 TR 2 step 0.84 (ideal 1.46 error 42.42%)
#
%Comment
COMMENT        : L0Ch6 TR 2 step 0.86 (ideal 1.50 error 42.85%)
#
%Comment
COMMENT        : L0Ch7 TR 2 step 0.81 (ideal 1.47 error 45.17%)
#
%Comment
COMMENT        : L0Ch8 TR 2 step 0.86 (ideal 1.83 error 53.31%)
#
%Comment
COMMENT        : L0Ch9 TR 2 step 0.87 (ideal 1.63 error 46.83%)
#
%Comment
COMMENT        : L1Ch0 TR 2 step 0.87 (ideal 1.55 error 43.75%)
#
%Comment
COMMENT        : L1Ch1 TR 2 step 0.87 (ideal 1.74 error 49.99%)
#
%Comment
COMMENT        : L1Ch2 TR 2 step 0.88 (ideal 2.40 error 63.27%)
#
%Comment
COMMENT        : L1Ch3 TR 2 step 0.88 (ideal 1.68 error 47.59%)
#
%Comment
COMMENT        : L1Ch4 TR 2 step 0.83 (ideal 1.51 error 44.95%)
#
%Comment
COMMENT        : L1Ch5 TR 2 step 0.85 (ideal 1.59 error 46.66%)
#
%Comment
COMMENT        : L1Ch6 TR 2 step 0.85 (ideal 1.85 error 54.22%)
#
%Comment
COMMENT        : L1Ch7 TR 2 step 0.81 (ideal 1.44 error 44.25%)
#
%Comment
COMMENT        : L1Ch8 TR 2 step 0.84 (ideal 1.44 error 41.29%)
#
%Comment
COMMENT        : L1Ch9 TR 2 step 0.88 (ideal 1.71 error 48.50%)
#
%Comment
COMMENT        : FAIL due to 45 bad strips (more than 15)
#
#
%TEST Rawdata
FILENAME       : /home/qcbox/Desktop/stars/itsdaq-sw/DATA/results/SCIPP-M3-04_tr2_20191104.trim
#
#
%NewTest
#
SERIAL NUMBER  : SCIPP-M3-04
TEST MADE BY   : ee
LOCATION NAME  : BNL_4MODULEBOX
Run number     : 149-18
TEST_DATE      : 04/11/2019
PASSED         : NO
PROBLEM        : YES
#
%DAQ_INFO
#
#HOST
"localhost"
#VERSION
"3.43"
#DUT
"Star_Test 	#AMAC 11 ComID 0 HCC"
#TIME
"13:56:11"
#
%DCS_INFO
#
#T0	T1
. 	. 	
#VDET	IDET
. 	. 	
#VCC	ICC
. 	. 	
#VDD	IDD
. 	. 	
#TIME_POWERED
. 
#
#
%SCAN_INFO
#
#POINT_TYPE
"TrimDAC (bits)"
#N_POINTS
5
#POINTS
0.00 	8.00 	16.00 	24.00 	31.00 	
#
%Trim
#
#TRIM	CHARGE	TYPE	ALGORITHM
	1.0 	4 	0
#(trim whole module)
#
#	range	target	ntrim	vt50	vt50rms	tr_off	off_rms	tr_step	step_rms
#Ch0
	4	27.0	254	 27.0	 0.28	-17.5	 6.6	 0.75	 0.07
#Ch1
	4	27.0	255	 27.0	 0.28	-18.2	 6.4	 0.74	 0.07
#Ch2
	4	27.0	252	 27.0	 0.28	-16.5	 5.8	 0.75	 0.07
#Ch3
	4	27.0	239	 27.0	 0.29	-14.9	 6.2	 0.75	 0.06
#Ch4
	4	27.0	246	 27.0	 0.28	-18.5	 5.6	 0.70	 0.06
#Ch5
	4	27.0	256	 27.0	 0.27	-19.2	 6.7	 0.71	 0.06
#Ch6
	4	27.0	253	 27.0	 0.27	-18.4	 6.2	 0.73	 0.07
#Ch7
	4	27.0	256	 27.0	 0.27	-19.4	 6.3	 0.68	 0.06
#Ch8
	4	27.0	254	 27.0	 0.26	-16.4	 6.3	 0.72	 0.06
#Ch9
	4	27.0	256	 27.0	 0.27	-17.8	 6.6	 0.73	 0.06
#Ch0
	4	27.0	254	 27.0	 0.27	-17.8	 5.7	 0.74	 0.07
#Ch1
	4	27.0	255	 27.0	 0.28	-18.2	 5.7	 0.73	 0.06
#Ch2
	4	27.0	252	 27.0	 0.26	-16.5	 6.6	 0.74	 0.06
#Ch3
	4	27.0	239	 27.0	 0.27	-15.3	 6.3	 0.75	 0.07
#Ch4
	4	27.0	246	 27.0	 0.27	-17.8	 5.2	 0.70	 0.05
#Ch5
	4	27.0	256	 27.0	 0.26	-18.9	 5.9	 0.71	 0.06
#Ch6
	4	27.0	253	 27.0	 0.26	-19.8	 5.7	 0.71	 0.07
#Ch7
	4	27.0	256	 27.0	 0.27	-18.6	 6.4	 0.68	 0.06
#Ch8
	4	27.0	254	 27.0	 0.28	-16.5	 5.9	 0.71	 0.06
#Ch9
	4	27.0	256	 27.0	 0.28	-17.8	 6.0	 0.74	 0.06
#
#No defects found!
%Comment
COMMENT        : FAIL due to 39 bad strips (more than 15)
#
#
%TEST Rawdata
FILENAME       : /home/qcbox/Desktop/stars/itsdaq-sw/DATA/results/SCIPP-M3-04_tr4_20191104.trim
#
#
%NewTest
#
SERIAL NUMBER  : SCIPP-M3-04
TEST MADE BY   : ee
LOCATION NAME  : BNL_4MODULEBOX
Run number     : 149-23
TEST_DATE      : 04/11/2019
PASSED         : NO
PROBLEM        : YES
#
%DAQ_INFO
#
#HOST
"localhost"
#VERSION
"3.43"
#DUT
"Star_Test 	#AMAC 11 ComID 0 HCC"
#TIME
"13:58:53"
#
%DCS_INFO
#
#T0	T1
. 	. 	
#VDET	IDET
. 	. 	
#VCC	ICC
. 	. 	
#VDD	IDD
. 	. 	
#TIME_POWERED
. 
#
#
%SCAN_INFO
#
#POINT_TYPE
"TrimDAC (bits)"
#N_POINTS
5
#POINTS
0.00 	8.00 	16.00 	24.00 	31.00 	
#
%Trim
#
#TRIM	CHARGE	TYPE	ALGORITHM
	1.0 	6 	0
#(trim whole module)
#
#	range	target	ntrim	vt50	vt50rms	tr_off	off_rms	tr_step	step_rms
#Ch0
	6	32.0	254	 32.0	 0.33	-15.3	 5.4	 0.89	 0.07
#Ch1
	6	32.0	256	 32.0	 0.32	-16.0	 5.4	 0.88	 0.07
#Ch2
	6	32.0	252	 32.0	 0.32	-14.5	 5.0	 0.89	 0.07
#Ch3
	6	32.0	239	 32.0	 0.32	-13.2	 5.3	 0.88	 0.06
#Ch4
	6	32.0	246	 32.0	 0.33	-16.2	 4.8	 0.84	 0.06
#Ch5
	6	32.0	256	 32.0	 0.31	-16.8	 5.6	 0.84	 0.06
#Ch6
	6	32.0	254	 32.0	 0.31	-16.2	 5.2	 0.86	 0.07
#Ch7
	6	32.0	256	 32.0	 0.30	-16.8	 5.4	 0.81	 0.07
#Ch8
	6	32.0	254	 32.0	 0.33	-14.2	 5.3	 0.86	 0.08
#Ch9
	6	32.0	256	 32.0	 0.35	-15.7	 5.6	 0.87	 0.07
#Ch0
	6	32.0	254	 32.0	 0.31	-15.6	 4.8	 0.87	 0.07
#Ch1
	6	32.0	256	 32.0	 0.34	-15.9	 4.8	 0.87	 0.07
#Ch2
	6	32.0	252	 32.0	 0.34	-14.4	 5.6	 0.88	 0.07
#Ch3
	6	32.0	239	 32.0	 0.32	-13.6	 5.2	 0.88	 0.07
#Ch4
	6	32.0	246	 31.9	 0.31	-15.6	 4.3	 0.83	 0.05
#Ch5
	6	32.0	256	 32.0	 0.31	-16.5	 5.0	 0.85	 0.07
#Ch6
	6	32.0	254	 32.0	 0.32	-17.4	 5.0	 0.85	 0.07
#Ch7
	6	32.0	256	 32.0	 0.31	-16.3	 5.3	 0.81	 0.06
#Ch8
	6	32.0	254	 32.0	 0.32	-14.4	 5.0	 0.84	 0.07
#Ch9
	6	32.0	256	 32.0	 0.34	-15.6	 5.1	 0.88	 0.06
#
#No defects found!
%Comment
COMMENT        : FAIL due to 37 bad strips (more than 15)
#
#
%TEST Rawdata
FILENAME       : /home/qcbox/Desktop/stars/itsdaq-sw/DATA/results/SCIPP-M3-04_tr6_20191104.trim
#
#
%NewTest
#
SERIAL NUMBER  : SCIPP-M3-04
TEST MADE BY   : ee
LOCATION NAME  : BNL_4MODULEBOX
Run number     : 149-28
TEST_DATE      : 04/11/2019
PASSED         : NO
PROBLEM        : YES
#
%DAQ_INFO
#
#HOST
"localhost"
#VERSION
"3.43"
#DUT
"Star_Test 	#AMAC 11 ComID 0 HCC"
#TIME
"14:00:56"
#
%DCS_INFO
#
#T0	T1
. 	. 	
#VDET	IDET
. 	. 	
#VCC	ICC
. 	. 	
#VDD	IDD
. 	. 	
#TIME_POWERED
. 
#
#
%SCAN_INFO
#
#POINT_TYPE
"TrimDAC (bits)"
#N_POINTS
5
#POINTS
0.00 	8.00 	16.00 	24.00 	31.00 	
#
%Trim
#
#TRIM	CHARGE	TYPE	ALGORITHM
	1.0 	8 	0
#(trim whole module)
#
#	range	target	ntrim	vt50	vt50rms	tr_off	off_rms	tr_step	step_rms
#Ch0
	8	38.0	138	 37.9	 0.57	-2.9	 5.1	 1.92	 1.93
#Ch1
	8	38.0	129	 38.2	 0.64	-3.0	 4.9	 2.12	 3.35
#Ch2
	8	38.0	160	 38.1	 0.57	-3.2	 5.0	 1.64	 1.38
#Ch3
	8	38.0	168	 38.1	 0.66	-4.4	 4.6	 1.54	 2.81
#Ch4
	8	38.0	147	 38.0	 0.58	-3.1	 5.7	 2.55	 4.00
#Ch5
	8	38.0	124	 38.0	 0.56	-4.0	 5.1	 1.62	 1.72
#Ch6
	8	38.0	125	 38.2	 0.54	-3.3	 4.9	 1.65	 1.28
#Ch7
	8	38.0	135	 38.1	 0.67	-4.6	 5.9	 1.72	 1.97
#Ch8
	8	38.0	176	 38.2	 0.62	-4.4	 5.6	 2.56	 5.09
#Ch9
	8	38.0	139	 38.1	 0.53	-3.7	 5.2	 1.95	 2.66
#Ch0
	8	38.0	138	 38.0	 0.55	-3.0	 5.0	 1.76	 1.56
#Ch1
	8	38.0	129	 38.0	 0.55	-2.4	 5.0	 2.29	 3.05
#Ch2
	8	38.0	160	 37.9	 0.63	-3.5	 5.3	 4.00	14.50
#Ch3
	8	38.0	168	 38.0	 0.57	-4.4	 5.1	 2.07	 4.11
#Ch4
	8	38.0	147	 38.1	 0.58	-4.2	 5.3	 1.78	 2.23
#Ch5
	8	38.0	124	 37.9	 0.54	-4.5	 5.1	 1.93	 3.40
#Ch6
	8	38.0	125	 38.1	 0.50	-1.4	 5.4	 2.62	 2.69
#Ch7
	8	38.0	135	 37.9	 0.59	-5.1	 6.2	 1.65	 1.76
#Ch8
	8	38.0	176	 38.0	 0.62	-4.9	 5.5	 1.55	 1.62
#Ch9
	8	38.0	139	 38.0	 0.62	-3.6	 4.8	 2.14	 3.75
#
#No defects found!
%Comment
COMMENT        : FAIL due to 1119 bad strips (more than 15)
#
%Comment
COMMENT        : FAIL due to 10 consecutive bad strips (more than 8)
#
#
%TEST Rawdata
FILENAME       : /home/qcbox/Desktop/stars/itsdaq-sw/DATA/results/SCIPP-M3-04_tr8_20191104.trim
#
#
%NewTest
#
SERIAL NUMBER  : SCIPP-M3-04
TEST MADE BY   : ee
LOCATION NAME  : BNL_4MODULEBOX
Run number     : 149-13
TEST_DATE      : 04/11/2019
PASSED         : NO
PROBLEM        : YES
#
%DAQ_INFO
#
#HOST
"localhost"
#VERSION
"3.43"
#DUT
"Star_Test 	#AMAC 11 ComID 0 HCC"
#TIME
"13:53:30"
#
%DCS_INFO
#
#T0	T1
. 	. 	
#VDET	IDET
. 	. 	
#VCC	ICC
. 	. 	
#VDD	IDD
. 	. 	
#TIME_POWERED
. 
#
#
%Trim
#
#TRIM	CHARGE	TYPE	ALGORITHM
	1.0 	-1 	0
#(trim whole module)
#
#	range	target	ntrim	vt50	vt50rms	tr_off	off_rms	tr_step	step_rms
#Ch0
	4	29.0	254	 29.0	 0.30	-17.5	 6.6	 0.75	 0.07
#Ch1
	4	29.0	256	 29.0	 0.30	-18.2	 6.4	 0.74	 0.07
#Ch2
	4	29.0	252	 29.0	 0.28	-16.5	 5.8	 0.75	 0.07
#Ch3
	4	29.0	239	 29.0	 0.28	-14.9	 6.2	 0.75	 0.06
#Ch4
	4	29.0	246	 29.0	 0.27	-18.5	 5.6	 0.70	 0.06
#Ch5
	4	29.0	256	 29.0	 0.28	-19.2	 6.7	 0.71	 0.06
#Ch6
	2	29.0	253	 29.0	 0.25	-22.0	 7.3	 0.59	 0.06
#Ch7
	6	29.0	256	 29.0	 0.27	-16.8	 5.4	 0.81	 0.07
#Ch8
	4	29.0	254	 29.0	 0.30	-16.4	 6.3	 0.72	 0.06
#Ch9
	4	29.0	256	 29.0	 0.27	-17.8	 6.6	 0.73	 0.06
#Ch0
	4	29.0	254	 29.0	 0.27	-17.8	 5.7	 0.74	 0.07
#Ch1
	4	29.0	256	 29.0	 0.28	-18.2	 5.7	 0.73	 0.06
#Ch2
	4	29.0	252	 29.0	 0.29	-16.5	 6.6	 0.74	 0.06
#Ch3
	4	29.0	239	 29.0	 0.28	-15.3	 6.3	 0.75	 0.07
#Ch4
	4	29.0	246	 29.0	 0.27	-17.8	 5.2	 0.70	 0.05
#Ch5
	4	29.0	256	 29.0	 0.28	-18.9	 5.9	 0.71	 0.06
#Ch6
	2	29.0	253	 29.0	 0.24	-23.3	 6.8	 0.58	 0.06
#Ch7
	6	29.0	256	 29.1	 0.31	-16.3	 5.3	 0.81	 0.06
#Ch8
	4	29.0	254	 29.0	 0.28	-16.5	 5.9	 0.71	 0.06
#Ch9
	4	29.0	256	 29.0	 0.29	-17.8	 6.0	 0.74	 0.06
#
%Defect
DEFECT NAME    : TR_RANGE
FIRST CHANNEL  : 1536
LAST CHANNEL   : 1791
#
%Defect
DEFECT NAME    : TR_RANGE
FIRST CHANNEL  : 3072
LAST CHANNEL   : 3327
#
%Defect
DEFECT NAME    : TR_NOTRIM
FIRST CHANNEL  : 777
LAST CHANNEL   : 777
#
#3 defects found
%Comment
COMMENT        : L0Ch6 TR 2 step 0.86 (ideal 1.50 error 42.85%)
#
%Comment
COMMENT        : L1Ch6 TR 2 step 0.85 (ideal 1.85 error 54.22%)
#
%Comment
COMMENT        : FAIL due to 40 bad strips (more than 15)
#
#
%TEST Rawdata
FILENAME       : /home/qcbox/Desktop/stars/itsdaq-sw/DATA/results/SCIPP-M3-04_tr-1_20191104.trim
#
#
%NewTest
#
SERIAL NUMBER  : SCIPP-M3-04
TEST MADE BY   : qq
LOCATION NAME  : BNL_4MODULEBOX
Run number     : 150-6
TEST_DATE      : 04/11/2019
PASSED         : YES
PROBLEM        : NO
#
%DAQ_INFO
#
#HOST
"localhost"
#VERSION
"3.43"
#DUT
"Star_Test 	#AMAC 11 ComID 0 HCC"
#TIME
"14:04:59"
#
%DCS_INFO
#
#T0	T1
. 	. 	
#VDET	IDET
. 	. 	
#VCC	ICC
. 	. 	
#VDD	IDD
. 	. 	
#TIME_POWERED
. 
#
%StrobeDelay
#
#DELAY
#  M00  S01  S02  S03  S04  S05  S06  S07  S08  E09
16 14 16 14 19 15 18 20 16 19 -1 -1 -1 -1 -1 -1 
#
#  M00  S01  S02  S03  S04  S05  S06  S07  S08  E09
17 14 16 14 19 15 18 20 16 19 -1 -1 -1 -1 -1 -1 
#
#No defects found!
%Comment
COMMENT        : Strobe Delay Fraction 0.57
#
#
%NewTest
#
SERIAL NUMBER  : SCIPP-M3-04
TEST MADE BY   : qq
LOCATION NAME  : BNL_4MODULEBOX
Run number     : 151-2
TEST_DATE      : 04/11/2019
PASSED         : YES
PROBLEM        : NO
#
%DAQ_INFO
#
#HOST
"localhost"
#VERSION
"3.43"
#DUT
"Star_Test 	#AMAC 11 ComID 0 HCC"
#TIME
"14:05:39"
#
%DCS_INFO
#
#T0	T1
. 	. 	
#VDET	IDET
. 	. 	
#VCC	ICC
. 	. 	
#VDD	IDD
. 	. 	
#TIME_POWERED
. 
#
%StrobeDelay
#
#DELAY
#  M00  S01  S02  S03  S04  S05  S06  S07  S08  E09
16 14 16 14 19 15 18 20 16 19 -1 -1 -1 -1 -1 -1 
#
#  M00  S01  S02  S03  S04  S05  S06  S07  S08  E09
16 14 16 14 19 15 18 20 16 19 -1 -1 -1 -1 -1 -1 
#
#No defects found!
%Comment
COMMENT        : Strobe Delay Fraction 0.57
#
#
%NewTest
#
SERIAL NUMBER  : SCIPP-M3-04
TEST MADE BY   : qq
LOCATION NAME  : BNL_4MODULEBOX
Run number     : 152-2
TEST_DATE      : 04/11/2019
PASSED         : YES
PROBLEM        : YES
#
%DAQ_INFO
#
#HOST
"localhost"
#VERSION
"3.43"
#DUT
"Star_Test 	#AMAC 11 ComID 0 HCC"
#TIME
"14:11:01"
#
%DCS_INFO
#
#T0	T1
. 	. 	
#VDET	IDET
. 	. 	
#VCC	ICC
. 	. 	
#VDD	IDD
. 	. 	
#TIME_POWERED
. 
#
#
%SCAN_INFO
#
#POINT_TYPE
"TrimDAC (bits)"
#N_POINTS
5
#POINTS
0.00 	8.00 	16.00 	24.00 	31.00 	
#
%Trim
#
#TRIM	CHARGE	TYPE	ALGORITHM
	1.0 	2 	0
#(trim whole module)
#
#	range	target	ntrim	vt50	vt50rms	tr_off	off_rms	tr_step	step_rms
#Ch0
	2	26.0	255	 26.0	 0.23	-22.1	 8.1	 0.59	 0.06
#Ch1
	2	26.0	255	 26.0	 0.23	-22.2	 7.9	 0.59	 0.06
#Ch2
	2	26.0	256	 26.0	 0.23	-20.2	 7.3	 0.59	 0.06
#Ch3
	2	26.0	255	 26.0	 0.25	-19.9	 7.9	 0.57	 0.05
#Ch4
	2	26.0	256	 26.0	 0.23	-22.7	 7.4	 0.56	 0.05
#Ch5
	2	26.0	255	 26.0	 0.23	-26.1	 8.0	 0.54	 0.05
#Ch6
	2	26.0	253	 26.0	 0.22	-25.4	 7.6	 0.58	 0.06
#Ch7
	2	26.0	254	 26.0	 0.22	-27.8	 8.0	 0.52	 0.05
#Ch8
	2	26.0	255	 26.0	 0.23	-21.0	 8.0	 0.55	 0.06
#Ch9
	2	26.0	256	 26.0	 0.23	-22.8	 8.3	 0.58	 0.06
#Ch0
	2	26.0	255	 26.0	 0.23	-22.7	 7.3	 0.58	 0.06
#Ch1
	2	26.0	255	 26.0	 0.24	-22.2	 7.1	 0.58	 0.05
#Ch2
	2	26.0	256	 26.0	 0.23	-20.0	 8.4	 0.59	 0.06
#Ch3
	2	26.0	255	 26.0	 0.23	-20.4	 7.6	 0.57	 0.06
#Ch4
	2	26.0	256	 26.0	 0.23	-21.8	 6.5	 0.55	 0.04
#Ch5
	2	26.0	255	 26.0	 0.22	-25.9	 7.7	 0.54	 0.05
#Ch6
	2	26.0	253	 26.0	 0.23	-27.2	 7.2	 0.57	 0.07
#Ch7
	2	26.0	254	 26.0	 0.20	-26.5	 7.8	 0.53	 0.06
#Ch8
	2	26.0	255	 26.0	 0.22	-21.3	 7.5	 0.54	 0.05
#Ch9
	2	26.0	256	 26.0	 0.23	-22.8	 7.6	 0.59	 0.06
#
%Defect
DEFECT NAME    : TR_RANGE
FIRST CHANNEL  : 0
LAST CHANNEL   : 255
#
%Defect
DEFECT NAME    : TR_RANGE
FIRST CHANNEL  : 256
LAST CHANNEL   : 511
#
%Defect
DEFECT NAME    : TR_RANGE
FIRST CHANNEL  : 512
LAST CHANNEL   : 767
#
%Defect
DEFECT NAME    : TR_RANGE
FIRST CHANNEL  : 768
LAST CHANNEL   : 1023
#
%Defect
DEFECT NAME    : TR_RANGE
FIRST CHANNEL  : 1024
LAST CHANNEL   : 1279
#
%Defect
DEFECT NAME    : TR_RANGE
FIRST CHANNEL  : 1280
LAST CHANNEL   : 1535
#
%Defect
DEFECT NAME    : TR_RANGE
FIRST CHANNEL  : 1536
LAST CHANNEL   : 1791
#
%Defect
DEFECT NAME    : TR_RANGE
FIRST CHANNEL  : 1792
LAST CHANNEL   : 2047
#
%Defect
DEFECT NAME    : TR_RANGE
FIRST CHANNEL  : 2048
LAST CHANNEL   : 2303
#
%Defect
DEFECT NAME    : TR_RANGE
FIRST CHANNEL  : 2304
LAST CHANNEL   : 2559
#
%Defect
DEFECT NAME    : TR_RANGE
FIRST CHANNEL  : 1536
LAST CHANNEL   : 1791
#
%Defect
DEFECT NAME    : TR_RANGE
FIRST CHANNEL  : 1792
LAST CHANNEL   : 2047
#
%Defect
DEFECT NAME    : TR_RANGE
FIRST CHANNEL  : 2048
LAST CHANNEL   : 2303
#
%Defect
DEFECT NAME    : TR_RANGE
FIRST CHANNEL  : 2304
LAST CHANNEL   : 2559
#
%Defect
DEFECT NAME    : TR_RANGE
FIRST CHANNEL  : 2560
LAST CHANNEL   : 2815
#
%Defect
DEFECT NAME    : TR_RANGE
FIRST CHANNEL  : 2816
LAST CHANNEL   : 3071
#
%Defect
DEFECT NAME    : TR_RANGE
FIRST CHANNEL  : 3072
LAST CHANNEL   : 3327
#
%Defect
DEFECT NAME    : TR_RANGE
FIRST CHANNEL  : 3328
LAST CHANNEL   : 3583
#
%Defect
DEFECT NAME    : TR_RANGE
FIRST CHANNEL  : 3584
LAST CHANNEL   : 3839
#
%Defect
DEFECT NAME    : TR_RANGE
FIRST CHANNEL  : 3840
LAST CHANNEL   : 4095
#
%Defect
DEFECT NAME    : TR_NOTRIM
FIRST CHANNEL  : 76
LAST CHANNEL   : 76
#
%Defect
DEFECT NAME    : TR_NOTRIM
FIRST CHANNEL  : 182
LAST CHANNEL   : 182
#
%Defect
DEFECT NAME    : TR_NOTRIM
FIRST CHANNEL  : 711
LAST CHANNEL   : 711
#
%Defect
DEFECT NAME    : TR_NOTRIM
FIRST CHANNEL  : 777
LAST CHANNEL   : 777
#
%Defect
DEFECT NAME    : TR_NOTRIM
FIRST CHANNEL  : 780
LAST CHANNEL   : 780
#
%Defect
DEFECT NAME    : TR_NOTRIM
FIRST CHANNEL  : 1007
LAST CHANNEL   : 1007
#
%Defect
DEFECT NAME    : TR_NOTRIM
FIRST CHANNEL  : 1076
LAST CHANNEL   : 1076
#
%Defect
DEFECT NAME    : TR_NOTRIM
FIRST CHANNEL  : 4547
LAST CHANNEL   : 4547
#
%Defect
DEFECT NAME    : TR_NOTRIM
FIRST CHANNEL  : 4878
LAST CHANNEL   : 4878
#
%Defect
DEFECT NAME    : TR_NOTRIM
FIRST CHANNEL  : 5103
LAST CHANNEL   : 5103
#
#30 defects found
%Comment
COMMENT        : L0Ch0 TR 2 step 0.88 (ideal 1.78 error 50.40%)
#
%Comment
COMMENT        : L0Ch1 TR 2 step 0.88 (ideal 1.76 error 50.17%)
#
%Comment
COMMENT        : L0Ch2 TR 2 step 0.89 (ideal 1.77 error 49.73%)
#
%Comment
COMMENT        : L0Ch3 TR 2 step 0.86 (ideal 1.71 error 49.73%)
#
%Comment
COMMENT        : L0Ch4 TR 2 step 0.84 (ideal 1.67 error 49.78%)
#
%Comment
COMMENT        : L0Ch5 TR 2 step 0.83 (ideal 1.61 error 48.73%)
#
%Comment
COMMENT        : L0Ch6 TR 2 step 0.86 (ideal 1.73 error 50.52%)
#
%Comment
COMMENT        : L0Ch7 TR 2 step 0.80 (ideal 1.56 error 49.12%)
#
%Comment
COMMENT        : L0Ch8 TR 2 step 0.84 (ideal 1.66 error 49.14%)
#
%Comment
COMMENT        : L0Ch9 TR 2 step 0.86 (ideal 1.75 error 50.89%)
#
%Comment
COMMENT        : L1Ch0 TR 2 step 0.87 (ideal 1.75 error 50.16%)
#
%Comment
COMMENT        : L1Ch1 TR 2 step 0.87 (ideal 1.75 error 49.98%)
#
%Comment
COMMENT        : L1Ch2 TR 2 step 0.88 (ideal 1.76 error 49.93%)
#
%Comment
COMMENT        : L1Ch3 TR 2 step 0.86 (ideal 1.71 error 49.84%)
#
%Comment
COMMENT        : L1Ch4 TR 2 step 0.83 (ideal 1.66 error 49.77%)
#
%Comment
COMMENT        : L1Ch5 TR 2 step 0.83 (ideal 1.62 error 48.74%)
#
%Comment
COMMENT        : L1Ch6 TR 2 step 0.84 (ideal 1.71 error 50.79%)
#
%Comment
COMMENT        : L1Ch7 TR 2 step 0.79 (ideal 1.59 error 50.21%)
#
%Comment
COMMENT        : L1Ch8 TR 2 step 0.83 (ideal 1.63 error 49.15%)
#
%Comment
COMMENT        : L1Ch9 TR 2 step 0.87 (ideal 1.78 error 50.75%)
#
#
%TEST Rawdata
FILENAME       : /home/qcbox/Desktop/stars/itsdaq-sw/DATA/results/SCIPP-M3-04_tr2_20191104.trim
#
#
%NewTest
#
SERIAL NUMBER  : SCIPP-M3-04
TEST MADE BY   : qq
LOCATION NAME  : BNL_4MODULEBOX
Run number     : 152-7
TEST_DATE      : 04/11/2019
PASSED         : NO
PROBLEM        : YES
#
%DAQ_INFO
#
#HOST
"localhost"
#VERSION
"3.43"
#DUT
"Star_Test 	#AMAC 11 ComID 0 HCC"
#TIME
"14:13:35"
#
%DCS_INFO
#
#T0	T1
. 	. 	
#VDET	IDET
. 	. 	
#VCC	ICC
. 	. 	
#VDD	IDD
. 	. 	
#TIME_POWERED
. 
#
#
%SCAN_INFO
#
#POINT_TYPE
"TrimDAC (bits)"
#N_POINTS
5
#POINTS
0.00 	8.00 	16.00 	24.00 	31.00 	
#
%Trim
#
#TRIM	CHARGE	TYPE	ALGORITHM
	1.0 	4 	0
#(trim whole module)
#
#	range	target	ntrim	vt50	vt50rms	tr_off	off_rms	tr_step	step_rms
#Ch0
	4	29.0	256	 29.0	 0.28	-18.8	 6.6	 0.73	 0.07
#Ch1
	4	29.0	256	 29.0	 0.28	-18.7	 6.6	 0.73	 0.07
#Ch2
	4	29.0	256	 29.0	 0.29	-16.8	 5.9	 0.74	 0.07
#Ch3
	4	29.0	256	 29.0	 0.27	-16.4	 6.1	 0.72	 0.06
#Ch4
	4	29.0	256	 29.0	 0.27	-18.8	 6.0	 0.70	 0.06
#Ch5
	4	29.0	256	 29.0	 0.26	-21.5	 6.6	 0.68	 0.05
#Ch6
	4	29.0	255	 29.0	 0.27	-21.3	 6.5	 0.71	 0.07
#Ch7
	4	29.0	256	 29.0	 0.27	-22.5	 6.5	 0.67	 0.06
#Ch8
	4	29.0	256	 29.0	 0.28	-17.2	 6.4	 0.70	 0.07
#Ch9
	4	29.0	256	 29.0	 0.27	-19.1	 6.6	 0.72	 0.06
#Ch0
	4	29.0	256	 29.0	 0.28	-18.9	 5.8	 0.73	 0.07
#Ch1
	4	29.0	256	 29.0	 0.27	-18.6	 5.7	 0.72	 0.06
#Ch2
	4	29.0	256	 29.0	 0.30	-16.6	 6.8	 0.74	 0.07
#Ch3
	4	29.0	256	 29.1	 0.30	-16.8	 6.3	 0.72	 0.06
#Ch4
	4	29.0	256	 29.0	 0.27	-18.0	 5.2	 0.69	 0.05
#Ch5
	4	29.0	256	 29.0	 0.28	-21.1	 6.1	 0.69	 0.06
#Ch6
	4	29.0	255	 29.0	 0.27	-22.6	 5.6	 0.71	 0.07
#Ch7
	4	29.0	256	 29.0	 0.28	-22.0	 6.5	 0.66	 0.06
#Ch8
	4	29.0	256	 29.0	 0.28	-17.5	 5.9	 0.68	 0.06
#Ch9
	4	29.0	256	 29.0	 0.27	-19.0	 6.1	 0.73	 0.06
#
#No defects found!
#
%TEST Rawdata
FILENAME       : /home/qcbox/Desktop/stars/itsdaq-sw/DATA/results/SCIPP-M3-04_tr4_20191104.trim
#
#
%NewTest
#
SERIAL NUMBER  : SCIPP-M3-04
TEST MADE BY   : qq
LOCATION NAME  : BNL_4MODULEBOX
Run number     : 152-12
TEST_DATE      : 04/11/2019
PASSED         : NO
PROBLEM        : NO
#
%DAQ_INFO
#
#HOST
"localhost"
#VERSION
"3.43"
#DUT
"Star_Test 	#AMAC 11 ComID 0 HCC"
#TIME
"14:15:27"
#
%DCS_INFO
#
#T0	T1
. 	. 	
#VDET	IDET
. 	. 	
#VCC	ICC
. 	. 	
#VDD	IDD
. 	. 	
#TIME_POWERED
. 
#
#
%SCAN_INFO
#
#POINT_TYPE
"TrimDAC (bits)"
#N_POINTS
5
#POINTS
0.00 	8.00 	16.00 	24.00 	31.00 	
#
%Trim
#
#TRIM	CHARGE	TYPE	ALGORITHM
	1.0 	6 	0
#(trim whole module)
#
#	range	target	ntrim	vt50	vt50rms	tr_off	off_rms	tr_step	step_rms
#Ch0
	6	33.0	256	 33.0	 0.33	-16.1	 5.3	 0.88	 0.07
#Ch1
	6	33.0	256	 32.9	 0.31	-16.1	 5.3	 0.88	 0.07
#Ch2
	6	33.0	256	 33.0	 0.32	-14.5	 4.8	 0.89	 0.07
#Ch3
	6	33.0	256	 33.0	 0.33	-14.2	 5.0	 0.86	 0.06
#Ch4
	6	33.0	256	 33.0	 0.33	-16.2	 4.8	 0.84	 0.06
#Ch5
	6	33.0	256	 33.0	 0.31	-18.3	 5.3	 0.83	 0.06
#Ch6
	6	33.0	256	 33.0	 0.32	-18.4	 5.2	 0.86	 0.08
#Ch7
	6	33.0	256	 33.0	 0.27	-19.4	 5.2	 0.80	 0.06
#Ch8
	6	33.0	256	 33.1	 0.32	-14.7	 5.2	 0.84	 0.07
#Ch9
	6	33.0	256	 33.1	 0.33	-16.6	 5.4	 0.86	 0.07
#Ch0
	6	33.0	256	 33.0	 0.32	-16.4	 4.8	 0.87	 0.07
#Ch1
	6	33.0	256	 33.0	 0.34	-15.9	 4.7	 0.87	 0.06
#Ch2
	6	33.0	256	 33.0	 0.34	-14.4	 5.6	 0.88	 0.07
#Ch3
	6	33.0	256	 33.0	 0.31	-14.5	 5.1	 0.86	 0.06
#Ch4
	6	33.0	256	 33.0	 0.32	-15.6	 4.3	 0.83	 0.05
#Ch5
	6	33.0	256	 33.1	 0.32	-18.0	 4.9	 0.83	 0.06
#Ch6
	6	33.0	256	 33.0	 0.32	-19.8	 4.8	 0.84	 0.07
#Ch7
	6	33.0	256	 33.0	 0.31	-18.9	 5.2	 0.79	 0.06
#Ch8
	6	33.0	256	 33.0	 0.31	-15.0	 4.8	 0.83	 0.06
#Ch9
	6	33.0	256	 33.0	 0.33	-16.5	 4.9	 0.87	 0.06
#
#No defects found!
#
%TEST Rawdata
FILENAME       : /home/qcbox/Desktop/stars/itsdaq-sw/DATA/results/SCIPP-M3-04_tr6_20191104.trim
#
#
%NewTest
#
SERIAL NUMBER  : SCIPP-M3-04
TEST MADE BY   : qq
LOCATION NAME  : BNL_4MODULEBOX
Run number     : 152-17
TEST_DATE      : 04/11/2019
PASSED         : NO
PROBLEM        : NO
#
%DAQ_INFO
#
#HOST
"localhost"
#VERSION
"3.43"
#DUT
"Star_Test 	#AMAC 11 ComID 0 HCC"
#TIME
"14:17:22"
#
%DCS_INFO
#
#T0	T1
. 	. 	
#VDET	IDET
. 	. 	
#VCC	ICC
. 	. 	
#VDD	IDD
. 	. 	
#TIME_POWERED
. 
#
#
%SCAN_INFO
#
#POINT_TYPE
"TrimDAC (bits)"
#N_POINTS
5
#POINTS
0.00 	8.00 	16.00 	24.00 	31.00 	
#
%Trim
#
#TRIM	CHARGE	TYPE	ALGORITHM
	1.0 	8 	0
#(trim whole module)
#
#	range	target	ntrim	vt50	vt50rms	tr_off	off_rms	tr_step	step_rms
#Ch0
	8	39.0	256	 39.1	 0.37	-14.2	 4.5	 1.03	 0.08
#Ch1
	8	39.0	256	 39.0	 0.42	-14.2	 4.5	 1.03	 0.08
#Ch2
	8	39.0	256	 39.0	 0.40	-12.9	 4.1	 1.04	 0.08
#Ch3
	8	39.0	256	 39.0	 0.38	-12.6	 4.3	 1.00	 0.06
#Ch4
	8	39.0	256	 39.0	 0.37	-14.3	 4.1	 0.97	 0.06
#Ch5
	8	39.0	256	 39.0	 0.35	-16.2	 4.6	 0.96	 0.06
#Ch6
	8	39.0	256	 39.0	 0.36	-16.1	 4.5	 1.00	 0.08
#Ch7
	8	39.0	256	 39.0	 0.37	-17.0	 4.5	 0.93	 0.07
#Ch8
	8	39.0	256	 39.0	 0.39	-13.0	 4.4	 0.98	 0.07
#Ch9
	8	39.0	256	 39.0	 0.37	-14.8	 4.7	 1.00	 0.07
#Ch0
	8	39.0	256	 39.0	 0.38	-14.4	 4.1	 1.02	 0.08
#Ch1
	8	39.0	256	 39.0	 0.39	-14.1	 4.0	 1.02	 0.07
#Ch2
	8	39.0	256	 39.1	 0.40	-12.7	 4.7	 1.03	 0.07
#Ch3
	8	39.0	256	 39.0	 0.38	-12.8	 4.4	 1.00	 0.06
#Ch4
	8	39.0	256	 39.0	 0.39	-13.8	 3.7	 0.97	 0.05
#Ch5
	8	39.0	256	 39.0	 0.37	-15.9	 4.1	 0.96	 0.06
#Ch6
	8	39.0	256	 39.0	 0.37	-17.3	 4.2	 0.99	 0.07
#Ch7
	8	39.0	256	 39.0	 0.39	-16.6	 4.6	 0.93	 0.07
#Ch8
	8	39.0	256	 39.0	 0.38	-13.3	 4.0	 0.97	 0.06
#Ch9
	8	39.0	256	 39.0	 0.39	-14.7	 4.3	 1.01	 0.07
#
#No defects found!
#
%TEST Rawdata
FILENAME       : /home/qcbox/Desktop/stars/itsdaq-sw/DATA/results/SCIPP-M3-04_tr8_20191104.trim
#
#
%NewTest
#
SERIAL NUMBER  : SCIPP-M3-04
TEST MADE BY   : qq
LOCATION NAME  : BNL_4MODULEBOX
Run number     : 152-2
TEST_DATE      : 04/11/2019
PASSED         : NO
PROBLEM        : YES
#
%DAQ_INFO
#
#HOST
"localhost"
#VERSION
"3.43"
#DUT
"Star_Test 	#AMAC 11 ComID 0 HCC"
#TIME
"14:11:01"
#
%DCS_INFO
#
#T0	T1
. 	. 	
#VDET	IDET
. 	. 	
#VCC	ICC
. 	. 	
#VDD	IDD
. 	. 	
#TIME_POWERED
. 
#
#
%Trim
#
#TRIM	CHARGE	TYPE	ALGORITHM
	1.0 	-1 	0
#(trim whole module)
#
#	range	target	ntrim	vt50	vt50rms	tr_off	off_rms	tr_step	step_rms
#Ch0
	4	31.0	256	 31.0	 0.28	-18.8	 6.6	 0.73	 0.07
#Ch1
	4	31.0	256	 31.0	 0.28	-18.7	 6.6	 0.73	 0.07
#Ch2
	4	31.0	256	 31.0	 0.31	-16.8	 5.9	 0.74	 0.07
#Ch3
	6	31.0	256	 31.0	 0.33	-14.2	 5.0	 0.86	 0.06
#Ch4
	4	31.0	256	 31.0	 0.27	-18.8	 6.0	 0.70	 0.06
#Ch5
	4	31.0	256	 31.0	 0.28	-21.5	 6.6	 0.68	 0.05
#Ch6
	2	31.0	255	 31.0	 0.24	-25.4	 7.6	 0.58	 0.06
#Ch7
	6	31.0	256	 31.0	 0.29	-19.4	 5.2	 0.80	 0.06
#Ch8
	6	31.0	256	 31.0	 0.30	-14.7	 5.2	 0.84	 0.07
#Ch9
	4	31.0	256	 31.0	 0.27	-19.1	 6.6	 0.72	 0.06
#Ch0
	4	31.0	256	 31.0	 0.28	-18.9	 5.8	 0.73	 0.07
#Ch1
	4	31.0	256	 31.0	 0.28	-18.6	 5.7	 0.72	 0.06
#Ch2
	4	31.0	256	 31.0	 0.31	-16.6	 6.8	 0.74	 0.07
#Ch3
	6	31.0	256	 31.0	 0.31	-14.5	 5.1	 0.86	 0.06
#Ch4
	4	31.0	256	 31.0	 0.28	-18.0	 5.2	 0.69	 0.05
#Ch5
	4	31.0	256	 31.0	 0.27	-21.1	 6.1	 0.69	 0.06
#Ch6
	2	31.0	255	 31.0	 0.26	-27.2	 7.2	 0.57	 0.07
#Ch7
	6	31.0	256	 31.0	 0.30	-18.9	 5.2	 0.79	 0.06
#Ch8
	6	31.0	256	 31.0	 0.31	-15.0	 4.8	 0.83	 0.06
#Ch9
	4	31.0	256	 31.0	 0.28	-19.0	 6.1	 0.73	 0.06
#
%Defect
DEFECT NAME    : TR_RANGE
FIRST CHANNEL  : 1536
LAST CHANNEL   : 1791
#
%Defect
DEFECT NAME    : TR_RANGE
FIRST CHANNEL  : 3072
LAST CHANNEL   : 3327
#
%Defect
DEFECT NAME    : TR_NOTRIM
FIRST CHANNEL  : 777
LAST CHANNEL   : 777
#
#3 defects found
%Comment
COMMENT        : L0Ch6 TR 2 step 0.86 (ideal 1.73 error 50.52%)
#
%Comment
COMMENT        : L1Ch6 TR 2 step 0.84 (ideal 1.71 error 50.79%)
#
#
%TEST Rawdata
FILENAME       : /home/qcbox/Desktop/stars/itsdaq-sw/DATA/results/SCIPP-M3-04_tr-1_20191104.trim
#
#
%NewTest
#
SERIAL NUMBER  : SCIPP-M3-04
TEST MADE BY   : qq
LOCATION NAME  : BNL_4MODULEBOX
Run number     : 153-2
TEST_DATE      : 04/11/2019
PASSED         : YES
PROBLEM        : NO
#
%DAQ_INFO
#
#HOST
"localhost"
#VERSION
"3.43"
#DUT
"Star_Test 	#AMAC 11 ComID 0 HCC"
#TIME
"14:22:07"
#
%DCS_INFO
#
#T0	T1
. 	. 	
#VDET	IDET
. 	. 	
#VCC	ICC
. 	. 	
#VDD	IDD
. 	. 	
#TIME_POWERED
. 
#
%StrobeDelay
#
#DELAY
#  M00  S01  S02  S03  S04  S05  S06  S07  S08  E09
17 14 16 14 19 15 18 20 16 19 -1 -1 -1 -1 -1 -1 
#
#  M00  S01  S02  S03  S04  S05  S06  S07  S08  E09
17 14 16 14 19 15 18 20 16 19 -1 -1 -1 -1 -1 -1 
#
#No defects found!
%Comment
COMMENT        : Strobe Delay Fraction 0.57
#
#
%NewTest
#
SERIAL NUMBER  : SCIPP-M3-04
TEST MADE BY   : qq
LOCATION NAME  : BNL_4MODULEBOX
Run number     : 153-3
TEST_DATE      : 04/11/2019
PASSED         : YES
PROBLEM        : NO
#
%DAQ_INFO
#
#HOST
"localhost"
#VERSION
"3.43"
#DUT
"Star_Test 	#AMAC 11 ComID 0 HCC"
#TIME
"14:26:22"
#
%DCS_INFO
#
#T0	T1
. 	. 	
#VDET	IDET
. 	. 	
#VCC	ICC
. 	. 	
#VDD	IDD
. 	. 	
#TIME_POWERED
. 
#
#
%SCAN_INFO
#
#POINT_TYPE
"QCAL (fC)"
#N_POINTS
3
#POINTS
0.50 	1.00 	1.50 	
#
#
%ThreePointGain
#
#Loop A - Fit
#	func	p0	p1	p2
#M00
	4 	31.90 	92.07 	0.00
#S01
	4 	36.85 	91.71 	0.00
#S02
	4 	34.51 	94.64 	0.00
#S03
	4 	34.84 	90.88 	0.00
#S04
	4 	37.42 	89.24 	0.00
#S05
	4 	35.09 	91.02 	0.00
#S06
	4 	32.31 	90.28 	0.00
#S07
	4 	30.77 	87.52 	0.00
#S08
	4 	37.61 	90.48 	0.00
#E09
	4 	34.73 	85.60 	0.00
#M00
	4 	31.64 	91.98 	0.00
#S01
	4 	36.95 	91.64 	0.00
#S02
	4 	34.75 	94.29 	0.00
#S03
	4 	35.14 	90.40 	0.00
#S04
	4 	37.47 	88.97 	0.00
#S05
	4 	35.41 	91.11 	0.00
#S06
	4 	32.02 	90.38 	0.00
#S07
	4 	31.12 	87.29 	0.00
#S08
	4 	37.35 	90.05 	0.00
#E09
	4 	34.80 	85.50 	0.00
#
#Loop B - Gain, Offset, Noise at 1.00fC
#	vt50 	rms  	gain	rms 	offset	rms  	outnse	innse	rms
#M00
	123.3 	 1.27 	92.1 	2.07 	 92.1 	 2.07 	11.00 	  747 	  16
#S01
	128.2 	 1.24 	91.7 	1.81 	 91.7 	 1.81 	10.78 	  735 	  13
#S02
	128.5 	 1.38 	94.7 	1.82 	 94.7 	 1.82 	10.94 	  722 	  11
#S03
	124.9 	 1.64 	90.9 	1.93 	 90.9 	 1.93 	10.64 	  732 	  11
#S04
	125.9 	 1.19 	89.2 	1.48 	 89.2 	 1.48 	10.56 	  739 	  11
#S05
	125.4 	 1.27 	91.0 	1.64 	 91.0 	 1.64 	11.23 	  771 	  18
#S06
	122.0 	 1.11 	86.7 	17.59 	 90.3 	 1.93 	11.25 	  749 	 152
#S07
	117.9 	 1.01 	87.6 	1.62 	 87.6 	 1.62 	10.91 	  788 	  62
#S08
	127.4 	 1.69 	90.5 	1.73 	 90.5 	 1.73 	10.18 	  703 	  12
#E09
	119.8 	 1.24 	85.6 	1.57 	 85.6 	 1.57 	10.32 	  754 	  19
#M00
	123.0 	 1.22 	92.0 	2.02 	 92.0 	 2.02 	10.66 	  725 	  10
#S01
	128.2 	 1.21 	91.6 	1.70 	 91.6 	 1.70 	10.37 	  707 	  11
#S02
	128.5 	 1.27 	94.3 	1.84 	 94.3 	 1.84 	10.36 	  687 	   9
#S03
	124.8 	 1.40 	90.4 	1.84 	 90.4 	 1.84 	10.07 	  696 	   9
#S04
	125.7 	 1.26 	89.0 	1.68 	 89.0 	 1.68 	10.02 	  704 	  10
#S05
	125.9 	 1.49 	91.1 	1.58 	 91.1 	 1.58 	10.47 	  718 	  10
#S06
	121.9 	 1.00 	89.7 	8.17 	 90.4 	 1.88 	10.18 	  698 	  63
#S07
	118.0 	 1.26 	87.3 	1.71 	 87.3 	 1.71 	10.05 	  719 	  10
#S08
	126.7 	 1.79 	90.0 	1.83 	 90.0 	 1.83 	9.92 	  689 	  11
#E09
	119.8 	 1.13 	85.5 	1.34 	 85.5 	 1.34 	10.08 	  737 	  13
#
#Loop C - Comment
#  M00  S01  S02  S03  S04  S05  S06  S07  S08  E09
"OK" 	"OK" 	"OK" 	"OK" 	"OK" 	"OK" 	"OK" 	"OK" 	"OK" 	"OK" 	
#  M00  S01  S02  S03  S04  S05  S06  S07  S08  E09
"OK" 	"OK" 	"OK" 	"OK" 	"OK" 	"OK" 	"OK" 	"OK" 	"OK" 	"OK" 	
#BadChannelSummary - not for the database
#  at 1.00fC
#		lost	dodgy	dead	stuck	ineff	unbon	lo_gn	hi_gn	lo_off	hi_off	partbon	hi_nse
#Chip M00:	  0	  0	  0	  0	  0	  0	  0	  0	  0	  0	  0	  0
#Chip S01:	  0	  0	  0	  0	  0	  0	  0	  0	  0	  0	  0	  0
#Chip S02:	  0	  0	  0	  0	  0	  0	  0	  0	  0	  0	  0	  0
#Chip S03:	  0	  0	  0	  0	  0	  0	  0	  0	  0	  0	  0	  0
#Chip S04:	  0	  0	  0	  0	  0	  0	  0	  0	  0	  0	  0	  0
#Chip S05:	  0	  0	  0	  0	  0	  0	  0	  0	  0	  0	  0	  0
#Chip S06:	  5	  0	  5	  0	  0	  5	  5	  0	  5	  0	  0	  0
#Chip S07:	  0	  8	  0	  0	  0	  0	  0	  0	  0	  0	  0	  8
#Chip S08:	  0	  0	  0	  0	  0	  0	  0	  0	  0	  0	  0	  0
#Chip E09:	  0	  0	  0	  0	  0	  0	  0	  0	  0	  0	  0	  0
#Chip M00:	  0	  0	  0	  0	  0	  0	  0	  0	  0	  0	  0	  0
#Chip S01:	  0	  0	  0	  0	  0	  0	  0	  0	  0	  0	  0	  0
#Chip S02:	  0	  0	  0	  0	  0	  0	  0	  0	  0	  0	  0	  0
#Chip S03:	  0	  0	  0	  0	  0	  0	  0	  0	  0	  0	  0	  0
#Chip S04:	  0	  0	  0	  0	  0	  0	  0	  0	  0	  0	  0	  0
#Chip S05:	  0	  0	  0	  0	  0	  0	  0	  0	  0	  0	  0	  0
#Chip S06:	  1	  0	  1	  0	  0	  1	  1	  0	  1	  0	  0	  0
#Chip S07:	  0	  0	  0	  0	  0	  0	  0	  0	  0	  0	  0	  0
#Chip S08:	  0	  0	  0	  0	  0	  0	  0	  0	  0	  0	  0	  0
#Chip E09:	  0	  0	  0	  0	  0	  0	  0	  0	  0	  0	  0	  0
#Link 0:	  5	  8	  5	  0	  0	  5	  5	  0	  5	  0	  0	  8
#Link 1:	  1	  0	  1	  0	  0	  1	  1	  0	  1	  0	  0	  0
#Link 2:	  6	  8	  6	  0	  0	  6	  6	  0	  6	  0	  0	  8
%Defect
DEFECT NAME    : DEAD
FIRST CHANNEL  : 777
LAST CHANNEL   : 777
#
%Defect
DEFECT NAME    : DEAD
FIRST CHANNEL  : 780
LAST CHANNEL   : 780
#
%Defect
DEFECT NAME    : DEAD
FIRST CHANNEL  : 786
LAST CHANNEL   : 786
#
%Defect
DEFECT NAME    : DEAD
FIRST CHANNEL  : 792
LAST CHANNEL   : 792
#
%Defect
DEFECT NAME    : DEAD
FIRST CHANNEL  : 797
LAST CHANNEL   : 797
#
%Defect
DEFECT NAME    : NOISY
FIRST CHANNEL  : 900
LAST CHANNEL   : 901
#
%Defect
DEFECT NAME    : NOISY
FIRST CHANNEL  : 904
LAST CHANNEL   : 907
#
%Defect
DEFECT NAME    : NOISY
FIRST CHANNEL  : 910
LAST CHANNEL   : 910
#
%Defect
DEFECT NAME    : NOISY
FIRST CHANNEL  : 917
LAST CHANNEL   : 917
#
%Defect
DEFECT NAME    : DEAD
FIRST CHANNEL  : 2062
LAST CHANNEL   : 2062
#
#10 defects found affecting 14 strips
#4 maximum consecutive defects
%Comment
COMMENT        : SELECT = 0
#
#
%TEST Rawdata
FILENAME       : /home/qcbox/Desktop/stars/itsdaq-sw/DATA/results/SCIPP-M3-04_RC_153_3.txt
#
