#
%NewTest
#
SERIAL NUMBER  : LBL-LS-0006
TEST MADE BY   : qq
LOCATION NAME  : BNL_4MODULEBOX
Run number     : 282-9
TEST_DATE      : 22/11/2019
PASSED         : YES
PROBLEM        : NO
#
%DAQ_INFO
#
#HOST
"localhost"
#VERSION
"3.43"
#DUT
"Star_Test 	#AMAC 2 ComID 0 HCC "
#TIME
"11:38:47"
#
%DCS_INFO
#
#T0	T1
. 	. 	
#VDET	IDET
. 	. 	
#VCC	ICC
. 	. 	
#VDD	IDD
. 	. 	
#TIME_POWERED
. 
#
%StrobeDelay
#
#DELAY
#  M00  S01  S02  S03  S04  S05  S06  S07  S08  E09
18 17 19 19 21 18 18 21 22 24 -1 -1 -1 -1 -1 -1 
#
#  M00  S01  S02  S03  S04  S05  S06  S07  S08  E09
18 18 19 19 21 18 18 21 22 24 -1 -1 -1 -1 -1 -1 
#
#No defects found!
%Comment
COMMENT        : Strobe Delay Fraction 0.57
#
#
%NewTest
#
SERIAL NUMBER  : LBL-LS-0006
TEST MADE BY   : qq
LOCATION NAME  : BNL_4MODULEBOX
Run number     : 282-10
TEST_DATE      : 22/11/2019
PASSED         : YES
PROBLEM        : NO
#
%DAQ_INFO
#
#HOST
"localhost"
#VERSION
"3.43"
#DUT
"Star_Test 	#AMAC 2 ComID 0 HCC "
#TIME
"11:39:41"
#
%DCS_INFO
#
#T0	T1
. 	. 	
#VDET	IDET
. 	. 	
#VCC	ICC
. 	. 	
#VDD	IDD
. 	. 	
#TIME_POWERED
. 
#
%StrobeDelay
#
#DELAY
#  M00  S01  S02  S03  S04  S05  S06  S07  S08  E09
18 17 19 19 21 18 18 21 22 23 -1 -1 -1 -1 -1 -1 
#
#  M00  S01  S02  S03  S04  S05  S06  S07  S08  E09
18 18 19 19 21 18 18 21 22 24 -1 -1 -1 -1 -1 -1 
#
#No defects found!
%Comment
COMMENT        : Strobe Delay Fraction 0.57
#
#
%NewTest
#
SERIAL NUMBER  : LBL-LS-0006
TEST MADE BY   : qq
LOCATION NAME  : BNL_4MODULEBOX
Run number     : 282-11
TEST_DATE      : 22/11/2019
PASSED         : NO
PROBLEM        : NO
#
%DAQ_INFO
#
#HOST
"localhost"
#VERSION
"3.43"
#DUT
"Star_Test 	#AMAC 2 ComID 0 HCC "
#TIME
"11:40:43"
#
%DCS_INFO
#
#T0	T1
. 	. 	
#VDET	IDET
. 	. 	
#VCC	ICC
. 	. 	
#VDD	IDD
. 	. 	
#TIME_POWERED
. 
#
#
%SCAN_INFO
#
#POINT_TYPE
"QCAL (fC)"
#N_POINTS
3
#POINTS
0.50 	1.00 	1.50 	
#
#
%ThreePointGain
#
#Loop A - Fit
#	func	p0	p1	p2
#M00
	4 	29.79 	84.01 	0.00
#S01
	4 	28.60 	86.01 	0.00
#S02
	4 	28.76 	85.02 	0.00
#S03
	4 	29.43 	82.81 	0.00
#S04
	4 	29.63 	86.22 	0.00
#S05
	4 	29.56 	83.45 	0.00
#S06
	4 	29.78 	84.81 	0.00
#S07
	4 	28.79 	83.16 	0.00
#S08
	4 	29.78 	82.24 	0.00
#E09
	4 	29.20 	85.68 	0.00
#M00
	4 	29.94 	84.04 	0.00
#S01
	4 	29.01 	85.90 	0.00
#S02
	4 	29.15 	84.98 	0.00
#S03
	4 	29.75 	82.57 	0.00
#S04
	4 	30.37 	85.86 	0.00
#S05
	4 	29.47 	83.68 	0.00
#S06
	4 	30.05 	84.87 	0.00
#S07
	4 	29.20 	82.85 	0.00
#S08
	4 	29.82 	81.82 	0.00
#E09
	4 	29.54 	85.71 	0.00
#
#Loop B - Gain, Offset, Noise at 1.00fC
#	vt50 	rms  	gain	rms 	offset	rms  	outnse	innse	rms
#M00
	113.4 	 2.07 	84.0 	1.81 	 84.0 	 1.81 	9.92 	  744 	  58
#S01
	114.0 	 2.01 	86.0 	1.78 	 86.0 	 1.78 	10.21 	  743 	  59
#S02
	113.0 	 2.02 	85.0 	1.82 	 85.0 	 1.82 	10.22 	  753 	  58
#S03
	111.6 	 1.75 	82.8 	1.84 	 82.8 	 1.84 	10.14 	  766 	  58
#S04
	115.4 	 2.06 	86.2 	1.84 	 86.2 	 1.84 	10.24 	  749 	  58
#S05
	112.4 	 1.97 	83.4 	1.84 	 83.4 	 1.84 	10.57 	  800 	  67
#S06
	114.2 	 1.96 	84.8 	1.69 	 84.8 	 1.69 	11.06 	  826 	  82
#S07
	111.4 	 2.06 	83.1 	1.80 	 83.1 	 1.80 	10.44 	  801 	  85
#S08
	111.5 	 1.88 	82.2 	1.72 	 82.2 	 1.72 	9.93 	  760 	  70
#E09
	114.6 	 1.98 	85.7 	2.07 	 85.7 	 2.07 	10.30 	  757 	  63
#M00
	113.7 	 1.92 	84.0 	1.70 	 84.0 	 1.70 	9.42 	  703 	  55
#S01
	114.2 	 1.97 	85.9 	1.78 	 85.9 	 1.78 	9.48 	  691 	  52
#S02
	113.4 	 1.74 	85.0 	1.81 	 85.0 	 1.81 	9.54 	  704 	  52
#S03
	111.6 	 2.12 	82.6 	1.92 	 82.6 	 1.92 	9.56 	  728 	  60
#S04
	115.9 	 2.33 	85.9 	2.01 	 85.9 	 2.01 	9.52 	  696 	  55
#S05
	112.8 	 2.13 	83.6 	1.85 	 83.6 	 1.85 	9.45 	  712 	  63
#S06
	114.5 	 2.08 	84.8 	1.81 	 84.8 	 1.81 	9.80 	  725 	  53
#S07
	111.5 	 1.88 	82.8 	1.75 	 82.8 	 1.75 	9.59 	  730 	  64
#S08
	111.2 	 1.97 	81.8 	1.51 	 81.8 	 1.51 	9.50 	  729 	  56
#E09
	114.9 	 2.21 	85.7 	1.71 	 85.7 	 1.71 	9.86 	  720 	  56
#
#Loop C - Comment
#  M00  S01  S02  S03  S04  S05  S06  S07  S08  E09
"OK" 	"OK" 	"OK" 	"OK" 	"OK" 	"OK" 	"high noise" 	"OK" 	"OK" 	"OK" 	
#  M00  S01  S02  S03  S04  S05  S06  S07  S08  E09
"OK" 	"OK" 	"OK" 	"OK" 	"OK" 	"OK" 	"OK" 	"OK" 	"OK" 	"OK" 	
#BadChannelSummary - not for the database
#  at 1.00fC
#		lost	dodgy	dead	stuck	ineff	unbon	lo_gn	hi_gn	lo_off	hi_off	partbon	hi_nse
#Chip M00:	  0	  6	  0	  0	  0	  0	  0	  0	  0	  0	  0	  6
#Chip S01:	  0	  1	  0	  0	  0	  0	  0	  0	  0	  0	  0	  1
#Chip S02:	  0	  2	  0	  0	  0	  0	  0	  0	  0	  0	  0	  2
#Chip S03:	  0	  1	  0	  0	  0	  0	  0	  0	  0	  0	  0	  1
#Chip S04:	  0	  6	  0	  0	  0	  0	  0	  0	  0	  0	  0	  6
#Chip S05:	  0	  6	  0	  0	  0	  0	  0	  0	  0	  0	  0	  6
#Chip S06:	  0	  7	  0	  0	  0	  0	  0	  0	  0	  0	  0	  7
#Chip S07:	  0	 11	  0	  0	  0	  0	  0	  0	  0	  0	  0	 11
#Chip S08:	  0	  4	  0	  0	  0	  0	  0	  0	  0	  0	  0	  4
#Chip E09:	  0	  5	  0	  0	  0	  0	  0	  0	  0	  0	  0	  5
#Chip M00:	  0	  3	  0	  0	  0	  0	  0	  0	  0	  0	  0	  3
#Chip S01:	  0	  1	  0	  0	  0	  0	  0	  0	  0	  0	  0	  1
#Chip S02:	  0	  2	  0	  0	  0	  0	  0	  0	  0	  0	  0	  2
#Chip S03:	  0	  4	  0	  0	  0	  0	  0	  0	  0	  0	  0	  4
#Chip S04:	  0	  3	  0	  0	  0	  0	  0	  0	  0	  0	  0	  3
#Chip S05:	  0	  6	  0	  0	  0	  0	  0	  0	  0	  0	  0	  6
#Chip S06:	  0	  3	  0	  0	  0	  0	  0	  0	  0	  0	  0	  3
#Chip S07:	  0	  6	  0	  0	  0	  0	  0	  0	  0	  0	  0	  6
#Chip S08:	  0	  3	  0	  0	  0	  0	  0	  0	  0	  0	  0	  3
#Chip E09:	  1	  1	  0	  0	  0	  1	  0	  0	  0	  0	  0	  1
#Link 0:	  0	 49	  0	  0	  0	  0	  0	  0	  0	  0	  0	 49
#Link 1:	  1	 32	  0	  0	  0	  1	  0	  0	  0	  0	  0	 32
#Link 2:	  1	 81	  0	  0	  0	  1	  0	  0	  0	  0	  0	 81
%Defect
DEFECT NAME    : NOISY
FIRST CHANNEL  : 44
LAST CHANNEL   : 44
#
%Defect
DEFECT NAME    : NOISY
FIRST CHANNEL  : 63
LAST CHANNEL   : 63
#
%Defect
DEFECT NAME    : NOISY
FIRST CHANNEL  : 80
LAST CHANNEL   : 80
#
%Defect
DEFECT NAME    : NOISY
FIRST CHANNEL  : 89
LAST CHANNEL   : 89
#
%Defect
DEFECT NAME    : NOISY
FIRST CHANNEL  : 116
LAST CHANNEL   : 116
#
%Defect
DEFECT NAME    : NOISY
FIRST CHANNEL  : 127
LAST CHANNEL   : 127
#
%Defect
DEFECT NAME    : NOISY
FIRST CHANNEL  : 140
LAST CHANNEL   : 140
#
%Defect
DEFECT NAME    : NOISY
FIRST CHANNEL  : 291
LAST CHANNEL   : 291
#
%Defect
DEFECT NAME    : NOISY
FIRST CHANNEL  : 366
LAST CHANNEL   : 366
#
%Defect
DEFECT NAME    : NOISY
FIRST CHANNEL  : 480
LAST CHANNEL   : 480
#
%Defect
DEFECT NAME    : NOISY
FIRST CHANNEL  : 515
LAST CHANNEL   : 515
#
%Defect
DEFECT NAME    : NOISY
FIRST CHANNEL  : 527
LAST CHANNEL   : 527
#
%Defect
DEFECT NAME    : NOISY
FIRST CHANNEL  : 548
LAST CHANNEL   : 548
#
%Defect
DEFECT NAME    : NOISY
FIRST CHANNEL  : 602
LAST CHANNEL   : 602
#
%Defect
DEFECT NAME    : NOISY
FIRST CHANNEL  : 621
LAST CHANNEL   : 621
#
%Defect
DEFECT NAME    : NOISY
FIRST CHANNEL  : 623
LAST CHANNEL   : 623
#
%Defect
DEFECT NAME    : NOISY
FIRST CHANNEL  : 675
LAST CHANNEL   : 675
#
%Defect
DEFECT NAME    : NOISY
FIRST CHANNEL  : 727
LAST CHANNEL   : 727
#
%Defect
DEFECT NAME    : NOISY
FIRST CHANNEL  : 739
LAST CHANNEL   : 739
#
%Defect
DEFECT NAME    : NOISY
FIRST CHANNEL  : 750
LAST CHANNEL   : 750
#
%Defect
DEFECT NAME    : NOISY
FIRST CHANNEL  : 754
LAST CHANNEL   : 754
#
%Defect
DEFECT NAME    : NOISY
FIRST CHANNEL  : 758
LAST CHANNEL   : 758
#
%Defect
DEFECT NAME    : NOISY
FIRST CHANNEL  : 770
LAST CHANNEL   : 770
#
%Defect
DEFECT NAME    : NOISY
FIRST CHANNEL  : 774
LAST CHANNEL   : 774
#
%Defect
DEFECT NAME    : NOISY
FIRST CHANNEL  : 865
LAST CHANNEL   : 865
#
%Defect
DEFECT NAME    : NOISY
FIRST CHANNEL  : 890
LAST CHANNEL   : 892
#
%Defect
DEFECT NAME    : NOISY
FIRST CHANNEL  : 895
LAST CHANNEL   : 895
#
%Defect
DEFECT NAME    : NOISY
FIRST CHANNEL  : 897
LAST CHANNEL   : 902
#
%Defect
DEFECT NAME    : NOISY
FIRST CHANNEL  : 905
LAST CHANNEL   : 906
#
%Defect
DEFECT NAME    : NOISY
FIRST CHANNEL  : 947
LAST CHANNEL   : 947
#
%Defect
DEFECT NAME    : NOISY
FIRST CHANNEL  : 983
LAST CHANNEL   : 983
#
%Defect
DEFECT NAME    : NOISY
FIRST CHANNEL  : 994
LAST CHANNEL   : 994
#
%Defect
DEFECT NAME    : NOISY
FIRST CHANNEL  : 1033
LAST CHANNEL   : 1033
#
%Defect
DEFECT NAME    : NOISY
FIRST CHANNEL  : 1053
LAST CHANNEL   : 1053
#
%Defect
DEFECT NAME    : NOISY
FIRST CHANNEL  : 1067
LAST CHANNEL   : 1067
#
%Defect
DEFECT NAME    : NOISY
FIRST CHANNEL  : 1089
LAST CHANNEL   : 1089
#
%Defect
DEFECT NAME    : NOISY
FIRST CHANNEL  : 1170
LAST CHANNEL   : 1170
#
%Defect
DEFECT NAME    : NOISY
FIRST CHANNEL  : 1180
LAST CHANNEL   : 1180
#
%Defect
DEFECT NAME    : NOISY
FIRST CHANNEL  : 1187
LAST CHANNEL   : 1187
#
%Defect
DEFECT NAME    : NOISY
FIRST CHANNEL  : 1197
LAST CHANNEL   : 1197
#
%Defect
DEFECT NAME    : NOISY
FIRST CHANNEL  : 1210
LAST CHANNEL   : 1210
#
%Defect
DEFECT NAME    : NOISY
FIRST CHANNEL  : 1325
LAST CHANNEL   : 1325
#
%Defect
DEFECT NAME    : NOISY
FIRST CHANNEL  : 1379
LAST CHANNEL   : 1379
#
%Defect
DEFECT NAME    : NOISY
FIRST CHANNEL  : 1384
LAST CHANNEL   : 1384
#
%Defect
DEFECT NAME    : NOISY
FIRST CHANNEL  : 1516
LAST CHANNEL   : 1516
#
%Defect
DEFECT NAME    : NOISY
FIRST CHANNEL  : 1609
LAST CHANNEL   : 1609
#
%Defect
DEFECT NAME    : NOISY
FIRST CHANNEL  : 1638
LAST CHANNEL   : 1638
#
%Defect
DEFECT NAME    : NOISY
FIRST CHANNEL  : 1711
LAST CHANNEL   : 1711
#
%Defect
DEFECT NAME    : NOISY
FIRST CHANNEL  : 1733
LAST CHANNEL   : 1733
#
%Defect
DEFECT NAME    : NOISY
FIRST CHANNEL  : 1743
LAST CHANNEL   : 1743
#
%Defect
DEFECT NAME    : NOISY
FIRST CHANNEL  : 1776
LAST CHANNEL   : 1776
#
%Defect
DEFECT NAME    : NOISY
FIRST CHANNEL  : 1845
LAST CHANNEL   : 1845
#
%Defect
DEFECT NAME    : NOISY
FIRST CHANNEL  : 1888
LAST CHANNEL   : 1888
#
%Defect
DEFECT NAME    : NOISY
FIRST CHANNEL  : 1912
LAST CHANNEL   : 1912
#
%Defect
DEFECT NAME    : NOISY
FIRST CHANNEL  : 1943
LAST CHANNEL   : 1943
#
%Defect
DEFECT NAME    : NOISY
FIRST CHANNEL  : 1952
LAST CHANNEL   : 1952
#
%Defect
DEFECT NAME    : NOISY
FIRST CHANNEL  : 2017
LAST CHANNEL   : 2017
#
%Defect
DEFECT NAME    : NOISY
FIRST CHANNEL  : 2024
LAST CHANNEL   : 2024
#
%Defect
DEFECT NAME    : NOISY
FIRST CHANNEL  : 2026
LAST CHANNEL   : 2026
#
%Defect
DEFECT NAME    : NOISY
FIRST CHANNEL  : 2031
LAST CHANNEL   : 2031
#
%Defect
DEFECT NAME    : NOISY
FIRST CHANNEL  : 2057
LAST CHANNEL   : 2057
#
%Defect
DEFECT NAME    : NOISY
FIRST CHANNEL  : 2062
LAST CHANNEL   : 2062
#
%Defect
DEFECT NAME    : NOISY
FIRST CHANNEL  : 2095
LAST CHANNEL   : 2095
#
%Defect
DEFECT NAME    : NOISY
FIRST CHANNEL  : 2193
LAST CHANNEL   : 2193
#
%Defect
DEFECT NAME    : NOISY
FIRST CHANNEL  : 2205
LAST CHANNEL   : 2205
#
%Defect
DEFECT NAME    : NOISY
FIRST CHANNEL  : 2211
LAST CHANNEL   : 2211
#
%Defect
DEFECT NAME    : NOISY
FIRST CHANNEL  : 2251
LAST CHANNEL   : 2251
#
%Defect
DEFECT NAME    : NOISY
FIRST CHANNEL  : 2261
LAST CHANNEL   : 2261
#
%Defect
DEFECT NAME    : NOISY
FIRST CHANNEL  : 2300
LAST CHANNEL   : 2300
#
%Defect
DEFECT NAME    : NOISY
FIRST CHANNEL  : 2342
LAST CHANNEL   : 2342
#
%Defect
DEFECT NAME    : NOISY
FIRST CHANNEL  : 2385
LAST CHANNEL   : 2385
#
%Defect
DEFECT NAME    : NOISY
FIRST CHANNEL  : 2420
LAST CHANNEL   : 2420
#
%Defect
DEFECT NAME    : UNBONDED
FIRST CHANNEL  : 2490
LAST CHANNEL   : 2490
#
%Defect
DEFECT NAME    : NOISY
FIRST CHANNEL  : 2523
LAST CHANNEL   : 2523
#
#74 defects found affecting 82 strips
#6 maximum consecutive defects
%Comment
COMMENT        : SELECT = 0
#
%Comment
COMMENT        : FAIL due to 82 bad strips (more than 15)
#
#
%TEST Rawdata
FILENAME       : /home/qcbox/Desktop/stars/itsdaq-sw/DATA/results/LBL-LS-0006_RC_282_11.txt
#
