#chan	code	gain	vt50	innse	comment
   0	   0	88.8	115.0	 751	OK
   1	   0	83.9	114.2	 656	OK
   2	   0	85.9	117.7	 754	OK
   3	   0	83.5	112.2	 791	OK
   4	   0	83.7	113.0	 788	OK
   5	   0	86.8	116.8	 714	OK
   6	   0	85.0	113.3	 809	OK
   7	   0	82.7	113.9	 661	OK
   8	   0	83.5	112.5	 675	OK
   9	   0	84.2	112.1	 649	OK
  10	   0	84.2	113.5	 757	OK
  11	   0	81.5	114.3	 757	OK
  12	   0	86.3	115.2	 715	OK
  13	   0	85.4	114.6	 668	OK
  14	   0	86.1	117.0	 682	OK
  15	   0	87.9	114.6	 660	OK
  16	   0	82.4	113.7	 749	OK
  17	   0	81.8	113.8	 718	OK
  18	   0	81.8	111.2	 757	OK
  19	   0	84.9	111.8	 748	OK
  20	   0	83.2	111.9	 711	OK
  21	   0	81.2	110.2	 649	OK
  22	   0	85.6	115.4	 710	OK
  23	   0	83.2	113.7	 743	OK
  24	   0	83.9	113.1	 663	OK
  25	   0	80.8	110.9	 693	OK
  26	   0	85.1	116.8	 758	OK
  27	   0	83.7	112.6	 761	OK
  28	   0	83.7	112.7	 744	OK
  29	   0	82.7	110.5	 694	OK
  30	   0	82.3	110.0	 688	OK
  31	   0	82.9	112.8	 830	OK
  32	   0	82.7	111.4	 760	OK
  33	   0	85.1	114.3	 741	OK
  34	   0	83.5	113.6	 739	OK
  35	   0	82.9	112.6	 747	OK
  36	   0	85.4	113.4	 813	OK
  37	   0	82.4	111.8	 797	OK
  38	   0	84.4	114.2	 666	OK
  39	   0	83.8	114.8	 758	OK
  40	   0	84.6	111.0	 674	OK
  41	   0	84.6	115.1	 783	OK
  42	   0	84.9	111.8	 731	OK
  43	   0	84.5	112.6	 621	OK
  44	4000	82.0	110.2	 876	high noise
  45	   0	83.0	110.3	 749	OK
  46	   0	86.3	115.6	 774	OK
  47	   0	81.9	110.4	 815	OK
  48	   0	83.7	111.8	 844	OK
  49	   0	82.1	111.7	 688	OK
  50	   0	83.5	115.9	 760	OK
  51	   0	84.7	114.7	 729	OK
  52	   0	84.3	112.1	 757	OK
  53	   0	81.3	110.8	 704	OK
  54	   0	81.2	108.5	 749	OK
  55	   0	83.9	114.3	 713	OK
  56	   0	81.1	112.5	 728	OK
  57	   0	83.3	112.1	 802	OK
  58	   0	89.1	116.3	 687	OK
  59	   0	86.4	114.1	 743	OK
  60	   0	85.2	115.1	 713	OK
  61	   0	84.1	115.6	 727	OK
  62	   0	86.8	117.7	 720	OK
  63	4000	89.3	118.0	 865	high noise
  64	   0	85.2	113.1	 779	OK
  65	   0	80.7	111.3	 714	OK
  66	   0	85.5	113.3	 705	OK
  67	   0	84.0	114.0	 749	OK
  68	   0	83.6	112.2	 755	OK
  69	   0	85.1	112.5	 728	OK
  70	   0	84.7	112.3	 760	OK
  71	   0	81.7	109.8	 719	OK
  72	   0	83.1	111.6	 718	OK
  73	   0	84.5	112.0	 771	OK
  74	   0	83.6	111.8	 735	OK
  75	   0	88.1	119.7	 741	OK
  76	   0	82.6	113.3	 752	OK
  77	   0	82.7	112.5	 761	OK
  78	   0	85.6	118.5	 664	OK
  79	   0	84.5	112.1	 647	OK
  80	4000	85.1	115.2	 857	high noise
  81	   0	82.0	113.4	 742	OK
  82	   0	83.1	111.2	 811	OK
  83	   0	88.7	120.0	 711	OK
  84	   0	87.2	114.9	 801	OK
  85	   0	84.3	112.5	 739	OK
  86	   0	82.8	110.9	 762	OK
  87	   0	83.5	113.3	 762	OK
  88	   0	84.8	116.0	 743	OK
  89	4000	80.1	112.5	 933	high noise
  90	   0	85.6	114.0	 683	OK
  91	   0	82.9	111.5	 705	OK
  92	   0	82.8	113.3	 796	OK
  93	   0	82.4	113.3	 748	OK
  94	   0	82.8	114.1	 768	OK
  95	   0	84.2	115.3	 692	OK
  96	   0	82.4	113.0	 830	OK
  97	   0	83.5	110.1	 577	OK
  98	   0	83.2	113.5	 810	OK
  99	   0	82.7	111.2	 804	OK
 100	   0	84.7	113.4	 714	OK
 101	   0	82.8	111.9	 746	OK
 102	   0	80.3	112.0	 680	OK
 103	   0	86.6	116.1	 768	OK
 104	   0	82.0	113.3	 835	OK
 105	   0	83.9	115.3	 679	OK
 106	   0	82.6	113.9	 795	OK
 107	   0	86.2	116.1	 760	OK
 108	   0	86.2	117.0	 737	OK
 109	   0	84.6	112.1	 601	OK
 110	   0	82.7	113.0	 684	OK
 111	   0	83.4	112.6	 783	OK
 112	   0	84.3	113.1	 775	OK
 113	   0	81.3	112.0	 782	OK
 114	   0	85.8	115.2	 771	OK
 115	   0	84.2	114.1	 748	OK
 116	4000	83.9	113.2	 866	high noise
 117	   0	83.4	112.0	 731	OK
 118	   0	83.0	115.1	 811	OK
 119	   0	84.8	115.4	 716	OK
 120	   0	84.9	111.4	 752	OK
 121	   0	82.1	113.0	 814	OK
 122	   0	85.5	113.7	 701	OK
 123	   0	85.1	115.7	 810	OK
 124	   0	86.7	116.1	 772	OK
 125	   0	84.1	113.2	 706	OK
 126	   0	84.3	115.0	 817	OK
 127	4000	82.8	112.3	 885	high noise
 128	   0	84.7	113.6	 770	OK
 129	   0	87.8	113.5	 836	OK
 130	   0	87.6	115.5	 749	OK
 131	   0	88.3	114.8	 761	OK
 132	   0	86.6	112.4	 668	OK
 133	   0	83.3	111.4	 728	OK
 134	   0	85.2	113.7	 811	OK
 135	   0	89.2	117.6	 807	OK
 136	   0	86.3	114.1	 803	OK
 137	   0	85.0	109.7	 845	OK
 138	   0	85.8	113.0	 690	OK
 139	   0	84.3	112.0	 782	OK
 140	4000	84.6	113.0	 860	high noise
 141	   0	82.9	112.5	 791	OK
 142	   0	85.4	114.3	 686	OK
 143	   0	83.7	109.0	 758	OK
 144	   0	82.9	111.6	 734	OK
 145	   0	87.6	114.5	 835	OK
 146	   0	84.6	111.3	 839	OK
 147	   0	88.1	114.6	 804	OK
 148	   0	89.3	114.7	 691	OK
 149	   0	86.4	115.9	 719	OK
 150	   0	87.3	118.0	 782	OK
 151	   0	86.1	113.6	 647	OK
 152	   0	85.2	113.3	 776	OK
 153	   0	86.5	115.7	 691	OK
 154	   0	83.3	111.8	 702	OK
 155	   0	86.3	115.1	 749	OK
 156	   0	86.9	114.9	 672	OK
 157	   0	87.6	113.9	 822	OK
 158	   0	85.9	114.0	 754	OK
 159	   0	85.5	114.4	 759	OK
 160	   0	82.7	112.8	 762	OK
 161	   0	85.3	114.0	 622	OK
 162	   0	85.8	112.7	 688	OK
 163	   0	85.1	114.9	 792	OK
 164	   0	84.1	110.9	 759	OK
 165	   0	85.3	111.3	 789	OK
 166	   0	86.2	114.8	 782	OK
 167	   0	85.1	113.5	 641	OK
 168	   0	89.2	119.2	 784	OK
 169	   0	84.8	113.5	 687	OK
 170	   0	84.5	115.5	 819	OK
 171	   0	85.7	112.6	 686	OK
 172	   0	85.3	113.4	 816	OK
 173	   0	87.4	114.4	 807	OK
 174	   0	84.8	114.4	 718	OK
 175	   0	86.6	114.4	 734	OK
 176	   0	86.9	112.6	 734	OK
 177	   0	88.9	114.5	 724	OK
 178	   0	87.4	117.8	 646	OK
 179	   0	85.6	113.9	 783	OK
 180	   0	88.3	114.4	 721	OK
 181	   0	81.6	111.9	 743	OK
 182	   0	85.9	114.0	 792	OK
 183	   0	87.8	114.2	 644	OK
 184	   0	87.5	116.2	 785	OK
 185	   0	86.2	114.8	 720	OK
 186	   0	84.2	111.6	 604	OK
 187	   0	83.5	112.5	 739	OK
 188	   0	87.6	117.6	 631	OK
 189	   0	89.3	115.5	 802	OK
 190	   0	87.1	114.2	 747	OK
 191	   0	83.9	114.7	 683	OK
 192	   0	86.8	114.7	 785	OK
 193	   0	83.1	113.0	 768	OK
 194	   0	85.7	114.3	 794	OK
 195	   0	88.5	112.3	 758	OK
 196	   0	87.7	115.2	 809	OK
 197	   0	83.7	114.3	 775	OK
 198	   0	86.6	113.9	 783	OK
 199	   0	89.7	119.0	 737	OK
 200	   0	88.2	114.9	 756	OK
 201	   0	84.5	110.8	 713	OK
 202	   0	88.6	116.5	 713	OK
 203	   0	85.3	115.7	 747	OK
 204	   0	87.7	113.9	 799	OK
 205	   0	84.3	117.0	 724	OK
 206	   0	87.0	113.4	 751	OK
 207	   0	86.4	114.6	 803	OK
 208	   0	85.5	114.7	 635	OK
 209	   0	82.3	111.6	 735	OK
 210	   0	84.3	111.4	 791	OK
 211	   0	85.3	116.1	 664	OK
 212	   0	86.8	112.7	 641	OK
 213	   0	80.8	107.7	 794	OK
 214	   0	85.6	112.7	 721	OK
 215	   0	84.4	114.5	 605	OK
 216	   0	84.0	110.0	 732	OK
 217	   0	87.3	114.8	 809	OK
 218	   0	87.5	116.6	 774	OK
 219	   0	85.7	114.0	 662	OK
 220	   0	86.2	113.3	 804	OK
 221	   0	84.7	113.8	 710	OK
 222	   0	88.4	116.6	 726	OK
 223	   0	85.7	114.5	 697	OK
 224	   0	86.8	117.8	 769	OK
 225	   0	84.8	110.6	 693	OK
 226	   0	88.2	115.2	 727	OK
 227	   0	85.2	110.6	 717	OK
 228	   0	83.1	113.0	 779	OK
 229	   0	87.5	113.0	 696	OK
 230	   0	84.7	111.7	 796	OK
 231	   0	83.8	112.0	 770	OK
 232	   0	87.2	116.3	 806	OK
 233	   0	85.7	114.4	 674	OK
 234	   0	85.3	113.8	 777	OK
 235	   0	84.8	113.4	 708	OK
 236	   0	87.3	111.2	 731	OK
 237	   0	86.9	115.3	 846	OK
 238	   0	87.4	115.3	 776	OK
 239	   0	85.6	116.1	 701	OK
 240	   0	89.0	116.4	 766	OK
 241	   0	84.2	112.2	 759	OK
 242	   0	85.2	112.6	 788	OK
 243	   0	83.1	113.1	 686	OK
 244	   0	86.2	111.3	 836	OK
 245	   0	88.9	117.8	 781	OK
 246	   0	87.6	116.8	 654	OK
 247	   0	88.5	114.3	 612	OK
 248	   0	87.0	114.2	 757	OK
 249	   0	86.0	114.5	 811	OK
 250	   0	87.6	112.8	 588	OK
 251	   0	86.6	113.5	 818	OK
 252	   0	87.3	115.7	 727	OK
 253	   0	84.2	112.8	 731	OK
 254	   0	86.9	114.7	 649	OK
 255	   0	87.4	118.6	 732	OK
 256	   0	86.8	116.4	 812	OK
 257	   0	87.0	113.7	 761	OK
 258	   0	87.0	117.9	 769	OK
 259	   0	86.8	114.4	 646	OK
 260	   0	86.0	112.3	 827	OK
 261	   0	86.8	115.6	 748	OK
 262	   0	87.1	112.5	 753	OK
 263	   0	86.1	115.4	 601	OK
 264	   0	87.1	113.9	 831	OK
 265	   0	86.1	112.5	 764	OK
 266	   0	84.7	112.1	 754	OK
 267	   0	84.7	111.5	 798	OK
 268	   0	85.9	114.3	 733	OK
 269	   0	88.0	112.7	 866	OK
 270	   0	84.5	113.3	 730	OK
 271	   0	85.4	112.4	 724	OK
 272	   0	81.7	109.8	 733	OK
 273	   0	86.9	111.7	 774	OK
 274	   0	82.5	109.8	 718	OK
 275	   0	83.7	114.4	 766	OK
 276	   0	84.2	111.4	 709	OK
 277	   0	85.4	114.8	 846	OK
 278	   0	85.5	113.4	 813	OK
 279	   0	83.7	113.5	 802	OK
 280	   0	83.4	109.2	 611	OK
 281	   0	84.2	110.5	 821	OK
 282	   0	80.4	111.6	 736	OK
 283	   0	83.3	112.0	 753	OK
 284	   0	84.6	111.7	 688	OK
 285	   0	84.1	113.3	 731	OK
 286	   0	83.1	110.7	 725	OK
 287	   0	84.5	113.2	 772	OK
 288	   0	89.0	116.4	 733	OK
 289	   0	84.1	110.8	 840	OK
 290	   0	85.6	114.9	 731	OK
 291	4000	81.7	111.1	 872	high noise
 292	   0	86.4	113.5	 777	OK
 293	   0	84.2	114.7	 769	OK
 294	   0	85.3	111.6	 795	OK
 295	   0	86.4	116.1	 756	OK
 296	   0	80.4	106.3	 667	OK
 297	   0	83.6	113.2	 807	OK
 298	   0	84.2	115.6	 745	OK
 299	   0	82.7	113.4	 765	OK
 300	   0	83.6	114.4	 665	OK
 301	   0	88.2	114.3	 713	OK
 302	   0	83.2	111.2	 736	OK
 303	   0	86.9	115.0	 839	OK
 304	   0	86.4	114.3	 832	OK
 305	   0	83.0	113.2	 661	OK
 306	   0	86.4	114.4	 741	OK
 307	   0	84.1	110.9	 850	OK
 308	   0	81.1	107.5	 689	OK
 309	   0	85.0	112.7	 767	OK
 310	   0	83.9	113.7	 727	OK
 311	   0	86.1	112.9	 755	OK
 312	   0	85.0	111.8	 715	OK
 313	   0	84.3	111.1	 825	OK
 314	   0	83.2	114.5	 663	OK
 315	   0	86.6	114.1	 806	OK
 316	   0	84.9	111.9	 840	OK
 317	   0	83.3	112.6	 730	OK
 318	   0	86.8	113.7	 716	OK
 319	   0	85.6	116.5	 798	OK
 320	   0	86.7	114.4	 848	OK
 321	   0	85.5	111.8	 791	OK
 322	   0	86.1	115.0	 741	OK
 323	   0	84.5	110.7	 831	OK
 324	   0	87.9	117.3	 704	OK
 325	   0	87.4	113.0	 701	OK
 326	   0	83.7	108.4	 785	OK
 327	   0	84.1	111.5	 791	OK
 328	   0	86.7	115.4	 778	OK
 329	   0	85.5	112.3	 740	OK
 330	   0	85.9	112.7	 761	OK
 331	   0	82.9	111.6	 814	OK
 332	   0	85.4	110.7	 696	OK
 333	   0	85.6	113.5	 598	OK
 334	   0	80.8	110.2	 750	OK
 335	   0	84.8	112.1	 824	OK
 336	   0	87.5	111.5	 814	OK
 337	   0	85.0	115.6	 804	OK
 338	   0	84.5	110.9	 815	OK
 339	   0	85.4	114.7	 711	OK
 340	   0	83.7	110.0	 731	OK
 341	   0	83.4	109.2	 719	OK
 342	   0	81.4	111.3	 805	OK
 343	   0	84.4	112.6	 722	OK
 344	   0	84.1	113.5	 777	OK
 345	   0	85.3	113.7	 624	OK
 346	   0	85.3	114.4	 749	OK
 347	   0	83.4	112.9	 714	OK
 348	   0	83.5	110.0	 683	OK
 349	   0	85.0	113.9	 734	OK
 350	   0	85.3	112.7	 702	OK
 351	   0	88.8	115.3	 737	OK
 352	   0	84.9	114.3	 751	OK
 353	   0	84.4	114.1	 764	OK
 354	   0	85.9	112.2	 785	OK
 355	   0	84.2	112.7	 693	OK
 356	   0	84.0	111.3	 759	OK
 357	   0	83.0	111.2	 699	OK
 358	   0	85.7	113.8	 796	OK
 359	   0	84.2	111.0	 717	OK
 360	   0	85.6	113.9	 624	OK
 361	   0	85.4	111.3	 729	OK
 362	   0	83.8	111.6	 748	OK
 363	   0	86.4	114.2	 781	OK
 364	   0	84.5	113.0	 758	OK
 365	   0	85.7	114.5	 754	OK
 366	4000	86.0	109.3	 883	high noise
 367	   0	83.7	111.6	 654	OK
 368	   0	83.6	113.8	 801	OK
 369	   0	86.3	112.2	 687	OK
 370	   0	88.6	114.5	 693	OK
 371	   0	84.8	114.8	 801	OK
 372	   0	86.1	114.0	 802	OK
 373	   0	82.1	111.1	 776	OK
 374	   0	85.7	113.5	 762	OK
 375	   0	86.4	114.5	 778	OK
 376	   0	84.6	114.9	 748	OK
 377	   0	82.6	112.5	 787	OK
 378	   0	90.4	117.3	 827	OK
 379	   0	84.0	112.0	 682	OK
 380	   0	85.1	113.8	 703	OK
 381	   0	84.4	115.6	 775	OK
 382	   0	90.7	116.6	 694	OK
 383	   0	84.2	115.3	 796	OK
 384	   0	84.5	110.7	 864	OK
 385	   0	84.2	110.9	 834	OK
 386	   0	85.1	114.9	 807	OK
 387	   0	84.8	111.2	 788	OK
 388	   0	83.3	113.4	 654	OK
 389	   0	81.2	110.8	 732	OK
 390	   0	86.0	112.2	 840	OK
 391	   0	82.8	111.7	 740	OK
 392	   0	81.9	109.2	 740	OK
 393	   0	86.1	114.2	 807	OK
 394	   0	84.3	111.3	 802	OK
 395	   0	82.7	111.5	 657	OK
 396	   0	79.7	110.0	 790	OK
 397	   0	86.8	113.5	 655	OK
 398	   0	83.2	113.0	 768	OK
 399	   0	82.2	110.1	 720	OK
 400	   0	81.7	112.8	 818	OK
 401	   0	85.6	114.0	 634	OK
 402	   0	82.0	110.7	 783	OK
 403	   0	83.8	112.7	 786	OK
 404	   0	81.4	111.3	 767	OK
 405	   0	83.3	111.9	 741	OK
 406	   0	84.0	107.6	 688	OK
 407	   0	80.2	110.2	 762	OK
 408	   0	82.5	112.2	 691	OK
 409	   0	86.7	114.6	 805	OK
 410	   0	83.4	108.0	 823	OK
 411	   0	83.9	112.1	 671	OK
 412	   0	82.1	108.7	 790	OK
 413	   0	80.9	109.4	 739	OK
 414	   0	81.5	111.9	 739	OK
 415	   0	82.0	110.2	 772	OK
 416	   0	81.2	109.9	 819	OK
 417	   0	81.0	110.0	 781	OK
 418	   0	80.0	110.3	 799	OK
 419	   0	86.5	115.1	 865	OK
 420	   0	82.4	111.5	 714	OK
 421	   0	82.6	110.6	 756	OK
 422	   0	83.1	110.1	 720	OK
 423	   0	80.8	109.8	 810	OK
 424	   0	85.6	111.6	 758	OK
 425	   0	79.1	106.9	 787	OK
 426	   0	83.6	111.6	 860	OK
 427	   0	80.6	111.3	 763	OK
 428	   0	81.8	111.6	 770	OK
 429	   0	84.6	113.8	 728	OK
 430	   0	82.2	110.2	 691	OK
 431	   0	84.8	113.1	 741	OK
 432	   0	80.8	110.7	 808	OK
 433	   0	84.8	114.6	 763	OK
 434	   0	83.8	115.4	 784	OK
 435	   0	82.7	110.2	 769	OK
 436	   0	80.8	110.6	 782	OK
 437	   0	82.6	112.2	 802	OK
 438	   0	85.9	114.0	 763	OK
 439	   0	82.2	110.2	 827	OK
 440	   0	86.2	114.1	 800	OK
 441	   0	80.5	111.8	 842	OK
 442	   0	83.6	110.7	 770	OK
 443	   0	81.9	111.3	 794	OK
 444	   0	84.7	111.6	 760	OK
 445	   0	84.4	114.0	 729	OK
 446	   0	81.7	109.3	 847	OK
 447	   0	82.8	113.2	 870	OK
 448	   0	82.6	110.0	 735	OK
 449	   0	82.9	110.7	 821	OK
 450	   0	83.7	113.1	 743	OK
 451	   0	80.7	110.2	 723	OK
 452	   0	87.4	113.4	 748	OK
 453	   0	80.9	111.8	 698	OK
 454	   0	83.7	113.3	 768	OK
 455	   0	81.9	108.1	 740	OK
 456	   0	82.2	110.4	 861	OK
 457	   0	82.0	111.1	 750	OK
 458	   0	83.4	114.0	 619	OK
 459	   0	79.0	109.3	 807	OK
 460	   0	84.9	115.4	 811	OK
 461	   0	80.6	110.4	 738	OK
 462	   0	81.3	111.6	 808	OK
 463	   0	82.4	112.5	 810	OK
 464	   0	82.6	110.1	 824	OK
 465	   0	83.7	110.0	 674	OK
 466	   0	81.1	108.5	 860	OK
 467	   0	84.4	112.7	 771	OK
 468	   0	79.8	113.1	 709	OK
 469	   0	81.3	111.6	 834	OK
 470	   0	84.0	111.4	 881	OK
 471	   0	79.6	111.0	 754	OK
 472	   0	82.1	110.1	 837	OK
 473	   0	80.4	109.9	 776	OK
 474	   0	79.7	110.3	 615	OK
 475	   0	81.3	111.6	 709	OK
 476	   0	80.7	111.0	 793	OK
 477	   0	80.2	110.2	 720	OK
 478	   0	79.6	108.8	 825	OK
 479	   0	81.0	111.4	 736	OK
 480	4000	82.9	110.4	 902	high noise
 481	   0	82.4	111.8	 781	OK
 482	   0	81.4	111.5	 653	OK
 483	   0	82.1	111.6	 731	OK
 484	   0	86.0	114.9	 796	OK
 485	   0	83.4	110.6	 845	OK
 486	   0	83.8	112.4	 717	OK
 487	   0	82.7	113.2	 668	OK
 488	   0	84.4	111.3	 747	OK
 489	   0	82.4	111.2	 674	OK
 490	   0	83.1	111.1	 761	OK
 491	   0	83.3	110.2	 727	OK
 492	   0	81.1	112.7	 785	OK
 493	   0	85.0	111.0	 862	OK
 494	   0	83.1	110.8	 716	OK
 495	   0	81.7	111.7	 744	OK
 496	   0	86.2	116.1	 765	OK
 497	   0	83.2	111.3	 753	OK
 498	   0	84.5	110.9	 707	OK
 499	   0	82.6	110.9	 756	OK
 500	   0	83.9	109.6	 689	OK
 501	   0	86.3	113.7	 874	OK
 502	   0	82.5	112.3	 713	OK
 503	   0	79.4	110.9	 782	OK
 504	   0	84.4	111.9	 747	OK
 505	   0	82.2	114.8	 817	OK
 506	   0	83.3	113.7	 744	OK
 507	   0	83.9	114.2	 775	OK
 508	   0	83.9	113.2	 743	OK
 509	   0	80.9	110.5	 860	OK
 510	   0	84.0	114.5	 762	OK
 511	   0	83.5	111.2	 721	OK
 512	   0	88.2	113.3	 693	OK
 513	   0	88.7	116.9	 783	OK
 514	   0	87.5	116.6	 802	OK
 515	4000	85.7	114.7	 871	high noise
 516	   0	88.7	115.8	 687	OK
 517	   0	87.3	117.8	 713	OK
 518	   0	84.1	115.4	 683	OK
 519	   0	87.1	113.1	 807	OK
 520	   0	87.2	117.3	 796	OK
 521	   0	87.5	114.9	 687	OK
 522	   0	87.8	112.0	 703	OK
 523	   0	83.9	112.2	 829	OK
 524	   0	86.6	116.2	 688	OK
 525	   0	87.4	118.6	 764	OK
 526	   0	88.8	118.7	 707	OK
 527	4000	84.5	111.3	 863	high noise
 528	   0	86.9	116.1	 745	OK
 529	   0	85.0	112.7	 691	OK
 530	   0	85.4	116.3	 772	OK
 531	   0	87.1	115.5	 703	OK
 532	   0	87.4	118.7	 748	OK
 533	   0	86.9	115.9	 795	OK
 534	   0	86.8	117.0	 842	OK
 535	   0	88.6	115.4	 698	OK
 536	   0	88.4	117.8	 823	OK
 537	   0	87.6	116.8	 717	OK
 538	   0	82.7	112.8	 781	OK
 539	   0	86.1	111.8	 639	OK
 540	   0	86.0	116.9	 801	OK
 541	   0	85.6	116.5	 732	OK
 542	   0	86.8	118.0	 745	OK
 543	   0	88.6	113.3	 669	OK
 544	   0	88.6	117.0	 689	OK
 545	   0	86.9	116.1	 714	OK
 546	   0	87.5	116.1	 711	OK
 547	   0	84.5	111.6	 790	OK
 548	4000	87.8	117.1	 908	high noise
 549	   0	87.1	114.8	 776	OK
 550	   0	84.3	116.0	 803	OK
 551	   0	86.1	114.0	 818	OK
 552	   0	85.0	113.9	 681	OK
 553	   0	85.6	113.5	 790	OK
 554	   0	85.9	117.4	 675	OK
 555	   0	82.8	110.8	 799	OK
 556	   0	87.0	114.9	 654	OK
 557	   0	86.1	118.2	 744	OK
 558	   0	87.8	116.4	 741	OK
 559	   0	87.7	117.1	 717	OK
 560	   0	83.6	114.2	 727	OK
 561	   0	85.9	115.6	 745	OK
 562	   0	87.7	117.2	 658	OK
 563	   0	87.5	116.7	 810	OK
 564	   0	83.1	110.0	 732	OK
 565	   0	89.0	114.7	 704	OK
 566	   0	88.7	118.5	 664	OK
 567	   0	84.6	115.9	 805	OK
 568	   0	84.4	112.5	 707	OK
 569	   0	86.1	115.5	 740	OK
 570	   0	87.9	116.2	 692	OK
 571	   0	86.8	115.4	 759	OK
 572	   0	83.4	113.2	 664	OK
 573	   0	85.9	114.8	 683	OK
 574	   0	89.3	119.8	 765	OK
 575	   0	88.0	116.8	 821	OK
 576	   0	86.1	114.6	 738	OK
 577	   0	85.3	115.9	 684	OK
 578	   0	86.6	115.2	 740	OK
 579	   0	84.0	112.0	 784	OK
 580	   0	86.2	113.5	 717	OK
 581	   0	87.0	115.5	 722	OK
 582	   0	86.7	115.8	 702	OK
 583	   0	85.9	115.2	 813	OK
 584	   0	87.8	118.5	 708	OK
 585	   0	85.3	113.8	 687	OK
 586	   0	87.0	113.8	 725	OK
 587	   0	85.1	113.6	 754	OK
 588	   0	84.0	114.3	 728	OK
 589	   0	89.4	118.0	 656	OK
 590	   0	81.6	111.4	 815	OK
 591	   0	87.4	119.0	 756	OK
 592	   0	86.0	115.6	 753	OK
 593	   0	83.9	113.0	 805	OK
 594	   0	80.8	113.6	 817	OK
 595	   0	87.2	114.5	 719	OK
 596	   0	87.6	116.9	 801	OK
 597	   0	83.8	113.7	 681	OK
 598	   0	86.8	113.8	 753	OK
 599	   0	84.9	117.9	 721	OK
 600	   0	85.7	115.6	 697	OK
 601	   0	84.8	112.4	 819	OK
 602	4000	83.7	113.2	 883	high noise
 603	   0	85.5	117.5	 791	OK
 604	   0	87.3	117.7	 710	OK
 605	   0	89.5	117.0	 652	OK
 606	   0	84.4	114.9	 740	OK
 607	   0	88.2	116.5	 655	OK
 608	   0	84.9	116.4	 802	OK
 609	   0	82.9	113.0	 713	OK
 610	   0	85.6	112.6	 697	OK
 611	   0	89.3	119.7	 769	OK
 612	   0	90.1	117.1	 684	OK
 613	   0	84.4	115.5	 754	OK
 614	   0	84.8	116.0	 766	OK
 615	   0	82.8	113.3	 815	OK
 616	   0	87.9	115.7	 774	OK
 617	   0	84.8	114.3	 813	OK
 618	   0	85.3	114.2	 817	OK
 619	   0	89.1	116.7	 788	OK
 620	   0	85.4	115.5	 669	OK
 621	4000	85.2	116.9	 870	high noise
 622	   0	85.4	113.3	 724	OK
 623	4000	83.5	111.6	 883	high noise
 624	   0	84.0	114.1	 784	OK
 625	   0	86.9	113.8	 755	OK
 626	   0	84.9	113.0	 759	OK
 627	   0	83.7	115.6	 768	OK
 628	   0	87.8	117.4	 684	OK
 629	   0	87.0	118.0	 748	OK
 630	   0	85.5	115.4	 783	OK
 631	   0	85.5	118.0	 858	OK
 632	   0	85.5	111.8	 726	OK
 633	   0	83.6	116.7	 774	OK
 634	   0	87.7	117.3	 726	OK
 635	   0	84.6	115.4	 731	OK
 636	   0	88.2	118.1	 702	OK
 637	   0	84.3	114.9	 839	OK
 638	   0	88.6	118.1	 722	OK
 639	   0	85.3	114.3	 805	OK
 640	   0	87.7	114.7	 790	OK
 641	   0	85.7	116.0	 814	OK
 642	   0	87.5	117.5	 661	OK
 643	   0	82.2	111.0	 778	OK
 644	   0	86.4	116.5	 830	OK
 645	   0	87.2	114.5	 761	OK
 646	   0	84.2	112.0	 738	OK
 647	   0	85.0	113.7	 679	OK
 648	   0	83.8	114.7	 769	OK
 649	   0	84.6	112.6	 799	OK
 650	   0	85.1	117.0	 745	OK
 651	   0	85.0	114.6	 785	OK
 652	   0	85.0	114.4	 708	OK
 653	   0	84.5	112.9	 759	OK
 654	   0	86.4	113.1	 799	OK
 655	   0	82.5	112.8	 819	OK
 656	   0	84.5	109.6	 787	OK
 657	   0	84.0	114.1	 744	OK
 658	   0	82.3	111.1	 832	OK
 659	   0	83.1	111.2	 744	OK
 660	   0	82.7	113.5	 827	OK
 661	   0	84.1	114.2	 853	OK
 662	   0	81.8	110.7	 712	OK
 663	   0	84.0	111.8	 757	OK
 664	   0	81.5	114.6	 762	OK
 665	   0	86.1	111.5	 635	OK
 666	   0	83.0	116.7	 808	OK
 667	   0	83.9	111.0	 682	OK
 668	   0	82.4	111.1	 785	OK
 669	   0	83.6	112.8	 845	OK
 670	   0	83.6	110.3	 841	OK
 671	   0	85.2	113.0	 756	OK
 672	   0	84.7	113.7	 766	OK
 673	   0	85.0	112.4	 787	OK
 674	   0	83.7	116.0	 773	OK
 675	4000	83.4	112.7	 930	high noise
 676	   0	84.0	112.2	 761	OK
 677	   0	80.1	112.4	 771	OK
 678	   0	82.1	109.3	 769	OK
 679	   0	82.0	112.7	 743	OK
 680	   0	82.9	112.3	 720	OK
 681	   0	84.4	111.7	 681	OK
 682	   0	83.6	113.9	 847	OK
 683	   0	80.3	111.1	 813	OK
 684	   0	82.7	111.0	 703	OK
 685	   0	82.7	110.1	 836	OK
 686	   0	83.0	110.3	 823	OK
 687	   0	83.1	113.7	 765	OK
 688	   0	84.3	112.7	 852	OK
 689	   0	81.8	110.3	 713	OK
 690	   0	84.6	112.3	 839	OK
 691	   0	86.1	113.1	 848	OK
 692	   0	81.3	111.5	 783	OK
 693	   0	81.9	110.2	 833	OK
 694	   0	82.3	113.5	 633	OK
 695	   0	83.8	108.8	 825	OK
 696	   0	84.3	113.5	 771	OK
 697	   0	81.4	112.8	 814	OK
 698	   0	85.4	115.3	 702	OK
 699	   0	84.7	114.3	 768	OK
 700	   0	85.9	114.4	 746	OK
 701	   0	81.7	114.7	 785	OK
 702	   0	85.9	114.9	 696	OK
 703	   0	85.5	115.0	 805	OK
 704	   0	84.9	115.8	 766	OK
 705	   0	87.2	113.4	 735	OK
 706	   0	82.7	112.4	 756	OK
 707	   0	85.2	112.9	 823	OK
 708	   0	83.0	111.2	 750	OK
 709	   0	84.3	114.3	 777	OK
 710	   0	79.4	108.5	 845	OK
 711	   0	81.1	110.8	 776	OK
 712	   0	84.8	113.5	 730	OK
 713	   0	84.7	111.5	 810	OK
 714	   0	83.9	112.4	 852	OK
 715	   0	81.7	109.5	 742	OK
 716	   0	83.3	110.9	 810	OK
 717	   0	87.4	113.3	 739	OK
 718	   0	80.6	107.6	 882	OK
 719	   0	82.8	111.6	 842	OK
 720	   0	82.5	111.2	 818	OK
 721	   0	80.7	110.7	 868	OK
 722	   0	80.0	108.7	 777	OK
 723	   0	83.3	115.3	 747	OK
 724	   0	85.4	113.8	 833	OK
 725	   0	80.7	111.9	 766	OK
 726	   0	82.3	110.0	 910	OK
 727	4000	80.6	110.1	 925	high noise
 728	   0	83.7	111.9	 858	OK
 729	   0	84.2	113.7	 770	OK
 730	   0	83.3	112.6	 767	OK
 731	   0	80.6	110.6	 852	OK
 732	   0	82.3	111.2	 852	OK
 733	   0	81.7	110.9	 793	OK
 734	   0	84.4	112.1	 781	OK
 735	   0	83.8	115.9	 836	OK
 736	   0	82.2	108.1	 890	OK
 737	   0	84.0	114.9	 710	OK
 738	   0	79.8	110.3	 788	OK
 739	4000	85.0	113.2	 944	high noise
 740	   0	83.2	111.0	 827	OK
 741	   0	83.9	111.4	 824	OK
 742	   0	82.0	112.9	 795	OK
 743	   0	79.8	112.2	 848	OK
 744	   0	81.2	107.5	 852	OK
 745	   0	82.6	110.3	 716	OK
 746	   0	80.1	112.6	 780	OK
 747	   0	84.2	112.0	 753	OK
 748	   0	80.2	110.5	 783	OK
 749	   0	82.5	112.4	 778	OK
 750	4000	82.3	112.8	 994	high noise
 751	   0	80.7	110.1	 772	OK
 752	   0	85.5	109.5	 832	OK
 753	   0	84.1	112.3	 875	OK
 754	4000	82.6	109.1	 936	high noise
 755	   0	82.3	112.2	 873	OK
 756	   0	82.0	114.3	 888	OK
 757	   0	84.9	112.8	 871	OK
 758	4000	83.4	112.2	1008	high noise
 759	   0	81.4	113.7	 902	OK
 760	   0	85.2	113.1	 838	OK
 761	   0	85.7	112.8	 868	OK
 762	   0	84.1	113.8	 859	OK
 763	   0	84.3	113.1	 785	OK
 764	   0	83.5	113.5	 870	OK
 765	   0	84.5	113.0	 853	OK
 766	   0	86.0	113.9	 892	OK
 767	   0	80.7	113.0	 896	OK
 768	   0	88.6	117.9	 827	OK
 769	   0	86.0	115.3	 884	OK
 770	4000	85.1	114.9	1029	high noise
 771	   0	85.0	115.1	 828	OK
 772	   0	88.2	117.9	 564	OK
 773	   0	84.4	113.1	 790	OK
 774	4000	83.6	114.5	 974	high noise
 775	   0	86.8	113.3	 676	OK
 776	   0	84.2	111.2	 787	OK
 777	   0	84.8	114.7	 683	OK
 778	   0	84.4	116.9	 803	OK
 779	   0	83.4	113.4	 855	OK
 780	   0	82.6	112.5	 868	OK
 781	   0	82.8	115.4	 849	OK
 782	   0	87.6	115.0	 858	OK
 783	   0	84.1	111.6	 843	OK
 784	   0	82.2	111.5	 805	OK
 785	   0	85.8	114.6	 802	OK
 786	   0	85.5	115.7	 682	OK
 787	   0	84.9	113.6	 846	OK
 788	   0	85.1	111.8	 784	OK
 789	   0	80.8	110.3	 896	OK
 790	   0	87.1	115.8	 700	OK
 791	   0	83.3	115.0	 865	OK
 792	   0	83.7	113.0	 789	OK
 793	   0	85.1	112.2	 763	OK
 794	   0	86.1	115.6	 908	OK
 795	   0	82.7	116.7	 711	OK
 796	   0	86.0	110.0	 926	OK
 797	   0	86.8	117.3	 773	OK
 798	   0	85.4	113.3	 781	OK
 799	   0	83.1	109.4	 900	OK
 800	   0	85.9	113.4	 777	OK
 801	   0	81.7	110.4	 912	OK
 802	   0	85.4	110.5	 633	OK
 803	   0	85.3	116.1	 784	OK
 804	   0	86.6	115.8	 834	OK
 805	   0	84.3	113.6	 858	OK
 806	   0	85.5	117.2	 847	OK
 807	   0	83.9	114.8	 772	OK
 808	   0	85.0	111.4	 884	OK
 809	   0	85.2	114.5	 896	OK
 810	   0	87.9	115.6	 810	OK
 811	   0	86.5	113.6	 847	OK
 812	   0	84.3	116.1	 730	OK
 813	   0	84.5	115.1	 878	OK
 814	   0	83.5	113.5	 871	OK
 815	   0	86.0	114.1	 780	OK
 816	   0	84.7	114.7	 788	OK
 817	   0	87.0	116.4	 795	OK
 818	   0	84.6	112.8	 840	OK
 819	   0	84.5	113.0	 852	OK
 820	   0	84.5	114.4	 898	OK
 821	   0	83.5	114.1	 683	OK
 822	   0	85.1	115.4	 823	OK
 823	   0	85.7	115.4	 864	OK
 824	   0	85.8	114.8	 692	OK
 825	   0	85.1	115.7	 889	OK
 826	   0	85.5	112.9	 838	OK
 827	   0	82.6	115.3	 820	OK
 828	   0	84.8	115.5	 944	OK
 829	   0	85.9	114.4	 731	OK
 830	   0	84.4	112.4	 750	OK
 831	   0	85.7	114.8	 748	OK
 832	   0	84.1	113.9	 712	OK
 833	   0	83.8	111.2	 793	OK
 834	   0	88.4	119.0	 774	OK
 835	   0	86.9	114.1	 799	OK
 836	   0	81.6	114.0	 869	OK
 837	   0	86.3	112.6	 685	OK
 838	   0	84.1	115.8	 871	OK
 839	   0	83.3	110.5	 749	OK
 840	   0	83.1	114.3	 855	OK
 841	   0	82.6	113.3	 762	OK
 842	   0	85.2	116.5	 872	OK
 843	   0	85.2	114.0	 733	OK
 844	   0	85.9	112.9	 893	OK
 845	   0	83.6	113.4	 816	OK
 846	   0	85.8	114.3	 837	OK
 847	   0	83.0	113.4	 811	OK
 848	   0	84.1	114.0	 784	OK
 849	   0	82.5	112.9	 865	OK
 850	   0	83.1	116.6	 903	OK
 851	   0	80.4	109.0	 724	OK
 852	   0	83.1	113.1	 775	OK
 853	   0	84.5	115.8	 791	OK
 854	   0	84.1	112.4	 790	OK
 855	   0	82.9	111.3	 800	OK
 856	   0	85.2	115.6	 809	OK
 857	   0	83.2	112.3	 715	OK
 858	   0	86.5	116.5	 906	OK
 859	   0	86.2	114.9	 706	OK
 860	   0	85.4	116.0	 946	OK
 861	   0	86.7	115.7	 787	OK
 862	   0	82.9	112.0	 693	OK
 863	   0	84.0	112.6	 876	OK
 864	   0	84.5	114.6	 802	OK
 865	4000	85.6	115.2	1004	high noise
 866	   0	84.0	116.1	 837	OK
 867	   0	84.7	112.8	 785	OK
 868	   0	82.0	111.2	 846	OK
 869	   0	82.2	111.2	 901	OK
 870	   0	86.0	115.3	 942	OK
 871	   0	85.2	111.4	 707	OK
 872	   0	83.8	114.1	 770	OK
 873	   0	85.8	112.8	 856	OK
 874	   0	87.5	114.1	 845	OK
 875	   0	84.8	115.9	 840	OK
 876	   0	84.0	114.2	 854	OK
 877	   0	85.9	115.4	 830	OK
 878	   0	84.2	114.5	 796	OK
 879	   0	83.3	113.7	 930	OK
 880	   0	88.8	113.7	 868	OK
 881	   0	84.8	118.8	 766	OK
 882	   0	81.2	113.3	 925	OK
 883	   0	86.6	116.6	 803	OK
 884	   0	82.9	115.9	 798	OK
 885	   0	87.2	116.2	 864	OK
 886	   0	83.9	117.8	 827	OK
 887	   0	86.3	115.7	 915	OK
 888	   0	85.8	114.9	 869	OK
 889	   0	85.5	112.9	 892	OK
 890	4000	82.5	113.2	 992	high noise
 891	4000	83.4	112.4	 980	high noise
 892	4000	84.9	114.0	1035	high noise
 893	   0	90.2	116.9	 883	OK
 894	   0	86.1	111.4	 907	OK
 895	4000	85.7	116.8	1018	high noise
 896	   0	85.3	114.5	 880	OK
 897	4000	82.0	108.7	 988	high noise
 898	4000	84.7	111.7	 934	high noise
 899	4000	81.7	113.8	 925	high noise
 900	4000	84.3	115.8	 958	high noise
 901	4000	84.5	111.5	 986	high noise
 902	4000	80.7	110.9	1026	high noise
 903	   0	83.7	111.9	 713	OK
 904	   0	83.2	113.7	 881	OK
 905	4000	82.2	109.2	1100	high noise
 906	4000	81.9	110.7	 950	high noise
 907	   0	84.7	109.6	 914	OK
 908	   0	83.5	113.6	 880	OK
 909	   0	81.8	110.9	 902	OK
 910	   0	83.6	107.8	 909	OK
 911	   0	81.7	112.7	 829	OK
 912	   0	86.9	111.8	 744	OK
 913	   0	83.8	111.0	 882	OK
 914	   0	87.4	119.6	 725	OK
 915	   0	81.3	107.6	 863	OK
 916	   0	86.3	110.6	 878	OK
 917	   0	83.7	109.5	 762	OK
 918	   0	82.2	111.8	 786	OK
 919	   0	83.5	110.3	 751	OK
 920	   0	82.9	110.6	 748	OK
 921	   0	80.3	111.5	 885	OK
 922	   0	82.3	111.8	 764	OK
 923	   0	82.4	111.1	 870	OK
 924	   0	82.1	107.2	 756	OK
 925	   0	81.2	109.5	 793	OK
 926	   0	83.4	112.0	 863	OK
 927	   0	84.0	113.3	 784	OK
 928	   0	83.6	111.2	 854	OK
 929	   0	83.9	111.7	 715	OK
 930	   0	85.9	112.7	 775	OK
 931	   0	85.4	112.8	 709	OK
 932	   0	81.6	113.7	 903	OK
 933	   0	83.0	110.5	 793	OK
 934	   0	82.6	112.2	 897	OK
 935	   0	80.6	112.5	 830	OK
 936	   0	84.1	111.7	 832	OK
 937	   0	82.1	110.5	 774	OK
 938	   0	84.8	111.5	 771	OK
 939	   0	82.4	108.8	 700	OK
 940	   0	81.9	110.9	 830	OK
 941	   0	83.5	109.2	 823	OK
 942	   0	83.1	111.2	 749	OK
 943	   0	83.7	110.8	 768	OK
 944	   0	82.6	111.6	 735	OK
 945	   0	84.0	114.2	 778	OK
 946	   0	81.9	112.3	 803	OK
 947	4000	83.2	113.5	 930	high noise
 948	   0	83.9	112.8	 674	OK
 949	   0	81.0	112.6	 811	OK
 950	   0	83.2	109.7	 802	OK
 951	   0	83.8	111.1	 689	OK
 952	   0	82.6	109.9	 883	OK
 953	   0	87.8	114.2	 746	OK
 954	   0	84.5	111.5	 821	OK
 955	   0	79.7	110.5	 765	OK
 956	   0	86.0	114.8	 822	OK
 957	   0	82.9	109.8	 638	OK
 958	   0	86.1	115.4	 706	OK
 959	   0	86.5	113.8	 736	OK
 960	   0	83.2	111.9	 761	OK
 961	   0	82.9	112.5	 806	OK
 962	   0	83.8	113.9	 769	OK
 963	   0	87.0	113.8	 769	OK
 964	   0	85.1	112.5	 832	OK
 965	   0	81.1	110.7	 797	OK
 966	   0	82.6	111.4	 798	OK
 967	   0	82.5	107.9	 713	OK
 968	   0	82.4	112.7	 708	OK
 969	   0	86.2	113.6	 713	OK
 970	   0	85.0	113.7	 801	OK
 971	   0	82.4	109.3	 648	OK
 972	   0	81.2	110.8	 836	OK
 973	   0	81.9	110.9	 739	OK
 974	   0	84.2	111.2	 667	OK
 975	   0	81.4	108.7	 732	OK
 976	   0	81.6	107.4	 723	OK
 977	   0	81.4	109.8	 741	OK
 978	   0	80.9	111.4	 773	OK
 979	   0	84.5	113.9	 750	OK
 980	   0	82.4	110.5	 865	OK
 981	   0	82.0	109.3	 791	OK
 982	   0	83.5	111.8	 708	OK
 983	4000	82.2	108.9	 951	high noise
 984	   0	81.6	109.4	 841	OK
 985	   0	82.9	111.8	 798	OK
 986	   0	81.6	110.9	 799	OK
 987	   0	81.1	111.3	 821	OK
 988	   0	83.4	109.4	 816	OK
 989	   0	80.9	110.4	 688	OK
 990	   0	83.3	113.2	 815	OK
 991	   0	84.5	115.1	 773	OK
 992	   0	82.7	109.4	 856	OK
 993	   0	83.2	111.3	 628	OK
 994	4000	84.3	113.1	 931	high noise
 995	   0	84.2	114.4	 787	OK
 996	   0	81.2	109.5	 785	OK
 997	   0	83.0	111.5	 827	OK
 998	   0	81.5	108.9	 800	OK
 999	   0	83.3	111.4	 794	OK
1000	   0	81.0	110.0	 745	OK
1001	   0	84.0	108.4	 776	OK
1002	   0	81.2	110.6	 840	OK
1003	   0	79.0	106.0	 809	OK
1004	   0	85.1	111.5	 819	OK
1005	   0	83.6	111.9	 734	OK
1006	   0	77.9	107.3	 690	OK
1007	   0	85.9	111.2	 782	OK
1008	   0	80.2	111.9	 907	OK
1009	   0	83.7	113.1	 695	OK
1010	   0	82.8	109.3	 848	OK
1011	   0	83.9	109.9	 694	OK
1012	   0	82.0	110.0	 864	OK
1013	   0	79.9	110.4	 867	OK
1014	   0	84.9	112.3	 629	OK
1015	   0	84.0	111.8	 878	OK
1016	   0	86.8	112.6	 603	OK
1017	   0	84.4	111.8	 742	OK
1018	   0	79.9	109.7	 894	OK
1019	   0	82.2	109.9	 815	OK
1020	   0	86.5	118.0	 828	OK
1021	   0	82.8	110.4	 774	OK
1022	   0	84.4	110.6	 668	OK
1023	   0	84.8	112.3	 799	OK
1024	   0	86.5	113.6	 762	OK
1025	   0	84.2	114.4	 817	OK
1026	   0	86.4	112.3	 756	OK
1027	   0	84.3	111.9	 701	OK
1028	   0	82.6	111.9	 829	OK
1029	   0	80.7	110.2	 809	OK
1030	   0	83.1	109.0	 796	OK
1031	   0	83.0	109.2	 732	OK
1032	   0	81.3	112.7	 773	OK
1033	4000	86.4	112.4	 895	high noise
1034	   0	84.0	112.8	 755	OK
1035	   0	84.5	111.8	 738	OK
1036	   0	85.1	115.3	 780	OK
1037	   0	81.0	112.1	 704	OK
1038	   0	82.3	110.5	 776	OK
1039	   0	80.9	113.2	 689	OK
1040	   0	82.0	109.5	 716	OK
1041	   0	82.6	112.1	 759	OK
1042	   0	84.7	112.5	 743	OK
1043	   0	81.4	108.2	 671	OK
1044	   0	81.9	112.0	 821	OK
1045	   0	80.6	110.6	 714	OK
1046	   0	82.6	109.1	 800	OK
1047	   0	84.1	113.5	 757	OK
1048	   0	80.0	109.4	 775	OK
1049	   0	83.3	112.7	 622	OK
1050	   0	80.1	109.0	 771	OK
1051	   0	81.8	114.3	 810	OK
1052	   0	82.4	111.8	 836	OK
1053	4000	79.7	113.9	 904	high noise
1054	   0	82.7	112.4	 753	OK
1055	   0	81.4	112.1	 676	OK
1056	   0	82.1	114.5	 764	OK
1057	   0	79.1	110.5	 816	OK
1058	   0	80.9	109.8	 854	OK
1059	   0	81.2	111.8	 817	OK
1060	   0	85.0	112.9	 752	OK
1061	   0	81.2	111.9	 731	OK
1062	   0	83.8	110.9	 636	OK
1063	   0	81.1	109.7	 796	OK
1064	   0	81.8	110.4	 775	OK
1065	   0	82.6	113.7	 861	OK
1066	   0	83.2	110.3	 783	OK
1067	4000	78.1	109.4	 994	high noise
1068	   0	82.2	112.7	 840	OK
1069	   0	79.7	108.1	 782	OK
1070	   0	83.4	113.3	 752	OK
1071	   0	82.4	110.3	 763	OK
1072	   0	82.4	111.1	 745	OK
1073	   0	81.0	112.0	 805	OK
1074	   0	81.7	107.1	 713	OK
1075	   0	84.0	112.0	 677	OK
1076	   0	81.5	111.6	 705	OK
1077	   0	83.0	113.2	 845	OK
1078	   0	80.9	111.4	 673	OK
1079	   0	83.9	114.8	 748	OK
1080	   0	81.6	108.7	 686	OK
1081	   0	82.9	112.4	 759	OK
1082	   0	83.0	114.0	 737	OK
1083	   0	82.1	112.3	 821	OK
1084	   0	84.9	110.0	 573	OK
1085	   0	81.8	111.8	 752	OK
1086	   0	84.8	114.0	 766	OK
1087	   0	82.5	111.2	 746	OK
1088	   0	82.1	113.3	 675	OK
1089	4000	78.2	110.3	 951	high noise
1090	   0	81.0	111.9	 713	OK
1091	   0	80.5	110.9	 771	OK
1092	   0	79.9	109.4	 686	OK
1093	   0	80.7	108.3	 833	OK
1094	   0	83.1	113.0	 730	OK
1095	   0	81.4	112.3	 840	OK
1096	   0	80.7	112.3	 800	OK
1097	   0	83.8	115.1	 677	OK
1098	   0	81.9	109.5	 766	OK
1099	   0	80.5	109.9	 819	OK
1100	   0	83.2	111.2	 778	OK
1101	   0	79.9	110.5	 656	OK
1102	   0	83.1	112.7	 758	OK
1103	   0	82.8	115.6	 778	OK
1104	   0	81.0	111.6	 772	OK
1105	   0	80.1	113.1	 688	OK
1106	   0	81.5	109.2	 867	OK
1107	   0	82.2	111.6	 774	OK
1108	   0	83.4	112.8	 864	OK
1109	   0	86.3	113.0	 676	OK
1110	   0	81.4	112.2	 825	OK
1111	   0	81.1	110.9	 724	OK
1112	   0	83.0	116.5	 696	OK
1113	   0	82.4	114.3	 740	OK
1114	   0	83.5	113.6	 712	OK
1115	   0	81.3	111.8	 654	OK
1116	   0	78.6	110.2	 776	OK
1117	   0	82.1	107.3	 629	OK
1118	   0	82.2	108.3	 865	OK
1119	   0	82.4	113.2	 776	OK
1120	   0	83.4	112.6	 747	OK
1121	   0	82.5	114.3	 791	OK
1122	   0	82.2	112.4	 711	OK
1123	   0	83.9	112.8	 789	OK
1124	   0	86.4	114.0	 705	OK
1125	   0	82.7	108.7	 762	OK
1126	   0	80.0	110.6	 794	OK
1127	   0	82.6	113.1	 735	OK
1128	   0	82.3	109.6	 679	OK
1129	   0	80.1	108.5	 776	OK
1130	   0	80.6	109.1	 608	OK
1131	   0	82.8	112.9	 822	OK
1132	   0	83.0	112.7	 763	OK
1133	   0	80.9	110.0	 759	OK
1134	   0	79.9	109.1	 632	OK
1135	   0	80.4	109.2	 862	OK
1136	   0	80.1	108.2	 666	OK
1137	   0	79.5	110.2	 734	OK
1138	   0	81.5	111.0	 686	OK
1139	   0	81.6	111.7	 813	OK
1140	   0	82.8	112.5	 842	OK
1141	   0	82.7	111.0	 675	OK
1142	   0	83.1	113.6	 848	OK
1143	   0	81.5	112.7	 800	OK
1144	   0	80.7	109.8	 826	OK
1145	   0	81.5	111.1	 825	OK
1146	   0	82.7	111.2	 715	OK
1147	   0	80.4	110.1	 773	OK
1148	   0	85.1	110.9	 757	OK
1149	   0	80.6	110.2	 847	OK
1150	   0	86.3	113.4	 611	OK
1151	   0	83.2	109.1	 806	OK
1152	   0	88.3	115.6	 820	OK
1153	   0	88.6	116.1	 849	OK
1154	   0	85.5	112.0	 739	OK
1155	   0	85.7	114.3	 783	OK
1156	   0	88.1	114.8	 680	OK
1157	   0	84.0	116.6	 712	OK
1158	   0	89.1	113.6	 803	OK
1159	   0	86.2	118.2	 827	OK
1160	   0	88.5	117.5	 698	OK
1161	   0	90.4	116.5	 800	OK
1162	   0	87.2	118.6	 769	OK
1163	   0	88.8	116.7	 738	OK
1164	   0	84.0	113.9	 798	OK
1165	   0	86.6	117.1	 706	OK
1166	   0	84.2	114.4	 760	OK
1167	   0	88.2	116.2	 709	OK
1168	   0	88.7	115.6	 820	OK
1169	   0	84.3	114.2	 691	OK
1170	4000	86.3	115.2	 877	high noise
1171	   0	87.1	114.5	 699	OK
1172	   0	86.9	117.4	 813	OK
1173	   0	83.8	112.4	 733	OK
1174	   0	84.8	112.1	 781	OK
1175	   0	89.3	116.7	 713	OK
1176	   0	86.0	114.2	 720	OK
1177	   0	81.8	111.8	 844	OK
1178	   0	87.1	113.3	 783	OK
1179	   0	88.1	116.4	 647	OK
1180	4000	84.9	113.0	 881	high noise
1181	   0	85.8	115.5	 777	OK
1182	   0	86.3	114.2	 708	OK
1183	   0	86.2	118.3	 845	OK
1184	   0	86.6	114.9	 728	OK
1185	   0	84.0	114.4	 764	OK
1186	   0	89.5	115.1	 662	OK
1187	4000	84.1	114.9	 885	high noise
1188	   0	87.3	118.0	 782	OK
1189	   0	88.0	117.1	 752	OK
1190	   0	88.2	115.3	 811	OK
1191	   0	87.2	114.1	 834	OK
1192	   0	83.0	111.8	 783	OK
1193	   0	86.6	113.8	 726	OK
1194	   0	87.4	115.3	 733	OK
1195	   0	88.5	116.5	 817	OK
1196	   0	85.2	117.8	 772	OK
1197	4000	88.8	116.6	 941	high noise
1198	   0	86.0	112.2	 815	OK
1199	   0	88.0	116.3	 765	OK
1200	   0	89.4	116.6	 689	OK
1201	   0	86.0	118.8	 732	OK
1202	   0	85.5	112.7	 857	OK
1203	   0	85.8	115.4	 697	OK
1204	   0	84.4	115.9	 817	OK
1205	   0	84.4	113.5	 795	OK
1206	   0	89.8	117.5	 724	OK
1207	   0	85.1	113.9	 870	OK
1208	   0	86.3	114.7	 687	OK
1209	   0	86.8	117.7	 766	OK
1210	4000	88.4	116.3	 879	high noise
1211	   0	87.7	114.5	 755	OK
1212	   0	87.7	115.1	 783	OK
1213	   0	89.2	118.0	 832	OK
1214	   0	88.3	115.2	 795	OK
1215	   0	90.5	117.0	 800	OK
1216	   0	83.5	113.9	 753	OK
1217	   0	84.3	115.2	 779	OK
1218	   0	84.2	113.2	 864	OK
1219	   0	86.3	117.6	 775	OK
1220	   0	85.4	114.5	 869	OK
1221	   0	82.1	112.3	 738	OK
1222	   0	82.4	110.3	 737	OK
1223	   0	86.5	114.4	 755	OK
1224	   0	85.3	111.5	 734	OK
1225	   0	86.4	113.9	 770	OK
1226	   0	83.9	114.1	 731	OK
1227	   0	86.7	116.7	 685	OK
1228	   0	88.1	116.8	 642	OK
1229	   0	84.2	113.3	 684	OK
1230	   0	84.4	113.9	 747	OK
1231	   0	85.1	112.1	 802	OK
1232	   0	84.3	113.7	 723	OK
1233	   0	87.3	116.5	 679	OK
1234	   0	84.0	113.8	 809	OK
1235	   0	84.5	112.8	 798	OK
1236	   0	83.5	114.4	 775	OK
1237	   0	83.0	112.8	 577	OK
1238	   0	82.3	113.0	 790	OK
1239	   0	81.8	110.6	 790	OK
1240	   0	88.1	114.5	 726	OK
1241	   0	82.6	112.0	 777	OK
1242	   0	85.4	116.5	 803	OK
1243	   0	82.1	112.0	 779	OK
1244	   0	81.8	110.2	 668	OK
1245	   0	86.1	115.0	 785	OK
1246	   0	84.0	112.1	 748	OK
1247	   0	82.3	113.3	 682	OK
1248	   0	83.4	109.5	 697	OK
1249	   0	82.4	112.3	 759	OK
1250	   0	84.9	114.7	 828	OK
1251	   0	84.8	115.4	 774	OK
1252	   0	81.8	112.9	 657	OK
1253	   0	84.8	114.2	 739	OK
1254	   0	85.2	115.3	 712	OK
1255	   0	85.7	116.1	 714	OK
1256	   0	86.2	112.9	 788	OK
1257	   0	86.4	115.4	 747	OK
1258	   0	86.1	115.6	 789	OK
1259	   0	82.9	113.0	 664	OK
1260	   0	83.1	110.9	 821	OK
1261	   0	84.0	113.0	 634	OK
1262	   0	82.6	113.2	 641	OK
1263	   0	86.9	114.3	 761	OK
1264	   0	86.0	115.3	 721	OK
1265	   0	84.8	116.0	 795	OK
1266	   0	84.9	112.5	 674	OK
1267	   0	83.5	112.9	 719	OK
1268	   0	84.9	115.8	 716	OK
1269	   0	85.4	114.2	 717	OK
1270	   0	86.8	116.5	 738	OK
1271	   0	82.8	111.4	 804	OK
1272	   0	86.3	116.0	 701	OK
1273	   0	84.3	113.4	 739	OK
1274	   0	85.0	115.5	 828	OK
1275	   0	85.2	111.8	 679	OK
1276	   0	87.5	116.2	 663	OK
1277	   0	85.2	112.2	 721	OK
1278	   0	85.1	112.9	 628	OK
1279	   0	85.6	112.2	 776	OK
1280	   0	85.5	115.4	 701	OK
1281	   0	83.6	113.6	 761	OK
1282	   0	85.1	115.5	 742	OK
1283	   0	83.6	112.8	 729	OK
1284	   0	84.3	117.3	 611	OK
1285	   0	84.9	114.6	 664	OK
1286	   0	81.7	111.1	 733	OK
1287	   0	80.7	111.9	 648	OK
1288	   0	84.1	111.9	 692	OK
1289	   0	84.1	116.7	 786	OK
1290	   0	87.8	119.0	 714	OK
1291	   0	81.9	110.2	 724	OK
1292	   0	83.7	113.3	 772	OK
1293	   0	83.5	113.6	 609	OK
1294	   0	81.9	113.1	 692	OK
1295	   0	83.7	111.7	 731	OK
1296	   0	84.8	111.8	 706	OK
1297	   0	80.8	111.3	 648	OK
1298	   0	85.6	114.7	 679	OK
1299	   0	85.9	114.1	 721	OK
1300	   0	82.9	113.8	 646	OK
1301	   0	85.6	116.4	 695	OK
1302	   0	86.6	115.3	 600	OK
1303	   0	85.3	112.9	 701	OK
1304	   0	85.4	112.3	 789	OK
1305	   0	82.9	111.8	 677	OK
1306	   0	84.1	116.0	 756	OK
1307	   0	81.1	112.3	 787	OK
1308	   0	81.3	110.0	 751	OK
1309	   0	82.7	112.0	 796	OK
1310	   0	85.6	115.5	 601	OK
1311	   0	82.0	111.3	 752	OK
1312	   0	85.6	114.0	 675	OK
1313	   0	86.4	115.7	 641	OK
1314	   0	82.0	111.0	 693	OK
1315	   0	84.0	114.3	 710	OK
1316	   0	83.7	114.6	 655	OK
1317	   0	84.1	115.0	 685	OK
1318	   0	87.6	115.4	 720	OK
1319	   0	85.2	115.1	 694	OK
1320	   0	82.0	112.1	 703	OK
1321	   0	85.3	113.5	 782	OK
1322	   0	83.7	113.6	 592	OK
1323	   0	83.8	113.6	 770	OK
1324	   0	82.8	111.2	 610	OK
1325	4000	81.0	112.8	 817	high noise
1326	   0	83.6	112.8	 693	OK
1327	   0	83.7	111.6	 762	OK
1328	   0	84.6	115.1	 808	OK
1329	   0	86.1	116.5	 774	OK
1330	   0	84.2	115.3	 708	OK
1331	   0	83.9	115.5	 653	OK
1332	   0	84.1	115.1	 687	OK
1333	   0	83.0	114.0	 719	OK
1334	   0	83.8	111.9	 709	OK
1335	   0	83.9	113.5	 624	OK
1336	   0	82.0	113.3	 744	OK
1337	   0	83.4	113.7	 787	OK
1338	   0	85.5	114.1	 716	OK
1339	   0	83.1	112.9	 694	OK
1340	   0	87.1	118.1	 657	OK
1341	   0	89.2	117.3	 708	OK
1342	   0	83.4	115.9	 696	OK
1343	   0	84.8	115.6	 684	OK
1344	   0	85.3	116.6	 710	OK
1345	   0	85.2	113.9	 703	OK
1346	   0	85.5	116.1	 663	OK
1347	   0	85.6	115.9	 720	OK
1348	   0	84.5	115.0	 793	OK
1349	   0	85.9	112.6	 673	OK
1350	   0	82.1	111.8	 703	OK
1351	   0	84.8	114.4	 639	OK
1352	   0	85.9	113.3	 750	OK
1353	   0	84.4	111.2	 741	OK
1354	   0	85.1	114.7	 723	OK
1355	   0	80.1	111.6	 702	OK
1356	   0	83.3	112.9	 728	OK
1357	   0	84.0	113.3	 720	OK
1358	   0	84.5	113.1	 741	OK
1359	   0	82.5	113.4	 693	OK
1360	   0	84.4	114.9	 695	OK
1361	   0	81.6	112.7	 658	OK
1362	   0	82.2	109.2	 714	OK
1363	   0	84.1	116.7	 697	OK
1364	   0	82.9	112.6	 668	OK
1365	   0	85.7	115.6	 673	OK
1366	   0	84.5	115.5	 793	OK
1367	   0	83.9	110.8	 695	OK
1368	   0	83.4	115.2	 683	OK
1369	   0	85.0	113.6	 748	OK
1370	   0	84.5	111.9	 623	OK
1371	   0	82.2	111.4	 713	OK
1372	   0	82.9	114.1	 731	OK
1373	   0	80.6	108.6	 780	OK
1374	   0	83.1	112.9	 584	OK
1375	   0	83.6	112.0	 572	OK
1376	   0	83.6	112.1	 770	OK
1377	   0	83.1	110.6	 768	OK
1378	   0	83.9	114.3	 663	OK
1379	4000	80.7	112.7	 835	high noise
1380	   0	83.1	113.2	 616	OK
1381	   0	80.8	109.0	 654	OK
1382	   0	82.5	112.2	 705	OK
1383	   0	82.9	110.4	 671	OK
1384	4000	81.6	115.1	 830	high noise
1385	   0	85.1	115.1	 787	OK
1386	   0	83.4	113.8	 615	OK
1387	   0	84.5	114.5	 673	OK
1388	   0	84.6	114.9	 663	OK
1389	   0	86.3	115.9	 709	OK
1390	   0	86.8	117.0	 753	OK
1391	   0	84.5	112.0	 614	OK
1392	   0	83.9	112.5	 643	OK
1393	   0	81.6	112.2	 699	OK
1394	   0	83.7	114.3	 748	OK
1395	   0	82.2	114.9	 657	OK
1396	   0	87.0	114.7	 669	OK
1397	   0	85.3	114.8	 731	OK
1398	   0	86.1	116.0	 706	OK
1399	   0	82.4	110.9	 679	OK
1400	   0	86.6	115.7	 721	OK
1401	   0	83.3	114.7	 629	OK
1402	   0	82.6	113.6	 665	OK
1403	   0	82.8	113.0	 666	OK
1404	   0	85.2	113.3	 689	OK
1405	   0	86.9	114.3	 762	OK
1406	   0	82.0	113.1	 697	OK
1407	   0	86.4	112.9	 736	OK
1408	   0	87.1	110.7	 740	OK
1409	   0	86.2	115.7	 685	OK
1410	   0	84.4	115.3	 703	OK
1411	   0	86.5	115.6	 651	OK
1412	   0	89.8	118.2	 669	OK
1413	   0	85.3	113.5	 626	OK
1414	   0	83.1	111.7	 729	OK
1415	   0	85.8	112.4	 637	OK
1416	   0	86.9	115.5	 745	OK
1417	   0	85.3	114.8	 645	OK
1418	   0	85.1	112.8	 715	OK
1419	   0	85.5	114.7	 680	OK
1420	   0	85.0	112.3	 632	OK
1421	   0	84.2	112.2	 600	OK
1422	   0	83.5	110.2	 752	OK
1423	   0	86.3	116.6	 732	OK
1424	   0	86.5	113.7	 668	OK
1425	   0	86.7	115.0	 692	OK
1426	   0	85.9	115.7	 689	OK
1427	   0	87.2	116.9	 647	OK
1428	   0	88.9	114.8	 706	OK
1429	   0	85.7	114.8	 664	OK
1430	   0	84.5	110.2	 747	OK
1431	   0	86.1	115.3	 729	OK
1432	   0	85.8	115.8	 697	OK
1433	   0	84.8	114.0	 749	OK
1434	   0	86.4	112.2	 677	OK
1435	   0	84.2	112.0	 774	OK
1436	   0	85.4	114.0	 625	OK
1437	   0	84.8	111.0	 765	OK
1438	   0	87.0	114.7	 680	OK
1439	   0	83.5	110.8	 700	OK
1440	   0	89.0	117.9	 642	OK
1441	   0	84.4	113.6	 571	OK
1442	   0	87.5	112.0	 791	OK
1443	   0	82.5	116.1	 652	OK
1444	   0	85.7	111.6	 726	OK
1445	   0	85.0	113.0	 769	OK
1446	   0	87.0	114.1	 737	OK
1447	   0	87.4	113.9	 687	OK
1448	   0	86.0	113.9	 574	OK
1449	   0	83.8	110.1	 653	OK
1450	   0	88.7	117.8	 589	OK
1451	   0	86.5	111.6	 676	OK
1452	   0	84.1	115.6	 687	OK
1453	   0	86.5	114.0	 735	OK
1454	   0	84.4	113.6	 718	OK
1455	   0	87.9	115.3	 597	OK
1456	   0	85.6	112.8	 725	OK
1457	   0	87.8	115.6	 681	OK
1458	   0	87.1	118.9	 758	OK
1459	   0	85.6	112.5	 726	OK
1460	   0	86.3	116.1	 640	OK
1461	   0	83.8	111.4	 642	OK
1462	   0	85.5	117.4	 733	OK
1463	   0	85.8	114.7	 708	OK
1464	   0	85.7	112.4	 789	OK
1465	   0	86.7	115.1	 689	OK
1466	   0	86.2	113.6	 633	OK
1467	   0	88.9	116.0	 639	OK
1468	   0	88.1	116.0	 712	OK
1469	   0	87.2	115.5	 630	OK
1470	   0	87.4	114.6	 694	OK
1471	   0	92.3	118.5	 657	OK
1472	   0	83.6	114.5	 663	OK
1473	   0	85.1	114.7	 715	OK
1474	   0	86.5	114.5	 712	OK
1475	   0	84.0	110.7	 698	OK
1476	   0	86.0	112.5	 577	OK
1477	   0	83.3	114.2	 762	OK
1478	   0	86.0	114.4	 691	OK
1479	   0	85.1	113.6	 616	OK
1480	   0	83.6	111.5	 684	OK
1481	   0	86.6	113.2	 709	OK
1482	   0	86.3	114.5	 740	OK
1483	   0	85.4	116.2	 668	OK
1484	   0	86.3	115.8	 771	OK
1485	   0	86.5	114.6	 747	OK
1486	   0	87.0	116.4	 644	OK
1487	   0	85.3	114.8	 722	OK
1488	   0	89.5	117.6	 648	OK
1489	   0	81.2	111.6	 761	OK
1490	   0	83.1	111.3	 749	OK
1491	   0	86.8	114.7	 682	OK
1492	   0	84.2	115.5	 772	OK
1493	   0	81.4	109.0	 614	OK
1494	   0	85.2	116.8	 706	OK
1495	   0	85.2	114.3	 663	OK
1496	   0	87.7	116.8	 664	OK
1497	   0	83.7	114.2	 683	OK
1498	   0	87.7	117.1	 715	OK
1499	   0	86.4	114.2	 735	OK
1500	   0	81.4	113.6	 733	OK
1501	   0	86.9	115.9	 722	OK
1502	   0	86.6	114.1	 629	OK
1503	   0	85.5	111.1	 675	OK
1504	   0	88.0	118.0	 699	OK
1505	   0	84.4	113.3	 747	OK
1506	   0	88.8	115.0	 703	OK
1507	   0	85.1	115.3	 672	OK
1508	   0	83.9	111.5	 672	OK
1509	   0	84.9	115.9	 667	OK
1510	   0	86.2	113.9	 771	OK
1511	   0	87.3	114.0	 740	OK
1512	   0	83.6	112.8	 715	OK
1513	   0	86.8	115.0	 718	OK
1514	   0	84.2	113.3	 761	OK
1515	   0	85.8	115.8	 708	OK
1516	4000	85.1	115.3	 819	high noise
1517	   0	82.7	109.9	 750	OK
1518	   0	86.1	114.3	 601	OK
1519	   0	86.9	115.3	 732	OK
1520	   0	86.9	115.2	 619	OK
1521	   0	88.4	115.5	 686	OK
1522	   0	86.5	116.0	 708	OK
1523	   0	85.9	113.0	 741	OK
1524	   0	86.8	115.8	 603	OK
1525	   0	88.4	115.6	 761	OK
1526	   0	87.0	115.1	 663	OK
1527	   0	85.5	113.6	 698	OK
1528	   0	85.3	114.0	 598	OK
1529	   0	86.5	114.3	 609	OK
1530	   0	83.3	111.2	 691	OK
1531	   0	90.2	114.3	 585	OK
1532	   0	87.0	113.2	 752	OK
1533	   0	84.1	114.3	 672	OK
1534	   0	86.6	114.7	 665	OK
1535	   0	86.3	115.4	 658	OK
1536	   0	89.0	115.6	 805	OK
1537	   0	84.5	112.2	 602	OK
1538	   0	85.5	116.5	 762	OK
1539	   0	86.0	112.2	 586	OK
1540	   0	86.1	115.5	 683	OK
1541	   0	85.4	114.0	 737	OK
1542	   0	83.8	112.3	 681	OK
1543	   0	84.7	113.8	 670	OK
1544	   0	86.8	111.5	 706	OK
1545	   0	84.4	112.8	 626	OK
1546	   0	82.7	115.0	 675	OK
1547	   0	85.6	113.7	 654	OK
1548	   0	87.8	114.9	 747	OK
1549	   0	84.7	113.3	 758	OK
1550	   0	85.8	113.9	 684	OK
1551	   0	84.4	115.0	 676	OK
1552	   0	84.4	113.9	 614	OK
1553	   0	83.6	111.2	 694	OK
1554	   0	83.5	113.3	 738	OK
1555	   0	84.0	112.1	 651	OK
1556	   0	83.3	111.2	 638	OK
1557	   0	85.8	115.0	 719	OK
1558	   0	85.5	113.6	 633	OK
1559	   0	86.2	112.1	 646	OK
1560	   0	82.2	112.3	 680	OK
1561	   0	85.0	114.1	 694	OK
1562	   0	81.6	113.1	 708	OK
1563	   0	86.1	110.5	 721	OK
1564	   0	84.7	115.8	 639	OK
1565	   0	85.3	113.6	 666	OK
1566	   0	83.3	111.0	 661	OK
1567	   0	84.2	111.7	 808	OK
1568	   0	83.5	113.4	 716	OK
1569	   0	81.7	111.4	 753	OK
1570	   0	84.1	112.5	 751	OK
1571	   0	89.0	116.5	 726	OK
1572	   0	84.3	113.1	 685	OK
1573	   0	81.5	109.4	 693	OK
1574	   0	84.6	111.3	 771	OK
1575	   0	83.7	111.3	 718	OK
1576	   0	82.1	113.3	 652	OK
1577	   0	83.9	114.5	 723	OK
1578	   0	86.5	111.9	 682	OK
1579	   0	84.1	112.3	 623	OK
1580	   0	83.5	111.8	 756	OK
1581	   0	84.0	111.9	 712	OK
1582	   0	86.6	117.2	 691	OK
1583	   0	87.2	115.2	 793	OK
1584	   0	82.9	113.6	 730	OK
1585	   0	86.6	115.1	 642	OK
1586	   0	89.4	115.7	 686	OK
1587	   0	86.1	116.0	 696	OK
1588	   0	83.2	111.3	 752	OK
1589	   0	85.6	113.6	 732	OK
1590	   0	86.7	114.2	 612	OK
1591	   0	85.4	114.4	 667	OK
1592	   0	83.9	111.6	 720	OK
1593	   0	87.9	116.8	 738	OK
1594	   0	84.0	112.8	 691	OK
1595	   0	87.2	112.1	 632	OK
1596	   0	84.1	114.3	 662	OK
1597	   0	85.5	115.1	 799	OK
1598	   0	84.8	114.7	 720	OK
1599	   0	85.3	112.9	 599	OK
1600	   0	83.2	112.4	 719	OK
1601	   0	82.5	112.3	 663	OK
1602	   0	83.8	114.0	 738	OK
1603	   0	85.1	110.2	 754	OK
1604	   0	85.1	115.3	 752	OK
1605	   0	83.6	112.2	 728	OK
1606	   0	83.7	111.5	 749	OK
1607	   0	83.4	112.8	 665	OK
1608	   0	84.4	113.2	 694	OK
1609	4000	85.4	114.3	 841	high noise
1610	   0	84.3	113.5	 796	OK
1611	   0	84.6	112.4	 714	OK
1612	   0	82.8	110.1	 596	OK
1613	   0	80.7	111.7	 794	OK
1614	   0	82.4	113.6	 718	OK
1615	   0	86.3	114.9	 800	OK
1616	   0	82.4	113.4	 707	OK
1617	   0	86.5	110.7	 761	OK
1618	   0	79.2	111.4	 753	OK
1619	   0	84.8	112.5	 664	OK
1620	   0	86.9	116.8	 718	OK
1621	   0	84.7	112.7	 687	OK
1622	   0	84.1	112.5	 632	OK
1623	   0	87.1	112.0	 728	OK
1624	   0	83.9	112.9	 784	OK
1625	   0	87.7	114.5	 673	OK
1626	   0	85.3	112.1	 690	OK
1627	   0	82.4	110.8	 694	OK
1628	   0	84.3	113.8	 730	OK
1629	   0	82.1	109.7	 750	OK
1630	   0	85.4	112.8	 782	OK
1631	   0	85.6	111.1	 726	OK
1632	   0	84.8	111.8	 590	OK
1633	   0	84.5	114.0	 680	OK
1634	   0	83.4	113.4	 750	OK
1635	   0	84.2	114.1	 637	OK
1636	   0	87.4	112.2	 697	OK
1637	   0	83.6	111.9	 704	OK
1638	4000	83.1	111.0	 820	high noise
1639	   0	87.5	112.7	 672	OK
1640	   0	85.2	111.3	 724	OK
1641	   0	83.0	113.0	 709	OK
1642	   0	86.5	112.6	 650	OK
1643	   0	88.2	114.9	 696	OK
1644	   0	85.1	114.8	 725	OK
1645	   0	87.9	117.1	 731	OK
1646	   0	87.7	115.0	 694	OK
1647	   0	87.6	113.7	 735	OK
1648	   0	85.4	116.1	 706	OK
1649	   0	86.8	115.7	 673	OK
1650	   0	84.8	111.9	 717	OK
1651	   0	85.9	113.9	 808	OK
1652	   0	85.2	113.5	 728	OK
1653	   0	85.4	114.0	 669	OK
1654	   0	84.7	115.3	 746	OK
1655	   0	85.1	115.4	 659	OK
1656	   0	87.3	116.5	 701	OK
1657	   0	87.0	113.1	 636	OK
1658	   0	87.0	116.6	 727	OK
1659	   0	87.3	115.8	 700	OK
1660	   0	84.9	112.7	 722	OK
1661	   0	84.9	115.1	 698	OK
1662	   0	86.4	114.9	 634	OK
1663	   0	89.0	116.6	 656	OK
1664	   0	87.3	112.8	 702	OK
1665	   0	87.1	111.7	 664	OK
1666	   0	82.3	113.4	 755	OK
1667	   0	81.0	113.0	 717	OK
1668	   0	86.4	115.4	 773	OK
1669	   0	81.9	109.3	 835	OK
1670	   0	85.3	115.6	 705	OK
1671	   0	81.4	109.2	 677	OK
1672	   0	82.7	111.8	 624	OK
1673	   0	82.8	111.6	 665	OK
1674	   0	82.5	110.6	 704	OK
1675	   0	82.0	110.9	 707	OK
1676	   0	83.6	115.1	 693	OK
1677	   0	83.2	110.9	 647	OK
1678	   0	82.6	115.0	 699	OK
1679	   0	85.7	113.3	 683	OK
1680	   0	84.3	115.6	 770	OK
1681	   0	84.4	113.0	 746	OK
1682	   0	79.4	108.9	 699	OK
1683	   0	84.4	114.7	 755	OK
1684	   0	81.1	111.3	 761	OK
1685	   0	83.4	113.2	 756	OK
1686	   0	82.4	109.6	 769	OK
1687	   0	84.1	110.1	 684	OK
1688	   0	82.3	113.0	 818	OK
1689	   0	83.0	114.8	 671	OK
1690	   0	78.3	110.0	 731	OK
1691	   0	81.2	110.8	 781	OK
1692	   0	81.4	109.4	 768	OK
1693	   0	81.5	112.5	 601	OK
1694	   0	80.9	111.3	 727	OK
1695	   0	82.6	110.2	 754	OK
1696	   0	82.5	113.3	 666	OK
1697	   0	81.8	109.6	 663	OK
1698	   0	82.4	110.6	 766	OK
1699	   0	81.9	113.0	 709	OK
1700	   0	82.9	110.1	 759	OK
1701	   0	81.4	108.2	 670	OK
1702	   0	81.9	112.3	 668	OK
1703	   0	80.9	110.5	 832	OK
1704	   0	84.5	113.1	 676	OK
1705	   0	80.0	108.4	 690	OK
1706	   0	83.7	110.0	 712	OK
1707	   0	82.4	113.6	 666	OK
1708	   0	82.3	109.8	 773	OK
1709	   0	83.2	112.3	 648	OK
1710	   0	85.3	116.4	 702	OK
1711	4000	80.9	109.0	 840	high noise
1712	   0	85.0	114.8	 699	OK
1713	   0	84.4	111.4	 694	OK
1714	   0	83.5	111.9	 736	OK
1715	   0	83.1	110.6	 714	OK
1716	   0	83.6	113.6	 712	OK
1717	   0	82.3	109.7	 693	OK
1718	   0	83.6	111.7	 804	OK
1719	   0	83.0	113.0	 724	OK
1720	   0	83.9	115.6	 755	OK
1721	   0	81.3	112.6	 750	OK
1722	   0	85.6	117.2	 728	OK
1723	   0	85.7	113.9	 758	OK
1724	   0	80.5	110.2	 758	OK
1725	   0	85.7	116.2	 785	OK
1726	   0	81.8	113.3	 671	OK
1727	   0	82.6	110.9	 685	OK
1728	   0	81.3	112.6	 832	OK
1729	   0	81.5	112.5	 731	OK
1730	   0	79.8	106.6	 735	OK
1731	   0	78.2	109.8	 667	OK
1732	   0	85.8	113.2	 663	OK
1733	4000	85.1	111.6	 861	high noise
1734	   0	83.2	111.6	 713	OK
1735	   0	82.5	110.6	 811	OK
1736	   0	84.5	110.1	 781	OK
1737	   0	82.0	109.2	 694	OK
1738	   0	83.2	111.4	 742	OK
1739	   0	83.4	111.7	 738	OK
1740	   0	82.2	111.2	 791	OK
1741	   0	83.6	116.7	 737	OK
1742	   0	82.0	110.9	 708	OK
1743	4000	81.3	110.9	 852	high noise
1744	   0	80.0	110.7	 783	OK
1745	   0	80.3	109.0	 734	OK
1746	   0	81.8	112.4	 742	OK
1747	   0	81.6	110.4	 821	OK
1748	   0	79.9	108.2	 722	OK
1749	   0	82.2	110.1	 587	OK
1750	   0	82.3	113.1	 678	OK
1751	   0	79.1	110.4	 777	OK
1752	   0	83.5	110.9	 733	OK
1753	   0	87.4	116.3	 560	OK
1754	   0	78.0	109.2	 808	OK
1755	   0	81.8	108.2	 738	OK
1756	   0	82.5	110.4	 755	OK
1757	   0	82.0	109.6	 699	OK
1758	   0	80.7	109.2	 737	OK
1759	   0	80.9	110.6	 781	OK
1760	   0	80.1	110.3	 672	OK
1761	   0	82.5	109.2	 633	OK
1762	   0	83.1	111.8	 827	OK
1763	   0	78.6	108.1	 777	OK
1764	   0	86.2	115.8	 776	OK
1765	   0	83.1	111.2	 829	OK
1766	   0	78.4	109.1	 760	OK
1767	   0	80.8	109.5	 680	OK
1768	   0	82.7	113.4	 696	OK
1769	   0	83.0	111.2	 762	OK
1770	   0	81.3	111.2	 664	OK
1771	   0	83.6	112.6	 770	OK
1772	   0	81.2	111.9	 637	OK
1773	   0	82.2	110.9	 756	OK
1774	   0	82.7	110.1	 696	OK
1775	   0	78.0	108.6	 634	OK
1776	4000	83.4	107.8	 859	high noise
1777	   0	83.0	112.0	 834	OK
1778	   0	83.8	111.9	 754	OK
1779	   0	82.1	110.9	 805	OK
1780	   0	83.9	112.9	 783	OK
1781	   0	84.6	112.2	 696	OK
1782	   0	80.7	112.7	 699	OK
1783	   0	82.2	109.0	 551	OK
1784	   0	84.3	112.4	 685	OK
1785	   0	83.1	112.0	 667	OK
1786	   0	83.1	113.7	 696	OK
1787	   0	83.5	110.0	 724	OK
1788	   0	82.5	113.3	 750	OK
1789	   0	80.3	112.7	 772	OK
1790	   0	87.0	113.1	 666	OK
1791	   0	82.6	113.9	 787	OK
1792	   0	88.1	116.4	 697	OK
1793	   0	89.8	121.2	 653	OK
1794	   0	87.7	119.0	 734	OK
1795	   0	88.4	118.5	 617	OK
1796	   0	84.0	112.8	 643	OK
1797	   0	85.2	116.7	 747	OK
1798	   0	89.2	118.4	 670	OK
1799	   0	89.8	121.1	 704	OK
1800	   0	87.4	115.8	 678	OK
1801	   0	83.0	113.5	 732	OK
1802	   0	85.1	114.1	 715	OK
1803	   0	84.0	113.0	 781	OK
1804	   0	85.3	116.1	 680	OK
1805	   0	86.4	118.3	 697	OK
1806	   0	88.9	117.7	 695	OK
1807	   0	84.8	113.5	 645	OK
1808	   0	88.5	119.5	 751	OK
1809	   0	88.7	119.2	 617	OK
1810	   0	83.6	112.1	 707	OK
1811	   0	88.0	117.7	 799	OK
1812	   0	84.3	113.2	 783	OK
1813	   0	88.7	118.8	 614	OK
1814	   0	85.4	116.5	 680	OK
1815	   0	85.0	116.8	 692	OK
1816	   0	89.4	115.1	 663	OK
1817	   0	82.8	116.2	 605	OK
1818	   0	86.4	116.7	 737	OK
1819	   0	85.7	113.4	 645	OK
1820	   0	87.1	116.0	 674	OK
1821	   0	87.7	117.9	 731	OK
1822	   0	85.7	114.6	 751	OK
1823	   0	87.1	118.2	 691	OK
1824	   0	88.4	119.0	 590	OK
1825	   0	86.2	115.9	 734	OK
1826	   0	84.7	114.2	 723	OK
1827	   0	87.3	117.1	 691	OK
1828	   0	85.5	112.3	 737	OK
1829	   0	83.7	113.1	 773	OK
1830	   0	84.0	116.5	 711	OK
1831	   0	83.9	115.6	 654	OK
1832	   0	89.3	118.8	 696	OK
1833	   0	85.0	114.6	 758	OK
1834	   0	87.2	116.0	 604	OK
1835	   0	82.7	112.0	 750	OK
1836	   0	87.0	117.6	 657	OK
1837	   0	82.9	115.3	 650	OK
1838	   0	87.6	116.5	 667	OK
1839	   0	84.7	114.1	 725	OK
1840	   0	84.0	115.6	 692	OK
1841	   0	85.0	114.6	 645	OK
1842	   0	89.0	115.8	 762	OK
1843	   0	88.0	116.3	 699	OK
1844	   0	84.1	115.3	 677	OK
1845	4000	87.2	113.6	 803	high noise
1846	   0	86.4	118.0	 675	OK
1847	   0	89.1	118.5	 696	OK
1848	   0	84.7	117.8	 756	OK
1849	   0	85.6	115.8	 680	OK
1850	   0	87.8	114.9	 721	OK
1851	   0	85.2	117.2	 684	OK
1852	   0	87.6	121.1	 684	OK
1853	   0	90.9	118.2	 693	OK
1854	   0	85.2	117.0	 776	OK
1855	   0	88.1	120.1	 694	OK
1856	   0	82.3	115.7	 672	OK
1857	   0	85.4	112.9	 737	OK
1858	   0	87.4	117.9	 634	OK
1859	   0	83.9	115.3	 663	OK
1860	   0	85.1	116.6	 699	OK
1861	   0	84.9	111.2	 724	OK
1862	   0	83.0	115.1	 753	OK
1863	   0	84.8	116.7	 578	OK
1864	   0	87.1	117.5	 715	OK
1865	   0	84.5	115.3	 708	OK
1866	   0	86.1	117.2	 661	OK
1867	   0	90.8	123.9	 724	OK
1868	   0	87.4	116.0	 714	OK
1869	   0	85.2	116.2	 739	OK
1870	   0	85.8	115.2	 572	OK
1871	   0	86.1	114.5	 713	OK
1872	   0	87.6	116.0	 646	OK
1873	   0	83.3	113.9	 604	OK
1874	   0	82.8	115.6	 658	OK
1875	   0	86.0	115.5	 751	OK
1876	   0	83.4	113.3	 722	OK
1877	   0	86.9	114.7	 769	OK
1878	   0	86.1	115.9	 695	OK
1879	   0	85.4	113.6	 545	OK
1880	   0	83.1	112.6	 761	OK
1881	   0	85.0	113.1	 681	OK
1882	   0	84.9	112.9	 704	OK
1883	   0	82.4	113.5	 724	OK
1884	   0	84.3	114.8	 621	OK
1885	   0	84.6	114.6	 701	OK
1886	   0	87.2	118.1	 591	OK
1887	   0	85.1	114.6	 748	OK
1888	4000	84.7	113.2	 813	high noise
1889	   0	85.6	119.2	 657	OK
1890	   0	82.5	115.1	 698	OK
1891	   0	85.9	111.9	 621	OK
1892	   0	84.6	112.9	 716	OK
1893	   0	83.1	111.8	 726	OK
1894	   0	85.6	114.5	 674	OK
1895	   0	82.6	115.5	 664	OK
1896	   0	84.4	112.1	 781	OK
1897	   0	87.1	118.8	 763	OK
1898	   0	83.4	114.1	 651	OK
1899	   0	87.8	116.8	 651	OK
1900	   0	85.6	116.1	 688	OK
1901	   0	82.9	115.3	 660	OK
1902	   0	84.5	113.8	 675	OK
1903	   0	87.5	121.2	 598	OK
1904	   0	84.7	115.3	 788	OK
1905	   0	81.9	112.6	 712	OK
1906	   0	83.7	113.5	 732	OK
1907	   0	84.8	116.1	 669	OK
1908	   0	85.3	114.4	 742	OK
1909	   0	85.4	115.0	 682	OK
1910	   0	87.3	117.9	 760	OK
1911	   0	84.8	116.0	 652	OK
1912	4000	86.7	118.0	 802	high noise
1913	   0	86.7	116.4	 771	OK
1914	   0	86.4	115.6	 734	OK
1915	   0	88.0	119.0	 682	OK
1916	   0	90.5	119.7	 603	OK
1917	   0	87.2	117.1	 675	OK
1918	   0	86.9	118.5	 792	OK
1919	   0	85.6	116.1	 620	OK
1920	   0	86.3	115.8	 752	OK
1921	   0	84.2	113.6	 678	OK
1922	   0	83.5	113.2	 653	OK
1923	   0	83.5	114.3	 683	OK
1924	   0	86.5	113.6	 652	OK
1925	   0	87.0	114.0	 769	OK
1926	   0	85.7	114.7	 650	OK
1927	   0	82.8	112.3	 801	OK
1928	   0	83.8	110.4	 654	OK
1929	   0	86.1	116.9	 714	OK
1930	   0	82.8	112.3	 696	OK
1931	   0	81.4	111.4	 764	OK
1932	   0	86.2	114.1	 583	OK
1933	   0	81.5	109.9	 578	OK
1934	   0	84.3	112.1	 748	OK
1935	   0	83.4	114.9	 792	OK
1936	   0	84.4	112.2	 670	OK
1937	   0	85.7	112.8	 557	OK
1938	   0	85.2	115.7	 700	OK
1939	   0	83.6	113.9	 755	OK
1940	   0	84.3	114.0	 799	OK
1941	   0	84.2	111.9	 735	OK
1942	   0	84.8	115.3	 590	OK
1943	4000	83.6	114.3	 859	high noise
1944	   0	80.8	111.3	 762	OK
1945	   0	84.9	115.1	 769	OK
1946	   0	82.9	112.2	 670	OK
1947	   0	84.8	110.7	 783	OK
1948	   0	84.8	115.4	 658	OK
1949	   0	81.0	111.3	 740	OK
1950	   0	84.1	112.1	 717	OK
1951	   0	88.0	116.5	 768	OK
1952	4000	84.3	113.3	 848	high noise
1953	   0	84.4	115.3	 659	OK
1954	   0	81.1	110.6	 792	OK
1955	   0	82.9	111.9	 610	OK
1956	   0	80.6	109.1	 665	OK
1957	   0	82.7	110.2	 721	OK
1958	   0	78.2	108.8	 809	OK
1959	   0	85.2	113.9	 812	OK
1960	   0	84.1	114.4	 639	OK
1961	   0	85.7	117.5	 745	OK
1962	   0	84.3	112.6	 719	OK
1963	   0	84.6	113.0	 723	OK
1964	   0	84.2	113.1	 641	OK
1965	   0	83.7	111.1	 683	OK
1966	   0	84.2	112.8	 677	OK
1967	   0	83.6	111.4	 703	OK
1968	   0	84.9	112.1	 804	OK
1969	   0	85.2	114.3	 624	OK
1970	   0	82.8	111.5	 660	OK
1971	   0	80.3	108.8	 730	OK
1972	   0	83.6	111.9	 636	OK
1973	   0	83.4	113.1	 665	OK
1974	   0	85.7	115.4	 808	OK
1975	   0	81.9	112.3	 635	OK
1976	   0	84.2	112.5	 755	OK
1977	   0	83.8	110.8	 690	OK
1978	   0	84.3	115.1	 680	OK
1979	   0	85.5	112.9	 748	OK
1980	   0	83.9	113.7	 720	OK
1981	   0	87.2	117.4	 709	OK
1982	   0	83.1	112.5	 726	OK
1983	   0	84.6	112.9	 675	OK
1984	   0	80.9	110.1	 713	OK
1985	   0	85.9	116.7	 615	OK
1986	   0	79.3	108.1	 715	OK
1987	   0	82.1	111.9	 647	OK
1988	   0	81.4	111.7	 718	OK
1989	   0	83.5	110.7	 599	OK
1990	   0	83.1	112.6	 735	OK
1991	   0	81.1	111.0	 703	OK
1992	   0	80.7	109.1	 687	OK
1993	   0	80.5	110.5	 710	OK
1994	   0	82.3	110.7	 685	OK
1995	   0	87.1	115.4	 680	OK
1996	   0	82.6	111.4	 679	OK
1997	   0	81.2	110.5	 737	OK
1998	   0	83.5	115.3	 728	OK
1999	   0	81.9	114.8	 648	OK
2000	   0	83.5	112.9	 816	OK
2001	   0	83.7	112.2	 673	OK
2002	   0	83.1	113.7	 746	OK
2003	   0	82.0	114.7	 677	OK
2004	   0	85.2	114.1	 669	OK
2005	   0	83.1	112.9	 748	OK
2006	   0	83.1	112.1	 677	OK
2007	   0	81.1	109.5	 761	OK
2008	   0	81.7	109.6	 769	OK
2009	   0	85.1	112.4	 730	OK
2010	   0	83.6	112.2	 651	OK
2011	   0	84.6	109.8	 760	OK
2012	   0	83.1	113.1	 751	OK
2013	   0	85.3	114.3	 665	OK
2014	   0	82.8	112.3	 719	OK
2015	   0	83.9	114.8	 775	OK
2016	   0	85.5	113.6	 624	OK
2017	4000	83.2	111.5	 827	high noise
2018	   0	83.2	113.5	 738	OK
2019	   0	82.2	112.5	 785	OK
2020	   0	82.6	110.7	 682	OK
2021	   0	78.8	107.2	 702	OK
2022	   0	82.5	113.3	 730	OK
2023	   0	85.8	115.7	 742	OK
2024	4000	81.6	109.9	 858	high noise
2025	   0	82.8	112.3	 703	OK
2026	4000	79.9	111.3	 822	high noise
2027	   0	84.8	111.9	 716	OK
2028	   0	82.1	110.0	 788	OK
2029	   0	85.8	114.9	 691	OK
2030	   0	82.8	113.2	 610	OK
2031	4000	82.1	112.0	 835	high noise
2032	   0	81.9	109.5	 620	OK
2033	   0	84.3	112.2	 678	OK
2034	   0	84.0	109.8	 806	OK
2035	   0	85.1	115.0	 754	OK
2036	   0	83.6	114.7	 681	OK
2037	   0	82.9	112.4	 738	OK
2038	   0	82.6	112.5	 755	OK
2039	   0	87.1	114.3	 749	OK
2040	   0	83.3	114.1	 658	OK
2041	   0	84.5	114.6	 665	OK
2042	   0	82.5	110.7	 735	OK
2043	   0	82.2	111.4	 682	OK
2044	   0	88.2	118.4	 756	OK
2045	   0	85.4	115.6	 698	OK
2046	   0	86.2	114.1	 756	OK
2047	   0	85.9	118.1	 594	OK
2048	   0	83.2	110.6	 722	OK
2049	   0	83.6	113.7	 718	OK
2050	   0	86.8	116.9	 726	OK
2051	   0	84.6	114.6	 726	OK
2052	   0	88.4	116.0	 695	OK
2053	   0	84.8	115.7	 696	OK
2054	   0	86.7	116.8	 748	OK
2055	   0	87.6	116.6	 681	OK
2056	   0	84.9	111.6	 757	OK
2057	4000	85.6	115.3	 889	high noise
2058	   0	84.2	113.0	 700	OK
2059	   0	85.7	115.8	 693	OK
2060	   0	84.9	112.1	 754	OK
2061	   0	85.8	112.4	 618	OK
2062	4000	82.2	112.5	 844	high noise
2063	   0	83.8	114.3	 716	OK
2064	   0	84.2	112.7	 775	OK
2065	   0	82.4	110.2	 767	OK
2066	   0	84.4	114.2	 770	OK
2067	   0	86.5	112.9	 667	OK
2068	   0	86.8	115.4	 603	OK
2069	   0	86.3	115.5	 700	OK
2070	   0	80.9	111.5	 677	OK
2071	   0	85.7	114.2	 634	OK
2072	   0	85.8	113.4	 763	OK
2073	   0	86.5	114.2	 764	OK
2074	   0	82.4	114.4	 734	OK
2075	   0	84.3	114.1	 736	OK
2076	   0	82.1	115.6	 694	OK
2077	   0	85.3	116.2	 677	OK
2078	   0	83.9	111.7	 776	OK
2079	   0	88.8	117.6	 683	OK
2080	   0	86.7	118.3	 715	OK
2081	   0	80.9	112.2	 643	OK
2082	   0	85.9	114.8	 686	OK
2083	   0	86.2	116.0	 630	OK
2084	   0	84.5	114.1	 731	OK
2085	   0	85.1	116.5	 725	OK
2086	   0	84.9	111.4	 752	OK
2087	   0	84.1	115.9	 658	OK
2088	   0	86.5	116.5	 712	OK
2089	   0	85.1	112.2	 753	OK
2090	   0	86.8	115.1	 696	OK
2091	   0	86.7	115.9	 700	OK
2092	   0	83.8	112.9	 652	OK
2093	   0	85.6	116.5	 733	OK
2094	   0	83.0	113.9	 768	OK
2095	4000	82.4	111.6	 834	high noise
2096	   0	83.9	112.3	 612	OK
2097	   0	86.4	118.9	 744	OK
2098	   0	87.1	117.5	 631	OK
2099	   0	83.1	112.8	 708	OK
2100	   0	85.4	115.7	 719	OK
2101	   0	88.9	117.8	 791	OK
2102	   0	88.2	117.4	 727	OK
2103	   0	85.0	114.8	 693	OK
2104	   0	85.4	115.6	 659	OK
2105	   0	85.0	115.0	 694	OK
2106	   0	88.7	116.8	 759	OK
2107	   0	86.0	116.9	 726	OK
2108	   0	85.5	112.8	 763	OK
2109	   0	85.7	115.8	 750	OK
2110	   0	85.8	117.1	 654	OK
2111	   0	84.1	114.7	 689	OK
2112	   0	82.4	114.1	 819	OK
2113	   0	85.7	114.0	 712	OK
2114	   0	82.8	110.4	 767	OK
2115	   0	86.2	114.7	 764	OK
2116	   0	82.8	113.9	 734	OK
2117	   0	84.7	117.8	 756	OK
2118	   0	85.3	114.4	 735	OK
2119	   0	86.8	115.3	 757	OK
2120	   0	83.3	116.9	 648	OK
2121	   0	82.8	114.7	 722	OK
2122	   0	83.6	114.3	 776	OK
2123	   0	82.6	109.5	 744	OK
2124	   0	85.5	117.0	 695	OK
2125	   0	85.4	114.2	 663	OK
2126	   0	81.3	111.6	 778	OK
2127	   0	83.6	115.5	 741	OK
2128	   0	82.0	113.4	 809	OK
2129	   0	82.9	111.2	 733	OK
2130	   0	84.9	113.6	 698	OK
2131	   0	83.7	110.9	 796	OK
2132	   0	82.0	110.8	 668	OK
2133	   0	85.3	112.8	 768	OK
2134	   0	84.9	114.1	 677	OK
2135	   0	84.9	114.2	 740	OK
2136	   0	84.4	113.3	 799	OK
2137	   0	86.2	116.9	 725	OK
2138	   0	84.9	116.3	 721	OK
2139	   0	80.5	112.4	 800	OK
2140	   0	87.7	117.7	 732	OK
2141	   0	85.0	113.7	 713	OK
2142	   0	87.4	116.8	 755	OK
2143	   0	83.7	112.0	 773	OK
2144	   0	85.1	116.2	 750	OK
2145	   0	83.4	112.6	 761	OK
2146	   0	83.6	117.7	 739	OK
2147	   0	82.6	114.4	 630	OK
2148	   0	83.5	110.1	 759	OK
2149	   0	83.9	112.4	 674	OK
2150	   0	87.1	115.5	 757	OK
2151	   0	84.8	114.5	 643	OK
2152	   0	84.1	114.4	 778	OK
2153	   0	82.5	113.2	 673	OK
2154	   0	84.6	114.2	 750	OK
2155	   0	84.6	114.5	 722	OK
2156	   0	85.5	117.5	 696	OK
2157	   0	82.4	113.1	 563	OK
2158	   0	83.2	112.8	 777	OK
2159	   0	86.2	114.8	 767	OK
2160	   0	82.7	116.1	 815	OK
2161	   0	82.7	115.6	 706	OK
2162	   0	84.1	114.2	 683	OK
2163	   0	83.8	115.1	 761	OK
2164	   0	83.2	112.5	 807	OK
2165	   0	85.8	112.7	 674	OK
2166	   0	84.7	115.9	 707	OK
2167	   0	88.5	118.9	 727	OK
2168	   0	87.3	115.4	 661	OK
2169	   0	84.3	112.2	 744	OK
2170	   0	84.1	113.7	 766	OK
2171	   0	86.1	118.8	 777	OK
2172	   0	85.1	116.9	 776	OK
2173	   0	85.7	115.1	 735	OK
2174	   0	86.9	114.5	 750	OK
2175	   0	89.8	117.7	 741	OK
2176	   0	81.7	112.6	 750	OK
2177	   0	85.4	113.1	 803	OK
2178	   0	82.0	111.1	 810	OK
2179	   0	82.3	109.8	 715	OK
2180	   0	81.0	112.0	 753	OK
2181	   0	86.9	114.0	 659	OK
2182	   0	82.7	111.2	 784	OK
2183	   0	87.0	115.3	 611	OK
2184	   0	82.0	110.9	 756	OK
2185	   0	86.6	113.6	 676	OK
2186	   0	84.0	114.6	 780	OK
2187	   0	82.8	110.0	 633	OK
2188	   0	84.3	114.3	 724	OK
2189	   0	80.7	108.5	 764	OK
2190	   0	84.2	112.4	 698	OK
2191	   0	84.6	112.9	 740	OK
2192	   0	83.7	109.2	 801	OK
2193	4000	81.4	109.3	 875	high noise
2194	   0	82.9	111.0	 582	OK
2195	   0	82.9	110.4	 777	OK
2196	   0	84.0	112.0	 745	OK
2197	   0	80.7	109.8	 764	OK
2198	   0	85.5	113.0	 740	OK
2199	   0	81.1	109.3	 690	OK
2200	   0	81.4	110.0	 820	OK
2201	   0	82.8	111.6	 728	OK
2202	   0	80.5	107.4	 778	OK
2203	   0	79.0	109.0	 729	OK
2204	   0	84.7	114.8	 641	OK
2205	4000	83.3	112.6	 848	high noise
2206	   0	83.5	112.2	 724	OK
2207	   0	82.7	112.9	 679	OK
2208	   0	82.8	111.4	 653	OK
2209	   0	81.6	109.8	 714	OK
2210	   0	81.7	110.2	 741	OK
2211	4000	83.7	111.5	 862	high noise
2212	   0	84.4	111.8	 659	OK
2213	   0	83.9	113.3	 806	OK
2214	   0	82.3	110.9	 773	OK
2215	   0	82.3	114.8	 640	OK
2216	   0	84.1	112.0	 701	OK
2217	   0	82.8	111.4	 682	OK
2218	   0	81.6	111.1	 791	OK
2219	   0	82.3	112.1	 681	OK
2220	   0	84.1	110.3	 834	OK
2221	   0	81.2	109.3	 691	OK
2222	   0	79.6	108.5	 739	OK
2223	   0	80.6	110.1	 759	OK
2224	   0	82.0	110.1	 717	OK
2225	   0	81.8	110.5	 646	OK
2226	   0	83.5	110.4	 758	OK
2227	   0	84.0	112.4	 744	OK
2228	   0	82.1	110.3	 795	OK
2229	   0	86.3	112.7	 695	OK
2230	   0	82.7	113.6	 583	OK
2231	   0	82.1	111.6	 798	OK
2232	   0	83.9	111.4	 675	OK
2233	   0	81.5	111.1	 793	OK
2234	   0	84.5	111.3	 602	OK
2235	   0	85.3	114.7	 687	OK
2236	   0	84.5	111.2	 753	OK
2237	   0	84.1	112.3	 698	OK
2238	   0	80.3	111.1	 755	OK
2239	   0	83.9	113.9	 787	OK
2240	   0	80.8	111.1	 797	OK
2241	   0	81.8	113.0	 722	OK
2242	   0	84.4	111.8	 630	OK
2243	   0	83.9	112.6	 713	OK
2244	   0	84.7	113.4	 817	OK
2245	   0	82.8	112.9	 722	OK
2246	   0	84.1	111.8	 618	OK
2247	   0	82.7	111.1	 638	OK
2248	   0	84.8	113.1	 726	OK
2249	   0	81.3	112.2	 833	OK
2250	   0	85.5	114.5	 616	OK
2251	4000	81.5	112.9	 841	high noise
2252	   0	83.2	111.1	 672	OK
2253	   0	82.0	109.1	 727	OK
2254	   0	86.4	115.6	 720	OK
2255	   0	82.8	112.6	 692	OK
2256	   0	80.2	110.0	 792	OK
2257	   0	80.4	110.0	 639	OK
2258	   0	82.4	114.8	 764	OK
2259	   0	83.7	111.8	 709	OK
2260	   0	83.0	109.7	 598	OK
2261	4000	82.9	109.2	 851	high noise
2262	   0	82.4	111.9	 778	OK
2263	   0	82.0	112.6	 774	OK
2264	   0	80.3	108.1	 723	OK
2265	   0	80.8	111.0	 687	OK
2266	   0	84.2	114.0	 782	OK
2267	   0	84.1	113.1	 797	OK
2268	   0	82.1	110.9	 761	OK
2269	   0	84.4	110.1	 655	OK
2270	   0	82.8	112.5	 742	OK
2271	   0	81.6	111.4	 732	OK
2272	   0	84.6	113.0	 731	OK
2273	   0	83.9	115.6	 820	OK
2274	   0	82.0	110.8	 697	OK
2275	   0	82.4	110.9	 722	OK
2276	   0	82.0	109.8	 792	OK
2277	   0	79.7	106.1	 700	OK
2278	   0	82.7	109.6	 694	OK
2279	   0	82.5	108.5	 756	OK
2280	   0	85.8	113.5	 742	OK
2281	   0	81.7	111.0	 663	OK
2282	   0	85.4	110.1	 681	OK
2283	   0	79.8	108.5	 741	OK
2284	   0	80.4	109.9	 814	OK
2285	   0	83.2	112.2	 761	OK
2286	   0	82.5	112.0	 734	OK
2287	   0	80.7	108.2	 721	OK
2288	   0	84.6	113.3	 790	OK
2289	   0	80.1	109.1	 675	OK
2290	   0	86.5	114.1	 742	OK
2291	   0	85.5	114.2	 705	OK
2292	   0	83.2	110.7	 617	OK
2293	   0	80.1	108.4	 647	OK
2294	   0	83.1	113.9	 722	OK
2295	   0	81.7	109.6	 822	OK
2296	   0	81.3	111.4	 714	OK
2297	   0	84.8	110.2	 652	OK
2298	   0	80.9	111.7	 783	OK
2299	   0	80.3	112.3	 705	OK
2300	4000	84.1	111.8	 869	high noise
2301	   0	79.6	108.3	 795	OK
2302	   0	85.5	109.7	 718	OK
2303	   0	82.8	114.6	 679	OK
2304	   0	85.8	115.8	 704	OK
2305	   0	84.8	114.7	 731	OK
2306	   0	83.2	112.8	 734	OK
2307	   0	84.4	113.1	 832	OK
2308	   0	82.1	109.7	 744	OK
2309	   0	81.1	110.8	 732	OK
2310	   0	83.6	111.5	 688	OK
2311	   0	84.0	113.0	 646	OK
2312	   0	82.4	112.7	 735	OK
2313	   0	80.1	107.8	 716	OK
2314	   0	81.6	112.6	 720	OK
2315	   0	81.5	109.3	 657	OK
2316	   0	84.2	109.9	 694	OK
2317	   0	83.4	116.4	 803	OK
2318	   0	83.2	112.9	 700	OK
2319	   0	83.4	111.9	 646	OK
2320	   0	81.8	110.5	 728	OK
2321	   0	81.8	111.5	 799	OK
2322	   0	83.4	113.8	 679	OK
2323	   0	82.2	108.2	 798	OK
2324	   0	81.0	110.4	 690	OK
2325	   0	82.7	112.7	 759	OK
2326	   0	83.8	113.2	 671	OK
2327	   0	81.9	111.5	 648	OK
2328	   0	84.2	111.6	 759	OK
2329	   0	79.9	110.1	 747	OK
2330	   0	82.1	111.4	 741	OK
2331	   0	82.7	113.5	 738	OK
2332	   0	82.3	110.8	 734	OK
2333	   0	81.2	111.6	 718	OK
2334	   0	82.2	110.7	 753	OK
2335	   0	79.2	107.5	 766	OK
2336	   0	81.5	112.3	 835	OK
2337	   0	80.9	108.9	 753	OK
2338	   0	82.5	112.2	 679	OK
2339	   0	81.8	111.1	 775	OK
2340	   0	82.9	112.6	 730	OK
2341	   0	79.1	109.4	 709	OK
2342	4000	80.4	114.4	 843	high noise
2343	   0	79.5	109.5	 769	OK
2344	   0	80.8	109.1	 794	OK
2345	   0	78.9	109.6	 758	OK
2346	   0	82.5	110.5	 769	OK
2347	   0	80.1	108.9	 634	OK
2348	   0	82.8	111.5	 744	OK
2349	   0	82.0	111.3	 692	OK
2350	   0	81.5	110.1	 696	OK
2351	   0	81.0	109.9	 780	OK
2352	   0	81.9	113.3	 798	OK
2353	   0	82.0	110.0	 737	OK
2354	   0	82.1	111.4	 793	OK
2355	   0	78.5	107.2	 656	OK
2356	   0	81.8	112.6	 707	OK
2357	   0	82.9	112.5	 811	OK
2358	   0	82.1	110.0	 833	OK
2359	   0	83.2	111.8	 700	OK
2360	   0	80.5	110.6	 735	OK
2361	   0	84.4	113.3	 658	OK
2362	   0	80.8	109.8	 725	OK
2363	   0	82.2	112.7	 711	OK
2364	   0	82.1	109.6	 720	OK
2365	   0	81.8	111.0	 781	OK
2366	   0	83.4	113.0	 806	OK
2367	   0	83.1	115.1	 679	OK
2368	   0	81.4	112.9	 687	OK
2369	   0	83.7	115.3	 701	OK
2370	   0	82.0	108.8	 705	OK
2371	   0	85.1	112.8	 668	OK
2372	   0	82.5	110.3	 800	OK
2373	   0	83.6	114.0	 719	OK
2374	   0	81.0	109.1	 695	OK
2375	   0	81.2	112.0	 747	OK
2376	   0	82.3	111.1	 702	OK
2377	   0	80.8	113.5	 722	OK
2378	   0	81.1	109.1	 703	OK
2379	   0	80.4	109.9	 682	OK
2380	   0	82.1	113.2	 774	OK
2381	   0	82.9	112.8	 754	OK
2382	   0	81.0	108.3	 644	OK
2383	   0	81.4	113.3	 718	OK
2384	   0	82.4	109.8	 726	OK
2385	4000	82.1	109.7	 864	high noise
2386	   0	78.9	107.3	 750	OK
2387	   0	80.9	109.3	 808	OK
2388	   0	81.9	113.5	 739	OK
2389	   0	79.2	109.7	 697	OK
2390	   0	80.6	112.7	 778	OK
2391	   0	83.7	112.8	 779	OK
2392	   0	81.7	110.2	 807	OK
2393	   0	80.7	109.7	 728	OK
2394	   0	81.5	109.8	 696	OK
2395	   0	79.4	109.0	 694	OK
2396	   0	83.1	110.5	 694	OK
2397	   0	79.4	108.1	 730	OK
2398	   0	83.3	114.6	 655	OK
2399	   0	83.1	111.7	 619	OK
2400	   0	81.2	112.9	 702	OK
2401	   0	78.9	108.1	 620	OK
2402	   0	79.5	107.7	 679	OK
2403	   0	81.8	110.3	 778	OK
2404	   0	80.8	111.2	 782	OK
2405	   0	79.5	111.4	 833	OK
2406	   0	82.5	111.8	 769	OK
2407	   0	84.6	111.1	 731	OK
2408	   0	81.9	113.3	 734	OK
2409	   0	80.9	112.9	 769	OK
2410	   0	79.1	109.4	 728	OK
2411	   0	82.3	110.5	 719	OK
2412	   0	78.7	107.4	 805	OK
2413	   0	82.2	113.5	 669	OK
2414	   0	81.9	111.8	 555	OK
2415	   0	82.5	110.5	 751	OK
2416	   0	84.2	114.2	 657	OK
2417	   0	80.5	111.1	 647	OK
2418	   0	82.0	111.8	 709	OK
2419	   0	81.6	111.7	 737	OK
2420	4000	81.4	113.5	 865	high noise
2421	   0	80.1	112.8	 733	OK
2422	   0	83.0	110.1	 707	OK
2423	   0	79.5	108.4	 718	OK
2424	   0	83.3	113.3	 693	OK
2425	   0	82.3	111.4	 607	OK
2426	   0	79.1	107.1	 813	OK
2427	   0	84.2	110.1	 720	OK
2428	   0	80.4	108.7	 683	OK
2429	   0	82.5	112.1	 720	OK
2430	   0	80.5	110.3	 773	OK
2431	   0	82.0	112.3	 654	OK
2432	   0	87.7	113.4	 736	OK
2433	   0	87.6	119.2	 659	OK
2434	   0	88.5	116.1	 713	OK
2435	   0	87.7	118.4	 660	OK
2436	   0	86.1	113.2	 707	OK
2437	   0	85.8	114.2	 813	OK
2438	   0	87.2	114.9	 744	OK
2439	   0	85.9	111.9	 731	OK
2440	   0	87.6	117.6	 728	OK
2441	   0	85.3	115.8	 717	OK
2442	   0	83.8	113.3	 827	OK
2443	   0	87.0	114.7	 682	OK
2444	   0	84.7	117.6	 765	OK
2445	   0	83.4	112.1	 735	OK
2446	   0	85.1	114.5	 753	OK
2447	   0	83.1	115.6	 673	OK
2448	   0	85.5	113.4	 746	OK
2449	   0	85.9	115.8	 804	OK
2450	   0	88.9	118.2	 754	OK
2451	   0	86.6	115.9	 812	OK
2452	   0	87.9	114.6	 670	OK
2453	   0	85.2	112.9	 677	OK
2454	   0	87.3	116.9	 777	OK
2455	   0	84.3	117.7	 697	OK
2456	   0	84.7	113.4	 670	OK
2457	   0	87.1	113.3	 712	OK
2458	   0	87.3	116.4	 741	OK
2459	   0	85.9	117.1	 754	OK
2460	   0	87.3	118.5	 769	OK
2461	   0	87.5	115.6	 667	OK
2462	   0	85.9	115.7	 701	OK
2463	   0	87.0	113.8	 677	OK
2464	   0	83.5	113.9	 814	OK
2465	   0	85.7	113.7	 707	OK
2466	   0	86.2	115.8	 719	OK
2467	   0	88.1	116.8	 749	OK
2468	   0	87.3	113.5	 717	OK
2469	   0	88.3	117.1	 665	OK
2470	   0	87.7	114.6	 752	OK
2471	   0	89.0	116.5	 737	OK
2472	   0	87.5	117.8	 758	OK
2473	   0	85.9	116.1	 733	OK
2474	   0	85.4	114.8	 727	OK
2475	   0	87.2	115.1	 739	OK
2476	   0	87.9	116.5	 651	OK
2477	   0	88.7	116.6	 570	OK
2478	   0	87.1	113.3	 817	OK
2479	   0	85.6	114.3	 805	OK
2480	   0	88.4	118.4	 688	OK
2481	   0	84.9	114.9	 698	OK
2482	   0	84.6	116.7	 701	OK
2483	   0	84.5	113.8	 617	OK
2484	   0	86.2	116.7	 763	OK
2485	   0	86.7	115.9	 796	OK
2486	   0	86.1	114.9	 662	OK
2487	   0	86.4	114.5	 742	OK
2488	   0	84.2	114.1	 697	OK
2489	   0	87.5	117.7	 775	OK
2490	1000	87.0	118.2	 502	unbonded
2491	   0	86.9	115.1	 755	OK
2492	   0	87.7	119.9	 685	OK
2493	   0	87.1	120.3	 704	OK
2494	   0	87.5	116.2	 706	OK
2495	   0	88.9	120.4	 808	OK
2496	   0	88.0	120.7	 744	OK
2497	   0	85.5	116.5	 701	OK
2498	   0	85.2	112.1	 716	OK
2499	   0	84.2	115.7	 759	OK
2500	   0	86.2	114.3	 690	OK
2501	   0	85.9	114.0	 618	OK
2502	   0	83.4	112.9	 739	OK
2503	   0	85.1	114.3	 752	OK
2504	   0	86.1	114.9	 691	OK
2505	   0	84.4	113.7	 725	OK
2506	   0	86.2	113.8	 717	OK
2507	   0	85.3	115.7	 714	OK
2508	   0	84.0	111.4	 680	OK
2509	   0	83.3	113.3	 666	OK
2510	   0	85.4	116.5	 731	OK
2511	   0	82.4	113.2	 730	OK
2512	   0	85.8	115.4	 717	OK
2513	   0	83.8	113.2	 766	OK
2514	   0	84.7	115.3	 723	OK
2515	   0	84.6	111.7	 656	OK
2516	   0	83.4	111.8	 716	OK
2517	   0	84.8	112.5	 797	OK
2518	   0	86.9	115.7	 776	OK
2519	   0	83.7	114.4	 783	OK
2520	   0	81.9	114.6	 797	OK
2521	   0	85.6	115.9	 601	OK
2522	   0	87.4	116.4	 720	OK
2523	4000	83.0	110.4	 846	high noise
2524	   0	81.2	109.2	 809	OK
2525	   0	85.5	112.5	 639	OK
2526	   0	87.4	116.0	 639	OK
2527	   0	84.6	115.6	 651	OK
2528	   0	85.2	112.2	 701	OK
2529	   0	82.9	113.0	 740	OK
2530	   0	84.0	110.9	 635	OK
2531	   0	84.7	112.7	 703	OK
2532	   0	85.6	113.5	 795	OK
2533	   0	84.4	112.0	 723	OK
2534	   0	84.6	113.8	 664	OK
2535	   0	82.3	112.0	 636	OK
2536	   0	86.8	115.3	 764	OK
2537	   0	84.0	113.1	 807	OK
2538	   0	84.2	114.0	 734	OK
2539	   0	85.3	113.6	 670	OK
2540	   0	85.4	117.7	 772	OK
2541	   0	85.1	114.4	 680	OK
2542	   0	81.7	109.9	 753	OK
2543	   0	83.8	114.9	 635	OK
2544	   0	83.9	117.2	 732	OK
2545	   0	85.4	113.6	 686	OK
2546	   0	87.5	118.7	 751	OK
2547	   0	84.9	113.3	 804	OK
2548	   0	84.5	114.1	 663	OK
2549	   0	87.7	115.6	 706	OK
2550	   0	83.8	111.5	 661	OK
2551	   0	82.9	111.5	 764	OK
2552	   0	85.2	117.5	 758	OK
2553	   0	83.8	115.7	 728	OK
2554	   0	87.4	116.9	 682	OK
2555	   0	84.0	113.6	 782	OK
2556	   0	88.8	117.9	 724	OK
2557	   0	84.6	113.9	 688	OK
2558	   0	86.0	115.3	 673	OK
2559	   0	86.1	113.1	 696	OK
