#chan	code	gain	vt50	innse	comment
   0	   0	87.5	115.5	 698	OK
   1	   0	88.5	122.4	 699	OK
   2	   0	87.9	118.6	 760	OK
   3	   0	87.9	117.9	 765	OK
   4	   0	85.4	116.4	 708	OK
   5	   0	87.9	116.7	 763	OK
   6	   0	85.4	114.7	 661	OK
   7	   0	86.8	119.6	 665	OK
   8	   0	85.2	113.0	 737	OK
   9	   0	88.1	118.6	 611	OK
  10	   0	86.1	118.1	 672	OK
  11	   0	85.3	116.7	 746	OK
  12	   0	89.9	118.2	 670	OK
  13	   0	84.9	114.3	 720	OK
  14	   0	84.0	112.9	 838	OK
  15	   0	86.3	113.3	 664	OK
  16	   0	85.2	117.0	 737	OK
  17	   0	85.8	116.1	 743	OK
  18	   0	83.4	115.5	 729	OK
  19	   0	81.7	114.0	 682	OK
  20	   0	87.4	116.0	 631	OK
  21	   0	85.2	115.8	 726	OK
  22	   0	85.5	116.6	 757	OK
  23	   0	85.6	115.6	 713	OK
  24	   0	84.7	112.9	 718	OK
  25	   0	81.3	113.4	 615	OK
  26	   0	86.5	113.9	 771	OK
  27	   0	83.7	114.0	 804	OK
  28	   0	91.9	119.4	 627	OK
  29	   0	84.9	113.6	 692	OK
  30	   0	86.7	113.0	 667	OK
  31	   0	86.0	116.4	 677	OK
  32	   0	87.9	118.8	 710	OK
  33	   0	83.3	112.7	 776	OK
  34	   0	85.4	116.3	 739	OK
  35	   0	83.7	115.6	 647	OK
  36	   0	86.3	116.0	 806	OK
  37	   0	83.5	112.6	 666	OK
  38	   0	85.3	115.3	 706	OK
  39	   0	86.1	115.0	 720	OK
  40	   0	86.2	116.3	 664	OK
  41	   0	84.4	114.2	 714	OK
  42	   0	81.9	115.1	 697	OK
  43	   0	84.0	117.2	 724	OK
  44	   0	86.6	116.9	 781	OK
  45	   0	86.1	116.0	 809	OK
  46	   0	87.6	113.3	 739	OK
  47	   0	82.8	112.8	 726	OK
  48	   0	83.9	115.5	 755	OK
  49	   0	85.8	115.5	 794	OK
  50	   0	82.5	113.0	 782	OK
  51	   0	84.9	113.2	 819	OK
  52	   0	88.8	115.2	 759	OK
  53	   0	82.9	114.6	 618	OK
  54	   0	85.0	117.1	 705	OK
  55	   0	85.5	114.0	 746	OK
  56	   0	86.2	117.2	 801	OK
  57	   0	84.8	115.1	 830	OK
  58	   0	84.7	114.9	 669	OK
  59	   0	85.9	117.2	 794	OK
  60	   0	88.1	118.0	 653	OK
  61	   0	86.9	116.9	 621	OK
  62	   0	86.3	114.3	 817	OK
  63	   0	85.8	113.8	 767	OK
  64	   0	84.7	113.9	 751	OK
  65	   0	86.6	117.4	 565	OK
  66	   0	82.7	113.1	 806	OK
  67	   0	80.7	112.1	 745	OK
  68	   0	83.7	112.5	 646	OK
  69	   0	84.7	116.3	 746	OK
  70	   0	85.2	115.5	 744	OK
  71	   0	84.4	113.5	 794	OK
  72	   0	87.6	116.9	 692	OK
  73	   0	81.4	110.5	 778	OK
  74	   0	84.5	112.4	 719	OK
  75	   0	83.4	114.9	 633	OK
  76	   0	82.5	114.0	 797	OK
  77	   0	84.3	111.1	 740	OK
  78	   0	79.2	108.6	 761	OK
  79	   0	83.9	112.6	 792	OK
  80	   0	86.3	114.7	 704	OK
  81	   0	82.4	113.8	 733	OK
  82	   0	83.7	111.5	 822	OK
  83	   0	84.5	111.1	 735	OK
  84	   0	85.8	118.0	 824	OK
  85	   0	83.4	115.7	 729	OK
  86	   0	83.1	111.1	 687	OK
  87	   0	82.6	111.8	 849	OK
  88	4000	80.7	110.8	 870	high noise
  89	   0	83.4	113.2	 737	OK
  90	4000	82.1	114.3	 962	high noise
  91	   0	85.6	113.2	 779	OK
  92	   0	81.5	113.7	 789	OK
  93	   0	82.7	113.6	 793	OK
  94	   0	85.5	115.0	 826	OK
  95	   0	83.9	116.6	 797	OK
  96	   0	79.9	109.4	 846	OK
  97	   0	83.1	112.7	 706	OK
  98	   0	83.2	114.4	 795	OK
  99	   0	81.2	111.3	 776	OK
 100	   0	83.4	112.8	 774	OK
 101	   0	83.4	111.9	 835	OK
 102	   0	82.3	113.9	 716	OK
 103	   0	85.4	117.8	 803	OK
 104	   0	80.0	109.9	 641	OK
 105	   0	83.7	111.8	 796	OK
 106	   0	83.7	115.2	 732	OK
 107	   0	84.7	114.2	 682	OK
 108	   0	85.1	115.9	 817	OK
 109	   0	86.0	116.0	 714	OK
 110	   0	82.5	112.5	 806	OK
 111	   0	84.8	115.1	 743	OK
 112	   0	85.6	114.9	 745	OK
 113	   0	86.2	113.6	 678	OK
 114	   0	82.0	112.7	 715	OK
 115	   0	81.6	113.2	 729	OK
 116	   0	84.6	114.8	 752	OK
 117	   0	83.2	115.2	 779	OK
 118	   0	81.9	111.1	 707	OK
 119	   0	83.2	113.0	 707	OK
 120	   0	82.5	113.9	 845	OK
 121	   0	83.7	112.1	 623	OK
 122	   0	84.6	114.3	 786	OK
 123	   0	83.7	109.8	 688	OK
 124	   0	88.4	114.1	 762	OK
 125	   0	84.7	113.9	 711	OK
 126	   0	82.0	110.9	 817	OK
 127	   0	84.2	114.8	 803	OK
 128	4000	77.8	106.6	 912	high noise
 129	   0	80.9	112.5	 732	OK
 130	   0	81.0	111.3	 779	OK
 131	   0	79.2	110.6	 770	OK
 132	   0	82.1	109.7	 805	OK
 133	4000	80.3	110.7	 918	high noise
 134	4000	79.0	109.1	 873	high noise
 135	   0	80.4	109.7	 719	OK
 136	4000	79.6	109.6	 868	high noise
 137	   0	78.9	108.2	 753	OK
 138	   0	76.3	110.5	 734	OK
 139	   0	77.4	109.8	 709	OK
 140	   0	78.9	108.9	 790	OK
 141	   0	80.6	107.7	 766	OK
 142	   0	79.7	108.5	 776	OK
 143	   0	77.8	109.7	 714	OK
 144	4000	77.5	107.4	 888	high noise
 145	   0	78.8	109.9	 832	OK
 146	   0	82.3	112.7	 713	OK
 147	   0	79.6	108.3	 773	OK
 148	   0	79.4	107.6	 755	OK
 149	   0	82.7	110.0	 713	OK
 150	4000	78.3	105.6	 872	high noise
 151	   0	78.2	106.3	 776	OK
 152	4000	78.9	107.2	 898	high noise
 153	   0	79.4	109.0	 720	OK
 154	   0	80.0	107.7	 816	OK
 155	   0	75.7	105.5	 765	OK
 156	   0	78.0	104.9	 794	OK
 157	   0	79.8	111.5	 684	OK
 158	   0	78.1	109.0	 764	OK
 159	   0	79.5	107.1	 790	OK
 160	   0	77.4	107.3	 785	OK
 161	   0	80.3	109.0	 744	OK
 162	   0	77.0	107.1	 741	OK
 163	   0	79.0	106.5	 762	OK
 164	   0	79.9	108.2	 755	OK
 165	   0	78.6	108.6	 694	OK
 166	   0	75.5	106.9	 846	OK
 167	   0	78.3	109.2	 763	OK
 168	   0	79.4	108.5	 688	OK
 169	   0	79.2	106.6	 725	OK
 170	   0	79.0	108.1	 833	OK
 171	   0	78.5	110.5	 793	OK
 172	   0	79.1	109.7	 724	OK
 173	   0	74.9	104.1	 658	OK
 174	   0	78.9	108.6	 823	OK
 175	   0	75.8	103.8	 813	OK
 176	   0	78.9	108.0	 825	OK
 177	   0	78.0	106.7	 717	OK
 178	   0	79.8	109.8	 610	OK
 179	   0	78.1	106.7	 712	OK
 180	   0	77.6	110.3	 835	OK
 181	   0	78.2	105.4	 716	OK
 182	4000	76.9	110.2	 944	high noise
 183	   0	79.6	110.3	 721	OK
 184	   0	78.2	107.3	 775	OK
 185	   0	79.2	108.3	 752	OK
 186	   0	79.9	111.2	 772	OK
 187	   0	82.1	110.4	 648	OK
 188	   0	80.1	111.2	 736	OK
 189	   0	77.7	108.5	 621	OK
 190	   0	80.6	109.3	 788	OK
 191	   0	80.8	108.0	 691	OK
 192	   0	76.7	107.9	 801	OK
 193	   0	79.1	108.8	 705	OK
 194	   0	76.6	109.1	 700	OK
 195	   0	75.7	105.9	 815	OK
 196	   0	80.5	109.2	 758	OK
 197	   0	77.9	107.5	 674	OK
 198	   0	75.3	106.9	 668	OK
 199	   0	78.1	105.4	 730	OK
 200	   0	74.1	106.2	 738	OK
 201	   0	78.1	108.3	 689	OK
 202	   0	77.8	106.0	 685	OK
 203	   0	79.1	108.1	 758	OK
 204	   0	78.4	108.4	 692	OK
 205	4000	78.6	107.9	 858	high noise
 206	   0	75.5	105.2	 721	OK
 207	   0	77.8	106.6	 700	OK
 208	   0	77.6	107.3	 733	OK
 209	   0	76.3	104.7	 664	OK
 210	4000	78.5	107.4	 861	high noise
 211	   0	76.9	107.1	 576	OK
 212	   0	78.6	107.7	 763	OK
 213	   0	78.0	109.0	 708	OK
 214	   0	77.8	109.0	 675	OK
 215	   0	78.8	110.4	 577	OK
 216	   0	78.1	110.1	 782	OK
 217	   0	80.8	109.4	 644	OK
 218	   0	78.2	106.7	 732	OK
 219	   0	78.9	105.6	 706	OK
 220	   0	79.1	107.2	 711	OK
 221	   0	77.9	107.6	 760	OK
 222	   0	78.2	107.0	 674	OK
 223	   0	77.2	106.3	 823	OK
 224	   0	79.2	109.7	 771	OK
 225	   0	79.8	110.5	 648	OK
 226	   0	78.6	107.5	 704	OK
 227	   0	78.3	109.1	 721	OK
 228	   0	77.3	106.2	 729	OK
 229	   0	78.6	107.0	 736	OK
 230	4000	79.5	109.5	 895	high noise
 231	   0	78.3	108.1	 632	OK
 232	   0	76.4	109.0	 813	OK
 233	   0	78.4	109.2	 683	OK
 234	   0	76.3	107.4	 688	OK
 235	   0	77.7	107.0	 728	OK
 236	   0	76.3	108.4	 746	OK
 237	   0	78.2	108.0	 724	OK
 238	   0	75.9	104.1	 737	OK
 239	   0	77.2	106.0	 617	OK
 240	   0	78.8	107.7	 736	OK
 241	   0	78.6	110.2	 724	OK
 242	   0	78.2	111.2	 687	OK
 243	   0	76.7	105.4	 688	OK
 244	   0	80.8	110.3	 671	OK
 245	   0	80.9	110.9	 751	OK
 246	   0	76.7	107.5	 603	OK
 247	   0	80.0	108.5	 578	OK
 248	   0	79.4	106.9	 766	OK
 249	   0	77.2	106.2	 725	OK
 250	   0	77.3	107.1	 678	OK
 251	   0	82.4	112.9	 720	OK
 252	   0	77.3	109.2	 660	OK
 253	   0	76.7	107.5	 689	OK
 254	   0	77.7	107.2	 697	OK
 255	   0	80.3	109.8	 791	OK
 256	   0	86.5	115.3	 800	OK
 257	   0	86.6	116.1	 697	OK
 258	   0	89.4	115.4	 750	OK
 259	   0	82.9	113.3	 789	OK
 260	   0	86.2	114.2	 796	OK
 261	   0	85.4	113.9	 808	OK
 262	   0	85.3	117.3	 718	OK
 263	   0	86.1	113.3	 795	OK
 264	   0	82.4	116.7	 808	OK
 265	   0	81.3	111.5	 725	OK
 266	   0	85.7	115.9	 751	OK
 267	   0	86.7	118.4	 731	OK
 268	   0	85.2	115.4	 699	OK
 269	   0	85.5	114.5	 822	OK
 270	   0	82.5	115.4	 654	OK
 271	   0	88.5	116.0	 788	OK
 272	   0	85.7	112.4	 742	OK
 273	   0	80.8	110.5	 792	OK
 274	   0	85.9	115.1	 739	OK
 275	   0	84.1	112.0	 723	OK
 276	   0	85.3	115.2	 717	OK
 277	   0	81.5	112.4	 669	OK
 278	   0	84.6	111.1	 732	OK
 279	   0	83.9	114.3	 772	OK
 280	   0	89.9	115.2	 723	OK
 281	   0	82.8	113.3	 757	OK
 282	   0	85.2	114.9	 734	OK
 283	   0	84.1	114.1	 721	OK
 284	   0	87.7	116.2	 746	OK
 285	   0	84.7	114.1	 758	OK
 286	   0	81.8	110.9	 719	OK
 287	   0	87.3	118.2	 686	OK
 288	   0	84.2	112.2	 722	OK
 289	   0	83.4	111.1	 745	OK
 290	   0	84.4	115.2	 724	OK
 291	   0	82.7	115.0	 767	OK
 292	   0	85.2	113.1	 757	OK
 293	   0	85.4	114.5	 854	OK
 294	   0	85.2	111.5	 710	OK
 295	   0	83.9	116.6	 737	OK
 296	   0	83.9	111.8	 761	OK
 297	   0	81.0	113.7	 685	OK
 298	   0	85.2	113.1	 712	OK
 299	   0	82.3	115.3	 780	OK
 300	   0	86.4	113.5	 704	OK
 301	   0	80.8	114.3	 627	OK
 302	   0	85.5	113.0	 741	OK
 303	   0	86.4	113.6	 776	OK
 304	   0	80.2	109.9	 801	OK
 305	   0	83.9	113.4	 742	OK
 306	   0	86.5	115.0	 686	OK
 307	   0	85.9	114.5	 686	OK
 308	   0	84.6	113.5	 834	OK
 309	   0	84.0	114.1	 718	OK
 310	   0	81.7	114.0	 801	OK
 311	   0	87.1	114.9	 775	OK
 312	   0	85.1	115.1	 805	OK
 313	   0	82.0	111.0	 723	OK
 314	   0	83.9	115.3	 698	OK
 315	   0	87.1	116.8	 680	OK
 316	   0	86.2	113.4	 763	OK
 317	   0	83.6	115.6	 858	OK
 318	   0	90.2	119.0	 685	OK
 319	   0	85.4	113.7	 646	OK
 320	   0	83.9	113.5	 812	OK
 321	   0	88.4	117.0	 763	OK
 322	   0	80.5	112.3	 726	OK
 323	   0	84.3	115.2	 828	OK
 324	   0	84.4	117.6	 787	OK
 325	   0	86.6	113.1	 735	OK
 326	   0	82.9	115.5	 790	OK
 327	   0	83.2	114.4	 731	OK
 328	   0	83.0	111.6	 755	OK
 329	   0	82.1	113.0	 797	OK
 330	   0	83.2	111.4	 706	OK
 331	   0	81.5	112.3	 805	OK
 332	   0	80.7	111.1	 777	OK
 333	   0	83.0	109.5	 770	OK
 334	   0	81.0	112.1	 726	OK
 335	   0	82.4	113.1	 794	OK
 336	   0	83.4	115.1	 739	OK
 337	   0	82.3	112.0	 766	OK
 338	   0	85.0	113.8	 722	OK
 339	   0	84.2	112.7	 785	OK
 340	   0	81.0	111.5	 744	OK
 341	   0	82.8	111.7	 778	OK
 342	   0	80.3	110.0	 831	OK
 343	   0	84.3	113.8	 769	OK
 344	   0	85.5	113.6	 755	OK
 345	   0	79.0	111.1	 760	OK
 346	   0	83.0	114.1	 764	OK
 347	   0	83.1	111.8	 636	OK
 348	   0	85.1	114.1	 737	OK
 349	   0	82.4	113.8	 835	OK
 350	   0	84.2	112.5	 620	OK
 351	   0	81.2	112.3	 685	OK
 352	   0	84.4	113.3	 691	OK
 353	   0	81.0	111.1	 655	OK
 354	   0	83.7	110.7	 761	OK
 355	   0	80.3	109.6	 784	OK
 356	   0	82.3	108.7	 807	OK
 357	   0	80.3	109.5	 753	OK
 358	   0	83.9	114.4	 745	OK
 359	   0	81.0	114.6	 787	OK
 360	   0	82.4	113.8	 770	OK
 361	   0	82.4	110.2	 765	OK
 362	   0	83.8	113.8	 759	OK
 363	   0	86.9	115.7	 713	OK
 364	   0	80.5	111.2	 767	OK
 365	   0	83.4	114.2	 765	OK
 366	   0	82.1	110.8	 784	OK
 367	   0	85.1	112.1	 660	OK
 368	   0	80.3	111.7	 725	OK
 369	   0	80.1	108.9	 827	OK
 370	   0	80.5	108.6	 779	OK
 371	   0	83.8	114.8	 709	OK
 372	   0	81.4	108.6	 699	OK
 373	   0	83.1	114.1	 734	OK
 374	   0	83.6	110.6	 757	OK
 375	   0	83.5	113.6	 808	OK
 376	   0	88.4	113.7	 652	OK
 377	   0	82.3	112.4	 739	OK
 378	4000	85.2	115.8	 913	high noise
 379	   0	82.8	113.3	 756	OK
 380	   0	82.7	111.4	 690	OK
 381	   0	83.3	112.2	 756	OK
 382	   0	84.3	112.4	 736	OK
 383	   0	84.2	115.0	 674	OK
 384	   0	81.4	110.1	 772	OK
 385	   0	79.9	108.7	 792	OK
 386	   0	81.6	107.5	 697	OK
 387	   0	83.0	111.0	 824	OK
 388	   0	80.5	111.2	 777	OK
 389	   0	82.7	110.5	 866	OK
 390	   0	80.4	114.0	 807	OK
 391	   0	81.9	110.9	 830	OK
 392	   0	81.9	111.6	 813	OK
 393	   0	80.3	109.8	 760	OK
 394	   0	80.1	109.4	 773	OK
 395	   0	79.6	107.9	 695	OK
 396	   0	80.1	110.7	 678	OK
 397	   0	80.8	110.8	 772	OK
 398	   0	81.6	110.3	 731	OK
 399	   0	80.2	109.4	 841	OK
 400	   0	77.3	105.9	 776	OK
 401	   0	78.7	106.7	 704	OK
 402	   0	84.3	110.6	 633	OK
 403	   0	79.7	110.9	 730	OK
 404	   0	82.2	109.9	 712	OK
 405	   0	80.6	111.1	 825	OK
 406	   0	80.7	108.3	 730	OK
 407	   0	80.0	110.0	 768	OK
 408	   0	78.8	109.5	 842	OK
 409	   0	80.2	109.4	 728	OK
 410	   0	81.9	112.0	 687	OK
 411	   0	81.5	112.3	 695	OK
 412	   0	80.7	112.1	 764	OK
 413	   0	80.4	107.9	 712	OK
 414	   0	77.0	109.0	 814	OK
 415	   0	80.8	112.3	 681	OK
 416	   0	82.9	109.8	 802	OK
 417	   0	82.4	111.0	 821	OK
 418	   0	77.5	109.2	 698	OK
 419	   0	81.1	106.8	 656	OK
 420	   0	80.4	107.8	 704	OK
 421	   0	79.4	107.1	 785	OK
 422	   0	84.0	109.8	 756	OK
 423	   0	78.8	106.1	 784	OK
 424	   0	82.3	110.0	 748	OK
 425	   0	80.4	108.9	 772	OK
 426	   0	81.3	110.4	 772	OK
 427	   0	81.5	110.4	 805	OK
 428	   0	81.4	108.9	 669	OK
 429	   0	81.6	108.5	 742	OK
 430	   0	83.8	112.1	 795	OK
 431	   0	81.7	108.7	 653	OK
 432	   0	77.6	106.8	 761	OK
 433	4000	79.7	107.5	 870	high noise
 434	   0	79.1	110.5	 781	OK
 435	   0	82.0	112.1	 805	OK
 436	   0	80.2	108.3	 660	OK
 437	   0	74.9	105.4	 840	OK
 438	4000	79.8	109.9	 892	high noise
 439	   0	81.5	111.0	 822	OK
 440	   0	78.8	108.7	 767	OK
 441	   0	80.4	107.5	 820	OK
 442	   0	81.8	111.6	 611	OK
 443	   0	85.1	115.3	 780	OK
 444	   0	78.3	105.7	 780	OK
 445	   0	81.2	110.3	 737	OK
 446	   0	85.9	114.4	 814	OK
 447	   0	82.8	112.8	 790	OK
 448	   0	80.2	108.7	 679	OK
 449	   0	79.0	108.1	 775	OK
 450	   0	78.9	109.0	 717	OK
 451	   0	83.7	110.7	 681	OK
 452	   0	79.5	109.8	 799	OK
 453	   0	81.1	110.4	 641	OK
 454	   0	79.0	110.1	 768	OK
 455	   0	78.3	106.2	 675	OK
 456	   0	80.9	110.6	 815	OK
 457	   0	80.5	113.3	 789	OK
 458	   0	79.5	107.5	 768	OK
 459	   0	76.9	105.2	 690	OK
 460	   0	79.6	106.7	 765	OK
 461	   0	79.3	107.0	 697	OK
 462	   0	81.2	109.1	 707	OK
 463	   0	83.3	110.2	 779	OK
 464	   0	77.8	110.3	 790	OK
 465	   0	79.8	110.0	 782	OK
 466	   0	77.7	107.2	 645	OK
 467	   0	78.2	106.4	 819	OK
 468	   0	79.3	107.0	 695	OK
 469	   0	77.0	106.6	 688	OK
 470	   0	78.7	107.3	 801	OK
 471	   0	79.4	109.6	 791	OK
 472	   0	81.1	108.6	 744	OK
 473	   0	82.1	111.6	 723	OK
 474	   0	79.4	108.8	 683	OK
 475	   0	80.7	106.8	 734	OK
 476	   0	80.2	112.1	 680	OK
 477	   0	78.7	107.6	 801	OK
 478	   0	78.3	108.6	 687	OK
 479	   0	78.2	109.3	 796	OK
 480	   0	83.0	108.8	 698	OK
 481	   0	78.7	108.9	 719	OK
 482	   0	75.6	106.4	 833	OK
 483	   0	81.8	109.1	 805	OK
 484	   0	84.0	108.1	 686	OK
 485	   0	83.1	113.9	 808	OK
 486	4000	81.4	110.0	 872	high noise
 487	   0	78.7	109.2	 833	OK
 488	   0	82.1	109.9	 706	OK
 489	   0	80.3	110.5	 800	OK
 490	   0	80.3	106.9	 599	OK
 491	   0	79.1	106.1	 695	OK
 492	   0	78.7	106.5	 816	OK
 493	   0	76.7	107.0	 764	OK
 494	   0	79.7	107.1	 760	OK
 495	   0	79.0	109.1	 813	OK
 496	   0	78.7	110.6	 686	OK
 497	   0	80.6	109.7	 676	OK
 498	   0	80.3	109.6	 765	OK
 499	   0	80.8	113.0	 704	OK
 500	   0	78.1	106.6	 814	OK
 501	   0	82.5	112.8	 739	OK
 502	   0	81.9	112.0	 709	OK
 503	   0	79.9	108.1	 743	OK
 504	   0	81.7	112.5	 657	OK
 505	   0	81.8	107.6	 764	OK
 506	   0	79.5	109.8	 866	OK
 507	   0	81.6	109.0	 712	OK
 508	   0	81.8	111.1	 701	OK
 509	   0	82.3	113.4	 851	OK
 510	   0	81.6	111.7	 848	OK
 511	   0	79.8	111.0	 769	OK
 512	   0	82.9	111.9	 721	OK
 513	   0	81.3	112.1	 757	OK
 514	   0	82.7	113.2	 688	OK
 515	   0	78.9	109.0	 765	OK
 516	   0	82.7	112.3	 786	OK
 517	   0	81.8	112.7	 786	OK
 518	   0	79.7	108.6	 890	OK
 519	   0	80.2	110.5	 649	OK
 520	   0	82.2	109.8	 798	OK
 521	   0	78.8	109.8	 774	OK
 522	   0	81.3	109.2	 763	OK
 523	   0	83.0	112.6	 708	OK
 524	   0	81.5	111.6	 845	OK
 525	   0	79.1	105.2	 794	OK
 526	   0	78.5	109.6	 872	OK
 527	   0	78.6	110.9	 856	OK
 528	   0	80.8	109.9	 666	OK
 529	   0	76.4	109.8	 699	OK
 530	   0	80.0	110.2	 858	OK
 531	   0	79.8	108.9	 794	OK
 532	   0	80.4	108.6	 797	OK
 533	   0	78.1	109.7	 717	OK
 534	   0	83.4	111.3	 812	OK
 535	   0	79.0	108.1	 769	OK
 536	   0	82.5	110.9	 885	OK
 537	   0	78.6	109.1	 658	OK
 538	   0	79.4	108.8	 825	OK
 539	   0	78.2	107.5	 804	OK
 540	   0	78.9	109.3	 799	OK
 541	   0	76.8	106.4	 893	OK
 542	   0	78.9	108.4	 718	OK
 543	   0	77.9	108.6	 697	OK
 544	   0	78.8	108.5	 748	OK
 545	   0	80.5	111.7	 776	OK
 546	   0	77.8	107.6	 732	OK
 547	   0	77.5	108.0	 788	OK
 548	   0	79.0	109.4	 711	OK
 549	   0	80.8	108.6	 790	OK
 550	   0	77.6	108.2	 810	OK
 551	   0	79.2	109.9	 854	OK
 552	   0	79.4	112.0	 693	OK
 553	   0	77.2	108.3	 776	OK
 554	   0	80.6	111.5	 795	OK
 555	   0	80.3	109.6	 760	OK
 556	   0	81.8	112.7	 634	OK
 557	   0	77.7	107.4	 756	OK
 558	   0	80.7	114.4	 839	OK
 559	   0	76.7	106.6	 772	OK
 560	   0	77.5	108.0	 778	OK
 561	   0	78.9	108.0	 643	OK
 562	   0	81.5	108.9	 856	OK
 563	   0	77.6	107.8	 732	OK
 564	   0	76.8	108.7	 898	OK
 565	   0	78.2	108.8	 664	OK
 566	   0	76.9	108.4	 834	OK
 567	   0	77.5	109.6	 681	OK
 568	   0	77.5	108.1	 758	OK
 569	   0	77.0	108.6	 827	OK
 570	   0	80.9	110.1	 831	OK
 571	   0	77.6	108.2	 665	OK
 572	   0	77.6	110.5	 840	OK
 573	   0	77.4	106.5	 649	OK
 574	   0	78.1	110.6	 758	OK
 575	   0	79.6	106.8	 881	OK
 576	   0	80.6	108.9	 814	OK
 577	   0	75.5	107.4	 771	OK
 578	   0	81.2	112.7	 860	OK
 579	   0	76.6	106.0	 788	OK
 580	   0	81.7	111.7	 715	OK
 581	   0	78.4	107.4	 837	OK
 582	4000	78.7	109.7	 942	high noise
 583	   0	78.5	107.3	 818	OK
 584	   0	79.4	108.3	 770	OK
 585	   0	74.7	106.3	 678	OK
 586	   0	79.0	106.6	 876	OK
 587	   0	75.9	105.8	 858	OK
 588	   0	76.8	105.7	 787	OK
 589	   0	80.3	108.5	 702	OK
 590	   0	78.8	108.1	 839	OK
 591	4000	76.9	107.5	1005	high noise
 592	   0	79.0	108.2	 766	OK
 593	   0	80.6	109.8	 811	OK
 594	   0	76.1	107.5	 801	OK
 595	   0	77.4	109.7	 807	OK
 596	   0	79.2	107.8	 852	OK
 597	   0	78.7	109.3	 691	OK
 598	   0	77.9	109.0	 695	OK
 599	   0	75.3	106.6	 765	OK
 600	   0	78.6	109.7	 836	OK
 601	   0	77.0	108.2	 773	OK
 602	   0	79.9	108.0	 724	OK
 603	   0	78.0	108.5	 904	OK
 604	   0	79.3	110.3	 885	OK
 605	   0	77.9	106.9	 654	OK
 606	   0	76.4	107.0	 853	OK
 607	   0	76.2	105.3	 818	OK
 608	   0	77.4	105.7	 805	OK
 609	   0	77.0	107.0	 788	OK
 610	   0	76.4	106.0	 847	OK
 611	   0	77.0	107.0	 716	OK
 612	   0	79.7	110.6	 845	OK
 613	   0	75.6	106.9	 889	OK
 614	   0	76.2	108.1	 767	OK
 615	   0	76.8	106.0	 753	OK
 616	   0	80.6	109.4	 808	OK
 617	   0	77.9	108.9	 847	OK
 618	   0	81.7	111.5	 862	OK
 619	   0	79.8	106.5	 775	OK
 620	   0	76.6	108.3	 667	OK
 621	   0	78.8	105.9	 883	OK
 622	   0	79.5	111.2	 707	OK
 623	   0	76.9	106.7	 843	OK
 624	   0	78.6	107.5	 709	OK
 625	   0	75.4	105.9	 855	OK
 626	4000	78.8	111.0	 909	high noise
 627	   0	76.6	107.6	 813	OK
 628	   0	77.6	108.3	 895	OK
 629	   0	77.6	108.9	 750	OK
 630	   0	76.2	109.6	 812	OK
 631	   0	78.8	108.9	 749	OK
 632	   0	77.5	104.9	 814	OK
 633	   0	77.6	106.8	 789	OK
 634	   0	79.0	108.5	 692	OK
 635	   0	79.6	105.6	 893	OK
 636	4000	79.1	111.9	 974	high noise
 637	4000	73.8	104.8	 928	high noise
 638	   0	80.9	109.5	 783	OK
 639	   0	80.3	108.9	 863	OK
 640	   0	84.1	110.6	 770	OK
 641	   0	81.4	109.8	 867	OK
 642	   0	84.7	113.8	 876	OK
 643	   0	84.5	110.9	 651	OK
 644	   0	84.3	111.8	 678	OK
 645	   0	81.4	112.0	 749	OK
 646	   0	85.2	110.9	 831	OK
 647	   0	83.4	113.3	 768	OK
 648	   0	81.1	111.8	 792	OK
 649	4000	80.0	110.3	 902	high noise
 650	   0	84.1	111.2	 716	OK
 651	   0	80.0	109.2	 823	OK
 652	   0	78.1	107.6	 770	OK
 653	   0	84.6	113.4	 770	OK
 654	   0	80.1	110.2	 795	OK
 655	   0	85.7	115.9	 787	OK
 656	   0	82.4	113.7	 782	OK
 657	   0	79.1	107.6	 881	OK
 658	   0	82.9	111.9	 820	OK
 659	   0	84.3	113.9	 789	OK
 660	   0	83.5	113.8	 821	OK
 661	   0	83.9	113.7	 671	OK
 662	   0	86.7	114.2	 831	OK
 663	   0	83.7	113.8	 842	OK
 664	   0	83.4	108.1	 625	OK
 665	   0	83.4	110.7	 744	OK
 666	   0	86.9	111.6	 766	OK
 667	   0	81.8	111.0	 750	OK
 668	   0	79.3	110.0	 830	OK
 669	   0	80.4	110.7	 763	OK
 670	   0	82.2	110.8	 803	OK
 671	   0	82.3	110.3	 792	OK
 672	   0	82.2	112.2	 841	OK
 673	   0	82.5	113.9	 823	OK
 674	   0	84.6	111.1	 735	OK
 675	4000	78.9	111.3	 947	high noise
 676	   0	84.1	115.4	 778	OK
 677	   0	83.1	109.9	 869	OK
 678	   0	77.9	110.4	 859	OK
 679	   0	82.1	110.2	 755	OK
 680	   0	79.2	107.7	 784	OK
 681	   0	81.3	111.6	 857	OK
 682	   0	82.1	108.7	 782	OK
 683	   0	78.6	110.8	 855	OK
 684	4000	84.0	111.8	 931	high noise
 685	   0	82.5	111.3	 602	OK
 686	   0	84.9	114.4	 793	OK
 687	   0	83.1	110.3	 808	OK
 688	   0	81.7	111.0	 753	OK
 689	   0	80.6	111.5	 810	OK
 690	   0	85.1	112.5	 791	OK
 691	   0	82.1	109.6	 728	OK
 692	   0	83.8	111.8	 792	OK
 693	   0	81.7	112.0	 796	OK
 694	   0	80.7	111.4	 783	OK
 695	   0	82.9	113.9	 705	OK
 696	   0	82.2	109.8	 688	OK
 697	   0	81.9	111.7	 704	OK
 698	   0	84.6	114.6	 740	OK
 699	   0	81.4	111.5	 709	OK
 700	   0	81.4	110.5	 763	OK
 701	   0	84.1	112.3	 798	OK
 702	   0	83.3	117.5	 770	OK
 703	   0	85.5	113.2	 848	OK
 704	   0	80.3	111.8	 613	OK
 705	   0	82.1	110.3	 795	OK
 706	   0	83.0	110.9	 796	OK
 707	   0	80.6	113.8	 745	OK
 708	   0	84.1	111.8	 661	OK
 709	   0	81.8	112.6	 841	OK
 710	   0	82.9	112.6	 762	OK
 711	   0	81.8	113.7	 752	OK
 712	   0	82.9	109.5	 782	OK
 713	   0	78.5	107.8	 753	OK
 714	   0	81.3	109.6	 726	OK
 715	   0	81.1	111.3	 838	OK
 716	   0	84.2	111.8	 771	OK
 717	   0	79.7	109.4	 834	OK
 718	   0	79.6	109.0	 666	OK
 719	   0	82.0	109.6	 797	OK
 720	   0	82.1	113.4	 809	OK
 721	   0	86.7	118.6	 769	OK
 722	   0	82.5	112.0	 766	OK
 723	   0	81.5	109.4	 856	OK
 724	   0	81.1	110.2	 747	OK
 725	   0	79.8	110.6	 864	OK
 726	   0	85.7	113.4	 894	OK
 727	   0	81.7	110.4	 775	OK
 728	   0	82.2	108.1	 757	OK
 729	   0	82.0	110.4	 749	OK
 730	   0	79.2	110.6	 695	OK
 731	   0	81.5	109.0	 699	OK
 732	   0	82.4	109.0	 730	OK
 733	   0	81.6	109.8	 796	OK
 734	   0	82.9	113.3	 727	OK
 735	   0	75.9	108.6	 763	OK
 736	   0	83.8	111.7	 777	OK
 737	   0	81.4	111.6	 785	OK
 738	   0	85.8	114.2	 746	OK
 739	4000	78.8	111.9	 906	high noise
 740	   0	77.2	110.5	 674	OK
 741	   0	81.5	110.6	 822	OK
 742	   0	84.4	111.3	 701	OK
 743	   0	80.7	108.4	 754	OK
 744	   0	84.1	113.3	 863	OK
 745	   0	82.3	109.2	 773	OK
 746	   0	82.5	113.1	 767	OK
 747	   0	80.6	110.2	 874	OK
 748	   0	80.6	107.9	 826	OK
 749	   0	81.6	113.0	 886	OK
 750	   0	85.8	113.2	 780	OK
 751	   0	83.9	111.4	 756	OK
 752	   0	84.7	111.5	 883	OK
 753	   0	83.1	112.6	 694	OK
 754	   0	83.3	113.7	 745	OK
 755	   0	79.2	107.6	 699	OK
 756	   0	84.1	115.1	 875	OK
 757	   0	81.4	109.1	 758	OK
 758	   0	81.5	106.4	 782	OK
 759	   0	80.9	111.9	 795	OK
 760	   0	77.1	107.3	 792	OK
 761	   0	84.5	111.0	 735	OK
 762	   0	81.3	111.3	 787	OK
 763	   0	83.1	111.5	 876	OK
 764	   0	81.1	110.5	 737	OK
 765	   0	87.2	114.9	 773	OK
 766	   0	83.4	114.1	 885	OK
 767	   0	81.4	109.9	 867	OK
 768	   0	85.4	111.7	 808	OK
 769	   0	85.5	112.4	 821	OK
 770	   0	84.6	114.5	 731	OK
 771	   0	83.0	113.7	 846	OK
 772	   0	85.8	110.8	 794	OK
 773	   0	84.9	115.8	 658	OK
 774	   0	83.1	112.5	 898	OK
 775	   0	86.3	112.4	 809	OK
 776	   0	83.4	114.1	 831	OK
 777	   0	81.4	110.4	 790	OK
 778	   0	83.3	111.8	 865	OK
 779	   0	83.7	108.2	 717	OK
 780	   0	86.4	114.5	 861	OK
 781	   0	79.6	109.9	 874	OK
 782	   0	81.3	109.5	 750	OK
 783	   0	79.1	109.9	 666	OK
 784	   0	81.6	109.3	 666	OK
 785	   0	81.3	111.5	 858	OK
 786	   0	79.8	110.5	 773	OK
 787	   0	83.0	107.8	 744	OK
 788	   0	80.3	108.3	 792	OK
 789	   0	80.9	108.8	 705	OK
 790	   0	78.3	111.4	 844	OK
 791	   0	78.6	107.0	 807	OK
 792	   0	83.9	112.3	 873	OK
 793	   0	82.9	111.5	 824	OK
 794	   0	82.5	109.8	 803	OK
 795	   0	79.6	108.8	 734	OK
 796	   0	81.1	109.2	 751	OK
 797	   0	80.4	109.5	 848	OK
 798	   0	83.0	110.1	 725	OK
 799	   0	85.4	111.2	 841	OK
 800	   0	84.3	114.5	 787	OK
 801	   0	83.4	114.3	 877	OK
 802	   0	80.5	108.1	 707	OK
 803	   0	84.8	111.6	 759	OK
 804	   0	83.9	111.1	 758	OK
 805	   0	81.5	111.6	 734	OK
 806	   0	80.5	109.3	 775	OK
 807	   0	82.3	109.9	 837	OK
 808	   0	84.9	114.4	 807	OK
 809	   0	83.6	111.3	 798	OK
 810	   0	83.2	112.0	 824	OK
 811	   0	82.8	112.1	 832	OK
 812	   0	82.4	110.7	 852	OK
 813	   0	81.2	108.4	 653	OK
 814	   0	81.2	111.1	 831	OK
 815	   0	82.2	108.9	 778	OK
 816	   0	81.0	107.3	 841	OK
 817	   0	81.4	110.0	 808	OK
 818	   0	80.3	112.8	 704	OK
 819	   0	82.8	112.4	 889	OK
 820	   0	82.5	111.6	 717	OK
 821	   0	83.1	111.5	 776	OK
 822	   0	79.4	108.9	 801	OK
 823	   0	80.8	110.3	 807	OK
 824	   0	83.4	110.0	 758	OK
 825	   0	81.5	109.0	 856	OK
 826	   0	83.4	113.5	 865	OK
 827	   0	83.0	110.7	 796	OK
 828	   0	82.6	112.6	 782	OK
 829	   0	79.7	109.5	 719	OK
 830	   0	83.7	110.6	 822	OK
 831	   0	83.6	110.0	 686	OK
 832	   0	82.1	114.4	 747	OK
 833	   0	82.8	110.4	 660	OK
 834	   0	82.9	113.7	 663	OK
 835	   0	82.0	113.1	 857	OK
 836	   0	80.6	109.3	 764	OK
 837	   0	78.6	108.5	 787	OK
 838	   0	80.4	108.3	 764	OK
 839	   0	79.6	111.5	 852	OK
 840	   0	82.9	109.2	 656	OK
 841	   0	80.0	110.9	 833	OK
 842	   0	82.6	111.9	 788	OK
 843	   0	78.8	111.2	 802	OK
 844	   0	83.0	113.1	 758	OK
 845	   0	84.5	110.9	 709	OK
 846	   0	85.0	112.6	 834	OK
 847	   0	81.4	109.7	 830	OK
 848	   0	80.9	111.1	 774	OK
 849	   0	78.9	107.8	 728	OK
 850	   0	79.3	105.4	 722	OK
 851	   0	82.4	115.6	 723	OK
 852	   0	80.4	109.2	 763	OK
 853	   0	80.4	109.7	 788	OK
 854	   0	83.3	113.2	 821	OK
 855	   0	82.0	112.1	 610	OK
 856	4000	82.0	110.6	 911	high noise
 857	4000	78.8	108.7	 910	high noise
 858	   0	81.7	112.3	 802	OK
 859	   0	80.5	109.6	 722	OK
 860	   0	81.8	109.3	 778	OK
 861	   0	79.9	107.9	 886	OK
 862	   0	81.7	108.2	 643	OK
 863	   0	81.8	111.6	 851	OK
 864	   0	81.9	108.3	 856	OK
 865	4000	78.4	106.9	 946	high noise
 866	   0	80.2	108.4	 810	OK
 867	   0	80.7	107.3	 761	OK
 868	   0	81.1	106.9	 829	OK
 869	   0	80.1	111.4	 830	OK
 870	   0	81.4	107.3	 745	OK
 871	   0	79.9	111.3	 707	OK
 872	   0	80.9	109.1	 778	OK
 873	   0	80.8	109.3	 679	OK
 874	   0	80.6	111.1	 834	OK
 875	   0	79.4	109.5	 889	OK
 876	   0	78.5	109.1	 796	OK
 877	   0	82.2	112.1	 871	OK
 878	   0	79.3	109.0	 689	OK
 879	   0	82.0	110.5	 748	OK
 880	   0	81.5	109.1	 674	OK
 881	   0	80.1	111.8	 894	OK
 882	   0	81.3	110.1	 760	OK
 883	   0	80.0	110.6	 808	OK
 884	   0	82.0	108.6	 721	OK
 885	   0	80.6	106.3	 792	OK
 886	   0	79.3	109.0	 787	OK
 887	   0	83.6	112.9	 751	OK
 888	   0	82.4	112.4	 747	OK
 889	   0	81.7	110.9	 766	OK
 890	   0	84.7	112.1	 744	OK
 891	   0	80.2	108.1	 747	OK
 892	   0	83.1	112.0	 824	OK
 893	   0	84.7	110.7	 880	OK
 894	   0	81.8	109.3	 721	OK
 895	   0	81.7	108.2	 849	OK
 896	   0	88.1	113.3	 729	OK
 897	4000	85.5	114.7	 881	high noise
 898	   0	85.9	113.3	 762	OK
 899	4000	82.9	111.3	 992	high noise
 900	   0	87.2	111.4	 685	OK
 901	   0	87.3	113.8	 853	OK
 902	   0	86.4	113.1	 697	OK
 903	   0	83.7	114.6	 741	OK
 904	   0	86.9	117.0	 760	OK
 905	   0	85.7	115.6	 694	OK
 906	4000	85.7	112.0	 863	high noise
 907	   0	85.5	113.1	 723	OK
 908	   0	83.9	110.6	 803	OK
 909	   0	86.1	113.3	 827	OK
 910	   0	87.9	116.6	 780	OK
 911	   0	84.6	114.9	 798	OK
 912	   0	87.6	111.8	 801	OK
 913	   0	87.3	114.9	 758	OK
 914	   0	87.7	117.0	 793	OK
 915	   0	83.2	110.0	 819	OK
 916	   0	84.2	111.9	 753	OK
 917	   0	83.3	111.2	 815	OK
 918	   0	84.2	111.2	 835	OK
 919	   0	83.6	111.8	 704	OK
 920	   0	83.7	113.2	 553	OK
 921	   0	85.7	110.8	 704	OK
 922	   0	86.2	114.5	 725	OK
 923	   0	84.8	113.6	 726	OK
 924	   0	85.0	113.9	 755	OK
 925	   0	86.2	112.6	 815	OK
 926	   0	87.3	115.3	 708	OK
 927	   0	85.1	114.8	 777	OK
 928	   0	81.5	110.9	 820	OK
 929	   0	84.6	110.8	 691	OK
 930	   0	81.1	111.3	 646	OK
 931	   0	83.1	110.3	 839	OK
 932	   0	85.6	112.6	 772	OK
 933	   0	81.7	111.1	 743	OK
 934	   0	87.5	114.5	 710	OK
 935	   0	87.7	113.9	 781	OK
 936	   0	87.1	114.0	 787	OK
 937	   0	82.4	112.1	 817	OK
 938	   0	82.2	111.1	 806	OK
 939	   0	83.0	110.5	 768	OK
 940	   0	81.9	110.8	 743	OK
 941	   0	82.7	113.3	 693	OK
 942	   0	86.8	113.9	 706	OK
 943	   0	85.8	112.8	 689	OK
 944	   0	83.0	110.9	 793	OK
 945	   0	82.5	110.6	 785	OK
 946	   0	81.7	111.6	 621	OK
 947	   0	82.0	109.8	 764	OK
 948	   0	83.2	111.9	 849	OK
 949	   0	83.8	109.6	 779	OK
 950	   0	81.6	113.2	 634	OK
 951	4000	82.6	109.7	 868	high noise
 952	   0	85.3	112.3	 706	OK
 953	   0	85.9	114.8	 764	OK
 954	   0	84.4	114.8	 737	OK
 955	   0	86.2	116.5	 713	OK
 956	   0	88.0	114.5	 690	OK
 957	   0	88.9	114.5	 768	OK
 958	   0	88.3	115.1	 784	OK
 959	   0	84.1	115.1	 656	OK
 960	   0	85.7	115.7	 791	OK
 961	   0	85.2	114.7	 776	OK
 962	   0	82.9	109.2	 650	OK
 963	   0	86.4	113.9	 674	OK
 964	4000	88.5	117.3	 861	high noise
 965	   0	85.5	114.9	 643	OK
 966	   0	86.9	115.7	 758	OK
 967	   0	84.9	111.8	 778	OK
 968	   0	85.0	112.8	 701	OK
 969	   0	86.4	112.0	 721	OK
 970	   0	85.8	113.1	 773	OK
 971	   0	83.2	111.7	 773	OK
 972	   0	85.0	113.6	 700	OK
 973	   0	86.3	116.5	 714	OK
 974	   0	86.5	114.9	 799	OK
 975	   0	86.6	112.6	 707	OK
 976	   0	86.8	117.2	 742	OK
 977	   0	82.1	112.9	 713	OK
 978	   0	85.8	114.9	 755	OK
 979	   0	82.7	109.7	 839	OK
 980	   0	84.3	115.0	 816	OK
 981	   0	87.1	114.5	 690	OK
 982	   0	86.2	116.4	 824	OK
 983	   0	86.6	115.5	 627	OK
 984	   0	83.7	114.4	 707	OK
 985	   0	83.6	113.7	 740	OK
 986	   0	82.6	112.2	 680	OK
 987	   0	85.2	114.7	 728	OK
 988	   0	85.2	114.6	 770	OK
 989	   0	83.3	112.4	 753	OK
 990	   0	83.1	113.5	 720	OK
 991	   0	87.4	111.7	 760	OK
 992	   0	83.4	111.7	 700	OK
 993	   0	87.4	115.4	 679	OK
 994	   0	91.1	114.7	 614	OK
 995	   0	85.2	117.2	 850	OK
 996	   0	87.4	114.2	 743	OK
 997	   0	84.9	111.7	 693	OK
 998	   0	83.0	109.5	 767	OK
 999	   0	85.1	113.4	 841	OK
1000	   0	86.0	114.3	 720	OK
1001	   0	84.5	112.2	 809	OK
1002	   0	87.4	114.1	 658	OK
1003	   0	81.3	114.3	 805	OK
1004	   0	87.6	115.3	 781	OK
1005	   0	83.7	113.5	 686	OK
1006	   0	85.4	112.9	 783	OK
1007	   0	83.3	111.4	 759	OK
1008	   0	85.9	112.9	 647	OK
1009	   0	83.9	115.4	 765	OK
1010	   0	85.4	115.2	 705	OK
1011	   0	86.5	116.1	 761	OK
1012	   0	84.0	114.2	 814	OK
1013	   0	86.6	114.6	 603	OK
1014	   0	90.2	116.1	 795	OK
1015	   0	86.9	117.1	 693	OK
1016	   0	87.2	115.1	 623	OK
1017	   0	87.5	115.3	 733	OK
1018	   0	84.2	111.0	 743	OK
1019	   0	85.4	113.6	 654	OK
1020	   0	89.3	116.3	 648	OK
1021	   0	86.1	115.7	 788	OK
1022	   0	88.4	119.5	 771	OK
1023	   0	86.0	116.8	 742	OK
1024	   0	89.6	114.0	 728	OK
1025	   0	84.6	114.8	 735	OK
1026	   0	85.4	115.3	 753	OK
1027	   0	84.7	116.1	 728	OK
1028	   0	84.5	114.2	 662	OK
1029	   0	87.7	118.5	 684	OK
1030	   0	87.2	116.1	 634	OK
1031	   0	85.5	119.5	 725	OK
1032	   0	84.6	115.6	 729	OK
1033	   0	88.0	116.8	 713	OK
1034	   0	86.9	113.4	 760	OK
1035	   0	83.7	112.5	 680	OK
1036	   0	84.0	111.9	 648	OK
1037	   0	87.3	113.0	 678	OK
1038	   0	86.3	116.0	 640	OK
1039	   0	86.1	112.7	 737	OK
1040	   0	84.4	114.7	 721	OK
1041	   0	85.3	110.5	 771	OK
1042	   0	81.7	109.4	 676	OK
1043	   0	83.1	112.1	 698	OK
1044	   0	84.5	113.4	 679	OK
1045	   0	84.7	112.6	 748	OK
1046	   0	86.5	111.7	 768	OK
1047	   0	85.2	116.2	 565	OK
1048	   0	85.1	112.6	 773	OK
1049	   0	84.4	111.7	 615	OK
1050	   0	83.5	115.3	 769	OK
1051	4000	83.0	114.7	 847	high noise
1052	   0	85.5	115.8	 748	OK
1053	   0	80.6	110.9	 620	OK
1054	   0	82.0	112.7	 676	OK
1055	   0	84.7	113.5	 775	OK
1056	   0	82.4	107.3	 686	OK
1057	   0	85.1	112.3	 736	OK
1058	   0	87.3	119.0	 675	OK
1059	   0	83.5	115.5	 761	OK
1060	   0	87.8	116.8	 800	OK
1061	   0	84.4	112.1	 635	OK
1062	   0	84.7	115.6	 667	OK
1063	   0	85.3	113.7	 756	OK
1064	   0	84.8	109.7	 737	OK
1065	   0	83.9	113.5	 712	OK
1066	   0	85.7	116.9	 737	OK
1067	   0	83.0	109.1	 750	OK
1068	   0	83.0	112.1	 730	OK
1069	   0	87.5	115.9	 656	OK
1070	   0	85.2	114.0	 673	OK
1071	   0	82.5	113.5	 667	OK
1072	   0	83.6	111.7	 706	OK
1073	   0	85.1	116.7	 781	OK
1074	   0	84.0	111.6	 664	OK
1075	   0	83.2	111.1	 722	OK
1076	   0	82.4	114.5	 721	OK
1077	   0	83.6	112.9	 686	OK
1078	   0	82.8	111.7	 798	OK
1079	   0	83.3	114.7	 699	OK
1080	   0	85.2	115.8	 705	OK
1081	4000	84.7	112.5	 842	high noise
1082	   0	86.3	115.9	 714	OK
1083	   0	84.5	114.4	 650	OK
1084	   0	86.0	117.0	 694	OK
1085	   0	87.5	115.6	 762	OK
1086	   0	86.3	113.6	 627	OK
1087	   0	88.1	113.8	 690	OK
1088	   0	85.7	116.3	 723	OK
1089	4000	82.3	114.8	 854	high noise
1090	   0	85.1	113.1	 742	OK
1091	   0	85.9	116.0	 817	OK
1092	   0	81.8	113.5	 757	OK
1093	   0	85.4	114.1	 735	OK
1094	   0	83.7	115.4	 705	OK
1095	   0	85.2	113.8	 696	OK
1096	   0	84.0	110.8	 660	OK
1097	   0	84.1	114.7	 741	OK
1098	   0	85.8	115.3	 697	OK
1099	   0	82.9	114.2	 598	OK
1100	   0	85.7	113.2	 751	OK
1101	   0	90.4	119.9	 749	OK
1102	   0	83.7	114.0	 709	OK
1103	   0	81.4	112.1	 627	OK
1104	   0	84.8	112.0	 808	OK
1105	   0	85.7	113.2	 795	OK
1106	   0	83.8	113.7	 635	OK
1107	   0	86.4	111.3	 614	OK
1108	   0	84.8	111.6	 797	OK
1109	   0	83.0	112.1	 779	OK
1110	   0	85.5	113.3	 679	OK
1111	   0	83.3	112.5	 789	OK
1112	   0	84.1	114.1	 740	OK
1113	   0	86.0	114.8	 729	OK
1114	   0	87.5	114.8	 763	OK
1115	   0	83.9	111.0	 797	OK
1116	   0	82.6	113.2	 730	OK
1117	   0	84.0	111.6	 734	OK
1118	   0	88.5	117.0	 763	OK
1119	   0	82.6	114.0	 800	OK
1120	   0	82.4	112.0	 749	OK
1121	   0	85.6	114.9	 749	OK
1122	   0	84.2	112.8	 666	OK
1123	   0	80.9	110.7	 783	OK
1124	   0	84.9	115.1	 780	OK
1125	   0	82.7	111.1	 645	OK
1126	   0	84.5	113.8	 777	OK
1127	   0	82.3	109.8	 602	OK
1128	   0	84.4	112.0	 706	OK
1129	   0	88.0	117.4	 707	OK
1130	   0	86.1	115.9	 733	OK
1131	   0	83.7	111.4	 780	OK
1132	   0	84.6	112.6	 817	OK
1133	   0	85.2	113.9	 631	OK
1134	4000	84.2	113.3	 832	high noise
1135	   0	83.5	110.2	 544	OK
1136	   0	86.8	114.6	 606	OK
1137	   0	87.0	116.0	 693	OK
1138	   0	84.3	114.1	 705	OK
1139	   0	84.7	112.9	 753	OK
1140	   0	87.1	115.9	 753	OK
1141	4000	84.7	113.5	 829	high noise
1142	   0	84.2	114.6	 692	OK
1143	   0	83.9	112.1	 670	OK
1144	   0	86.7	114.6	 774	OK
1145	   0	85.5	113.3	 707	OK
1146	   0	83.8	113.7	 725	OK
1147	   0	81.4	112.1	 733	OK
1148	   0	87.6	118.1	 767	OK
1149	   0	83.3	111.2	 761	OK
1150	   0	86.4	116.2	 692	OK
1151	   0	84.8	111.6	 724	OK
1152	   0	84.0	115.8	 776	OK
1153	   0	88.6	114.9	 773	OK
1154	   0	83.9	113.3	 715	OK
1155	   0	86.6	117.3	 701	OK
1156	   0	86.3	115.7	 708	OK
1157	   0	85.6	112.9	 630	OK
1158	   0	82.9	116.7	 768	OK
1159	   0	85.8	114.5	 719	OK
1160	   0	87.4	115.3	 626	OK
1161	   0	84.4	112.7	 791	OK
1162	   0	83.4	113.3	 751	OK
1163	   0	84.2	116.5	 809	OK
1164	   0	83.2	112.1	 636	OK
1165	   0	87.4	114.2	 711	OK
1166	   0	85.8	115.8	 728	OK
1167	   0	86.1	114.4	 785	OK
1168	   0	82.2	109.2	 716	OK
1169	   0	86.6	114.5	 696	OK
1170	   0	85.8	115.3	 684	OK
1171	   0	85.0	115.3	 777	OK
1172	   0	82.5	114.2	 775	OK
1173	   0	84.6	114.8	 735	OK
1174	   0	85.4	115.6	 763	OK
1175	4000	83.0	114.0	 879	high noise
1176	   0	82.3	109.8	 720	OK
1177	   0	86.2	116.5	 785	OK
1178	   0	84.9	113.0	 706	OK
1179	   0	84.1	115.6	 674	OK
1180	   0	83.5	111.3	 784	OK
1181	   0	85.0	111.8	 716	OK
1182	   0	84.9	112.9	 734	OK
1183	   0	85.0	115.1	 719	OK
1184	   0	86.2	114.7	 675	OK
1185	   0	80.6	109.6	 667	OK
1186	   0	82.4	112.6	 722	OK
1187	   0	83.3	112.7	 725	OK
1188	   0	86.9	114.4	 722	OK
1189	   0	86.7	118.6	 751	OK
1190	4000	83.0	113.4	 869	high noise
1191	   0	83.9	114.9	 620	OK
1192	   0	86.1	112.6	 757	OK
1193	   0	83.7	113.3	 788	OK
1194	   0	86.1	116.1	 728	OK
1195	   0	84.6	114.3	 698	OK
1196	   0	85.6	113.9	 795	OK
1197	   0	83.1	114.2	 714	OK
1198	   0	84.6	110.9	 810	OK
1199	   0	84.5	113.3	 721	OK
1200	   0	86.5	115.0	 664	OK
1201	   0	81.4	111.4	 783	OK
1202	   0	81.5	112.5	 743	OK
1203	   0	84.8	115.3	 815	OK
1204	   0	85.9	116.7	 810	OK
1205	   0	87.9	115.5	 787	OK
1206	   0	83.4	115.5	 616	OK
1207	4000	85.4	116.3	 859	high noise
1208	   0	85.0	113.0	 826	OK
1209	   0	83.0	110.9	 748	OK
1210	   0	87.9	119.0	 772	OK
1211	   0	85.2	114.0	 731	OK
1212	   0	81.1	112.0	 704	OK
1213	   0	86.5	116.2	 650	OK
1214	   0	85.0	114.6	 790	OK
1215	   0	87.7	116.6	 824	OK
1216	   0	85.3	117.0	 747	OK
1217	   0	84.5	114.6	 704	OK
1218	   0	83.0	112.7	 662	OK
1219	   0	88.2	119.9	 804	OK
1220	   0	85.3	114.4	 644	OK
1221	   0	86.9	115.4	 701	OK
1222	   0	86.6	116.2	 641	OK
1223	   0	83.8	112.2	 743	OK
1224	   0	84.2	117.4	 691	OK
1225	   0	84.3	111.9	 688	OK
1226	   0	84.5	110.6	 718	OK
1227	   0	83.7	113.4	 649	OK
1228	   0	82.1	111.3	 710	OK
1229	   0	86.9	116.5	 712	OK
1230	   0	83.6	115.1	 708	OK
1231	   0	84.8	112.0	 696	OK
1232	   0	85.3	115.8	 667	OK
1233	   0	85.2	111.4	 685	OK
1234	   0	87.6	117.0	 626	OK
1235	   0	85.3	116.5	 797	OK
1236	   0	82.9	115.3	 754	OK
1237	   0	83.4	111.6	 717	OK
1238	   0	87.1	116.8	 711	OK
1239	   0	85.7	116.5	 790	OK
1240	   0	83.1	116.5	 714	OK
1241	   0	84.3	114.8	 761	OK
1242	   0	90.1	113.7	 623	OK
1243	   0	83.7	115.3	 694	OK
1244	   0	84.8	112.1	 706	OK
1245	   0	85.0	116.8	 779	OK
1246	   0	85.1	112.1	 548	OK
1247	   0	87.9	117.0	 783	OK
1248	   0	82.7	114.4	 773	OK
1249	   0	81.7	112.3	 732	OK
1250	   0	83.8	109.5	 752	OK
1251	   0	87.5	114.3	 650	OK
1252	   0	83.4	114.9	 796	OK
1253	   0	84.9	112.8	 711	OK
1254	   0	86.3	113.1	 741	OK
1255	   0	89.2	113.5	 717	OK
1256	   0	85.2	113.8	 783	OK
1257	   0	84.6	115.7	 733	OK
1258	   0	86.4	115.0	 677	OK
1259	   0	86.9	114.2	 750	OK
1260	   0	87.5	115.3	 633	OK
1261	   0	83.1	115.9	 791	OK
1262	   0	85.2	113.9	 712	OK
1263	   0	85.1	113.9	 679	OK
1264	   0	86.1	114.5	 643	OK
1265	   0	87.6	115.4	 656	OK
1266	   0	89.6	117.0	 606	OK
1267	   0	87.2	118.4	 692	OK
1268	   0	84.0	114.8	 614	OK
1269	   0	82.9	113.6	 611	OK
1270	   0	85.0	116.4	 764	OK
1271	   0	87.5	116.6	 680	OK
1272	   0	86.4	116.6	 785	OK
1273	   0	85.5	118.3	 589	OK
1274	   0	86.2	116.6	 719	OK
1275	   0	87.0	115.6	 647	OK
1276	   0	89.0	116.8	 629	OK
1277	   0	89.0	119.1	 702	OK
1278	   0	84.1	114.6	 751	OK
1279	   0	86.1	117.9	 704	OK
1280	   0	87.8	115.1	 709	OK
1281	   0	85.8	115.5	 691	OK
1282	   0	86.6	117.0	 694	OK
1283	   0	82.8	113.5	 629	OK
1284	   0	87.2	115.7	 714	OK
1285	   0	86.3	117.2	 726	OK
1286	   0	85.6	116.7	 705	OK
1287	   0	89.2	119.0	 662	OK
1288	   0	83.6	112.7	 709	OK
1289	   0	84.2	113.3	 639	OK
1290	   0	87.3	118.7	 629	OK
1291	   0	83.7	115.9	 709	OK
1292	   0	88.8	116.2	 718	OK
1293	   0	87.2	116.7	 704	OK
1294	   0	87.7	117.0	 690	OK
1295	   0	85.6	115.4	 746	OK
1296	   0	84.7	115.8	 759	OK
1297	   0	85.0	116.2	 655	OK
1298	   0	87.3	115.3	 761	OK
1299	   0	86.9	116.9	 766	OK
1300	   0	82.5	113.6	 808	OK
1301	   0	87.4	118.0	 774	OK
1302	   0	83.9	112.4	 634	OK
1303	   0	88.2	115.1	 729	OK
1304	   0	86.6	114.6	 704	OK
1305	   0	83.5	110.6	 645	OK
1306	   0	85.4	119.0	 707	OK
1307	   0	85.7	116.6	 769	OK
1308	   0	84.7	114.7	 759	OK
1309	   0	84.8	112.9	 643	OK
1310	   0	84.9	113.9	 733	OK
1311	   0	84.5	116.2	 730	OK
1312	   0	81.3	113.8	 716	OK
1313	   0	84.0	113.2	 682	OK
1314	   0	82.3	112.6	 724	OK
1315	   0	83.3	112.8	 673	OK
1316	   0	85.2	116.0	 552	OK
1317	   0	83.3	113.2	 702	OK
1318	   0	87.8	117.7	 798	OK
1319	4000	85.3	115.3	 844	high noise
1320	   0	83.4	115.9	 740	OK
1321	   0	87.1	119.0	 720	OK
1322	   0	83.6	114.6	 682	OK
1323	   0	85.6	114.1	 728	OK
1324	   0	85.6	113.7	 754	OK
1325	   0	82.7	113.3	 733	OK
1326	   0	89.5	115.8	 679	OK
1327	   0	86.2	114.6	 690	OK
1328	   0	81.3	113.2	 771	OK
1329	   0	85.4	118.9	 729	OK
1330	   0	86.3	116.3	 662	OK
1331	   0	81.9	112.9	 789	OK
1332	   0	82.7	113.7	 705	OK
1333	   0	85.8	115.4	 738	OK
1334	   0	86.7	117.0	 623	OK
1335	   0	84.1	117.0	 721	OK
1336	   0	85.4	114.8	 659	OK
1337	   0	85.6	114.6	 602	OK
1338	   0	84.8	113.8	 704	OK
1339	   0	89.5	115.0	 698	OK
1340	   0	85.1	118.1	 713	OK
1341	   0	86.8	116.8	 649	OK
1342	   0	87.4	115.5	 650	OK
1343	   0	87.8	120.6	 737	OK
1344	   0	82.2	113.6	 648	OK
1345	   0	83.8	117.0	 687	OK
1346	   0	81.8	114.6	 563	OK
1347	   0	80.8	112.4	 776	OK
1348	   0	82.6	111.4	 599	OK
1349	   0	83.1	111.1	 761	OK
1350	   0	87.2	116.8	 805	OK
1351	   0	83.2	111.7	 760	OK
1352	   0	86.2	114.7	 625	OK
1353	   0	82.3	115.4	 640	OK
1354	   0	83.3	115.4	 770	OK
1355	   0	81.8	114.4	 693	OK
1356	   0	84.9	112.3	 755	OK
1357	   0	81.0	114.2	 629	OK
1358	   0	86.0	115.3	 735	OK
1359	   0	83.6	116.1	 742	OK
1360	   0	82.9	112.2	 638	OK
1361	   0	81.2	111.6	 744	OK
1362	   0	82.4	114.2	 787	OK
1363	   0	82.3	112.4	 584	OK
1364	   0	86.6	116.2	 753	OK
1365	   0	81.8	111.9	 694	OK
1366	   0	79.8	110.0	 710	OK
1367	   0	79.4	109.0	 765	OK
1368	   0	83.0	113.6	 652	OK
1369	   0	82.3	113.2	 752	OK
1370	   0	81.7	110.9	 698	OK
1371	   0	82.2	111.7	 736	OK
1372	   0	82.6	110.6	 750	OK
1373	   0	84.3	114.1	 745	OK
1374	   0	82.5	114.8	 761	OK
1375	   0	80.4	112.2	 608	OK
1376	   0	80.1	112.2	 766	OK
1377	   0	83.1	111.4	 717	OK
1378	   0	84.4	113.4	 726	OK
1379	   0	83.6	112.2	 689	OK
1380	   0	83.1	112.5	 737	OK
1381	   0	82.4	113.0	 733	OK
1382	   0	82.4	114.4	 708	OK
1383	   0	84.4	114.8	 676	OK
1384	   0	82.8	112.6	 654	OK
1385	   0	81.7	110.8	 681	OK
1386	4000	88.4	116.5	 833	high noise
1387	   0	83.4	113.5	 696	OK
1388	   0	81.7	113.3	 686	OK
1389	   0	84.5	115.8	 734	OK
1390	   0	85.3	112.1	 736	OK
1391	   0	83.5	115.4	 663	OK
1392	   0	86.9	114.9	 688	OK
1393	   0	82.2	111.8	 698	OK
1394	   0	85.0	111.6	 683	OK
1395	   0	83.9	116.0	 784	OK
1396	   0	82.6	113.4	 595	OK
1397	   0	84.7	114.8	 717	OK
1398	   0	83.6	112.9	 662	OK
1399	   0	83.0	111.0	 692	OK
1400	   0	85.4	116.5	 682	OK
1401	   0	82.6	110.7	 683	OK
1402	   0	84.9	116.1	 716	OK
1403	   0	83.9	110.6	 757	OK
1404	   0	84.7	115.0	 630	OK
1405	   0	83.5	115.1	 768	OK
1406	   0	87.0	116.9	 697	OK
1407	   0	82.5	113.0	 762	OK
1408	   0	78.0	109.2	 736	OK
1409	   0	78.5	110.7	 815	OK
1410	   0	80.5	110.8	 765	OK
1411	   0	78.2	107.1	 648	OK
1412	   0	81.8	112.4	 686	OK
1413	   0	79.1	113.4	 780	OK
1414	   0	77.7	109.8	 680	OK
1415	   0	82.7	109.4	 797	OK
1416	   0	78.4	111.0	 770	OK
1417	   0	78.8	110.3	 683	OK
1418	   0	79.2	109.9	 686	OK
1419	   0	79.7	111.0	 764	OK
1420	   0	81.4	109.8	 645	OK
1421	   0	78.7	111.1	 706	OK
1422	   0	79.7	108.9	 713	OK
1423	   0	78.1	106.0	 700	OK
1424	   0	81.1	110.2	 780	OK
1425	   0	76.8	107.5	 749	OK
1426	   0	80.2	110.6	 738	OK
1427	   0	78.8	109.4	 672	OK
1428	   0	77.0	109.4	 646	OK
1429	   0	76.8	107.3	 795	OK
1430	   0	77.8	107.5	 754	OK
1431	   0	77.4	108.8	 720	OK
1432	   0	82.4	112.2	 769	OK
1433	   0	77.6	106.1	 650	OK
1434	   0	80.5	111.4	 756	OK
1435	   0	79.7	105.8	 596	OK
1436	   0	80.5	110.1	 725	OK
1437	   0	78.3	108.3	 674	OK
1438	   0	78.9	109.5	 765	OK
1439	   0	77.8	106.4	 728	OK
1440	   0	77.8	109.3	 774	OK
1441	   0	81.3	110.4	 737	OK
1442	   0	81.3	109.5	 776	OK
1443	4000	75.4	105.4	 855	high noise
1444	   0	77.6	104.8	 783	OK
1445	   0	78.0	108.3	 694	OK
1446	   0	75.9	107.2	 786	OK
1447	   0	81.9	110.4	 671	OK
1448	   0	78.4	106.0	 682	OK
1449	   0	82.2	113.3	 669	OK
1450	   0	78.9	106.5	 650	OK
1451	   0	80.1	109.6	 731	OK
1452	   0	80.1	113.1	 737	OK
1453	   0	79.2	109.7	 741	OK
1454	   0	78.6	108.0	 670	OK
1455	   0	78.4	107.9	 788	OK
1456	   0	77.7	107.2	 805	OK
1457	   0	79.2	109.7	 683	OK
1458	   0	77.9	107.2	 711	OK
1459	   0	77.6	106.1	 819	OK
1460	   0	78.1	109.5	 648	OK
1461	4000	80.4	111.3	 850	high noise
1462	   0	81.3	110.5	 661	OK
1463	   0	79.4	112.6	 724	OK
1464	   0	78.1	108.6	 629	OK
1465	   0	76.3	107.7	 669	OK
1466	   0	79.8	107.2	 594	OK
1467	   0	80.2	110.9	 672	OK
1468	   0	78.8	109.2	 820	OK
1469	   0	80.1	108.7	 753	OK
1470	   0	78.0	106.9	 814	OK
1471	   0	79.2	108.1	 698	OK
1472	   0	78.7	110.5	 745	OK
1473	   0	79.7	110.7	 719	OK
1474	   0	79.7	111.3	 767	OK
1475	   0	79.2	108.5	 684	OK
1476	   0	81.0	107.7	 788	OK
1477	   0	78.1	108.9	 668	OK
1478	   0	74.4	105.2	 778	OK
1479	   0	76.5	107.4	 768	OK
1480	   0	76.5	106.6	 674	OK
1481	   0	75.2	107.3	 786	OK
1482	   0	79.0	108.9	 706	OK
1483	   0	75.9	107.4	 710	OK
1484	   0	78.4	107.3	 764	OK
1485	   0	74.2	104.2	 639	OK
1486	   0	76.7	107.8	 667	OK
1487	   0	76.8	108.6	 708	OK
1488	   0	78.5	106.3	 769	OK
1489	   0	78.3	109.2	 619	OK
1490	   0	79.9	110.1	 754	OK
1491	   0	79.3	110.0	 700	OK
1492	   0	79.9	108.8	 568	OK
1493	   0	76.7	107.8	 702	OK
1494	   0	76.5	106.1	 593	OK
1495	   0	74.9	107.1	 780	OK
1496	   0	81.1	110.4	 570	OK
1497	   0	76.3	106.3	 766	OK
1498	   0	76.4	106.5	 694	OK
1499	   0	76.0	106.9	 746	OK
1500	   0	76.3	106.0	 738	OK
1501	   0	76.3	106.6	 676	OK
1502	   0	79.2	106.6	 720	OK
1503	   0	78.5	108.0	 676	OK
1504	   0	79.3	108.8	 714	OK
1505	   0	79.3	108.9	 729	OK
1506	   0	77.2	108.3	 715	OK
1507	   0	76.1	107.9	 658	OK
1508	4000	76.0	106.1	 839	high noise
1509	   0	78.7	110.1	 647	OK
1510	   0	74.7	104.8	 817	OK
1511	   0	77.0	107.2	 701	OK
1512	   0	76.7	107.4	 613	OK
1513	   0	76.0	105.8	 754	OK
1514	   0	77.0	107.5	 715	OK
1515	   0	79.2	114.9	 739	OK
1516	   0	76.4	105.2	 689	OK
1517	   0	78.4	108.8	 801	OK
1518	   0	78.3	106.0	 733	OK
1519	   0	75.2	107.5	 687	OK
1520	   0	78.6	106.6	 704	OK
1521	   0	78.3	107.3	 746	OK
1522	   0	78.0	110.7	 771	OK
1523	   0	77.3	106.1	 694	OK
1524	   0	76.1	104.6	 636	OK
1525	   0	79.3	106.4	 569	OK
1526	   0	78.4	111.4	 704	OK
1527	   0	74.7	107.2	 797	OK
1528	   0	78.0	110.5	 737	OK
1529	   0	76.1	108.0	 815	OK
1530	   0	76.8	107.8	 749	OK
1531	   0	77.2	107.6	 807	OK
1532	   0	80.7	109.6	 622	OK
1533	   0	77.7	105.7	 693	OK
1534	   0	80.8	111.6	 723	OK
1535	   0	77.5	107.4	 745	OK
1536	   0	88.0	115.9	 811	OK
1537	   0	87.1	118.7	 739	OK
1538	   0	83.7	113.6	 644	OK
1539	   0	84.9	117.6	 791	OK
1540	   0	86.3	116.8	 598	OK
1541	   0	85.3	114.8	 766	OK
1542	4000	83.1	115.4	 829	high noise
1543	   0	83.4	113.8	 725	OK
1544	   0	83.6	114.0	 701	OK
1545	   0	85.2	115.2	 629	OK
1546	   0	90.1	119.1	 721	OK
1547	   0	83.7	111.7	 758	OK
1548	   0	85.2	111.9	 720	OK
1549	   0	84.3	113.3	 583	OK
1550	   0	82.7	113.5	 685	OK
1551	   0	85.2	112.8	 645	OK
1552	   0	84.5	115.2	 773	OK
1553	   0	83.7	115.4	 693	OK
1554	4000	84.8	114.8	 839	high noise
1555	   0	86.4	113.1	 772	OK
1556	   0	82.8	116.3	 773	OK
1557	   0	84.7	114.4	 736	OK
1558	   0	83.9	112.5	 642	OK
1559	   0	82.8	114.0	 660	OK
1560	   0	84.8	116.6	 734	OK
1561	   0	84.3	115.0	 671	OK
1562	   0	83.6	108.0	 660	OK
1563	   0	86.9	116.5	 754	OK
1564	   0	82.0	114.8	 786	OK
1565	   0	85.3	115.2	 712	OK
1566	   0	84.3	114.0	 686	OK
1567	   0	86.1	114.4	 689	OK
1568	   0	86.1	114.5	 778	OK
1569	   0	82.4	114.0	 631	OK
1570	   0	83.8	113.9	 771	OK
1571	   0	84.1	114.7	 666	OK
1572	   0	85.5	115.4	 738	OK
1573	   0	80.6	108.4	 767	OK
1574	   0	82.7	113.9	 578	OK
1575	   0	86.9	116.9	 637	OK
1576	   0	84.3	114.5	 797	OK
1577	   0	83.5	113.0	 670	OK
1578	   0	82.2	112.9	 771	OK
1579	   0	85.0	116.0	 692	OK
1580	   0	82.4	114.1	 725	OK
1581	   0	85.5	114.1	 648	OK
1582	   0	83.6	112.6	 709	OK
1583	   0	86.5	115.2	 637	OK
1584	   0	85.0	117.1	 769	OK
1585	   0	84.5	113.1	 644	OK
1586	   0	85.2	114.2	 685	OK
1587	4000	84.1	116.4	 838	high noise
1588	   0	85.6	116.1	 646	OK
1589	   0	84.5	111.2	 704	OK
1590	   0	84.2	112.5	 729	OK
1591	   0	85.4	113.5	 735	OK
1592	   0	81.8	112.1	 728	OK
1593	   0	83.0	114.1	 676	OK
1594	   0	85.0	115.0	 754	OK
1595	   0	85.2	113.7	 752	OK
1596	4000	84.7	115.4	 885	high noise
1597	   0	85.2	114.7	 686	OK
1598	   0	85.3	113.8	 734	OK
1599	   0	84.9	114.4	 780	OK
1600	   0	85.2	113.8	 646	OK
1601	   0	84.5	112.7	 779	OK
1602	   0	84.5	113.8	 721	OK
1603	   0	82.3	113.8	 729	OK
1604	   0	85.5	114.1	 706	OK
1605	   0	83.4	111.9	 706	OK
1606	   0	81.8	108.7	 804	OK
1607	   0	84.2	113.9	 699	OK
1608	   0	82.5	113.4	 741	OK
1609	   0	84.7	112.3	 721	OK
1610	   0	83.4	114.0	 751	OK
1611	   0	82.8	114.1	 576	OK
1612	   0	80.4	112.7	 760	OK
1613	   0	82.4	112.1	 638	OK
1614	   0	83.8	113.7	 815	OK
1615	   0	85.1	112.5	 655	OK
1616	   0	83.2	114.9	 712	OK
1617	   0	84.6	114.2	 680	OK
1618	   0	80.3	108.6	 723	OK
1619	   0	81.1	110.8	 649	OK
1620	   0	81.2	112.4	 718	OK
1621	4000	80.2	111.9	 847	high noise
1622	   0	84.2	112.8	 769	OK
1623	   0	82.6	113.2	 706	OK
1624	   0	85.5	116.5	 699	OK
1625	   0	81.2	111.3	 690	OK
1626	   0	82.8	112.7	 682	OK
1627	   0	82.3	111.1	 802	OK
1628	   0	82.2	110.6	 658	OK
1629	   0	83.6	113.5	 721	OK
1630	   0	81.9	111.1	 708	OK
1631	   0	82.8	115.4	 818	OK
1632	   0	84.2	111.9	 654	OK
1633	   0	79.3	110.0	 665	OK
1634	   0	81.2	112.8	 811	OK
1635	   0	83.8	114.7	 684	OK
1636	   0	81.9	112.5	 742	OK
1637	   0	80.6	109.8	 738	OK
1638	   0	82.5	112.7	 752	OK
1639	   0	82.7	110.2	 634	OK
1640	   0	83.8	112.5	 716	OK
1641	   0	83.8	111.8	 782	OK
1642	   0	80.6	112.6	 636	OK
1643	   0	83.4	110.1	 672	OK
1644	   0	83.6	114.3	 742	OK
1645	   0	83.0	110.1	 719	OK
1646	   0	80.7	112.4	 674	OK
1647	   0	82.0	113.7	 715	OK
1648	   0	80.3	110.7	 735	OK
1649	   0	80.5	110.6	 781	OK
1650	   0	82.7	112.1	 744	OK
1651	   0	79.7	109.6	 702	OK
1652	   0	84.9	113.0	 654	OK
1653	   0	82.8	112.6	 759	OK
1654	   0	81.9	111.7	 610	OK
1655	   0	81.8	115.2	 682	OK
1656	   0	83.4	110.6	 795	OK
1657	   0	83.6	115.3	 718	OK
1658	   0	85.7	115.8	 694	OK
1659	   0	82.0	112.8	 805	OK
1660	   0	81.0	112.3	 681	OK
1661	   0	82.6	111.2	 723	OK
1662	   0	82.0	110.7	 671	OK
1663	   0	81.7	111.7	 707	OK
1664	   0	81.1	110.0	 771	OK
1665	   0	81.9	111.2	 676	OK
1666	4000	78.9	108.7	 833	high noise
1667	   0	81.7	108.4	 747	OK
1668	   0	79.3	109.9	 771	OK
1669	   0	79.8	107.7	 666	OK
1670	   0	83.7	112.9	 816	OK
1671	   0	81.5	108.4	 714	OK
1672	   0	81.1	109.5	 631	OK
1673	4000	79.0	108.7	 875	high noise
1674	   0	80.5	108.6	 600	OK
1675	   0	77.1	106.9	 755	OK
1676	   0	78.7	106.7	 737	OK
1677	   0	79.6	111.4	 750	OK
1678	   0	78.4	108.1	 802	OK
1679	   0	80.7	110.2	 718	OK
1680	   0	81.6	110.9	 777	OK
1681	   0	79.8	109.0	 665	OK
1682	   0	81.3	109.6	 629	OK
1683	   0	82.4	111.9	 655	OK
1684	   0	82.7	110.3	 696	OK
1685	   0	77.1	107.8	 738	OK
1686	   0	80.3	112.0	 686	OK
1687	4000	78.9	106.7	 852	high noise
1688	   0	79.4	108.9	 724	OK
1689	   0	78.4	109.1	 596	OK
1690	4000	80.9	110.4	 829	high noise
1691	   0	80.8	110.3	 685	OK
1692	   0	77.5	104.1	 795	OK
1693	   0	79.3	109.3	 757	OK
1694	   0	80.3	107.7	 754	OK
1695	   0	77.1	108.8	 687	OK
1696	   0	78.4	108.8	 643	OK
1697	   0	80.3	109.8	 696	OK
1698	   0	84.6	112.6	 747	OK
1699	4000	80.2	108.2	 883	high noise
1700	   0	80.3	107.4	 749	OK
1701	   0	81.4	110.4	 807	OK
1702	   0	79.6	110.9	 721	OK
1703	   0	78.9	109.3	 819	OK
1704	   0	79.8	109.9	 751	OK
1705	   0	80.9	112.4	 816	OK
1706	   0	80.6	110.6	 703	OK
1707	   0	82.6	112.4	 673	OK
1708	   0	78.9	109.0	 707	OK
1709	   0	79.8	108.0	 595	OK
1710	4000	79.4	109.5	 827	high noise
1711	   0	79.1	108.7	 761	OK
1712	   0	78.0	108.6	 725	OK
1713	   0	82.7	111.1	 704	OK
1714	   0	79.6	109.6	 742	OK
1715	   0	81.2	110.8	 696	OK
1716	4000	80.5	111.9	 867	high noise
1717	   0	78.1	109.0	 640	OK
1718	   0	81.2	112.5	 822	OK
1719	   0	81.5	110.3	 709	OK
1720	   0	83.4	113.0	 628	OK
1721	   0	82.0	109.1	 667	OK
1722	   0	78.1	106.3	 794	OK
1723	   0	80.2	111.6	 736	OK
1724	   0	84.9	112.2	 803	OK
1725	   0	80.0	112.9	 631	OK
1726	   0	81.3	111.6	 753	OK
1727	   0	80.3	110.2	 655	OK
1728	   0	80.1	111.6	 693	OK
1729	   0	81.2	106.0	 669	OK
1730	   0	78.4	108.1	 659	OK
1731	   0	77.6	108.5	 750	OK
1732	   0	82.4	113.1	 614	OK
1733	   0	79.7	109.6	 668	OK
1734	   0	80.9	111.1	 717	OK
1735	   0	79.7	111.0	 799	OK
1736	   0	80.2	110.7	 683	OK
1737	   0	79.8	108.4	 613	OK
1738	   0	78.3	109.4	 724	OK
1739	   0	81.9	110.5	 627	OK
1740	   0	79.0	109.1	 681	OK
1741	   0	81.1	107.3	 626	OK
1742	   0	77.9	107.0	 771	OK
1743	   0	83.7	113.7	 698	OK
1744	   0	79.8	108.7	 713	OK
1745	   0	82.7	110.8	 650	OK
1746	   0	81.8	109.3	 687	OK
1747	   0	81.2	107.7	 745	OK
1748	   0	78.2	106.6	 756	OK
1749	   0	77.9	110.9	 663	OK
1750	   0	78.8	108.1	 792	OK
1751	   0	78.1	109.4	 732	OK
1752	4000	79.2	108.8	 856	high noise
1753	   0	80.9	109.6	 657	OK
1754	   0	78.6	109.5	 681	OK
1755	   0	81.6	114.2	 696	OK
1756	   0	82.0	110.3	 698	OK
1757	   0	79.3	108.9	 696	OK
1758	   0	80.5	108.7	 742	OK
1759	   0	76.5	108.6	 699	OK
1760	   0	80.3	110.0	 663	OK
1761	   0	80.4	109.2	 738	OK
1762	   0	78.9	110.5	 675	OK
1763	   0	78.4	108.5	 775	OK
1764	   0	76.4	103.7	 667	OK
1765	   0	82.0	113.5	 689	OK
1766	   0	79.7	108.8	 711	OK
1767	   0	76.5	107.5	 649	OK
1768	   0	77.6	109.5	 683	OK
1769	   0	79.0	110.9	 653	OK
1770	   0	81.7	110.1	 587	OK
1771	   0	80.8	111.5	 741	OK
1772	   0	79.2	107.9	 761	OK
1773	   0	81.5	110.6	 681	OK
1774	   0	81.3	111.1	 687	OK
1775	   0	82.9	110.6	 697	OK
1776	   0	78.2	106.8	 703	OK
1777	   0	78.7	108.4	 732	OK
1778	   0	80.2	111.1	 716	OK
1779	   0	79.4	107.4	 726	OK
1780	   0	81.8	111.0	 711	OK
1781	   0	81.1	110.7	 620	OK
1782	   0	80.1	110.5	 749	OK
1783	   0	83.1	114.8	 698	OK
1784	   0	79.3	107.0	 657	OK
1785	   0	81.6	112.0	 692	OK
1786	   0	78.9	108.2	 694	OK
1787	   0	83.6	111.8	 716	OK
1788	   0	80.7	111.2	 722	OK
1789	   0	80.5	110.1	 661	OK
1790	   0	83.8	114.8	 652	OK
1791	   0	80.5	109.4	 663	OK
1792	   0	79.8	111.7	 756	OK
1793	   0	80.9	113.6	 704	OK
1794	   0	80.8	111.3	 625	OK
1795	   0	80.3	107.2	 704	OK
1796	   0	80.7	111.1	 648	OK
1797	   0	81.4	109.5	 650	OK
1798	   0	80.8	111.1	 746	OK
1799	   0	78.5	109.2	 744	OK
1800	   0	79.5	108.2	 717	OK
1801	   0	77.6	107.6	 739	OK
1802	   0	81.5	110.4	 671	OK
1803	   0	80.3	112.1	 754	OK
1804	   0	80.9	111.6	 700	OK
1805	   0	81.4	109.7	 714	OK
1806	   0	79.3	110.0	 774	OK
1807	   0	81.6	109.4	 684	OK
1808	   0	80.1	109.5	 648	OK
1809	   0	82.5	111.6	 641	OK
1810	   0	79.5	108.9	 747	OK
1811	   0	79.0	108.9	 669	OK
1812	   0	77.0	109.8	 839	OK
1813	   0	80.6	108.5	 672	OK
1814	   0	79.7	109.9	 670	OK
1815	4000	79.2	110.1	 865	high noise
1816	   0	78.6	107.8	 766	OK
1817	   0	80.4	109.3	 766	OK
1818	   0	78.9	110.0	 649	OK
1819	   0	78.3	106.1	 735	OK
1820	   0	78.9	108.3	 765	OK
1821	   0	77.1	105.8	 766	OK
1822	   0	79.4	112.0	 781	OK
1823	   0	78.8	109.1	 687	OK
1824	   0	75.9	108.9	 810	OK
1825	   0	78.6	108.3	 801	OK
1826	   0	79.1	109.9	 712	OK
1827	   0	77.4	107.2	 664	OK
1828	   0	81.1	111.3	 703	OK
1829	   0	76.5	109.0	 732	OK
1830	   0	78.7	108.5	 693	OK
1831	   0	78.5	106.6	 716	OK
1832	   0	76.9	107.8	 762	OK
1833	   0	80.7	106.3	 749	OK
1834	   0	80.7	109.1	 739	OK
1835	   0	80.2	108.0	 710	OK
1836	   0	79.1	109.6	 688	OK
1837	   0	79.9	107.7	 730	OK
1838	   0	78.4	109.9	 802	OK
1839	   0	77.6	106.9	 741	OK
1840	   0	77.0	110.0	 767	OK
1841	   0	79.1	110.1	 729	OK
1842	   0	79.9	113.2	 726	OK
1843	   0	81.4	108.2	 767	OK
1844	   0	77.5	110.0	 802	OK
1845	   0	78.3	108.5	 724	OK
1846	   0	80.6	109.1	 761	OK
1847	   0	78.7	109.9	 749	OK
1848	   0	78.5	107.8	 787	OK
1849	   0	79.4	107.5	 682	OK
1850	4000	80.4	111.6	 882	high noise
1851	4000	81.5	109.1	 855	high noise
1852	   0	77.7	109.6	 665	OK
1853	   0	80.6	107.8	 718	OK
1854	   0	78.7	109.7	 806	OK
1855	   0	83.7	112.7	 704	OK
1856	   0	77.0	106.6	 771	OK
1857	   0	77.4	108.0	 783	OK
1858	   0	77.8	104.7	 755	OK
1859	   0	76.3	106.7	 839	OK
1860	   0	74.8	107.9	 739	OK
1861	   0	76.8	106.5	 816	OK
1862	   0	77.8	109.6	 730	OK
1863	   0	77.9	110.0	 644	OK
1864	   0	78.4	111.7	 654	OK
1865	   0	78.2	108.6	 793	OK
1866	   0	78.9	106.4	 703	OK
1867	   0	75.3	105.4	 688	OK
1868	   0	79.3	107.9	 761	OK
1869	   0	78.9	108.9	 699	OK
1870	   0	79.4	108.9	 792	OK
1871	   0	78.0	104.1	 803	OK
1872	   0	75.4	105.9	 750	OK
1873	   0	78.6	109.4	 735	OK
1874	   0	79.9	110.8	 756	OK
1875	   0	80.4	109.5	 759	OK
1876	   0	77.1	105.2	 813	OK
1877	   0	79.0	107.6	 653	OK
1878	   0	78.8	110.9	 772	OK
1879	   0	77.8	108.1	 729	OK
1880	   0	75.7	105.5	 778	OK
1881	   0	76.0	104.9	 793	OK
1882	   0	78.0	109.5	 738	OK
1883	   0	76.3	107.3	 764	OK
1884	   0	78.7	108.6	 723	OK
1885	   0	77.4	106.5	 812	OK
1886	   0	81.8	108.4	 692	OK
1887	   0	75.1	106.3	 675	OK
1888	   0	78.5	108.6	 759	OK
1889	   0	77.9	111.5	 650	OK
1890	   0	73.5	104.4	 734	OK
1891	   0	80.3	110.6	 724	OK
1892	4000	75.9	107.7	 858	high noise
1893	   0	78.3	105.6	 842	OK
1894	   0	77.0	109.4	 755	OK
1895	   0	78.4	108.7	 699	OK
1896	   0	75.9	106.3	 734	OK
1897	   0	75.6	107.7	 739	OK
1898	   0	78.4	108.4	 700	OK
1899	   0	77.4	108.3	 814	OK
1900	4000	79.9	109.3	 865	high noise
1901	   0	75.6	105.9	 622	OK
1902	   0	78.4	106.9	 729	OK
1903	   0	79.2	106.3	 753	OK
1904	   0	77.1	110.9	 711	OK
1905	4000	76.3	107.1	 854	high noise
1906	   0	76.8	108.1	 758	OK
1907	   0	77.5	108.0	 743	OK
1908	   0	77.5	110.8	 706	OK
1909	   0	75.6	107.6	 686	OK
1910	   0	76.9	106.5	 634	OK
1911	   0	77.7	109.5	 769	OK
1912	   0	78.0	108.3	 781	OK
1913	   0	77.6	108.2	 754	OK
1914	   0	76.8	108.4	 734	OK
1915	   0	77.6	105.4	 766	OK
1916	   0	75.9	107.3	 774	OK
1917	   0	76.9	109.2	 805	OK
1918	   0	80.4	110.3	 647	OK
1919	   0	79.6	107.4	 750	OK
1920	   0	80.7	110.4	 756	OK
1921	   0	83.4	111.5	 799	OK
1922	   0	88.1	113.0	 704	OK
1923	   0	83.0	111.8	 681	OK
1924	   0	84.4	114.7	 724	OK
1925	4000	81.6	112.5	 818	high noise
1926	   0	82.8	113.7	 772	OK
1927	   0	78.7	109.6	 606	OK
1928	   0	81.1	112.3	 778	OK
1929	   0	84.4	112.1	 744	OK
1930	   0	80.6	111.2	 729	OK
1931	   0	83.8	114.4	 693	OK
1932	   0	84.1	113.3	 708	OK
1933	   0	80.5	109.6	 780	OK
1934	   0	83.8	112.0	 709	OK
1935	   0	79.9	112.7	 672	OK
1936	   0	84.1	109.9	 672	OK
1937	   0	84.7	112.6	 681	OK
1938	   0	83.3	112.4	 739	OK
1939	   0	85.0	113.2	 768	OK
1940	   0	80.9	113.5	 568	OK
1941	   0	86.6	114.2	 811	OK
1942	   0	80.1	112.7	 745	OK
1943	   0	84.2	114.8	 703	OK
1944	   0	82.3	111.8	 685	OK
1945	   0	81.9	112.3	 694	OK
1946	   0	83.4	111.5	 649	OK
1947	   0	83.0	112.0	 775	OK
1948	   0	80.0	110.0	 656	OK
1949	   0	78.5	107.3	 746	OK
1950	   0	79.8	110.3	 809	OK
1951	   0	83.3	111.6	 786	OK
1952	   0	81.2	111.1	 728	OK
1953	   0	79.7	109.2	 614	OK
1954	   0	84.3	113.8	 748	OK
1955	   0	78.2	107.6	 772	OK
1956	4000	82.5	113.1	 822	high noise
1957	   0	80.3	110.1	 601	OK
1958	   0	83.8	110.2	 733	OK
1959	   0	81.2	109.5	 635	OK
1960	   0	80.9	113.1	 764	OK
1961	4000	79.5	109.7	 843	high noise
1962	   0	79.4	109.7	 657	OK
1963	   0	85.2	113.7	 641	OK
1964	   0	75.9	104.3	 693	OK
1965	   0	83.1	114.2	 718	OK
1966	   0	84.4	112.6	 675	OK
1967	   0	84.8	110.8	 692	OK
1968	   0	82.7	111.3	 808	OK
1969	   0	83.4	113.8	 728	OK
1970	   0	82.9	110.5	 715	OK
1971	   0	78.1	110.4	 709	OK
1972	   0	84.0	110.6	 730	OK
1973	   0	80.5	111.1	 769	OK
1974	   0	80.8	110.7	 684	OK
1975	   0	81.8	110.8	 698	OK
1976	   0	82.3	112.9	 795	OK
1977	   0	81.7	111.7	 802	OK
1978	   0	81.9	111.0	 657	OK
1979	   0	83.1	113.0	 692	OK
1980	   0	83.7	109.8	 725	OK
1981	   0	83.6	112.4	 647	OK
1982	   0	81.6	113.8	 710	OK
1983	   0	81.8	111.1	 741	OK
1984	   0	81.7	112.3	 813	OK
1985	   0	82.5	110.2	 590	OK
1986	   0	83.4	114.7	 742	OK
1987	   0	80.5	113.4	 786	OK
1988	   0	83.1	114.2	 623	OK
1989	   0	83.3	111.9	 609	OK
1990	   0	81.2	111.8	 651	OK
1991	   0	81.7	112.8	 724	OK
1992	   0	84.4	113.0	 715	OK
1993	   0	83.0	112.3	 673	OK
1994	   0	83.6	111.2	 704	OK
1995	   0	80.6	112.4	 671	OK
1996	   0	81.8	107.8	 583	OK
1997	   0	83.0	111.6	 681	OK
1998	   0	81.1	113.0	 788	OK
1999	   0	84.4	113.3	 693	OK
2000	   0	83.9	113.9	 740	OK
2001	   0	81.5	111.0	 670	OK
2002	   0	83.6	112.7	 595	OK
2003	   0	79.6	108.0	 638	OK
2004	   0	82.2	108.8	 645	OK
2005	   0	84.4	111.8	 723	OK
2006	   0	81.8	113.4	 595	OK
2007	   0	85.0	112.6	 595	OK
2008	   0	80.0	109.1	 812	OK
2009	   0	81.4	111.7	 784	OK
2010	   0	80.8	108.8	 751	OK
2011	   0	81.0	111.5	 743	OK
2012	4000	80.6	111.3	 864	high noise
2013	   0	84.5	114.6	 705	OK
2014	   0	80.7	110.4	 646	OK
2015	   0	83.3	112.3	 662	OK
2016	   0	79.2	111.2	 742	OK
2017	   0	81.4	110.4	 655	OK
2018	   0	83.7	108.9	 611	OK
2019	   0	81.0	111.0	 647	OK
2020	   0	81.8	109.3	 682	OK
2021	   0	84.2	115.8	 748	OK
2022	   0	84.0	112.0	 683	OK
2023	   0	79.1	110.5	 601	OK
2024	   0	78.2	107.3	 716	OK
2025	   0	83.3	109.9	 793	OK
2026	   0	82.4	111.5	 702	OK
2027	   0	84.2	111.6	 595	OK
2028	   0	83.8	110.4	 706	OK
2029	   0	80.6	111.1	 756	OK
2030	   0	83.5	113.6	 676	OK
2031	   0	81.0	110.0	 808	OK
2032	   0	80.2	110.8	 731	OK
2033	   0	84.0	112.5	 704	OK
2034	   0	83.9	114.1	 751	OK
2035	   0	80.6	112.4	 738	OK
2036	   0	84.8	114.1	 695	OK
2037	   0	85.4	111.9	 655	OK
2038	   0	81.3	112.7	 737	OK
2039	   0	79.8	110.0	 735	OK
2040	   0	81.6	112.1	 709	OK
2041	   0	84.4	112.2	 682	OK
2042	   0	80.3	113.1	 794	OK
2043	   0	80.3	110.2	 679	OK
2044	   0	82.4	110.6	 776	OK
2045	   0	82.1	111.9	 651	OK
2046	   0	85.3	113.1	 789	OK
2047	   0	83.4	114.1	 683	OK
2048	   0	88.4	116.8	 695	OK
2049	   0	84.6	115.3	 781	OK
2050	   0	84.7	116.1	 828	OK
2051	   0	84.1	112.9	 749	OK
2052	   0	85.9	115.4	 769	OK
2053	   0	84.7	113.6	 692	OK
2054	   0	83.8	111.8	 683	OK
2055	   0	81.7	111.5	 811	OK
2056	   0	81.8	112.6	 669	OK
2057	   0	82.6	110.6	 629	OK
2058	   0	79.7	109.9	 775	OK
2059	   0	84.2	113.5	 686	OK
2060	   0	84.6	114.8	 702	OK
2061	1000	78.9	112.6	 527	unbonded
2062	   0	81.9	112.0	 677	OK
2063	   0	81.8	112.3	 664	OK
2064	   0	80.7	107.6	 764	OK
2065	   0	84.8	113.9	 704	OK
2066	   0	79.4	110.8	 641	OK
2067	   0	81.0	112.7	 750	OK
2068	   0	83.6	113.1	 723	OK
2069	   0	82.4	110.9	 593	OK
2070	   0	83.3	110.8	 747	OK
2071	   0	81.3	109.9	 655	OK
2072	   0	81.6	108.3	 743	OK
2073	   0	78.4	108.1	 731	OK
2074	   0	84.2	113.8	 774	OK
2075	   0	82.0	110.3	 700	OK
2076	   0	84.0	112.7	 651	OK
2077	   0	81.2	107.8	 663	OK
2078	   0	83.7	114.1	 730	OK
2079	   0	82.1	112.6	 671	OK
2080	   0	81.2	109.0	 733	OK
2081	   0	82.3	111.6	 607	OK
2082	   0	80.9	108.2	 648	OK
2083	   0	81.1	111.1	 754	OK
2084	   0	81.8	111.2	 678	OK
2085	   0	82.7	113.2	 693	OK
2086	   0	80.8	111.1	 686	OK
2087	   0	83.4	113.7	 711	OK
2088	   0	80.2	107.8	 785	OK
2089	1000	82.6	112.2	 510	unbonded
2090	   0	80.6	108.3	 776	OK
2091	   0	82.3	110.6	 725	OK
2092	4000	80.7	109.6	 832	high noise
2093	   0	80.5	111.3	 708	OK
2094	   0	83.2	112.9	 739	OK
2095	   0	83.5	112.3	 679	OK
2096	   0	82.0	114.9	 767	OK
2097	   0	79.7	110.9	 691	OK
2098	   0	81.0	112.6	 732	OK
2099	   0	85.1	111.9	 689	OK
2100	   0	85.0	112.8	 785	OK
2101	   0	82.4	113.3	 714	OK
2102	   0	82.8	110.5	 756	OK
2103	   0	83.6	111.0	 699	OK
2104	   0	86.6	116.6	 632	OK
2105	   0	80.2	109.6	 648	OK
2106	   0	82.2	111.7	 775	OK
2107	   0	80.9	110.0	 791	OK
2108	   0	83.3	112.9	 773	OK
2109	   0	84.3	115.0	 731	OK
2110	   0	85.1	112.3	 787	OK
2111	   0	85.3	115.2	 661	OK
2112	   0	81.8	115.5	 822	OK
2113	   0	83.3	112.2	 751	OK
2114	   0	83.1	116.2	 792	OK
2115	   0	83.9	112.8	 742	OK
2116	   0	78.7	107.1	 750	OK
2117	   0	79.3	109.8	 739	OK
2118	   0	78.6	108.8	 695	OK
2119	   0	80.7	108.6	 711	OK
2120	   0	81.0	110.5	 777	OK
2121	   0	82.7	111.6	 643	OK
2122	   0	78.3	107.7	 721	OK
2123	   0	80.4	109.7	 763	OK
2124	   0	79.6	110.2	 715	OK
2125	   0	77.5	107.0	 712	OK
2126	4000	82.0	111.5	 837	high noise
2127	   0	82.9	111.2	 695	OK
2128	   0	81.5	108.8	 767	OK
2129	   0	82.3	109.6	 822	OK
2130	4000	82.7	113.6	 841	high noise
2131	   0	79.0	109.8	 691	OK
2132	4000	77.0	109.1	 838	high noise
2133	   0	83.1	111.0	 754	OK
2134	   0	81.1	109.3	 709	OK
2135	   0	83.7	110.5	 663	OK
2136	   0	79.6	110.9	 798	OK
2137	   0	82.0	106.7	 732	OK
2138	   0	79.3	108.4	 630	OK
2139	   0	83.3	110.8	 686	OK
2140	   0	81.7	113.7	 810	OK
2141	   0	84.2	110.8	 792	OK
2142	   0	81.2	109.4	 680	OK
2143	   0	84.4	112.1	 646	OK
2144	   0	82.2	110.4	 688	OK
2145	   0	79.6	107.6	 749	OK
2146	   0	78.9	108.5	 741	OK
2147	   0	81.3	111.6	 754	OK
2148	   0	80.6	109.3	 764	OK
2149	   0	81.7	108.6	 606	OK
2150	   0	79.6	108.5	 645	OK
2151	   0	79.9	108.8	 767	OK
2152	   0	82.0	111.1	 742	OK
2153	   0	82.1	112.9	 761	OK
2154	   0	82.4	111.9	 717	OK
2155	   0	80.8	108.5	 683	OK
2156	   0	83.7	112.5	 754	OK
2157	   0	77.4	109.9	 731	OK
2158	   0	81.2	108.4	 773	OK
2159	   0	79.9	110.6	 762	OK
2160	   0	81.9	112.9	 786	OK
2161	   0	78.2	107.4	 698	OK
2162	   0	81.9	107.6	 713	OK
2163	   0	80.3	110.0	 723	OK
2164	   0	82.5	111.6	 648	OK
2165	4000	80.8	109.8	 837	high noise
2166	   0	81.0	111.0	 767	OK
2167	   0	82.1	110.8	 679	OK
2168	   0	81.3	111.8	 675	OK
2169	   0	80.0	110.5	 738	OK
2170	   0	82.9	111.8	 742	OK
2171	   0	85.0	113.1	 628	OK
2172	   0	83.5	112.2	 658	OK
2173	   0	84.1	109.6	 603	OK
2174	   0	82.3	112.3	 793	OK
2175	   0	80.7	110.8	 726	OK
2176	   0	88.2	112.3	 777	OK
2177	   0	83.7	111.0	 690	OK
2178	   0	87.9	115.6	 739	OK
2179	   0	84.5	115.2	 614	OK
2180	   0	84.0	114.2	 735	OK
2181	   0	86.7	116.5	 706	OK
2182	   0	84.1	112.2	 660	OK
2183	   0	86.5	112.6	 688	OK
2184	   0	84.2	112.3	 773	OK
2185	   0	85.7	113.3	 641	OK
2186	   0	80.8	109.5	 770	OK
2187	   0	85.0	115.6	 759	OK
2188	   0	83.3	114.6	 639	OK
2189	   0	83.2	115.0	 725	OK
2190	   0	84.8	112.6	 709	OK
2191	   0	80.1	108.7	 745	OK
2192	   0	87.0	112.7	 780	OK
2193	   0	83.9	112.0	 738	OK
2194	   0	84.3	113.6	 746	OK
2195	   0	84.3	114.7	 676	OK
2196	   0	85.9	114.0	 763	OK
2197	   0	81.4	111.2	 704	OK
2198	   0	85.6	112.9	 777	OK
2199	   0	81.9	112.6	 750	OK
2200	   0	81.3	109.7	 758	OK
2201	   0	86.2	113.8	 657	OK
2202	   0	82.9	113.6	 638	OK
2203	   0	81.6	114.4	 643	OK
2204	   0	82.3	111.7	 736	OK
2205	   0	85.8	112.9	 715	OK
2206	   0	81.0	109.2	 616	OK
2207	   0	80.0	111.5	 782	OK
2208	   0	85.0	115.3	 797	OK
2209	   0	83.3	111.2	 668	OK
2210	   0	85.7	113.2	 674	OK
2211	   0	84.9	112.9	 741	OK
2212	   0	84.6	114.0	 802	OK
2213	   0	86.8	114.0	 671	OK
2214	   0	82.9	112.8	 699	OK
2215	   0	80.7	108.7	 663	OK
2216	   0	84.1	112.0	 716	OK
2217	   0	82.0	109.8	 774	OK
2218	   0	83.2	114.1	 680	OK
2219	   0	84.6	111.9	 726	OK
2220	   0	82.3	111.1	 693	OK
2221	   0	82.6	110.8	 738	OK
2222	   0	85.1	111.6	 671	OK
2223	   0	80.1	110.6	 661	OK
2224	   0	84.8	114.0	 730	OK
2225	   0	83.4	113.2	 668	OK
2226	   0	84.4	112.3	 756	OK
2227	   0	84.1	112.5	 683	OK
2228	   0	86.1	113.2	 734	OK
2229	   0	83.6	112.6	 719	OK
2230	   0	84.5	115.3	 612	OK
2231	   0	84.2	115.5	 679	OK
2232	   0	86.5	116.7	 688	OK
2233	   0	85.8	115.7	 734	OK
2234	   0	86.6	116.1	 679	OK
2235	   0	86.0	115.7	 769	OK
2236	   0	86.3	113.5	 602	OK
2237	   0	87.7	117.8	 796	OK
2238	   0	89.1	115.0	 770	OK
2239	   0	84.9	114.9	 691	OK
2240	   0	86.0	113.0	 695	OK
2241	   0	89.1	116.0	 708	OK
2242	   0	82.6	110.9	 736	OK
2243	   0	81.5	112.7	 742	OK
2244	   0	84.8	114.7	 626	OK
2245	   0	87.0	115.3	 649	OK
2246	   0	86.4	114.4	 693	OK
2247	   0	84.1	112.6	 735	OK
2248	   0	85.8	112.8	 732	OK
2249	   0	83.4	111.4	 778	OK
2250	   0	86.5	114.6	 736	OK
2251	   0	80.8	109.1	 609	OK
2252	   0	84.8	114.6	 583	OK
2253	   0	86.9	114.8	 769	OK
2254	   0	83.9	111.6	 704	OK
2255	   0	87.8	113.4	 722	OK
2256	   0	85.2	114.6	 577	OK
2257	   0	87.9	115.4	 703	OK
2258	   0	83.2	116.0	 790	OK
2259	   0	82.1	111.6	 692	OK
2260	   0	81.5	114.2	 764	OK
2261	   0	83.6	113.2	 635	OK
2262	   0	88.9	116.6	 777	OK
2263	   0	87.1	114.8	 667	OK
2264	   0	84.5	112.9	 668	OK
2265	   0	80.7	109.5	 805	OK
2266	   0	85.8	114.6	 727	OK
2267	   0	84.8	114.5	 792	OK
2268	   0	88.3	115.0	 653	OK
2269	   0	82.6	112.9	 725	OK
2270	   0	84.5	113.7	 700	OK
2271	   0	84.8	115.1	 625	OK
2272	   0	87.1	115.4	 748	OK
2273	   0	88.7	116.5	 661	OK
2274	   0	81.1	112.7	 698	OK
2275	   0	83.6	110.3	 669	OK
2276	   0	83.5	111.4	 799	OK
2277	   0	83.7	109.8	 547	OK
2278	   0	81.7	111.8	 696	OK
2279	   0	85.8	118.4	 674	OK
2280	   0	85.1	115.4	 731	OK
2281	   0	87.3	113.8	 626	OK
2282	   0	85.4	111.7	 671	OK
2283	   0	87.0	114.8	 658	OK
2284	   0	84.6	114.6	 745	OK
2285	   0	85.0	116.7	 690	OK
2286	   0	85.5	113.5	 678	OK
2287	   0	83.7	112.4	 729	OK
2288	   0	87.1	116.8	 792	OK
2289	   0	87.7	115.5	 679	OK
2290	4000	84.5	116.6	 831	high noise
2291	   0	85.5	114.7	 656	OK
2292	   0	85.2	115.3	 717	OK
2293	   0	84.7	111.9	 769	OK
2294	   0	85.2	114.6	 616	OK
2295	   0	84.9	111.5	 743	OK
2296	   0	83.6	113.4	 591	OK
2297	   0	85.9	112.8	 710	OK
2298	   0	86.6	116.1	 698	OK
2299	   0	83.0	114.5	 686	OK
2300	   0	89.6	117.6	 636	OK
2301	   0	83.8	113.6	 669	OK
2302	   0	86.8	114.5	 716	OK
2303	   0	83.8	110.4	 735	OK
2304	   0	85.9	115.4	 634	OK
2305	   0	84.6	113.4	 602	OK
2306	   0	82.0	113.3	 663	OK
2307	4000	86.5	114.1	 830	high noise
2308	   0	81.8	112.1	 768	OK
2309	   0	87.4	118.5	 705	OK
2310	   0	89.5	117.3	 706	OK
2311	   0	84.2	115.2	 675	OK
2312	   0	86.4	117.4	 750	OK
2313	   0	84.7	114.2	 638	OK
2314	   0	84.5	113.8	 567	OK
2315	   0	85.9	114.0	 669	OK
2316	   0	85.5	114.7	 709	OK
2317	   0	83.2	114.6	 647	OK
2318	   0	83.5	114.2	 697	OK
2319	   0	87.7	116.8	 784	OK
2320	   0	88.1	113.5	 659	OK
2321	   0	83.4	115.2	 727	OK
2322	   0	82.7	113.2	 733	OK
2323	   0	85.1	115.0	 616	OK
2324	   0	84.8	113.8	 648	OK
2325	   0	84.5	116.1	 723	OK
2326	   0	88.0	116.3	 604	OK
2327	   0	88.2	118.3	 687	OK
2328	   0	82.2	114.4	 797	OK
2329	   0	82.5	113.2	 778	OK
2330	   0	82.8	115.4	 633	OK
2331	   0	86.3	112.7	 740	OK
2332	   0	80.3	108.4	 754	OK
2333	   0	83.0	109.0	 631	OK
2334	1000	85.5	115.3	 522	unbonded
2335	4000	84.1	113.2	 816	high noise
2336	   0	83.6	114.4	 679	OK
2337	   0	84.8	112.3	 663	OK
2338	   0	84.1	113.5	 764	OK
2339	4000	85.3	113.1	 882	high noise
2340	   0	83.0	112.3	 777	OK
2341	   0	84.6	114.2	 681	OK
2342	   0	86.0	113.2	 752	OK
2343	   0	84.9	114.9	 615	OK
2344	   0	85.6	113.6	 667	OK
2345	   0	84.1	114.5	 712	OK
2346	   0	84.9	114.9	 641	OK
2347	   0	84.0	111.7	 635	OK
2348	   0	84.2	114.6	 696	OK
2349	   0	87.0	116.5	 671	OK
2350	   0	83.5	112.8	 670	OK
2351	   0	84.5	113.5	 698	OK
2352	   0	84.3	112.5	 726	OK
2353	   0	84.0	112.3	 659	OK
2354	   0	83.4	112.7	 605	OK
2355	   0	84.9	111.7	 690	OK
2356	   0	84.5	112.3	 746	OK
2357	   0	84.4	115.6	 733	OK
2358	   0	86.0	111.9	 648	OK
2359	   0	84.3	113.0	 638	OK
2360	   0	85.2	115.0	 754	OK
2361	   0	84.6	115.4	 669	OK
2362	   0	84.9	113.5	 613	OK
2363	   0	87.0	113.7	 711	OK
2364	   0	86.0	115.7	 753	OK
2365	   0	82.1	112.6	 767	OK
2366	   0	84.6	114.7	 652	OK
2367	   0	85.0	114.4	 677	OK
2368	   0	84.4	115.1	 694	OK
2369	   0	84.2	113.2	 750	OK
2370	   0	83.0	111.1	 629	OK
2371	   0	82.3	109.0	 673	OK
2372	   0	85.9	111.7	 656	OK
2373	   0	83.9	116.9	 732	OK
2374	   0	83.7	114.4	 648	OK
2375	   0	80.9	110.9	 696	OK
2376	   0	82.7	110.9	 785	OK
2377	   0	83.4	115.5	 740	OK
2378	   0	82.4	112.1	 685	OK
2379	   0	81.6	112.5	 673	OK
2380	   0	84.3	112.6	 699	OK
2381	   0	84.0	114.0	 750	OK
2382	   0	84.6	116.3	 686	OK
2383	   0	83.5	113.9	 752	OK
2384	   0	83.9	113.1	 708	OK
2385	   0	81.2	109.6	 613	OK
2386	   0	81.7	113.3	 774	OK
2387	   0	88.0	115.7	 701	OK
2388	   0	82.3	111.2	 762	OK
2389	   0	82.5	112.4	 779	OK
2390	   0	85.2	114.5	 674	OK
2391	   0	81.6	110.6	 714	OK
2392	   0	82.5	111.9	 594	OK
2393	   0	84.0	114.5	 642	OK
2394	   0	84.4	113.9	 653	OK
2395	   0	85.9	114.3	 772	OK
2396	   0	86.3	116.7	 679	OK
2397	   0	84.5	116.0	 767	OK
2398	   0	80.8	112.1	 662	OK
2399	   0	82.9	111.9	 760	OK
2400	   0	83.9	114.5	 693	OK
2401	   0	86.2	114.6	 664	OK
2402	   0	83.0	108.7	 608	OK
2403	   0	80.7	110.5	 630	OK
2404	   0	86.1	113.0	 748	OK
2405	   0	83.5	112.3	 665	OK
2406	   0	81.5	113.7	 690	OK
2407	   0	87.8	115.8	 678	OK
2408	   0	85.1	112.4	 783	OK
2409	   0	83.0	115.3	 738	OK
2410	   0	86.0	116.3	 739	OK
2411	   0	84.7	112.9	 791	OK
2412	   0	84.2	113.7	 673	OK
2413	   0	85.7	113.8	 629	OK
2414	   0	81.2	111.9	 682	OK
2415	   0	82.2	112.1	 776	OK
2416	   0	82.4	111.3	 704	OK
2417	   0	84.1	113.0	 702	OK
2418	   0	83.3	115.6	 764	OK
2419	   0	83.8	110.7	 727	OK
2420	   0	83.7	113.5	 768	OK
2421	   0	83.3	112.3	 665	OK
2422	   0	84.5	111.1	 651	OK
2423	   0	83.2	112.5	 750	OK
2424	   0	82.4	112.8	 664	OK
2425	   0	82.4	110.8	 639	OK
2426	   0	80.4	110.0	 638	OK
2427	   0	87.3	114.5	 726	OK
2428	   0	82.2	111.4	 655	OK
2429	4000	86.7	117.0	 826	high noise
2430	4000	86.3	115.1	 807	high noise
2431	   0	83.4	110.2	 611	OK
2432	   0	86.7	116.4	 732	OK
2433	   0	83.8	110.8	 608	OK
2434	   0	85.2	112.0	 769	OK
2435	   0	83.6	116.5	 758	OK
2436	   0	87.0	114.3	 740	OK
2437	   0	87.3	117.1	 702	OK
2438	   0	84.3	111.4	 561	OK
2439	   0	85.7	116.0	 766	OK
2440	4000	85.8	115.4	 822	high noise
2441	4000	85.3	116.9	 812	high noise
2442	   0	85.5	115.8	 754	OK
2443	   0	85.2	114.3	 649	OK
2444	   0	87.5	115.7	 746	OK
2445	   0	85.3	116.7	 745	OK
2446	   0	82.2	112.3	 735	OK
2447	   0	85.7	112.4	 691	OK
2448	   0	85.7	115.0	 727	OK
2449	   0	84.2	112.7	 662	OK
2450	   0	85.6	114.4	 690	OK
2451	   0	84.4	115.6	 710	OK
2452	   0	86.0	112.7	 777	OK
2453	   0	81.4	110.5	 649	OK
2454	   0	85.1	113.3	 798	OK
2455	   0	84.6	114.1	 755	OK
2456	   0	84.5	113.8	 689	OK
2457	   0	86.4	115.6	 763	OK
2458	   0	87.8	114.8	 667	OK
2459	   0	85.9	115.9	 718	OK
2460	   0	84.5	116.0	 671	OK
2461	   0	82.8	112.1	 684	OK
2462	   0	84.8	115.1	 727	OK
2463	   0	81.3	110.4	 733	OK
2464	   0	85.1	112.3	 641	OK
2465	   0	85.0	113.2	 675	OK
2466	   0	83.8	115.9	 698	OK
2467	   0	83.9	113.5	 671	OK
2468	   0	86.9	114.1	 684	OK
2469	4000	81.1	114.1	 826	high noise
2470	   0	82.1	113.4	 753	OK
2471	   0	83.2	113.7	 656	OK
2472	   0	82.6	110.9	 770	OK
2473	   0	86.6	115.1	 668	OK
2474	   0	82.4	110.9	 736	OK
2475	   0	85.7	116.0	 711	OK
2476	   0	83.8	110.4	 658	OK
2477	   0	84.9	117.5	 795	OK
2478	   0	81.9	114.0	 701	OK
2479	   0	85.9	114.4	 680	OK
2480	   0	86.6	112.9	 713	OK
2481	   0	86.3	115.2	 717	OK
2482	   0	85.4	117.7	 713	OK
2483	   0	87.7	115.2	 683	OK
2484	   0	83.4	114.5	 628	OK
2485	   0	86.4	115.6	 679	OK
2486	   0	85.7	115.9	 736	OK
2487	   0	86.1	118.5	 597	OK
2488	   0	86.0	115.6	 722	OK
2489	   0	85.6	116.2	 717	OK
2490	   0	84.7	114.9	 744	OK
2491	   0	86.4	114.9	 703	OK
2492	   0	85.3	113.3	 599	OK
2493	   0	84.2	115.5	 777	OK
2494	   0	83.3	113.3	 737	OK
2495	   0	89.7	116.7	 575	OK
2496	   0	82.0	115.5	 746	OK
2497	   0	86.1	117.7	 598	OK
2498	   0	84.1	114.5	 701	OK
2499	   0	86.4	116.7	 715	OK
2500	   0	84.9	114.2	 746	OK
2501	   0	84.3	114.8	 691	OK
2502	   0	84.5	115.4	 613	OK
2503	   0	84.2	114.6	 656	OK
2504	   0	86.3	115.4	 637	OK
2505	   0	87.8	114.4	 696	OK
2506	   0	81.5	111.5	 673	OK
2507	   0	81.7	113.7	 668	OK
2508	   0	85.8	114.9	 609	OK
2509	   0	84.4	112.6	 779	OK
2510	   0	84.8	114.2	 647	OK
2511	   0	82.3	111.0	 729	OK
2512	   0	87.2	113.5	 687	OK
2513	   0	85.3	115.6	 671	OK
2514	   0	82.8	115.9	 764	OK
2515	   0	84.2	113.8	 760	OK
2516	   0	85.2	115.5	 778	OK
2517	   0	83.3	111.6	 650	OK
2518	   0	83.2	114.6	 635	OK
2519	   0	82.7	114.2	 790	OK
2520	   0	85.6	113.6	 723	OK
2521	   0	84.4	115.6	 650	OK
2522	   0	82.5	110.3	 558	OK
2523	   0	81.8	110.3	 720	OK
2524	   0	85.1	114.5	 655	OK
2525	   0	83.6	115.6	 693	OK
2526	   0	85.8	114.4	 802	OK
2527	   0	83.8	112.0	 706	OK
2528	   0	86.6	118.4	 676	OK
2529	   0	83.8	112.9	 662	OK
2530	4000	86.0	117.7	 820	high noise
2531	   0	87.4	114.0	 687	OK
2532	   0	87.8	115.0	 800	OK
2533	   0	86.5	116.7	 716	OK
2534	   0	86.0	116.9	 677	OK
2535	   0	86.1	116.1	 604	OK
2536	   0	83.6	111.2	 750	OK
2537	   0	87.0	115.7	 687	OK
2538	   0	84.6	112.9	 704	OK
2539	   0	90.7	119.7	 619	OK
2540	   0	85.3	115.4	 630	OK
2541	   0	85.0	117.4	 643	OK
2542	   0	84.0	116.3	 646	OK
2543	   0	86.0	116.4	 664	OK
2544	   0	89.7	119.7	 649	OK
2545	   0	83.2	113.0	 691	OK
2546	   0	85.6	116.6	 642	OK
2547	   0	85.2	114.9	 679	OK
2548	   0	88.0	119.7	 650	OK
2549	   0	84.5	112.3	 739	OK
2550	   0	86.2	120.2	 776	OK
2551	   0	88.4	118.4	 781	OK
2552	   0	83.2	114.6	 639	OK
2553	   0	85.4	112.1	 732	OK
2554	   0	87.8	120.8	 696	OK
2555	   0	86.0	117.3	 624	OK
2556	   0	86.0	113.7	 709	OK
2557	   0	88.0	116.2	 752	OK
2558	   0	87.0	119.0	 652	OK
2559	   0	84.9	114.3	 687	OK
