               0.01639549              -0.02401904
                -9.978992             -0.002742371
                -19.97556              -0.00374948
                -29.96677             -0.004733763
                -39.96181              -0.01001533
                -49.95643              -0.01117892
                -59.95035              -0.01237478
                -69.94485              -0.01314752
                -79.95279                -0.014145
                -89.95986              -0.01479107
                -99.96574              -0.03163203
                -109.9725              -0.03115506
                -119.9787              -0.02515599
                -129.9873              -0.02751601
                -139.9925              -0.02592389
                -149.9978              -0.02495187
                -159.9913              -0.02374812
                 -169.987              -0.02144063
                -179.9797              -0.02315146
                -189.9727              -0.02321374
                -199.9651              -0.02342173
                -209.9609              -0.02362927
                -219.9546              -0.02387535
                -229.9614              -0.02491499
                 -239.967              -0.02582244
                -249.9764               -0.0268331
                -259.9789              -0.02785009
                -269.9876              -0.02890059
                -279.9943              -0.02989535
                -290.0011               -0.0309612
                -300.0056              -0.03197706
                -309.9993              -0.03297794
                -319.9937              -0.03406631
                -329.9857              -0.03507588
                -339.9769              -0.03610021
                -349.9713              -0.03714821
                -359.9658              -0.03818994
                -369.9592              -0.03924026
                -379.9647              -0.04023399
                -389.9718              -0.04131199
                -399.9777              -0.04234374
                -410.0046              -0.04339724
                -420.0084              -0.04440694
                -430.0163              -0.04550481
                -440.0231              -0.04660693
                -450.0259              -0.04768067
                -460.0204              -0.04875426
                -470.0167              -0.04982483
                -480.0108              -0.05090615
                -490.0024              -0.05199911
