#chan	code	gain	vt50	innse	comment
   0	   4	90.7	117.6	 701	inefficient
   1	   4	94.5	122.9	 735	inefficient
   2	   4	93.2	123.9	 725	inefficient
   3	   4	93.1	121.4	 727	inefficient
   4	   4	91.8	120.5	 730	inefficient
   5	   4	94.2	123.0	 726	inefficient
   6	   4	92.1	120.8	 729	inefficient
   7	   4	89.8	119.8	 718	inefficient
   8	   4	92.1	122.2	 720	inefficient
   9	   4	89.1	117.7	 731	inefficient
  10	   4	90.4	117.7	 734	inefficient
  11	   4	90.3	119.5	 722	inefficient
  12	   4	88.9	116.1	 730	inefficient
  13	   4	88.9	118.2	 726	inefficient
  14	   4	92.3	122.0	 721	inefficient
  15	   4	94.2	121.0	 734	inefficient
  16	   4	93.8	120.3	 753	inefficient
  17	   4	92.8	120.0	 743	inefficient
  18	   4	89.3	116.7	 744	inefficient
  19	   4	90.4	119.8	 752	inefficient
  20	   4	92.8	119.0	 747	inefficient
  21	   4	94.6	120.9	 759	inefficient
  22	   4	91.3	118.8	 746	inefficient
  23	   4	91.5	120.1	 749	inefficient
  24	   4	92.9	119.7	 735	inefficient
  25	   4	92.0	121.4	 745	inefficient
  26	   4	91.1	120.4	 741	inefficient
  27	   4	94.0	123.0	 753	inefficient
  28	   4	89.7	116.7	 748	inefficient
  29	   4	90.8	119.6	 743	inefficient
  30	   4	92.3	122.4	 763	inefficient
  31	   4	88.3	117.2	 758	inefficient
  32	   4	92.6	119.3	 765	inefficient
  33	   4	89.9	118.7	 741	inefficient
  34	   4	91.8	120.8	 749	inefficient
  35	   4	90.7	118.3	 761	inefficient
  36	   4	87.7	116.6	 745	inefficient
  37	   4	90.9	120.1	 779	inefficient
  38	   4	93.4	121.8	 754	inefficient
  39	   4	90.6	118.6	 754	inefficient
  40	   4	90.7	117.4	 759	inefficient
  41	   4	85.5	112.6	 767	inefficient
  42	   4	92.4	120.2	 743	inefficient
  43	   4	92.0	119.1	 750	inefficient
  44	   4	92.3	121.5	 762	inefficient
  45	   4	90.7	119.4	 770	inefficient
  46	   4	89.1	115.9	 761	inefficient
  47	   4	89.0	119.0	 755	inefficient
  48	   4	90.9	119.7	 759	inefficient
  49	   4	90.8	118.5	 761	inefficient
  50	   4	89.1	118.1	 763	inefficient
  51	   4	90.7	120.9	 770	inefficient
  52	   4	90.6	117.2	 759	inefficient
  53	   4	90.4	120.4	 756	inefficient
  54	   4	91.9	121.1	 746	inefficient
  55	1501	0.0	0.0	   0	dead
  56	   4	93.2	121.9	 767	inefficient
  57	   4	88.2	113.8	 757	inefficient
  58	   4	91.6	122.3	 756	inefficient
  59	   4	91.4	120.2	 747	inefficient
  60	   4	91.6	121.0	 768	inefficient
  61	   4	90.5	119.3	 771	inefficient
  62	   4	93.4	122.0	 752	inefficient
  63	   4	92.9	121.9	 766	inefficient
  64	   4	90.6	121.6	 753	inefficient
  65	   4	95.9	124.1	 757	inefficient
  66	   4	90.0	121.1	 753	inefficient
  67	   4	91.4	119.6	 765	inefficient
  68	   4	93.5	123.1	 768	inefficient
  69	   4	89.9	119.5	 760	inefficient
  70	   4	90.1	119.5	 747	inefficient
  71	   4	93.4	121.3	 755	inefficient
  72	   4	89.7	120.0	 736	inefficient
  73	   4	93.9	123.1	 751	inefficient
  74	   4	90.9	119.1	 730	inefficient
  75	   4	89.0	117.8	 764	inefficient
  76	   4	90.8	118.7	 739	inefficient
  77	   4	89.2	119.0	 762	inefficient
  78	   4	91.2	118.3	 743	inefficient
  79	   4	91.5	119.5	 765	inefficient
  80	   4	91.1	119.2	 746	inefficient
  81	   4	92.4	120.3	 763	inefficient
  82	   4	89.6	117.1	 759	inefficient
  83	   4	88.6	117.3	 752	inefficient
  84	   4	91.6	121.0	 747	inefficient
  85	   4	90.8	118.8	 741	inefficient
  86	   4	93.3	120.7	 741	inefficient
  87	   4	91.9	121.7	 745	inefficient
  88	   4	90.3	118.2	 727	inefficient
  89	   4	91.6	119.9	 725	inefficient
  90	   4	92.8	121.2	 733	inefficient
  91	   4	90.6	119.0	 722	inefficient
  92	   4	92.4	121.3	 731	inefficient
  93	   4	91.5	121.2	 732	inefficient
  94	   4	94.4	122.9	 719	inefficient
  95	   4	92.1	121.3	 721	inefficient
  96	   4	91.5	118.5	 715	inefficient
  97	   4	92.3	121.1	 723	inefficient
  98	   4	91.6	120.6	 729	inefficient
  99	   4	91.9	120.8	 728	inefficient
 100	   4	93.1	123.1	 730	inefficient
 101	   4	90.8	120.9	 740	inefficient
 102	   4	91.8	119.7	 743	inefficient
 103	   4	90.0	119.7	 726	inefficient
 104	   4	93.8	122.8	 736	inefficient
 105	   4	88.7	118.3	 729	inefficient
 106	   4	93.8	124.1	 721	inefficient
 107	   4	91.4	119.8	 736	inefficient
 108	   4	93.5	123.2	 745	inefficient
 109	   4	92.1	121.6	 743	inefficient
 110	   4	92.4	121.7	 744	inefficient
 111	   4	89.7	118.0	 746	inefficient
 112	   4	91.4	120.6	 724	inefficient
 113	   4	90.4	118.8	 744	inefficient
 114	   4	94.2	123.5	 731	inefficient
 115	   4	90.0	120.6	 734	inefficient
 116	   4	91.8	120.7	 728	inefficient
 117	   4	91.7	119.3	 722	inefficient
 118	   4	91.7	118.2	 725	inefficient
 119	   4	93.1	121.7	 748	inefficient
 120	   4	92.0	119.3	 739	inefficient
 121	   4	93.7	122.6	 740	inefficient
 122	   4	95.6	124.5	 728	inefficient
 123	   4	90.9	120.3	 721	inefficient
 124	   4	92.7	119.5	 731	inefficient
 125	   4	92.3	121.4	 739	inefficient
 126	   4	93.2	122.0	 736	inefficient
 127	   4	90.2	117.1	 750	inefficient
 128	   4	89.9	116.7	 754	inefficient
 129	   4	94.8	124.2	 750	inefficient
 130	   4	88.2	117.0	 741	inefficient
 131	   4	91.4	118.6	 743	inefficient
 132	   4	87.1	113.5	 746	inefficient
 133	   4	88.8	119.7	 754	inefficient
 134	   4	90.8	119.9	 754	inefficient
 135	   4	91.7	121.0	 745	inefficient
 136	   4	89.7	119.6	 772	inefficient
 137	   4	90.0	118.1	 759	inefficient
 138	   4	89.0	118.0	 747	inefficient
 139	   4	91.3	119.3	 756	inefficient
 140	   4	89.7	118.4	 747	inefficient
 141	   4	90.3	117.4	 749	inefficient
 142	   4	88.6	116.5	 743	inefficient
 143	   4	86.8	115.1	 756	inefficient
 144	   4	89.0	119.6	 740	inefficient
 145	   4	91.1	119.2	 737	inefficient
 146	   4	88.5	116.4	 754	inefficient
 147	   4	86.9	114.2	 742	inefficient
 148	   4	89.7	117.2	 752	inefficient
 149	   4	87.6	117.2	 756	inefficient
 150	   4	91.1	119.6	 761	inefficient
 151	   4	87.4	114.3	 750	inefficient
 152	   4	89.2	118.1	 756	inefficient
 153	   4	90.9	117.4	 751	inefficient
 154	   4	88.5	116.9	 752	inefficient
 155	   4	88.2	116.0	 744	inefficient
 156	   4	88.2	118.8	 754	inefficient
 157	   4	89.3	118.1	 764	inefficient
 158	   4	85.9	112.9	 754	inefficient
 159	   4	86.7	116.4	 732	inefficient
 160	   4	87.8	116.1	 747	inefficient
 161	   4	86.7	115.1	 748	inefficient
 162	   4	84.0	111.2	 765	inefficient
 163	   4	87.3	115.0	 769	inefficient
 164	   4	89.9	119.8	 755	inefficient
 165	   4	89.4	116.6	 760	inefficient
 166	   4	88.1	116.4	 757	inefficient
 167	   4	89.3	117.7	 756	inefficient
 168	   4	87.1	114.1	 758	inefficient
 169	   4	88.0	116.1	 756	inefficient
 170	   4	89.6	116.0	 754	inefficient
 171	   4	87.8	117.2	 761	inefficient
 172	   4	90.2	118.6	 750	inefficient
 173	   4	91.0	119.0	 744	inefficient
 174	   4	88.7	118.7	 756	inefficient
 175	   4	87.2	116.2	 761	inefficient
 176	   4	86.6	114.0	 734	inefficient
 177	   4	89.1	118.1	 762	inefficient
 178	   4	88.3	116.2	 749	inefficient
 179	   4	86.8	117.5	 756	inefficient
 180	   4	85.7	113.2	 751	inefficient
 181	   4	89.2	119.3	 750	inefficient
 182	   4	90.2	116.8	 745	inefficient
 183	   4	86.5	115.9	 746	inefficient
 184	   4	86.6	114.2	 740	inefficient
 185	   4	87.0	116.4	 751	inefficient
 186	   4	88.1	116.9	 741	inefficient
 187	   4	88.9	116.8	 752	inefficient
 188	   4	88.6	118.2	 744	inefficient
 189	   4	87.3	116.3	 755	inefficient
 190	   4	86.9	117.3	 767	inefficient
 191	   4	92.4	120.8	 771	inefficient
 192	   4	90.3	119.1	 740	inefficient
 193	   4	91.2	117.9	 763	inefficient
 194	   4	89.1	118.7	 740	inefficient
 195	   4	86.7	115.5	 744	inefficient
 196	   4	89.1	118.0	 749	inefficient
 197	   4	90.2	119.4	 743	inefficient
 198	   4	88.2	118.6	 756	inefficient
 199	   4	90.7	119.8	 754	inefficient
 200	   4	88.9	117.8	 755	inefficient
 201	   4	87.8	118.6	 749	inefficient
 202	   4	90.6	118.3	 772	inefficient
 203	   4	90.9	118.1	 775	inefficient
 204	   4	90.7	120.0	 753	inefficient
 205	   4	88.4	116.9	 786	inefficient
 206	   4	89.6	118.7	 746	inefficient
 207	   4	88.7	115.8	 743	inefficient
 208	   4	88.9	117.9	 752	inefficient
 209	   4	88.5	116.7	 735	inefficient
 210	   4	88.7	116.5	 749	inefficient
 211	   4	89.8	117.3	 772	inefficient
 212	   4	86.3	114.9	 753	inefficient
 213	   4	88.8	118.5	 737	inefficient
 214	1501	0.0	0.0	   0	dead
 215	   4	90.8	118.6	 776	inefficient
 216	   4	88.4	117.2	 753	inefficient
 217	1501	0.0	0.0	   0	dead
 218	   4	88.4	118.3	 755	inefficient
 219	   4	87.6	114.4	 741	inefficient
 220	   4	88.8	117.6	 751	inefficient
 221	   4	89.8	117.3	 755	inefficient
 222	   4	86.9	117.5	 766	inefficient
 223	   4	90.9	120.3	 755	inefficient
 224	   4	91.9	123.4	 753	inefficient
 225	   4	89.3	116.7	 756	inefficient
 226	   4	90.2	119.7	 747	inefficient
 227	   4	89.2	118.4	 748	inefficient
 228	   4	88.8	118.5	 746	inefficient
 229	   4	90.3	116.8	 755	inefficient
 230	   4	91.5	120.4	 749	inefficient
 231	   4	89.0	116.2	 755	inefficient
 232	   4	92.3	122.3	 752	inefficient
 233	   4	88.8	116.0	 757	inefficient
 234	   4	89.8	117.6	 741	inefficient
 235	   4	90.9	118.9	 745	inefficient
 236	   4	88.2	114.7	 740	inefficient
 237	   4	87.8	117.0	 746	inefficient
 238	   4	87.6	117.7	 744	inefficient
 239	   4	88.8	117.8	 746	inefficient
 240	   4	90.6	118.4	 747	inefficient
 241	   4	87.9	118.6	 749	inefficient
 242	   4	89.8	119.3	 759	inefficient
 243	   4	91.1	118.7	 740	inefficient
 244	   4	89.8	118.6	 756	inefficient
 245	   4	88.6	117.6	 739	inefficient
 246	   4	88.9	118.1	 745	inefficient
 247	   4	89.8	119.3	 737	inefficient
 248	   4	86.1	114.4	 732	inefficient
 249	   4	86.0	116.0	 746	inefficient
 250	   4	90.6	120.1	 742	inefficient
 251	   4	88.7	116.4	 750	inefficient
 252	   4	89.4	118.8	 743	inefficient
 253	   4	91.4	118.5	 743	inefficient
 254	   4	91.3	118.7	 744	inefficient
 255	   4	89.9	119.5	 765	inefficient
 256	   4	91.8	119.1	 737	inefficient
 257	   4	96.2	121.1	 726	inefficient
 258	   4	93.3	122.5	 726	inefficient
 259	   4	92.6	121.7	 730	inefficient
 260	   4	89.9	116.3	 718	inefficient
 261	   4	93.1	120.1	 725	inefficient
 262	   4	93.5	121.4	 746	inefficient
 263	   4	94.1	122.9	 724	inefficient
 264	   4	89.8	118.0	 727	inefficient
 265	   4	93.7	123.6	 722	inefficient
 266	   4	94.3	123.2	 728	inefficient
 267	   4	91.2	120.3	 719	inefficient
 268	   4	90.9	120.6	 730	inefficient
 269	   4	92.4	120.6	 729	inefficient
 270	   4	89.4	115.7	 733	inefficient
 271	   4	91.6	122.4	 718	inefficient
 272	   4	91.9	117.3	 724	inefficient
 273	   4	91.3	120.0	 717	inefficient
 274	   4	90.7	120.6	 723	inefficient
 275	   4	91.5	117.4	 730	inefficient
 276	   4	93.2	120.9	 733	inefficient
 277	   4	92.5	120.0	 734	inefficient
 278	   4	89.1	118.8	 732	inefficient
 279	   4	89.4	117.4	 728	inefficient
 280	   4	90.5	119.5	 717	inefficient
 281	   4	95.3	124.3	 719	inefficient
 282	   4	92.0	119.6	 717	inefficient
 283	   4	90.4	118.2	 723	inefficient
 284	   4	95.4	123.9	 733	inefficient
 285	   4	93.3	123.7	 725	inefficient
 286	   4	89.7	118.6	 730	inefficient
 287	   4	90.8	117.1	 735	inefficient
 288	   4	91.7	120.2	 722	inefficient
 289	   4	91.6	120.6	 720	inefficient
 290	   4	90.2	118.1	 713	inefficient
 291	   4	92.9	120.8	 729	inefficient
 292	   4	90.0	118.9	 727	inefficient
 293	   4	91.8	117.7	 727	inefficient
 294	   4	90.1	116.7	 745	inefficient
 295	   4	90.5	119.7	 737	inefficient
 296	   4	88.1	118.3	 731	inefficient
 297	   4	92.1	119.7	 726	inefficient
 298	   4	87.1	116.0	 732	inefficient
 299	   4	92.2	121.9	 731	inefficient
 300	   4	88.9	116.6	 738	inefficient
 301	   4	89.3	118.4	 728	inefficient
 302	   4	89.9	119.4	 713	inefficient
 303	   4	89.9	116.4	 737	inefficient
 304	   4	91.0	117.9	 717	inefficient
 305	   4	89.6	118.1	 741	inefficient
 306	   4	90.8	118.4	 743	inefficient
 307	   4	89.5	118.6	 728	inefficient
 308	   4	91.3	118.8	 726	inefficient
 309	   4	88.7	116.9	 738	inefficient
 310	   4	90.7	119.3	 728	inefficient
 311	   4	94.3	123.6	 722	inefficient
 312	   4	91.6	118.0	 721	inefficient
 313	   4	93.7	122.5	 730	inefficient
 314	   4	90.8	119.7	 733	inefficient
 315	   4	91.8	120.2	 728	inefficient
 316	   4	92.6	120.0	 719	inefficient
 317	   4	92.5	120.9	 732	inefficient
 318	   4	94.9	124.8	 724	inefficient
 319	   4	93.6	122.3	 735	inefficient
 320	   4	93.5	122.0	 745	inefficient
 321	   4	89.6	119.1	 719	inefficient
 322	   4	90.4	118.1	 731	inefficient
 323	   4	94.6	123.7	 727	inefficient
 324	   4	89.3	115.9	 742	inefficient
 325	   4	90.2	117.3	 732	inefficient
 326	   4	90.9	120.0	 732	inefficient
 327	   4	88.8	116.8	 730	inefficient
 328	   4	89.8	117.9	 733	inefficient
 329	   4	85.8	112.5	 739	inefficient
 330	   4	88.6	115.4	 720	inefficient
 331	   4	91.6	121.4	 734	inefficient
 332	   4	90.7	119.7	 737	inefficient
 333	   4	88.0	116.6	 742	inefficient
 334	   4	88.5	116.3	 738	inefficient
 335	   4	90.3	119.4	 735	inefficient
 336	   4	91.8	119.7	 724	inefficient
 337	   4	89.0	116.9	 717	inefficient
 338	   4	87.8	117.2	 735	inefficient
 339	   4	89.3	118.5	 741	inefficient
 340	   4	88.1	118.1	 733	inefficient
 341	   4	89.4	120.8	 721	inefficient
 342	   4	91.8	118.1	 723	inefficient
 343	   4	87.8	114.5	 725	inefficient
 344	   4	92.6	121.9	 725	inefficient
 345	   4	90.6	118.6	 727	inefficient
 346	   4	91.9	121.5	 731	inefficient
 347	   4	92.1	120.6	 733	inefficient
 348	   4	89.6	118.8	 710	inefficient
 349	   4	91.2	120.1	 713	inefficient
 350	   4	91.9	121.2	 726	inefficient
 351	   4	90.5	118.0	 729	inefficient
 352	   4	87.3	117.1	 707	inefficient
 353	   4	90.8	120.3	 718	inefficient
 354	   4	91.6	120.6	 721	inefficient
 355	   4	90.2	117.6	 707	inefficient
 356	   4	89.7	118.6	 720	inefficient
 357	   4	88.9	119.0	 716	inefficient
 358	   4	90.7	118.4	 718	inefficient
 359	   4	89.0	115.4	 714	inefficient
 360	   4	88.3	115.9	 732	inefficient
 361	   4	88.5	115.6	 710	inefficient
 362	   4	90.3	117.3	 723	inefficient
 363	   4	88.0	117.9	 721	inefficient
 364	   4	89.6	116.8	 705	inefficient
 365	   4	90.8	120.4	 722	inefficient
 366	   4	89.7	116.1	 720	inefficient
 367	   4	90.1	116.7	 707	inefficient
 368	   4	88.9	115.4	 708	inefficient
 369	   4	90.2	118.6	 711	inefficient
 370	   4	90.3	118.8	 712	inefficient
 371	   4	91.0	120.9	 713	inefficient
 372	   4	91.1	119.0	 709	inefficient
 373	   4	91.8	120.7	 709	inefficient
 374	   4	91.6	118.9	 714	inefficient
 375	   4	91.7	120.1	 714	inefficient
 376	   4	93.4	121.1	 693	inefficient
 377	   4	93.1	121.5	 705	inefficient
 378	   4	90.3	120.3	 704	inefficient
 379	   4	89.6	119.8	 712	inefficient
 380	   4	89.2	118.8	 706	inefficient
 381	   4	88.3	116.1	 713	inefficient
 382	   4	92.2	120.8	 719	inefficient
 383	   4	91.0	119.8	 711	inefficient
 384	   4	87.4	115.2	 734	inefficient
 385	   4	90.1	116.9	 723	inefficient
 386	   4	95.0	120.9	 722	inefficient
 387	   4	91.4	119.3	 720	inefficient
 388	   4	92.4	122.1	 718	inefficient
 389	   4	93.3	121.3	 717	inefficient
 390	   4	91.0	119.8	 727	inefficient
 391	   4	93.8	121.6	 721	inefficient
 392	   4	90.3	117.4	 738	inefficient
 393	   4	90.2	118.5	 744	inefficient
 394	   4	92.9	120.9	 735	inefficient
 395	   4	89.9	117.8	 740	inefficient
 396	   4	90.5	116.2	 733	inefficient
 397	   4	91.1	118.4	 740	inefficient
 398	   4	89.7	117.2	 724	inefficient
 399	   4	91.3	118.9	 744	inefficient
 400	   4	91.0	121.0	 738	inefficient
 401	   4	94.4	123.6	 742	inefficient
 402	   4	89.1	116.1	 750	inefficient
 403	   4	95.5	122.9	 723	inefficient
 404	   4	89.4	119.3	 739	inefficient
 405	   4	92.4	119.6	 731	inefficient
 406	   4	90.7	119.0	 749	inefficient
 407	   4	91.7	120.1	 737	inefficient
 408	   4	92.7	119.9	 753	inefficient
 409	   4	89.9	114.8	 738	inefficient
 410	   4	91.5	117.6	 738	inefficient
 411	   4	87.4	115.5	 739	inefficient
 412	   4	90.7	119.3	 754	inefficient
 413	   4	87.8	117.8	 759	inefficient
 414	   4	89.4	117.2	 758	inefficient
 415	   4	90.7	119.2	 729	inefficient
 416	   4	90.5	117.5	 758	inefficient
 417	   4	88.6	116.1	 762	inefficient
 418	   4	88.1	115.4	 742	inefficient
 419	   4	90.2	119.0	 772	inefficient
 420	   4	93.6	120.8	 764	inefficient
 421	   4	91.4	120.0	 763	inefficient
 422	   4	92.9	120.6	 752	inefficient
 423	   4	90.8	120.6	 761	inefficient
 424	   4	87.4	115.0	 764	inefficient
 425	   4	92.6	121.7	 773	inefficient
 426	   4	91.0	117.6	 766	inefficient
 427	   4	90.9	119.2	 775	inefficient
 428	   4	91.6	119.7	 769	inefficient
 429	   4	92.8	119.1	 771	inefficient
 430	   4	92.2	122.0	 757	inefficient
 431	   4	87.1	114.0	 761	inefficient
 432	   4	90.4	117.6	 758	inefficient
 433	   4	91.0	118.0	 765	inefficient
 434	   4	89.6	117.6	 762	inefficient
 435	   4	87.8	119.0	 762	inefficient
 436	   4	89.3	116.9	 744	inefficient
 437	   4	90.8	119.7	 772	inefficient
 438	   4	91.2	117.3	 758	inefficient
 439	   4	87.5	114.9	 761	inefficient
 440	   4	88.2	118.4	 774	inefficient
 441	   4	89.1	117.3	 770	inefficient
 442	   4	89.8	116.4	 749	inefficient
 443	   4	93.9	120.5	 766	inefficient
 444	   4	92.3	121.5	 760	inefficient
 445	   4	92.5	123.2	 753	inefficient
 446	   4	92.0	120.1	 763	inefficient
 447	   4	88.5	115.2	 759	inefficient
 448	   4	90.7	120.7	 755	inefficient
 449	   4	94.8	122.1	 753	inefficient
 450	   4	92.7	120.9	 754	inefficient
 451	   4	88.1	117.8	 770	inefficient
 452	   4	89.7	115.5	 756	inefficient
 453	   4	89.4	117.4	 751	inefficient
 454	   4	88.0	115.4	 737	inefficient
 455	   4	91.2	119.2	 780	inefficient
 456	   4	91.8	118.9	 755	inefficient
 457	   4	90.6	118.3	 758	inefficient
 458	   4	87.9	115.8	 753	inefficient
 459	   4	89.8	118.9	 752	inefficient
 460	   4	88.0	116.8	 761	inefficient
 461	   4	91.0	118.0	 779	inefficient
 462	   4	88.2	116.1	 753	inefficient
 463	   4	91.2	121.0	 762	inefficient
 464	   4	90.7	116.8	 774	inefficient
 465	   4	88.7	115.8	 763	inefficient
 466	   4	87.5	114.8	 744	inefficient
 467	   4	89.7	119.0	 743	inefficient
 468	   4	87.7	114.7	 757	inefficient
 469	   4	88.1	116.5	 742	inefficient
 470	   4	89.9	116.3	 740	inefficient
 471	   4	89.0	117.1	 749	inefficient
 472	   4	87.8	117.2	 741	inefficient
 473	   4	90.4	118.6	 758	inefficient
 474	   4	88.0	116.7	 770	inefficient
 475	   4	85.8	112.2	 763	inefficient
 476	   4	87.5	115.2	 759	inefficient
 477	   4	87.7	113.5	 768	inefficient
 478	   4	91.1	118.6	 735	inefficient
 479	   4	88.5	118.0	 768	inefficient
 480	   4	89.1	116.1	 749	inefficient
 481	   4	91.1	118.3	 746	inefficient
 482	   4	91.2	120.8	 756	inefficient
 483	   4	89.6	117.1	 733	inefficient
 484	   4	90.3	117.7	 741	inefficient
 485	   4	90.2	117.3	 751	inefficient
 486	   4	88.4	115.9	 730	inefficient
 487	   4	89.8	114.3	 745	inefficient
 488	   4	93.1	122.0	 751	inefficient
 489	   4	91.3	118.8	 751	inefficient
 490	   4	89.5	119.2	 737	inefficient
 491	   4	90.8	122.0	 746	inefficient
 492	   4	89.2	116.6	 738	inefficient
 493	   4	92.2	121.3	 735	inefficient
 494	   4	85.8	112.7	 753	inefficient
 495	   4	86.2	112.0	 744	inefficient
 496	   4	87.0	115.3	 736	inefficient
 497	   4	90.2	117.9	 746	inefficient
 498	   4	91.0	118.4	 737	inefficient
 499	   4	91.5	118.5	 730	inefficient
 500	   4	88.4	117.6	 747	inefficient
 501	   4	88.0	115.0	 761	inefficient
 502	   4	91.4	119.3	 726	inefficient
 503	   4	89.5	115.9	 745	inefficient
 504	   4	89.6	116.1	 743	inefficient
 505	   4	88.9	118.4	 735	inefficient
 506	   4	90.4	118.8	 749	inefficient
 507	   4	92.2	122.2	 745	inefficient
 508	   4	92.7	119.1	 761	inefficient
 509	   4	89.1	116.0	 732	inefficient
 510	   4	90.1	118.6	 738	inefficient
 511	   4	93.5	121.7	 733	inefficient
 512	   4	95.2	125.6	 712	inefficient
 513	   4	91.3	118.8	 722	inefficient
 514	   4	91.6	120.5	 727	inefficient
 515	   4	93.4	124.0	 726	inefficient
 516	   4	91.5	119.5	 729	inefficient
 517	   4	90.8	120.1	 718	inefficient
 518	   4	92.1	121.8	 718	inefficient
 519	   4	91.6	122.8	 722	inefficient
 520	   4	91.4	120.5	 701	inefficient
 521	   4	90.6	121.0	 707	inefficient
 522	   4	92.3	120.6	 716	inefficient
 523	   4	90.7	119.5	 717	inefficient
 524	   4	92.3	121.2	 728	inefficient
 525	   4	89.5	119.7	 724	inefficient
 526	   4	92.2	120.4	 726	inefficient
 527	   4	90.2	119.4	 727	inefficient
 528	   4	90.8	118.9	 719	inefficient
 529	   4	91.8	121.4	 723	inefficient
 530	   4	91.9	122.8	 727	inefficient
 531	   4	90.9	121.2	 716	inefficient
 532	   4	91.8	122.5	 720	inefficient
 533	   4	89.6	120.5	 737	inefficient
 534	   4	92.4	124.0	 718	inefficient
 535	   4	93.0	121.5	 725	inefficient
 536	   4	94.6	125.7	 721	inefficient
 537	   4	92.2	122.0	 726	inefficient
 538	   4	91.2	120.6	 694	inefficient
 539	   4	93.2	121.6	 732	inefficient
 540	   4	92.8	121.5	 722	inefficient
 541	   4	91.3	120.8	 717	inefficient
 542	   4	88.2	118.8	 729	inefficient
 543	   4	90.1	121.2	 735	inefficient
 544	   4	92.2	120.9	 733	inefficient
 545	   4	90.0	120.4	 718	inefficient
 546	   4	90.6	120.3	 736	inefficient
 547	   4	90.8	121.1	 729	inefficient
 548	   4	89.4	119.4	 724	inefficient
 549	   4	91.8	120.5	 733	inefficient
 550	   4	90.9	121.7	 730	inefficient
 551	   4	89.8	119.1	 723	inefficient
 552	   4	91.8	121.5	 735	inefficient
 553	   4	92.1	118.8	 729	inefficient
 554	   4	89.7	119.4	 725	inefficient
 555	   4	92.0	121.6	 705	inefficient
 556	   4	92.9	120.5	 715	inefficient
 557	   4	88.1	118.7	 737	inefficient
 558	   4	90.7	118.9	 720	inefficient
 559	   4	92.4	123.8	 746	inefficient
 560	   4	90.0	119.8	 731	inefficient
 561	   4	90.2	120.0	 738	inefficient
 562	   4	91.2	118.5	 716	inefficient
 563	   4	89.0	118.5	 742	inefficient
 564	   4	91.2	119.8	 726	inefficient
 565	   4	92.9	121.4	 721	inefficient
 566	   4	88.3	119.3	 734	inefficient
 567	   4	92.3	120.1	 743	inefficient
 568	   4	92.7	121.0	 739	inefficient
 569	   4	92.1	120.9	 738	inefficient
 570	   4	95.8	126.1	 727	inefficient
 571	   4	89.9	119.1	 720	inefficient
 572	   4	93.1	121.3	 729	inefficient
 573	   4	90.8	120.3	 740	inefficient
 574	   4	94.0	123.3	 733	inefficient
 575	   4	90.3	119.9	 740	inefficient
 576	   4	90.6	123.0	 735	inefficient
 577	   4	91.8	122.9	 722	inefficient
 578	   4	87.5	115.8	 728	inefficient
 579	   4	87.8	119.4	 728	inefficient
 580	   4	90.0	122.0	 726	inefficient
 581	   4	91.0	119.8	 726	inefficient
 582	   4	90.3	121.7	 726	inefficient
 583	   4	88.1	118.5	 739	inefficient
 584	   4	90.8	123.2	 739	inefficient
 585	   4	90.4	119.3	 720	inefficient
 586	   4	88.2	117.2	 721	inefficient
 587	   4	89.1	118.2	 731	inefficient
 588	   4	89.5	120.1	 724	inefficient
 589	   4	91.8	121.1	 721	inefficient
 590	   4	88.1	116.8	 743	inefficient
 591	   4	88.1	120.9	 741	inefficient
 592	   4	90.7	119.8	 737	inefficient
 593	   4	86.9	117.3	 753	inefficient
 594	   4	87.3	117.9	 744	inefficient
 595	   4	89.7	118.0	 736	inefficient
 596	   4	88.4	117.8	 728	inefficient
 597	   4	87.2	116.3	 745	inefficient
 598	   4	86.6	115.8	 741	inefficient
 599	   4	89.8	118.5	 744	inefficient
 600	   4	89.0	118.0	 739	inefficient
 601	   4	88.0	117.0	 733	inefficient
 602	   4	88.7	118.2	 734	inefficient
 603	   4	90.0	120.8	 742	inefficient
 604	   4	88.9	118.8	 747	inefficient
 605	   4	88.7	118.7	 744	inefficient
 606	   4	89.1	117.6	 747	inefficient
 607	   4	86.9	116.7	 727	inefficient
 608	   4	88.6	116.4	 733	inefficient
 609	   4	87.4	118.5	 761	inefficient
 610	   4	92.2	121.9	 743	inefficient
 611	   4	89.1	118.9	 728	inefficient
 612	   4	89.1	117.0	 750	inefficient
 613	   4	92.4	123.1	 747	inefficient
 614	   4	92.0	122.9	 737	inefficient
 615	   4	87.3	118.3	 750	inefficient
 616	   4	91.4	123.1	 748	inefficient
 617	   4	86.6	116.9	 755	inefficient
 618	   4	89.8	122.2	 762	inefficient
 619	   4	87.6	116.7	 736	inefficient
 620	   4	91.1	118.9	 761	inefficient
 621	   4	91.3	119.7	 741	inefficient
 622	   4	86.8	117.3	 757	inefficient
 623	   4	88.8	119.5	 764	inefficient
 624	   4	88.1	116.5	 745	inefficient
 625	   4	88.3	118.0	 755	inefficient
 626	   4	89.2	118.5	 740	inefficient
 627	   4	88.9	120.0	 773	inefficient
 628	   4	90.2	120.1	 758	inefficient
 629	   4	89.1	118.0	 745	inefficient
 630	   4	89.5	117.5	 771	inefficient
 631	   4	87.8	118.6	 758	inefficient
 632	   4	86.9	115.2	 752	inefficient
 633	   4	88.0	117.7	 770	inefficient
 634	   4	90.1	119.7	 766	inefficient
 635	   4	88.6	120.1	 768	inefficient
 636	   4	87.3	115.5	 768	inefficient
 637	   4	88.5	118.0	 755	inefficient
 638	   4	91.8	122.1	 756	inefficient
 639	   4	90.3	119.2	 780	inefficient
 640	   4	87.1	116.4	 792	inefficient
 641	   4	87.9	115.8	 806	inefficient
 642	   4	87.2	114.9	 806	inefficient
 643	   4	86.0	113.5	 800	inefficient
 644	   4	89.1	114.5	 802	inefficient
 645	   4	87.2	116.8	 793	inefficient
 646	   4	89.1	117.7	 802	inefficient
 647	   4	85.1	110.6	 816	inefficient
 648	   4	87.2	114.0	 818	inefficient
 649	   4	86.6	112.1	 811	inefficient
 650	   4	85.0	111.2	 823	inefficient
 651	   4	85.9	114.8	 789	inefficient
 652	   4	88.6	115.2	 799	inefficient
 653	   4	85.6	112.3	 795	inefficient
 654	   4	88.4	114.7	 797	inefficient
 655	   4	85.6	111.2	 795	inefficient
 656	   4	84.9	111.8	 813	inefficient
 657	   4	87.8	115.6	 813	inefficient
 658	   4	85.5	111.3	 821	inefficient
 659	   4	86.2	113.0	 797	inefficient
 660	   4	83.4	111.7	 825	inefficient
 661	   4	85.5	112.7	 814	inefficient
 662	   4	90.1	118.8	 774	inefficient
 663	   4	87.1	114.5	 810	inefficient
 664	   4	86.0	113.1	 799	inefficient
 665	   4	84.0	113.8	 798	inefficient
 666	   4	85.1	112.1	 802	inefficient
 667	   4	87.1	115.0	 798	inefficient
 668	   4	88.0	114.9	 791	inefficient
 669	   4	84.6	110.5	 797	inefficient
 670	   4	86.5	113.5	 818	inefficient
 671	   4	84.6	111.6	 816	inefficient
 672	   4	84.5	111.5	 818	inefficient
 673	   4	84.8	113.2	 829	inefficient
 674	   4	83.8	111.2	 806	inefficient
 675	   4	87.3	114.8	 814	inefficient
 676	   4	86.6	112.9	 816	inefficient
 677	   4	86.7	112.6	 812	inefficient
 678	   4	86.1	112.9	 806	inefficient
 679	   4	85.5	113.5	 797	inefficient
 680	   4	83.1	111.3	 815	inefficient
 681	   4	84.8	114.3	 807	inefficient
 682	   4	84.6	111.7	 822	inefficient
 683	   4	87.5	116.1	 809	inefficient
 684	   4	85.7	113.1	 794	inefficient
 685	   4	86.2	116.1	 803	inefficient
 686	   4	84.9	111.4	 811	inefficient
 687	   4	87.1	115.3	 815	inefficient
 688	   4	84.6	112.2	 797	inefficient
 689	   4	85.1	113.5	 804	inefficient
 690	   4	85.8	114.9	 825	inefficient
 691	   4	84.5	112.1	 801	inefficient
 692	   4	87.7	114.1	 812	inefficient
 693	   4	85.8	112.3	 782	inefficient
 694	   4	85.0	114.0	 812	inefficient
 695	   4	87.3	114.6	 793	inefficient
 696	   4	88.3	116.4	 802	inefficient
 697	   4	82.2	110.3	 825	inefficient
 698	   4	85.7	114.8	 789	inefficient
 699	   4	85.4	112.0	 808	inefficient
 700	   4	87.6	117.6	 804	inefficient
 701	   4	84.2	113.2	 805	inefficient
 702	   4	86.7	114.5	 787	inefficient
 703	   4	86.9	113.2	 790	inefficient
 704	   4	87.3	114.5	 805	inefficient
 705	   4	84.8	114.2	 815	inefficient
 706	   4	83.1	111.8	 799	inefficient
 707	   4	84.4	112.3	 797	inefficient
 708	   4	83.6	113.7	 799	inefficient
 709	   4	87.0	114.2	 798	inefficient
 710	   4	84.9	112.1	 801	inefficient
 711	   4	86.3	115.9	 810	inefficient
 712	   4	84.6	112.9	 799	inefficient
 713	   4	82.7	111.9	 809	inefficient
 714	   4	83.6	112.1	 802	inefficient
 715	   4	82.7	110.2	 832	inefficient
 716	   4	81.6	109.5	 833	inefficient
 717	   4	83.5	111.6	 812	inefficient
 718	   4	83.1	111.3	 797	inefficient
 719	   4	83.6	112.3	 808	inefficient
 720	   4	82.8	111.1	 802	inefficient
 721	   4	83.3	112.2	 799	inefficient
 722	   4	84.8	111.8	 814	inefficient
 723	   4	84.4	114.9	 792	inefficient
 724	   4	81.8	111.1	 797	inefficient
 725	   4	83.1	111.7	 808	inefficient
 726	   4	85.0	115.5	 772	inefficient
 727	   4	81.8	112.0	 791	inefficient
 728	   4	81.0	109.2	 782	inefficient
 729	   4	83.8	111.4	 775	inefficient
 730	   4	83.8	113.9	 778	inefficient
 731	   4	84.8	115.3	 772	inefficient
 732	   4	82.1	109.3	 774	inefficient
 733	   4	84.5	113.8	 771	inefficient
 734	   4	84.5	114.3	 776	inefficient
 735	   4	86.1	112.8	 785	inefficient
 736	   4	84.2	112.3	 784	inefficient
 737	   4	83.9	112.9	 762	inefficient
 738	   4	84.4	111.0	 781	inefficient
 739	   4	86.3	114.6	 776	inefficient
 740	   4	83.6	112.3	 793	inefficient
 741	   4	82.2	109.7	 777	inefficient
 742	   4	82.8	110.8	 776	inefficient
 743	   4	86.1	115.6	 794	inefficient
 744	   4	83.9	111.5	 777	inefficient
 745	   4	85.9	115.0	 786	inefficient
 746	   4	82.4	110.9	 779	inefficient
 747	   4	82.7	110.7	 792	inefficient
 748	   4	84.5	114.1	 775	inefficient
 749	   4	83.0	112.5	 792	inefficient
 750	   4	83.7	112.1	 804	inefficient
 751	   4	80.3	109.7	 805	inefficient
 752	   4	83.5	111.6	 800	inefficient
 753	   4	84.3	112.2	 780	inefficient
 754	   4	85.9	113.0	 782	inefficient
 755	   4	81.9	113.8	 794	inefficient
 756	   4	85.7	112.7	 788	inefficient
 757	   4	82.8	112.9	 790	inefficient
 758	   4	82.6	111.2	 803	inefficient
 759	   4	84.6	111.8	 794	inefficient
 760	   4	85.6	114.4	 812	inefficient
 761	   4	83.1	112.1	 779	inefficient
 762	   4	82.3	111.6	 784	inefficient
 763	   4	82.7	111.6	 826	inefficient
 764	   4	83.6	112.8	 800	inefficient
 765	   4	83.2	113.9	 799	inefficient
 766	   4	84.5	113.5	 807	inefficient
 767	   4	84.3	115.8	 803	inefficient
 768	   4	92.6	121.3	 761	inefficient
 769	   4	91.8	124.8	 769	inefficient
 770	   4	90.6	121.0	 748	inefficient
 771	   4	93.3	119.5	 758	inefficient
 772	   4	87.0	115.9	 790	inefficient
 773	   4	87.0	114.6	 776	inefficient
 774	   4	87.3	114.9	 779	inefficient
 775	   4	87.4	115.7	 761	inefficient
 776	   4	89.4	119.8	 768	inefficient
 777	   4	86.5	114.8	 781	inefficient
 778	   4	87.2	115.3	 775	inefficient
 779	   4	90.1	119.2	 763	inefficient
 780	   4	88.7	120.4	 769	inefficient
 781	   4	91.7	119.9	 765	inefficient
 782	   4	88.2	116.1	 779	inefficient
 783	   4	86.4	117.4	 754	inefficient
 784	   4	86.9	115.6	 769	inefficient
 785	   4	92.2	121.0	 753	inefficient
 786	   4	86.9	116.0	 779	inefficient
 787	   4	89.4	121.3	 755	inefficient
 788	   4	87.6	119.1	 774	inefficient
 789	   4	87.8	117.7	 758	inefficient
 790	   4	89.6	118.0	 761	inefficient
 791	   4	87.7	116.7	 778	inefficient
 792	   4	86.0	114.3	 754	inefficient
 793	   4	87.8	116.4	 745	inefficient
 794	   4	87.4	117.1	 767	inefficient
 795	   4	86.7	116.5	 768	inefficient
 796	   4	87.1	118.9	 765	inefficient
 797	   4	88.2	117.3	 756	inefficient
 798	   4	88.7	118.9	 765	inefficient
 799	   4	88.5	118.1	 757	inefficient
 800	   4	86.6	115.7	 742	inefficient
 801	   4	87.5	118.7	 758	inefficient
 802	   4	89.4	119.2	 746	inefficient
 803	   4	89.1	118.1	 758	inefficient
 804	   4	86.7	115.9	 750	inefficient
 805	   4	91.7	119.7	 755	inefficient
 806	   4	87.2	116.2	 766	inefficient
 807	   4	90.1	120.3	 767	inefficient
 808	   4	85.8	115.0	 773	inefficient
 809	   4	85.4	114.6	 753	inefficient
 810	   4	87.8	118.8	 783	inefficient
 811	   4	86.1	114.1	 753	inefficient
 812	   4	85.8	114.8	 769	inefficient
 813	   4	86.3	116.0	 754	inefficient
 814	   4	85.1	115.6	 772	inefficient
 815	   4	85.4	114.8	 777	inefficient
 816	   4	88.7	116.6	 761	inefficient
 817	   4	85.7	116.6	 770	inefficient
 818	   4	88.0	116.9	 762	inefficient
 819	   4	88.1	116.7	 741	inefficient
 820	   4	85.9	114.9	 764	inefficient
 821	   4	85.5	115.1	 795	inefficient
 822	   4	85.9	114.1	 759	inefficient
 823	   4	86.4	115.0	 773	inefficient
 824	   4	86.8	116.3	 754	inefficient
 825	   4	86.4	116.3	 747	inefficient
 826	   4	87.8	118.2	 741	inefficient
 827	   4	88.2	118.3	 759	inefficient
 828	   4	88.9	117.1	 751	inefficient
 829	   4	87.1	116.5	 751	inefficient
 830	   4	89.7	118.4	 756	inefficient
 831	   4	91.2	121.6	 764	inefficient
 832	   4	89.7	120.5	 767	inefficient
 833	   4	87.2	118.2	 755	inefficient
 834	   4	87.1	118.0	 735	inefficient
 835	   4	84.1	112.4	 756	inefficient
 836	   4	85.4	117.1	 750	inefficient
 837	   4	84.0	112.8	 766	inefficient
 838	   4	87.2	117.1	 750	inefficient
 839	   4	85.6	115.3	 743	inefficient
 840	   4	85.9	116.9	 768	inefficient
 841	   4	82.9	112.9	 735	inefficient
 842	   4	85.8	117.0	 748	inefficient
 843	   4	87.9	118.1	 767	inefficient
 844	   4	86.9	115.2	 762	inefficient
 845	   4	84.6	112.6	 750	inefficient
 846	   4	86.6	117.8	 758	inefficient
 847	   4	89.6	119.7	 753	inefficient
 848	   4	85.8	117.7	 767	inefficient
 849	   4	83.3	111.3	 764	inefficient
 850	   4	86.0	116.9	 765	inefficient
 851	   4	86.5	117.5	 760	inefficient
 852	   4	81.6	112.1	 760	inefficient
 853	   4	81.3	109.2	 751	inefficient
 854	   4	83.6	114.6	 750	inefficient
 855	   4	85.8	115.7	 768	inefficient
 856	   4	88.8	119.5	 761	inefficient
 857	   4	85.3	114.4	 775	inefficient
 858	   4	85.6	116.3	 757	inefficient
 859	   4	86.1	114.9	 749	inefficient
 860	   4	86.3	118.0	 775	inefficient
 861	   4	84.4	116.3	 775	inefficient
 862	   4	85.7	116.6	 775	inefficient
 863	   4	87.9	118.4	 766	inefficient
 864	   4	85.9	117.4	 768	inefficient
 865	   4	85.2	115.8	 760	inefficient
 866	   4	84.2	114.2	 760	inefficient
 867	   4	84.1	114.1	 751	inefficient
 868	   4	86.3	115.6	 760	inefficient
 869	   4	86.9	117.4	 765	inefficient
 870	   4	85.0	113.7	 757	inefficient
 871	   4	85.2	113.5	 744	inefficient
 872	   4	85.6	114.9	 749	inefficient
 873	   4	86.2	118.9	 758	inefficient
 874	   4	83.9	114.3	 737	inefficient
 875	   4	86.0	115.1	 759	inefficient
 876	   4	87.2	118.2	 754	inefficient
 877	   4	85.6	116.6	 753	inefficient
 878	   4	85.8	115.9	 766	inefficient
 879	   4	85.3	114.8	 759	inefficient
 880	   4	84.4	114.6	 750	inefficient
 881	   4	87.0	117.0	 745	inefficient
 882	   4	82.8	113.2	 779	inefficient
 883	   4	86.3	116.0	 768	inefficient
 884	   4	86.2	116.6	 757	inefficient
 885	   4	84.6	115.1	 768	inefficient
 886	   4	86.3	118.9	 765	inefficient
 887	   4	84.9	113.7	 744	inefficient
 888	   4	87.8	117.9	 749	inefficient
 889	   4	85.2	116.6	 757	inefficient
 890	   4	83.9	114.9	 780	inefficient
 891	   4	88.9	121.7	 771	inefficient
 892	   4	87.4	118.0	 750	inefficient
 893	   4	85.2	116.1	 755	inefficient
 894	   4	86.5	116.7	 754	inefficient
 895	   4	87.4	116.5	 736	inefficient
 896	   4	92.5	118.8	 769	inefficient
 897	   4	91.9	121.1	 740	inefficient
 898	   4	91.2	120.3	 728	inefficient
 899	   4	89.8	118.4	 756	inefficient
 900	   4	89.5	118.6	 756	inefficient
 901	   4	88.5	117.2	 752	inefficient
 902	   4	91.4	119.1	 751	inefficient
 903	   4	93.3	123.3	 750	inefficient
 904	   4	89.8	119.1	 735	inefficient
 905	   4	92.9	122.9	 727	inefficient
 906	   4	92.0	121.3	 741	inefficient
 907	   4	90.2	117.6	 734	inefficient
 908	   4	93.1	121.8	 744	inefficient
 909	   4	90.2	117.5	 741	inefficient
 910	   4	92.3	119.6	 751	inefficient
 911	   4	90.6	120.1	 749	inefficient
 912	   4	92.2	121.9	 755	inefficient
 913	   4	89.4	117.4	 749	inefficient
 914	   4	93.7	124.2	 736	inefficient
 915	   4	90.1	119.4	 740	inefficient
 916	   4	90.1	119.0	 730	inefficient
 917	   4	89.6	119.5	 734	inefficient
 918	   4	92.7	119.9	 745	inefficient
 919	   4	90.2	120.6	 732	inefficient
 920	   4	91.6	119.5	 739	inefficient
 921	   4	88.5	117.2	 728	inefficient
 922	   4	91.2	119.9	 720	inefficient
 923	   4	93.1	121.9	 735	inefficient
 924	   4	91.0	117.5	 732	inefficient
 925	   4	92.9	121.8	 727	inefficient
 926	   4	89.7	118.9	 732	inefficient
 927	   4	91.8	120.8	 716	inefficient
 928	   4	89.1	117.3	 730	inefficient
 929	   4	91.3	121.3	 733	inefficient
 930	   4	91.8	120.9	 735	inefficient
 931	   4	89.6	118.1	 719	inefficient
 932	   4	92.3	121.9	 723	inefficient
 933	   4	92.2	120.6	 744	inefficient
 934	   4	91.6	118.7	 727	inefficient
 935	   4	90.4	119.9	 727	inefficient
 936	   4	90.6	117.7	 730	inefficient
 937	   4	89.1	116.5	 729	inefficient
 938	   4	88.5	116.6	 716	inefficient
 939	   4	89.5	118.7	 749	inefficient
 940	   4	89.8	120.2	 723	inefficient
 941	   4	91.2	120.8	 725	inefficient
 942	   4	91.1	120.5	 729	inefficient
 943	   4	91.0	119.6	 726	inefficient
 944	   4	91.7	119.5	 721	inefficient
 945	   4	89.4	117.7	 725	inefficient
 946	   4	90.4	119.8	 689	inefficient
 947	   4	93.2	121.2	 724	inefficient
 948	   4	86.5	115.1	 714	inefficient
 949	   4	89.9	116.6	 729	inefficient
 950	   4	91.8	121.0	 708	inefficient
 951	   4	89.9	120.5	 712	inefficient
 952	   4	88.1	117.4	 716	inefficient
 953	   4	90.5	119.5	 730	inefficient
 954	   4	91.2	118.6	 725	inefficient
 955	   4	90.4	118.3	 720	inefficient
 956	   4	91.1	119.3	 732	inefficient
 957	   4	91.8	120.5	 706	inefficient
 958	   4	89.3	118.1	 720	inefficient
 959	   4	91.5	120.7	 734	inefficient
 960	   4	90.8	119.8	 704	inefficient
 961	   4	88.9	119.4	 714	inefficient
 962	   4	88.8	116.2	 722	inefficient
 963	   4	90.2	120.7	 703	inefficient
 964	   4	87.7	116.1	 707	inefficient
 965	   4	87.6	115.6	 710	inefficient
 966	   4	86.7	116.6	 706	inefficient
 967	   4	91.8	120.2	 721	inefficient
 968	   4	86.7	115.0	 726	inefficient
 969	   4	91.1	120.8	 703	inefficient
 970	   4	88.9	116.7	 717	inefficient
 971	   4	90.0	117.2	 720	inefficient
 972	   4	89.4	117.1	 703	inefficient
 973	   4	89.6	117.5	 727	inefficient
 974	   4	88.7	118.4	 715	inefficient
 975	   4	89.8	118.6	 715	inefficient
 976	   4	89.0	118.4	 693	inefficient
 977	   4	90.4	118.8	 709	inefficient
 978	   4	88.9	117.6	 692	inefficient
 979	   4	88.7	117.5	 712	inefficient
 980	   4	90.5	117.5	 711	inefficient
 981	   4	88.4	119.3	 703	inefficient
 982	   4	87.5	116.5	 728	inefficient
 983	   4	91.5	121.9	 707	inefficient
 984	   4	90.5	119.6	 716	inefficient
 985	   4	86.3	115.9	 697	inefficient
 986	   4	89.9	118.1	 707	inefficient
 987	   4	91.0	121.0	 697	inefficient
 988	   4	88.3	116.0	 708	inefficient
 989	   4	89.6	117.1	 710	inefficient
 990	   4	89.3	119.7	 698	inefficient
 991	   4	89.5	117.7	 726	inefficient
 992	   4	90.8	121.0	 715	inefficient
 993	   4	92.1	120.2	 709	inefficient
 994	   4	88.4	116.4	 719	inefficient
 995	   4	92.2	122.2	 709	inefficient
 996	   4	92.8	120.3	 709	inefficient
 997	   4	90.7	120.8	 697	inefficient
 998	   4	92.4	121.2	 725	inefficient
 999	   4	86.4	114.6	 708	inefficient
1000	   4	89.7	119.3	 713	inefficient
1001	   4	89.0	117.8	 710	inefficient
1002	   4	89.1	117.0	 706	inefficient
1003	   4	88.4	117.3	 694	inefficient
1004	   4	85.8	113.3	 712	inefficient
1005	   4	87.8	114.7	 705	inefficient
1006	   4	89.1	115.8	 693	inefficient
1007	   4	90.5	120.0	 684	inefficient
1008	   4	88.1	118.7	 693	inefficient
1009	   4	90.3	118.5	 700	inefficient
1010	   4	89.3	117.5	 711	inefficient
1011	   4	89.7	118.6	 706	inefficient
1012	   4	91.7	120.4	 692	inefficient
1013	   4	89.5	117.8	 705	inefficient
1014	   4	88.8	116.3	 717	inefficient
1015	   4	88.3	117.7	 718	inefficient
1016	   4	89.3	118.0	 695	inefficient
1017	   4	92.8	121.4	 706	inefficient
1018	   4	88.7	117.8	 727	inefficient
1019	   4	89.7	119.2	 709	inefficient
1020	   4	93.0	120.2	 692	inefficient
1021	   4	88.6	118.8	 692	inefficient
1022	   4	90.1	118.3	 698	inefficient
1023	   4	90.6	120.0	 712	inefficient
1024	   4	96.2	123.6	 747	inefficient
1025	   4	95.4	121.1	 722	inefficient
1026	   4	93.1	121.3	 731	inefficient
1027	   4	96.1	124.2	 735	inefficient
1028	   4	95.4	123.8	 745	inefficient
1029	   4	94.9	123.7	 724	inefficient
1030	   4	95.7	124.4	 740	inefficient
1031	   4	90.6	118.0	 731	inefficient
1032	   4	93.5	121.3	 749	inefficient
1033	   4	92.9	120.8	 749	inefficient
1034	   4	91.8	120.0	 726	inefficient
1035	   4	93.4	121.7	 729	inefficient
1036	   4	93.0	118.7	 751	inefficient
1037	   4	92.4	121.3	 734	inefficient
1038	   4	94.2	122.1	 738	inefficient
1039	   4	92.2	119.9	 733	inefficient
1040	   4	92.2	120.5	 745	inefficient
1041	   4	92.3	118.9	 743	inefficient
1042	   4	93.8	120.4	 734	inefficient
1043	   4	94.6	124.0	 741	inefficient
1044	   4	92.6	121.0	 739	inefficient
1045	   4	90.3	117.8	 735	inefficient
1046	   4	92.1	120.4	 757	inefficient
1047	   4	91.8	119.9	 760	inefficient
1048	   4	88.5	116.0	 732	inefficient
1049	   4	90.9	119.4	 745	inefficient
1050	   4	89.9	117.0	 740	inefficient
1051	   4	92.9	118.9	 724	inefficient
1052	   4	92.2	121.6	 729	inefficient
1053	   4	90.8	119.3	 732	inefficient
1054	   4	92.6	122.0	 747	inefficient
1055	   4	91.7	120.7	 732	inefficient
1056	   4	93.8	121.0	 744	inefficient
1057	   4	91.6	119.1	 760	inefficient
1058	   4	90.7	120.0	 737	inefficient
1059	   4	92.7	119.9	 737	inefficient
1060	   4	92.6	120.7	 749	inefficient
1061	   4	90.9	118.0	 731	inefficient
1062	   4	90.2	118.8	 736	inefficient
1063	   4	91.9	118.5	 741	inefficient
1064	   4	90.5	119.6	 745	inefficient
1065	   4	93.9	121.8	 733	inefficient
1066	   4	89.8	118.8	 729	inefficient
1067	1501	0.0	0.0	   0	dead
1068	   4	92.3	119.7	 746	inefficient
1069	   4	90.9	118.4	 740	inefficient
1070	   4	92.5	122.6	 741	inefficient
1071	   4	92.1	118.8	 741	inefficient
1072	   4	93.5	123.3	 760	inefficient
1073	   4	89.2	116.2	 744	inefficient
1074	   4	91.7	122.1	 761	inefficient
1075	   4	93.4	120.4	 748	inefficient
1076	   4	90.4	117.4	 745	inefficient
1077	   4	92.1	120.3	 738	inefficient
1078	   4	92.9	123.9	 753	inefficient
1079	   4	93.7	123.0	 745	inefficient
1080	   4	94.6	121.7	 738	inefficient
1081	   4	89.9	117.1	 765	inefficient
1082	   4	96.9	123.9	 739	inefficient
1083	   4	93.4	122.5	 754	inefficient
1084	   4	92.6	119.2	 740	inefficient
1085	   4	92.2	119.5	 728	inefficient
1086	   4	93.5	123.8	 739	inefficient
1087	   4	91.4	120.8	 729	inefficient
1088	   4	96.0	124.9	 762	inefficient
1089	   4	90.4	118.7	 761	inefficient
1090	   4	94.4	125.4	 759	inefficient
1091	   4	89.4	117.7	 741	inefficient
1092	   4	92.0	120.5	 746	inefficient
1093	   4	88.8	118.0	 748	inefficient
1094	   4	91.8	119.9	 740	inefficient
1095	   4	88.1	116.8	 739	inefficient
1096	   4	88.8	117.7	 754	inefficient
1097	   4	90.2	120.1	 742	inefficient
1098	   4	91.9	120.5	 739	inefficient
1099	   4	89.3	116.6	 757	inefficient
1100	   4	90.4	116.5	 750	inefficient
1101	   4	90.0	119.5	 745	inefficient
1102	   4	95.2	124.8	 733	inefficient
1103	   4	90.1	117.5	 741	inefficient
1104	   4	93.1	120.7	 741	inefficient
1105	   4	90.4	118.7	 747	inefficient
1106	   4	92.5	119.5	 733	inefficient
1107	   4	91.5	119.2	 751	inefficient
1108	   4	92.4	122.1	 747	inefficient
1109	   4	90.7	119.6	 753	inefficient
1110	1501	0.0	0.0	   0	dead
1111	   4	89.5	118.5	 770	inefficient
1112	   4	90.4	118.5	 739	inefficient
1113	1501	0.0	0.0	   0	dead
1114	   4	92.5	121.0	 751	inefficient
1115	   4	89.7	116.7	 751	inefficient
1116	   4	89.7	117.3	 733	inefficient
1117	   4	88.6	118.7	 738	inefficient
1118	   4	86.9	113.4	 742	inefficient
1119	   4	92.0	118.8	 745	inefficient
1120	   4	88.4	116.5	 727	inefficient
1121	   4	89.6	117.3	 740	inefficient
1122	   4	90.6	117.1	 750	inefficient
1123	   4	90.4	118.7	 739	inefficient
1124	   4	86.7	117.6	 741	inefficient
1125	   4	90.0	118.0	 743	inefficient
1126	   4	92.1	119.4	 745	inefficient
1127	   4	88.8	118.1	 751	inefficient
1128	   4	89.7	117.7	 759	inefficient
1129	   4	89.1	118.3	 745	inefficient
1130	   4	90.1	118.6	 744	inefficient
1131	   4	89.8	118.4	 740	inefficient
1132	   4	91.9	118.9	 750	inefficient
1133	   4	89.5	116.3	 753	inefficient
1134	   4	90.5	117.0	 750	inefficient
1135	   4	89.3	115.5	 743	inefficient
1136	   4	91.6	118.5	 749	inefficient
1137	   4	91.0	118.3	 748	inefficient
1138	   4	91.6	120.1	 763	inefficient
1139	   4	89.6	117.6	 736	inefficient
1140	   4	89.3	117.3	 753	inefficient
1141	   4	89.4	117.9	 730	inefficient
1142	   4	92.2	121.2	 745	inefficient
1143	   4	93.0	122.6	 751	inefficient
1144	   4	89.9	118.5	 755	inefficient
1145	   4	91.9	118.8	 755	inefficient
1146	   4	90.6	119.3	 747	inefficient
1147	   4	90.3	120.9	 750	inefficient
1148	   4	91.5	117.5	 749	inefficient
1149	   4	89.7	117.9	 752	inefficient
1150	   4	90.5	120.4	 764	inefficient
1151	   4	89.0	118.4	 761	inefficient
1152	   4	91.3	120.6	 765	inefficient
1153	   4	91.4	119.0	 758	inefficient
1154	   4	86.1	115.9	 757	inefficient
1155	   4	86.6	113.7	 766	inefficient
1156	   4	89.7	118.3	 752	inefficient
1157	   4	87.1	117.0	 774	inefficient
1158	   4	86.4	114.6	 756	inefficient
1159	   4	90.4	119.0	 741	inefficient
1160	   4	87.4	116.0	 760	inefficient
1161	   4	88.3	116.1	 753	inefficient
1162	   4	89.3	117.4	 766	inefficient
1163	   4	87.8	116.5	 756	inefficient
1164	   4	83.9	113.3	 770	inefficient
1165	   4	87.4	115.8	 770	inefficient
1166	   4	86.0	115.4	 779	inefficient
1167	   4	89.9	120.5	 772	inefficient
1168	   4	87.6	117.3	 758	inefficient
1169	   4	88.4	115.8	 774	inefficient
1170	   4	89.4	117.5	 759	inefficient
1171	   4	90.2	117.0	 760	inefficient
1172	   4	85.8	113.8	 767	inefficient
1173	   4	89.6	118.3	 761	inefficient
1174	   4	88.9	117.1	 751	inefficient
1175	   4	88.2	116.2	 780	inefficient
1176	   4	90.0	120.0	 760	inefficient
1177	   4	88.3	117.8	 757	inefficient
1178	   4	83.8	113.7	 780	inefficient
1179	   4	87.9	117.6	 763	inefficient
1180	   4	89.7	118.9	 767	inefficient
1181	   4	85.0	113.2	 765	inefficient
1182	   4	86.2	115.6	 768	inefficient
1183	   4	87.2	115.4	 763	inefficient
1184	   4	90.0	117.7	 756	inefficient
1185	   4	89.5	119.4	 752	inefficient
1186	   4	86.8	115.8	 771	inefficient
1187	   4	84.6	113.4	 774	inefficient
1188	   4	86.4	114.9	 763	inefficient
1189	   4	84.4	112.7	 755	inefficient
1190	   4	87.3	116.3	 771	inefficient
1191	   4	86.9	116.0	 757	inefficient
1192	   4	86.5	113.7	 769	inefficient
1193	   4	87.2	117.0	 757	inefficient
1194	   4	86.7	116.1	 767	inefficient
1195	   4	86.6	116.0	 774	inefficient
1196	   4	90.2	119.2	 752	inefficient
1197	   4	88.1	116.1	 773	inefficient
1198	   4	86.7	116.7	 769	inefficient
1199	   4	87.9	117.2	 778	inefficient
1200	   4	88.3	118.3	 763	inefficient
1201	   4	88.3	116.5	 768	inefficient
1202	   4	91.0	117.2	 749	inefficient
1203	   4	88.1	117.5	 756	inefficient
1204	   4	89.0	116.4	 760	inefficient
1205	   4	89.2	119.4	 779	inefficient
1206	   4	90.7	120.7	 777	inefficient
1207	   4	87.9	116.4	 755	inefficient
1208	   4	88.8	118.6	 768	inefficient
1209	   4	86.8	115.2	 757	inefficient
1210	   4	90.5	120.0	 776	inefficient
1211	   4	87.2	117.0	 758	inefficient
1212	   4	86.4	115.2	 779	inefficient
1213	   4	89.9	118.6	 754	inefficient
1214	   4	90.7	119.7	 779	inefficient
1215	   4	90.6	119.1	 768	inefficient
1216	   4	91.1	121.3	 765	inefficient
1217	   4	86.8	118.9	 771	inefficient
1218	   4	86.1	114.4	 757	inefficient
1219	   4	87.8	117.9	 774	inefficient
1220	   4	88.7	117.2	 750	inefficient
1221	   4	85.6	115.6	 781	inefficient
1222	   4	89.2	118.9	 764	inefficient
1223	   4	89.7	118.0	 773	inefficient
1224	   4	89.0	117.4	 761	inefficient
1225	   4	89.5	120.5	 764	inefficient
1226	   4	85.6	114.8	 747	inefficient
1227	   4	86.6	116.8	 763	inefficient
1228	   4	87.7	116.9	 754	inefficient
1229	   4	87.6	117.2	 758	inefficient
1230	   4	86.2	114.6	 741	inefficient
1231	   4	89.2	120.8	 760	inefficient
1232	   4	88.0	115.9	 764	inefficient
1233	   4	88.3	118.8	 754	inefficient
1234	   4	86.3	115.9	 759	inefficient
1235	   4	91.2	119.8	 761	inefficient
1236	   4	87.7	114.8	 750	inefficient
1237	   4	86.5	114.9	 757	inefficient
1238	   4	88.6	118.4	 756	inefficient
1239	   4	86.5	117.3	 754	inefficient
1240	   4	87.1	116.1	 751	inefficient
1241	   4	89.5	118.5	 748	inefficient
1242	   4	87.7	116.8	 749	inefficient
1243	   4	86.3	117.2	 775	inefficient
1244	   4	89.6	118.2	 748	inefficient
1245	   4	90.6	120.7	 761	inefficient
1246	   4	86.8	115.3	 774	inefficient
1247	   4	87.7	117.6	 755	inefficient
1248	   4	90.9	119.2	 742	inefficient
1249	   4	89.7	119.6	 753	inefficient
1250	   4	89.1	119.7	 770	inefficient
1251	   4	87.2	117.4	 763	inefficient
1252	   4	87.4	115.3	 739	inefficient
1253	   4	87.9	116.8	 738	inefficient
1254	   4	90.1	118.5	 756	inefficient
1255	   4	89.9	117.8	 749	inefficient
1256	   4	89.6	118.7	 744	inefficient
1257	   4	86.6	114.3	 746	inefficient
1258	   4	86.6	115.0	 738	inefficient
1259	   4	91.3	119.3	 728	inefficient
1260	   4	91.2	121.7	 736	inefficient
1261	   4	88.6	118.3	 721	inefficient
1262	   4	91.1	121.2	 731	inefficient
1263	   4	86.7	115.4	 732	inefficient
1264	   4	92.1	119.8	 738	inefficient
1265	   4	88.5	118.1	 722	inefficient
1266	   4	92.6	120.3	 720	inefficient
1267	   4	88.0	117.2	 736	inefficient
1268	   4	88.4	119.5	 718	inefficient
1269	   4	91.0	120.1	 718	inefficient
1270	   4	86.3	116.5	 723	inefficient
1271	   4	90.1	120.3	 721	inefficient
1272	   4	90.2	118.7	 723	inefficient
1273	   4	90.3	118.2	 727	inefficient
1274	   4	88.7	117.2	 733	inefficient
1275	   4	85.3	113.8	 722	inefficient
1276	   4	87.4	116.3	 724	inefficient
1277	   4	91.1	117.9	 726	inefficient
1278	   4	91.3	121.7	 717	inefficient
1279	   4	90.4	118.2	 712	inefficient
1280	   4	90.3	118.7	 725	inefficient
1281	   4	90.8	119.6	 720	inefficient
1282	   4	92.6	120.8	 719	inefficient
1283	   4	89.4	118.0	 707	inefficient
1284	   4	90.8	119.1	 718	inefficient
1285	   4	90.6	117.2	 714	inefficient
1286	   4	93.4	122.4	 722	inefficient
1287	   4	90.0	119.6	 733	inefficient
1288	   4	91.9	121.4	 713	inefficient
1289	   4	90.5	117.9	 706	inefficient
1290	   4	93.7	121.2	 697	inefficient
1291	   4	91.4	119.6	 715	inefficient
1292	   4	92.0	119.0	 714	inefficient
1293	   4	87.7	114.6	 707	inefficient
1294	   4	92.3	121.7	 717	inefficient
1295	   4	88.7	114.6	 709	inefficient
1296	   4	92.1	122.0	 720	inefficient
1297	   4	90.5	118.7	 693	inefficient
1298	   4	89.4	117.3	 719	inefficient
1299	   4	91.5	120.1	 711	inefficient
1300	   4	90.9	118.0	 708	inefficient
1301	   4	90.5	120.8	 711	inefficient
1302	   4	90.8	118.5	 707	inefficient
1303	   4	89.2	118.4	 700	inefficient
1304	   4	89.5	117.2	 701	inefficient
1305	   4	90.1	118.9	 706	inefficient
1306	   4	89.9	119.9	 714	inefficient
1307	1501	0.0	0.0	   0	dead
1308	   4	89.5	118.6	 705	inefficient
1309	   4	90.0	119.9	 717	inefficient
1310	   4	92.7	121.6	 730	inefficient
1311	   4	91.8	120.6	 711	inefficient
1312	   4	93.2	122.9	 718	inefficient
1313	   4	91.5	119.1	 723	inefficient
1314	   4	93.0	119.0	 731	inefficient
1315	   4	92.4	119.2	 711	inefficient
1316	   4	90.0	117.7	 719	inefficient
1317	   4	93.2	121.3	 714	inefficient
1318	   4	90.4	120.2	 719	inefficient
1319	   4	91.6	119.9	 724	inefficient
1320	   4	90.8	121.1	 712	inefficient
1321	   4	89.2	119.0	 720	inefficient
1322	   4	93.4	123.0	 719	inefficient
1323	   4	90.9	118.5	 714	inefficient
1324	   4	91.1	122.0	 712	inefficient
1325	   4	93.3	121.3	 707	inefficient
1326	   4	90.3	118.2	 715	inefficient
1327	   4	90.3	118.5	 706	inefficient
1328	1004	92.7	127.7	 323	unbonded
1329	   4	89.1	119.5	 702	inefficient
1330	   4	91.4	119.4	 703	inefficient
1331	   4	92.3	121.8	 723	inefficient
1332	   4	90.3	120.7	 716	inefficient
1333	   4	89.3	117.7	 706	inefficient
1334	   4	93.2	122.5	 723	inefficient
1335	   4	91.5	119.3	 718	inefficient
1336	   4	91.2	119.3	 720	inefficient
1337	   4	93.2	120.2	 720	inefficient
1338	   4	90.5	120.2	 709	inefficient
1339	   4	91.0	118.8	 716	inefficient
1340	   4	93.8	123.7	 715	inefficient
1341	   4	92.6	122.4	 720	inefficient
1342	   4	93.1	121.4	 706	inefficient
1343	   4	90.7	119.9	 721	inefficient
1344	   4	91.2	121.4	 719	inefficient
1345	   4	88.7	119.3	 720	inefficient
1346	   4	93.2	121.7	 711	inefficient
1347	   4	94.1	125.0	 717	inefficient
1348	   4	89.9	119.0	 712	inefficient
1349	   4	89.7	121.3	 709	inefficient
1350	   4	94.1	121.6	 702	inefficient
1351	   4	92.5	119.8	 698	inefficient
1352	   4	89.6	118.8	 715	inefficient
1353	   4	87.6	117.3	 709	inefficient
1354	   4	92.0	119.1	 731	inefficient
1355	   4	91.1	120.9	 713	inefficient
1356	   4	92.3	122.3	 706	inefficient
1357	   4	89.4	119.1	 716	inefficient
1358	   4	87.9	115.9	 695	inefficient
1359	   4	91.7	118.3	 719	inefficient
1360	   4	91.2	120.1	 708	inefficient
1361	   4	89.8	117.6	 705	inefficient
1362	   4	90.8	119.2	 709	inefficient
1363	   4	88.5	120.3	 725	inefficient
1364	   4	91.5	119.8	 708	inefficient
1365	   4	93.5	124.8	 688	inefficient
1366	   4	92.6	121.2	 717	inefficient
1367	   4	89.2	117.5	 713	inefficient
1368	   4	93.3	120.5	 700	inefficient
1369	1004	92.4	127.5	 331	unbonded
1370	   4	93.3	121.6	 685	inefficient
1371	   4	93.2	121.2	 729	inefficient
1372	   4	91.2	120.9	 698	inefficient
1373	   4	90.7	120.6	 719	inefficient
1374	   4	92.4	122.0	 708	inefficient
1375	   4	90.2	118.7	 705	inefficient
1376	   4	92.1	120.4	 695	inefficient
1377	   4	92.9	123.0	 690	inefficient
1378	   4	88.7	116.6	 703	inefficient
1379	   4	93.2	121.5	 711	inefficient
1380	   4	92.4	120.5	 718	inefficient
1381	   4	87.5	116.0	 714	inefficient
1382	   4	91.9	119.6	 702	inefficient
1383	   4	95.3	123.4	 722	inefficient
1384	   4	90.9	118.8	 721	inefficient
1385	   4	92.1	121.3	 715	inefficient
1386	   4	89.6	118.9	 708	inefficient
1387	   4	89.5	119.8	 695	inefficient
1388	   4	89.2	119.6	 708	inefficient
1389	   4	91.1	120.0	 689	inefficient
1390	   4	89.8	116.6	 705	inefficient
1391	   4	90.7	119.9	 704	inefficient
1392	   4	88.9	116.9	 709	inefficient
1393	   4	90.1	117.0	 698	inefficient
1394	   4	91.8	119.9	 708	inefficient
1395	   4	90.4	119.0	 728	inefficient
1396	   4	90.1	117.1	 715	inefficient
1397	   4	90.5	121.6	 703	inefficient
1398	   4	90.1	120.1	 698	inefficient
1399	   4	90.4	118.9	 699	inefficient
1400	   4	92.2	121.8	 695	inefficient
1401	   4	93.4	123.3	 721	inefficient
1402	   4	91.2	120.1	 719	inefficient
1403	   4	92.3	121.6	 708	inefficient
1404	   4	94.2	120.1	 691	inefficient
1405	   4	94.0	122.9	 709	inefficient
1406	   4	93.8	122.4	 710	inefficient
1407	   4	97.0	126.5	 701	inefficient
1408	   4	89.8	119.9	 705	inefficient
1409	   4	92.6	121.9	 697	inefficient
1410	   4	87.6	114.2	 712	inefficient
1411	   4	91.8	121.3	 718	inefficient
1412	   4	90.2	118.5	 703	inefficient
1413	   4	89.1	117.1	 699	inefficient
1414	   4	88.6	116.6	 731	inefficient
1415	   4	95.7	126.1	 708	inefficient
1416	   4	88.2	115.7	 729	inefficient
1417	   4	89.1	118.4	 711	inefficient
1418	   4	88.9	117.3	 713	inefficient
1419	   4	90.6	118.3	 734	inefficient
1420	   4	86.6	114.6	 704	inefficient
1421	   4	84.1	113.0	 727	inefficient
1422	   4	90.4	119.7	 724	inefficient
1423	   4	87.5	115.8	 721	inefficient
1424	   4	91.9	120.3	 708	inefficient
1425	   4	87.2	114.3	 722	inefficient
1426	   4	86.2	114.1	 704	inefficient
1427	   4	87.9	116.9	 714	inefficient
1428	   4	87.9	117.6	 724	inefficient
1429	   4	88.8	118.7	 705	inefficient
1430	   4	88.5	117.4	 714	inefficient
1431	   4	87.9	116.3	 719	inefficient
1432	   4	88.5	117.3	 716	inefficient
1433	   4	88.8	119.2	 710	inefficient
1434	   4	87.3	115.5	 732	inefficient
1435	   4	86.8	115.2	 704	inefficient
1436	   4	91.0	119.0	 724	inefficient
1437	   4	88.9	118.6	 702	inefficient
1438	   4	88.5	116.2	 701	inefficient
1439	   4	90.2	117.5	 715	inefficient
1440	   4	87.7	115.3	 735	inefficient
1441	   4	87.5	117.2	 718	inefficient
1442	   4	88.7	117.6	 734	inefficient
1443	   4	89.1	118.5	 713	inefficient
1444	   4	88.1	116.7	 726	inefficient
1445	   4	91.4	120.7	 710	inefficient
1446	   4	90.4	118.8	 720	inefficient
1447	   4	88.1	115.2	 708	inefficient
1448	   4	86.3	113.8	 719	inefficient
1449	   4	88.8	118.7	 724	inefficient
1450	   4	88.8	116.5	 716	inefficient
1451	   4	88.9	118.5	 720	inefficient
1452	1501	0.0	0.0	   0	dead
1453	   4	89.6	115.9	 701	inefficient
1454	   4	84.2	113.9	 730	inefficient
1455	1501	0.0	0.0	   0	dead
1456	1004	92.1	125.9	 318	unbonded
1457	   4	90.4	118.3	 707	inefficient
1458	   4	87.4	116.8	 737	inefficient
1459	   4	86.2	115.6	 703	inefficient
1460	   4	88.2	117.9	 696	inefficient
1461	   4	88.8	117.0	 708	inefficient
1462	   4	90.2	117.5	 726	inefficient
1463	   4	88.9	116.8	 716	inefficient
1464	   4	87.4	116.1	 726	inefficient
1465	   4	85.3	114.4	 722	inefficient
1466	   4	88.4	118.1	 726	inefficient
1467	   4	89.0	120.4	 718	inefficient
1468	   4	87.5	116.3	 752	inefficient
1469	   4	90.0	119.8	 719	inefficient
1470	   4	91.6	119.6	 711	inefficient
1471	   4	90.0	121.2	 728	inefficient
1472	   4	89.6	117.8	 704	inefficient
1473	   4	87.6	116.5	 732	inefficient
1474	   4	90.7	121.0	 732	inefficient
1475	   4	91.7	122.0	 741	inefficient
1476	   4	85.3	116.3	 724	inefficient
1477	   4	88.3	116.8	 705	inefficient
1478	   4	86.3	116.9	 739	inefficient
1479	   4	89.6	119.1	 711	inefficient
1480	   4	86.9	114.9	 720	inefficient
1481	   4	89.8	119.0	 720	inefficient
1482	   4	88.1	116.3	 724	inefficient
1483	   4	91.7	123.0	 729	inefficient
1484	   4	86.8	115.7	 723	inefficient
1485	   4	89.5	116.3	 713	inefficient
1486	   4	86.4	113.6	 724	inefficient
1487	   4	86.7	117.2	 722	inefficient
1488	   4	86.1	115.8	 706	inefficient
1489	   4	90.0	117.3	 730	inefficient
1490	   4	88.8	119.9	 714	inefficient
1491	   4	89.3	117.2	 716	inefficient
1492	   4	88.8	118.4	 705	inefficient
1493	   4	90.7	118.6	 716	inefficient
1494	   4	89.6	115.4	 718	inefficient
1495	1501	0.0	0.0	   0	dead
1496	   4	91.2	120.4	 700	inefficient
1497	1004	89.6	123.6	 329	unbonded
1498	   4	89.9	119.7	 700	inefficient
1499	   4	87.1	115.3	 718	inefficient
1500	   4	90.7	120.1	 717	inefficient
1501	   4	91.3	121.5	 713	inefficient
1502	   4	88.0	115.5	 708	inefficient
1503	   4	89.6	120.5	 723	inefficient
1504	   4	87.1	118.0	 705	inefficient
1505	   4	91.1	119.8	 719	inefficient
1506	   4	89.3	119.1	 715	inefficient
1507	   4	84.3	113.1	 742	inefficient
1508	   4	87.5	113.9	 725	inefficient
1509	   4	87.3	115.5	 718	inefficient
1510	   4	89.0	117.4	 710	inefficient
1511	   4	88.8	117.9	 725	inefficient
1512	   4	88.4	118.3	 703	inefficient
1513	   4	89.4	118.5	 728	inefficient
1514	   4	92.4	119.9	 706	inefficient
1515	1501	0.0	0.0	   0	dead
1516	   4	87.0	115.8	 713	inefficient
1517	   4	89.4	116.7	 727	inefficient
1518	   4	88.0	116.7	 730	inefficient
1519	   4	84.5	112.6	 719	inefficient
1520	   4	89.0	118.1	 727	inefficient
1521	   4	91.6	118.9	 731	inefficient
1522	   4	89.6	118.2	 717	inefficient
1523	   4	86.5	115.6	 703	inefficient
1524	   4	89.1	118.1	 723	inefficient
1525	1501	0.0	0.0	   0	dead
1526	   4	90.4	119.9	 714	inefficient
1527	   4	91.7	121.1	 719	inefficient
1528	   4	88.6	117.3	 715	inefficient
1529	   4	90.4	119.4	 735	inefficient
1530	   4	88.9	116.5	 729	inefficient
1531	   4	93.9	120.7	 733	inefficient
1532	   4	92.0	121.9	 740	inefficient
1533	   4	89.6	119.1	 719	inefficient
1534	   4	88.3	118.4	 718	inefficient
1535	   4	93.2	120.1	 699	inefficient
1536	   4	90.2	116.9	 692	inefficient
1537	   4	92.4	120.5	 690	inefficient
1538	   4	94.4	120.0	 689	inefficient
1539	   4	95.0	124.4	 696	inefficient
1540	   4	94.0	121.8	 696	inefficient
1541	   4	90.8	118.2	 708	inefficient
1542	   4	92.0	119.8	 692	inefficient
1543	   4	93.5	123.4	 707	inefficient
1544	   4	88.8	116.4	 701	inefficient
1545	   4	94.5	122.0	 693	inefficient
1546	   4	90.4	118.1	 707	inefficient
1547	   4	90.6	119.6	 704	inefficient
1548	   4	92.5	120.0	 711	inefficient
1549	   4	90.6	117.2	 689	inefficient
1550	   4	88.1	115.6	 700	inefficient
1551	   4	94.7	123.6	 705	inefficient
1552	   4	89.5	117.3	 690	inefficient
1553	   4	92.0	119.3	 677	inefficient
1554	   4	94.6	124.6	 699	inefficient
1555	   4	91.7	120.6	 692	inefficient
1556	   4	92.6	120.8	 676	inefficient
1557	   4	92.0	120.3	 700	inefficient
1558	   4	94.4	119.9	 687	inefficient
1559	   4	90.2	119.0	 701	inefficient
1560	   4	92.1	121.4	 726	inefficient
1561	   4	91.9	119.7	 687	inefficient
1562	   4	91.5	120.5	 692	inefficient
1563	   4	87.1	115.5	 693	inefficient
1564	   4	92.1	122.6	 707	inefficient
1565	   4	90.5	118.3	 709	inefficient
1566	   4	90.3	119.7	 712	inefficient
1567	   4	92.3	120.1	 686	inefficient
1568	   4	89.7	119.1	 707	inefficient
1569	   4	88.9	117.6	 686	inefficient
1570	   4	89.6	117.0	 699	inefficient
1571	   4	89.5	117.0	 702	inefficient
1572	   4	90.3	118.9	 702	inefficient
1573	   4	89.9	120.4	 697	inefficient
1574	   4	91.2	117.9	 690	inefficient
1575	   4	90.5	117.3	 716	inefficient
1576	   4	92.7	120.6	 698	inefficient
1577	   4	88.1	115.9	 695	inefficient
1578	   4	91.3	117.8	 678	inefficient
1579	   4	89.9	117.1	 708	inefficient
1580	   4	90.1	120.0	 708	inefficient
1581	   4	91.6	119.7	 686	inefficient
1582	   4	87.6	115.1	 699	inefficient
1583	   4	88.1	117.3	 703	inefficient
1584	1004	91.7	123.0	 325	unbonded
1585	   4	89.1	117.7	 678	inefficient
1586	   4	94.9	121.8	 706	inefficient
1587	   4	89.6	117.6	 693	inefficient
1588	   4	91.4	118.0	 710	inefficient
1589	   4	89.9	120.2	 704	inefficient
1590	   4	94.3	121.5	 700	inefficient
1591	   4	91.0	120.2	 677	inefficient
1592	   4	90.2	118.6	 706	inefficient
1593	   4	92.0	121.7	 701	inefficient
1594	   4	93.7	121.9	 708	inefficient
1595	   4	93.2	121.8	 701	inefficient
1596	   4	90.4	118.9	 689	inefficient
1597	   4	94.1	121.3	 715	inefficient
1598	   4	93.3	120.8	 700	inefficient
1599	   4	90.6	120.4	 697	inefficient
1600	   4	92.3	122.4	 696	inefficient
1601	   4	88.7	118.3	 693	inefficient
1602	   4	90.1	119.8	 716	inefficient
1603	   4	90.5	119.5	 695	inefficient
1604	   4	89.9	118.9	 704	inefficient
1605	   4	88.5	118.3	 703	inefficient
1606	   4	90.7	119.0	 699	inefficient
1607	   4	89.8	117.2	 704	inefficient
1608	   4	89.4	118.3	 711	inefficient
1609	   4	88.2	116.9	 706	inefficient
1610	   4	89.7	117.5	 692	inefficient
1611	   4	89.4	115.4	 689	inefficient
1612	   4	92.5	119.8	 700	inefficient
1613	   4	89.3	117.1	 704	inefficient
1614	   4	91.0	119.6	 705	inefficient
1615	   4	88.2	116.9	 699	inefficient
1616	   4	89.0	117.8	 696	inefficient
1617	   4	89.9	121.3	 704	inefficient
1618	   4	92.0	120.7	 698	inefficient
1619	   4	89.5	118.6	 700	inefficient
1620	   4	90.2	119.7	 678	inefficient
1621	   4	90.3	117.3	 689	inefficient
1622	   4	89.0	116.6	 699	inefficient
1623	   4	93.1	121.8	 687	inefficient
1624	   4	88.7	116.2	 689	inefficient
1625	1004	91.4	125.0	 324	unbonded
1626	   4	91.5	119.9	 688	inefficient
1627	   4	88.5	118.3	 690	inefficient
1628	   4	90.2	117.9	 683	inefficient
1629	   4	90.1	119.3	 690	inefficient
1630	   4	89.0	118.0	 674	inefficient
1631	   4	88.2	118.6	 677	inefficient
1632	   4	93.9	124.1	 690	inefficient
1633	   4	91.5	120.7	 712	inefficient
1634	   4	90.9	121.4	 696	inefficient
1635	   4	88.9	119.7	 694	inefficient
1636	   4	90.3	117.3	 689	inefficient
1637	   4	90.6	120.8	 705	inefficient
1638	   4	90.2	117.4	 694	inefficient
1639	   4	90.0	118.2	 686	inefficient
1640	   4	88.9	117.8	 704	inefficient
1641	   4	88.8	114.9	 714	inefficient
1642	   4	90.8	118.2	 685	inefficient
1643	   4	90.2	118.3	 690	inefficient
1644	   4	93.7	121.5	 693	inefficient
1645	   4	91.1	118.9	 691	inefficient
1646	   4	89.6	117.5	 686	inefficient
1647	   4	89.1	118.4	 693	inefficient
1648	   4	87.3	115.1	 715	inefficient
1649	   4	90.2	119.1	 686	inefficient
1650	   4	91.7	120.0	 697	inefficient
1651	   4	91.6	121.1	 699	inefficient
1652	   4	89.4	119.3	 698	inefficient
1653	   4	89.9	118.6	 695	inefficient
1654	   4	91.1	119.3	 699	inefficient
1655	   4	92.3	120.9	 691	inefficient
1656	   4	92.4	120.4	 694	inefficient
1657	   4	92.5	119.6	 708	inefficient
1658	   4	89.6	117.9	 674	inefficient
1659	   4	91.5	118.7	 705	inefficient
1660	   4	91.6	119.2	 686	inefficient
1661	   4	89.8	118.2	 690	inefficient
1662	   4	91.2	117.4	 691	inefficient
1663	   4	92.9	121.4	 692	inefficient
1664	   4	93.1	119.6	 706	inefficient
1665	   4	92.4	122.0	 700	inefficient
1666	   4	90.2	118.1	 708	inefficient
1667	   4	93.2	119.4	 705	inefficient
1668	   4	89.8	117.6	 709	inefficient
1669	   4	92.5	120.6	 718	inefficient
1670	   4	92.6	121.0	 715	inefficient
1671	   4	90.3	118.7	 708	inefficient
1672	   4	91.7	120.9	 715	inefficient
1673	   4	91.0	117.6	 716	inefficient
1674	   4	90.9	118.6	 719	inefficient
1675	   4	90.4	119.1	 720	inefficient
1676	   4	91.8	119.2	 712	inefficient
1677	   4	91.0	118.5	 715	inefficient
1678	   4	91.0	119.7	 713	inefficient
1679	   4	90.7	117.8	 702	inefficient
1680	   4	92.0	121.7	 713	inefficient
1681	   4	90.4	118.4	 718	inefficient
1682	   4	88.7	118.3	 718	inefficient
1683	   4	93.7	122.0	 692	inefficient
1684	   4	88.3	117.5	 702	inefficient
1685	   4	90.7	120.3	 706	inefficient
1686	   4	89.7	116.9	 714	inefficient
1687	   4	91.9	121.4	 690	inefficient
1688	   4	91.3	119.0	 698	inefficient
1689	   4	91.8	120.3	 721	inefficient
1690	   4	88.9	118.1	 713	inefficient
1691	   4	90.5	119.8	 708	inefficient
1692	   4	88.7	116.2	 705	inefficient
1693	   4	88.8	115.8	 711	inefficient
1694	   4	87.0	115.6	 707	inefficient
1695	   4	90.8	119.5	 717	inefficient
1696	   4	91.6	120.0	 718	inefficient
1697	   4	88.0	116.0	 713	inefficient
1698	   4	91.3	119.5	 715	inefficient
1699	   4	92.0	119.8	 712	inefficient
1700	   4	90.5	119.5	 700	inefficient
1701	   4	88.3	118.7	 697	inefficient
1702	   4	89.5	115.2	 713	inefficient
1703	   4	92.5	120.1	 702	inefficient
1704	   4	92.1	120.8	 701	inefficient
1705	   4	92.3	121.8	 713	inefficient
1706	   4	89.9	119.8	 704	inefficient
1707	   4	89.8	116.7	 705	inefficient
1708	   4	91.5	120.9	 703	inefficient
1709	   4	92.2	120.4	 702	inefficient
1710	   4	88.7	115.7	 716	inefficient
1711	   4	90.2	119.9	 717	inefficient
1712	1004	90.5	123.5	 330	unbonded
1713	   4	87.3	113.0	 700	inefficient
1714	   4	92.8	121.5	 732	inefficient
1715	   4	92.2	121.9	 719	inefficient
1716	   4	91.4	119.7	 698	inefficient
1717	   4	88.4	119.0	 724	inefficient
1718	   4	87.5	113.4	 692	inefficient
1719	   4	91.9	120.9	 715	inefficient
1720	   4	88.1	115.8	 708	inefficient
1721	   4	88.5	116.5	 711	inefficient
1722	   4	91.6	119.3	 712	inefficient
1723	   4	90.4	119.4	 694	inefficient
1724	   4	91.9	120.1	 715	inefficient
1725	   4	89.9	120.1	 711	inefficient
1726	   4	93.4	122.2	 702	inefficient
1727	   4	89.3	118.0	 712	inefficient
1728	   4	88.9	115.6	 712	inefficient
1729	   4	89.2	116.3	 709	inefficient
1730	   4	88.6	115.7	 723	inefficient
1731	   4	90.2	117.7	 705	inefficient
1732	   4	89.3	116.3	 720	inefficient
1733	   4	91.4	121.3	 704	inefficient
1734	   4	87.8	116.5	 714	inefficient
1735	   4	88.6	116.4	 710	inefficient
1736	   4	88.5	117.1	 717	inefficient
1737	   4	91.6	119.4	 718	inefficient
1738	   4	90.6	118.7	 717	inefficient
1739	   4	89.5	117.2	 702	inefficient
1740	   4	90.2	119.9	 709	inefficient
1741	   4	90.6	120.2	 713	inefficient
1742	   4	89.2	118.6	 716	inefficient
1743	   4	89.1	117.1	 693	inefficient
1744	   4	90.3	119.2	 721	inefficient
1745	   4	89.7	117.6	 699	inefficient
1746	   4	89.0	117.5	 707	inefficient
1747	   4	87.8	116.6	 688	inefficient
1748	   4	86.2	112.9	 709	inefficient
1749	   4	90.9	119.6	 719	inefficient
1750	   4	90.0	118.5	 711	inefficient
1751	   4	88.5	116.9	 722	inefficient
1752	   4	89.2	115.7	 718	inefficient
1753	1004	91.9	125.4	 334	unbonded
1754	   4	89.4	116.0	 692	inefficient
1755	   4	86.6	114.9	 721	inefficient
1756	   4	90.9	119.8	 729	inefficient
1757	   4	86.5	113.8	 708	inefficient
1758	   4	89.1	119.1	 710	inefficient
1759	   4	88.8	120.8	 722	inefficient
1760	   4	93.3	120.3	 704	inefficient
1761	   4	88.9	116.9	 702	inefficient
1762	   4	91.6	119.0	 703	inefficient
1763	   4	86.5	114.1	 700	inefficient
1764	   4	91.6	118.7	 704	inefficient
1765	   4	89.4	114.4	 706	inefficient
1766	   4	89.9	118.4	 706	inefficient
1767	   4	89.8	118.9	 725	inefficient
1768	   4	93.0	121.3	 708	inefficient
1769	   4	90.9	117.0	 708	inefficient
1770	   4	88.8	116.4	 703	inefficient
1771	   4	88.0	117.6	 705	inefficient
1772	   4	91.6	117.9	 713	inefficient
1773	   4	88.2	118.6	 716	inefficient
1774	   4	90.6	118.1	 700	inefficient
1775	   4	88.4	117.1	 714	inefficient
1776	   4	93.5	120.1	 703	inefficient
1777	   4	90.6	118.6	 711	inefficient
1778	   4	88.7	116.7	 717	inefficient
1779	   4	89.6	116.1	 723	inefficient
1780	   4	90.1	118.3	 719	inefficient
1781	   4	88.4	116.3	 714	inefficient
1782	   4	88.8	115.9	 696	inefficient
1783	   4	90.9	119.1	 711	inefficient
1784	   4	86.1	113.9	 707	inefficient
1785	   4	89.0	115.1	 716	inefficient
1786	   4	94.0	123.5	 698	inefficient
1787	   4	90.1	119.6	 709	inefficient
1788	   4	90.5	118.7	 702	inefficient
1789	   4	88.9	115.5	 703	inefficient
1790	   4	90.6	119.6	 703	inefficient
1791	   4	90.3	120.2	 701	inefficient
1792	   4	95.8	125.2	 694	inefficient
1793	   4	92.5	123.2	 687	inefficient
1794	   4	91.9	119.8	 685	inefficient
1795	   4	89.2	119.0	 685	inefficient
1796	   4	91.2	121.2	 690	inefficient
1797	   4	91.1	119.9	 691	inefficient
1798	   4	93.0	123.2	 683	inefficient
1799	   4	91.5	121.5	 673	inefficient
1800	   4	92.8	122.1	 688	inefficient
1801	   4	87.2	117.4	 691	inefficient
1802	   4	96.3	126.3	 683	inefficient
1803	   4	88.8	118.1	 687	inefficient
1804	   4	91.8	120.9	 682	inefficient
1805	   4	91.2	120.9	 670	inefficient
1806	   4	90.2	119.8	 686	inefficient
1807	   4	92.3	121.9	 683	inefficient
1808	   4	92.7	122.3	 692	inefficient
1809	   4	93.1	123.8	 687	inefficient
1810	   4	90.9	121.2	 697	inefficient
1811	   4	93.8	124.0	 688	inefficient
1812	   4	95.2	125.6	 690	inefficient
1813	   4	95.0	125.9	 669	inefficient
1814	   4	89.9	119.1	 689	inefficient
1815	   4	91.7	121.8	 674	inefficient
1816	   4	91.7	123.7	 685	inefficient
1817	   4	92.5	120.9	 685	inefficient
1818	   4	91.4	121.3	 682	inefficient
1819	   4	92.5	121.9	 684	inefficient
1820	   4	93.0	123.6	 678	inefficient
1821	   4	92.6	122.0	 682	inefficient
1822	   4	90.1	121.9	 696	inefficient
1823	   4	91.0	121.7	 684	inefficient
1824	   4	91.6	123.0	 688	inefficient
1825	   4	89.9	119.7	 689	inefficient
1826	   4	88.6	119.8	 701	inefficient
1827	   4	88.5	118.9	 687	inefficient
1828	   4	90.2	120.7	 682	inefficient
1829	   4	94.7	127.4	 684	inefficient
1830	   4	93.9	122.9	 687	inefficient
1831	   4	91.4	121.3	 682	inefficient
1832	   4	89.0	119.3	 702	inefficient
1833	   4	89.2	119.7	 682	inefficient
1834	   4	89.7	119.9	 690	inefficient
1835	   4	90.4	121.7	 678	inefficient
1836	   4	91.3	120.1	 683	inefficient
1837	   4	91.8	121.9	 703	inefficient
1838	   4	92.6	121.8	 702	inefficient
1839	   4	90.0	122.2	 693	inefficient
1840	1004	91.4	126.0	 337	unbonded
1841	   4	90.5	120.3	 681	inefficient
1842	   4	91.4	120.4	 699	inefficient
1843	   4	92.4	122.1	 681	inefficient
1844	   4	92.5	122.7	 681	inefficient
1845	   4	90.1	118.5	 693	inefficient
1846	   4	88.9	118.4	 677	inefficient
1847	   4	90.8	119.8	 682	inefficient
1848	   4	90.8	122.1	 689	inefficient
1849	   4	88.2	119.4	 676	inefficient
1850	   4	93.0	125.4	 691	inefficient
1851	   4	91.0	122.3	 683	inefficient
1852	   4	91.1	120.6	 712	inefficient
1853	   4	90.3	119.2	 676	inefficient
1854	   4	90.5	119.6	 677	inefficient
1855	   4	93.4	122.2	 676	inefficient
1856	   4	91.0	121.4	 675	inefficient
1857	   4	86.8	116.2	 697	inefficient
1858	   4	90.3	119.6	 670	inefficient
1859	   4	89.9	119.0	 694	inefficient
1860	   4	89.4	118.7	 681	inefficient
1861	   4	89.8	120.0	 671	inefficient
1862	   4	91.5	122.0	 681	inefficient
1863	   4	86.7	116.2	 680	inefficient
1864	   4	89.4	119.7	 686	inefficient
1865	   4	89.8	121.3	 671	inefficient
1866	   4	92.1	123.2	 680	inefficient
1867	   4	87.9	119.8	 683	inefficient
1868	   4	86.2	117.5	 690	inefficient
1869	   4	88.4	116.6	 672	inefficient
1870	   4	88.8	117.2	 670	inefficient
1871	   4	86.6	117.8	 680	inefficient
1872	   4	88.4	118.2	 670	inefficient
1873	   4	90.8	120.2	 678	inefficient
1874	   4	88.2	119.7	 677	inefficient
1875	   4	85.1	115.4	 672	inefficient
1876	   4	89.6	118.7	 675	inefficient
1877	   4	89.1	119.9	 678	inefficient
1878	   4	88.2	119.6	 677	inefficient
1879	   4	89.2	118.5	 669	inefficient
1880	   4	88.8	119.0	 673	inefficient
1881	1004	91.1	125.9	 324	unbonded
1882	   4	89.4	116.3	 672	inefficient
1883	   4	91.0	121.4	 698	inefficient
1884	   4	85.3	116.8	 689	inefficient
1885	   4	90.7	122.5	 657	inefficient
1886	   4	86.6	117.7	 681	inefficient
1887	   4	87.0	118.5	 674	inefficient
1888	   4	84.3	115.6	 683	inefficient
1889	   4	89.3	118.5	 682	inefficient
1890	   4	89.5	119.2	 674	inefficient
1891	   4	85.3	114.0	 669	inefficient
1892	   4	88.9	119.3	 676	inefficient
1893	   4	89.3	119.1	 674	inefficient
1894	   4	88.1	118.0	 668	inefficient
1895	   4	90.6	118.6	 673	inefficient
1896	   4	89.5	119.9	 691	inefficient
1897	   4	87.4	117.7	 689	inefficient
1898	   4	88.1	118.9	 684	inefficient
1899	   4	89.5	118.9	 687	inefficient
1900	   4	89.1	118.1	 699	inefficient
1901	   4	88.5	119.3	 683	inefficient
1902	   4	87.8	116.9	 683	inefficient
1903	   4	89.0	118.5	 676	inefficient
1904	   4	90.2	121.4	 679	inefficient
1905	   4	88.1	118.0	 669	inefficient
1906	   4	92.1	122.1	 684	inefficient
1907	   4	89.1	118.8	 683	inefficient
1908	   4	90.1	121.1	 675	inefficient
1909	   4	86.1	116.2	 673	inefficient
1910	   4	92.3	122.8	 691	inefficient
1911	   4	91.5	122.6	 672	inefficient
1912	   4	88.2	119.9	 687	inefficient
1913	   4	87.3	116.2	 673	inefficient
1914	   4	88.9	121.4	 677	inefficient
1915	   4	87.8	117.4	 693	inefficient
1916	   4	89.5	118.3	 671	inefficient
1917	   4	90.7	121.3	 663	inefficient
1918	   4	91.3	121.6	 676	inefficient
1919	   4	87.9	116.3	 686	inefficient
1920	   4	88.6	116.9	 723	inefficient
1921	   4	87.9	115.4	 714	inefficient
1922	   4	86.3	112.7	 710	inefficient
1923	   4	88.3	117.5	 722	inefficient
1924	   4	85.3	114.2	 717	inefficient
1925	   4	88.8	118.6	 717	inefficient
1926	   4	88.0	115.8	 724	inefficient
1927	   4	86.0	115.7	 720	inefficient
1928	   4	85.5	111.5	 715	inefficient
1929	   4	85.3	111.6	 712	inefficient
1930	   4	85.2	111.8	 719	inefficient
1931	   4	85.8	113.3	 703	inefficient
1932	   4	84.9	114.6	 715	inefficient
1933	   4	87.6	115.7	 707	inefficient
1934	   4	86.0	114.1	 720	inefficient
1935	   4	88.1	114.6	 737	inefficient
1936	   4	87.2	112.4	 733	inefficient
1937	   4	88.4	116.3	 717	inefficient
1938	   4	85.9	113.8	 728	inefficient
1939	   4	86.6	110.8	 681	inefficient
1940	   4	84.5	112.8	 719	inefficient
1941	   4	84.7	112.2	 729	inefficient
1942	   4	89.1	116.6	 720	inefficient
1943	   4	86.1	112.8	 708	inefficient
1944	   4	85.2	115.4	 745	inefficient
1945	   4	87.4	114.8	 703	inefficient
1946	   4	87.1	115.4	 725	inefficient
1947	   4	83.8	112.7	 717	inefficient
1948	   4	88.8	117.1	 718	inefficient
1949	   4	84.6	113.8	 726	inefficient
1950	   4	87.5	113.5	 730	inefficient
1951	   4	86.1	112.1	 722	inefficient
1952	   4	86.8	117.0	 714	inefficient
1953	   4	89.2	117.8	 714	inefficient
1954	   4	89.0	115.1	 728	inefficient
1955	   4	86.5	114.2	 721	inefficient
1956	   4	85.2	112.5	 729	inefficient
1957	   4	84.3	113.1	 737	inefficient
1958	   4	87.0	112.4	 720	inefficient
1959	   4	88.1	115.9	 706	inefficient
1960	   4	84.3	111.9	 713	inefficient
1961	   4	83.6	113.4	 739	inefficient
1962	   4	89.3	117.6	 726	inefficient
1963	   4	85.7	113.8	 717	inefficient
1964	   4	87.7	115.5	 726	inefficient
1965	   4	82.9	109.8	 755	inefficient
1966	   4	81.2	107.5	 748	inefficient
1967	   4	86.3	114.0	 732	inefficient
1968	1004	88.8	121.0	 332	unbonded
1969	   4	85.1	112.4	 719	inefficient
1970	   4	85.0	112.0	 733	inefficient
1971	   4	84.4	112.2	 715	inefficient
1972	   4	87.6	115.8	 719	inefficient
1973	   4	91.2	119.6	 719	inefficient
1974	   4	84.3	112.7	 740	inefficient
1975	   4	87.5	115.4	 713	inefficient
1976	   4	86.1	112.8	 728	inefficient
1977	   4	87.8	117.2	 722	inefficient
1978	   4	87.5	114.8	 718	inefficient
1979	   4	87.1	114.3	 717	inefficient
1980	   4	86.4	115.8	 735	inefficient
1981	   4	88.5	116.6	 727	inefficient
1982	   4	91.5	119.3	 727	inefficient
1983	   4	88.8	116.4	 730	inefficient
1984	   4	85.9	113.2	 737	inefficient
1985	   4	83.2	111.9	 738	inefficient
1986	   4	84.5	111.8	 730	inefficient
1987	   4	85.0	113.2	 719	inefficient
1988	   4	86.7	112.8	 748	inefficient
1989	   4	85.4	113.0	 724	inefficient
1990	   4	83.9	112.3	 720	inefficient
1991	   4	81.6	111.9	 730	inefficient
1992	   4	85.7	113.6	 722	inefficient
1993	   4	82.6	113.4	 722	inefficient
1994	   4	85.4	114.3	 740	inefficient
1995	   4	82.9	110.4	 742	inefficient
1996	   4	79.4	107.4	 723	inefficient
1997	   4	84.1	113.7	 729	inefficient
1998	   4	83.2	112.3	 732	inefficient
1999	   4	84.5	111.6	 731	inefficient
2000	   4	86.0	115.3	 749	inefficient
2001	   4	82.6	111.2	 739	inefficient
2002	   4	85.8	113.9	 728	inefficient
2003	   4	84.2	111.2	 736	inefficient
2004	   4	83.8	111.8	 737	inefficient
2005	   4	85.0	112.8	 723	inefficient
2006	   4	84.9	112.4	 741	inefficient
2007	   4	85.2	115.7	 720	inefficient
2008	   4	84.4	114.2	 757	inefficient
2009	1004	88.5	120.4	 337	unbonded
2010	   4	82.8	110.8	 747	inefficient
2011	   4	82.8	112.6	 725	inefficient
2012	   4	83.6	110.6	 735	inefficient
2013	   4	85.0	113.3	 739	inefficient
2014	   4	83.2	111.0	 732	inefficient
2015	   4	81.9	111.8	 746	inefficient
2016	   4	85.4	115.6	 726	inefficient
2017	   4	85.3	114.1	 745	inefficient
2018	   4	81.9	111.7	 730	inefficient
2019	   4	83.8	112.1	 756	inefficient
2020	   4	84.3	112.7	 738	inefficient
2021	   4	83.1	112.9	 752	inefficient
2022	   4	84.1	110.7	 739	inefficient
2023	   4	82.4	112.4	 746	inefficient
2024	   4	80.6	110.1	 736	inefficient
2025	   4	83.5	113.8	 752	inefficient
2026	   4	84.6	112.0	 771	inefficient
2027	   4	83.3	111.5	 762	inefficient
2028	   4	83.9	111.4	 745	inefficient
2029	   4	84.8	112.8	 745	inefficient
2030	   4	83.1	113.5	 742	inefficient
2031	   4	80.3	108.7	 751	inefficient
2032	   4	81.4	109.5	 753	inefficient
2033	   4	82.8	109.7	 736	inefficient
2034	   4	83.6	114.7	 750	inefficient
2035	   4	85.5	115.9	 741	inefficient
2036	   4	82.8	112.6	 755	inefficient
2037	   4	82.3	111.7	 752	inefficient
2038	   4	85.8	116.1	 752	inefficient
2039	   4	81.9	110.6	 764	inefficient
2040	   4	84.3	114.9	 761	inefficient
2041	   4	85.7	113.0	 742	inefficient
2042	   4	82.3	111.8	 735	inefficient
2043	   4	83.7	113.9	 755	inefficient
2044	   4	85.9	113.1	 743	inefficient
2045	   4	83.7	114.7	 754	inefficient
2046	   4	83.2	113.1	 749	inefficient
2047	   4	81.8	113.1	 757	inefficient
2048	   4	90.8	119.5	 686	inefficient
2049	   4	88.1	116.0	 705	inefficient
2050	   4	89.3	119.7	 717	inefficient
2051	   4	89.0	119.6	 706	inefficient
2052	   4	88.7	118.0	 718	inefficient
2053	   4	88.1	116.0	 714	inefficient
2054	   4	87.9	117.1	 702	inefficient
2055	   4	88.1	116.1	 704	inefficient
2056	   4	88.8	119.9	 700	inefficient
2057	   4	87.4	116.1	 711	inefficient
2058	   4	88.9	118.1	 713	inefficient
2059	   4	87.0	116.3	 712	inefficient
2060	   4	92.7	121.9	 699	inefficient
2061	   4	87.2	116.8	 708	inefficient
2062	   4	87.4	115.2	 717	inefficient
2063	   4	86.2	115.6	 719	inefficient
2064	   4	89.9	118.9	 716	inefficient
2065	   4	84.3	113.0	 706	inefficient
2066	   4	87.4	119.0	 703	inefficient
2067	   4	85.7	114.2	 699	inefficient
2068	   4	87.1	117.8	 710	inefficient
2069	   4	84.9	116.1	 724	inefficient
2070	   4	88.7	117.4	 697	inefficient
2071	   4	87.8	116.6	 695	inefficient
2072	   4	85.5	113.5	 711	inefficient
2073	   4	86.7	118.2	 708	inefficient
2074	   4	86.5	116.1	 704	inefficient
2075	   4	86.2	115.1	 714	inefficient
2076	   4	88.3	118.0	 715	inefficient
2077	   4	86.7	117.2	 715	inefficient
2078	   4	90.3	120.4	 698	inefficient
2079	   4	88.4	118.2	 704	inefficient
2080	   4	90.2	120.7	 716	inefficient
2081	   4	87.7	118.5	 700	inefficient
2082	   4	88.1	117.7	 716	inefficient
2083	   4	87.3	117.6	 697	inefficient
2084	   4	89.0	118.0	 720	inefficient
2085	   4	86.6	116.6	 700	inefficient
2086	   4	86.7	118.1	 697	inefficient
2087	   4	85.2	114.6	 715	inefficient
2088	   4	88.9	117.5	 715	inefficient
2089	   4	85.0	115.3	 704	inefficient
2090	   4	86.2	116.2	 717	inefficient
2091	   4	83.7	112.1	 702	inefficient
2092	   4	86.7	118.3	 703	inefficient
2093	   4	87.1	116.5	 703	inefficient
2094	   4	84.8	113.5	 719	inefficient
2095	   4	85.3	115.2	 702	inefficient
2096	1004	88.5	122.1	 330	unbonded
2097	   4	86.6	116.0	 700	inefficient
2098	   4	87.4	118.6	 737	inefficient
2099	   4	87.5	117.5	 711	inefficient
2100	   4	84.7	114.9	 713	inefficient
2101	   4	85.3	115.7	 730	inefficient
2102	   4	87.1	116.9	 720	inefficient
2103	   4	85.8	116.9	 704	inefficient
2104	   4	84.3	114.7	 708	inefficient
2105	   4	87.6	118.5	 700	inefficient
2106	   4	87.1	117.3	 700	inefficient
2107	   4	87.0	118.6	 718	inefficient
2108	   4	88.9	117.7	 706	inefficient
2109	   4	85.9	117.7	 718	inefficient
2110	   4	87.3	118.7	 684	inefficient
2111	   4	86.9	118.6	 711	inefficient
2112	   4	87.3	116.1	 696	inefficient
2113	   4	88.5	118.1	 709	inefficient
2114	   4	83.7	115.7	 720	inefficient
2115	   4	88.1	118.1	 682	inefficient
2116	   4	87.9	118.6	 714	inefficient
2117	   4	85.3	113.9	 712	inefficient
2118	   4	84.4	116.2	 720	inefficient
2119	   4	87.7	117.9	 708	inefficient
2120	   4	83.4	115.1	 729	inefficient
2121	   4	86.1	117.0	 711	inefficient
2122	   4	86.4	115.4	 708	inefficient
2123	   4	84.8	115.6	 692	inefficient
2124	   4	86.2	116.6	 690	inefficient
2125	   4	85.7	116.1	 709	inefficient
2126	   4	84.3	114.8	 729	inefficient
2127	   4	86.2	118.4	 708	inefficient
2128	   4	86.8	115.6	 689	inefficient
2129	   4	81.6	112.5	 714	inefficient
2130	   4	85.6	116.6	 713	inefficient
2131	   4	84.2	114.9	 707	inefficient
2132	   4	86.0	118.1	 715	inefficient
2133	   4	85.0	114.4	 726	inefficient
2134	   4	86.7	119.8	 706	inefficient
2135	   4	85.5	115.9	 712	inefficient
2136	   4	86.2	114.9	 719	inefficient
2137	1004	85.5	121.1	 346	unbonded
2138	   4	86.2	116.8	 704	inefficient
2139	   4	86.9	117.8	 721	inefficient
2140	   4	85.1	113.3	 711	inefficient
2141	   4	83.5	113.5	 716	inefficient
2142	   4	84.2	116.0	 722	inefficient
2143	   4	84.4	115.4	 710	inefficient
2144	   4	83.0	113.1	 716	inefficient
2145	   4	85.1	115.8	 710	inefficient
2146	   4	85.3	115.0	 713	inefficient
2147	   4	85.2	115.3	 714	inefficient
2148	   4	86.1	116.7	 708	inefficient
2149	   4	86.1	116.2	 705	inefficient
2150	   4	83.8	114.8	 710	inefficient
2151	   4	87.1	117.6	 701	inefficient
2152	   4	85.8	116.1	 725	inefficient
2153	   4	80.7	110.9	 705	inefficient
2154	   4	86.9	118.9	 713	inefficient
2155	   4	85.9	114.8	 703	inefficient
2156	   4	84.8	116.1	 715	inefficient
2157	   4	84.1	114.5	 710	inefficient
2158	   4	86.2	115.6	 708	inefficient
2159	   4	86.6	116.6	 730	inefficient
2160	   4	86.7	118.4	 728	inefficient
2161	   4	86.7	116.1	 709	inefficient
2162	   4	85.5	114.7	 717	inefficient
2163	   4	85.3	114.9	 715	inefficient
2164	   4	87.4	119.4	 725	inefficient
2165	   4	85.5	119.0	 715	inefficient
2166	   4	88.3	117.4	 722	inefficient
2167	   4	83.4	113.4	 734	inefficient
2168	   4	86.2	116.5	 711	inefficient
2169	   4	86.4	117.2	 723	inefficient
2170	   4	87.0	117.1	 710	inefficient
2171	   4	84.7	113.5	 721	inefficient
2172	   4	85.6	118.4	 726	inefficient
2173	   4	90.3	120.0	 731	inefficient
2174	   4	88.4	120.1	 747	inefficient
2175	   4	85.3	115.0	 714	inefficient
2176	   4	87.9	116.3	 705	inefficient
2177	   4	90.8	120.1	 715	inefficient
2178	   4	89.9	120.4	 719	inefficient
2179	   4	89.6	117.1	 708	inefficient
2180	   4	90.6	118.4	 711	inefficient
2181	   4	91.3	121.2	 709	inefficient
2182	   4	93.1	122.6	 700	inefficient
2183	   4	88.6	116.5	 699	inefficient
2184	   4	89.7	116.1	 713	inefficient
2185	   4	91.6	119.2	 698	inefficient
2186	   4	93.5	122.3	 689	inefficient
2187	   4	88.9	119.3	 713	inefficient
2188	   4	88.9	116.8	 703	inefficient
2189	   4	88.9	117.5	 714	inefficient
2190	   4	93.1	120.4	 699	inefficient
2191	   4	93.4	122.0	 711	inefficient
2192	   4	94.6	123.0	 718	inefficient
2193	   4	91.3	122.5	 700	inefficient
2194	   4	89.7	117.9	 711	inefficient
2195	   4	89.1	120.3	 702	inefficient
2196	   4	88.3	115.5	 707	inefficient
2197	   4	92.1	122.3	 690	inefficient
2198	   4	88.5	118.4	 719	inefficient
2199	   4	88.7	117.5	 694	inefficient
2200	   4	92.3	122.3	 705	inefficient
2201	   4	89.5	116.4	 717	inefficient
2202	   4	89.2	120.2	 698	inefficient
2203	   4	89.2	117.7	 706	inefficient
2204	   4	91.9	120.7	 720	inefficient
2205	   4	89.3	117.0	 690	inefficient
2206	   4	90.3	118.2	 704	inefficient
2207	   4	88.2	116.0	 722	inefficient
2208	   4	92.0	122.0	 695	inefficient
2209	   4	89.7	118.5	 695	inefficient
2210	   4	90.3	118.9	 713	inefficient
2211	   4	88.6	116.4	 708	inefficient
2212	   4	88.8	116.9	 705	inefficient
2213	   4	90.9	119.4	 703	inefficient
2214	   4	90.5	118.7	 709	inefficient
2215	   4	91.7	118.7	 687	inefficient
2216	   4	90.6	119.5	 711	inefficient
2217	   4	86.9	116.9	 710	inefficient
2218	   4	90.7	120.3	 692	inefficient
2219	   4	87.8	115.4	 707	inefficient
2220	   4	89.1	116.7	 712	inefficient
2221	   4	90.8	119.9	 710	inefficient
2222	   4	88.2	116.4	 707	inefficient
2223	   4	91.0	121.4	 695	inefficient
2224	1000	91.6	126.0	 319	unbonded
2225	   4	90.4	117.9	 699	inefficient
2226	   4	88.9	116.0	 713	inefficient
2227	   4	87.1	115.4	 703	inefficient
2228	   4	90.7	119.4	 701	inefficient
2229	   4	91.6	119.7	 710	inefficient
2230	   4	91.4	119.3	 698	inefficient
2231	   4	91.3	121.2	 700	inefficient
2232	   4	89.5	118.2	 696	inefficient
2233	   4	89.3	117.8	 704	inefficient
2234	   4	91.3	121.8	 722	inefficient
2235	   4	87.8	116.0	 711	inefficient
2236	   4	90.1	120.2	 694	inefficient
2237	   4	90.3	117.8	 685	inefficient
2238	   4	90.4	118.5	 690	inefficient
2239	   4	90.8	119.5	 687	inefficient
2240	   4	88.3	115.8	 695	inefficient
2241	   4	90.9	122.6	 693	inefficient
2242	   4	89.9	120.5	 686	inefficient
2243	   4	90.1	119.5	 688	inefficient
2244	   4	90.3	118.7	 701	inefficient
2245	   4	89.5	118.8	 698	inefficient
2246	   4	86.5	114.6	 698	inefficient
2247	   4	90.3	117.8	 691	inefficient
2248	   4	88.3	118.9	 693	inefficient
2249	   4	88.9	117.9	 697	inefficient
2250	   4	90.0	118.7	 677	inefficient
2251	   4	88.0	118.9	 706	inefficient
2252	   4	89.6	118.3	 715	inefficient
2253	   4	87.4	116.7	 688	inefficient
2254	   4	88.9	117.7	 709	inefficient
2255	   4	87.8	116.8	 702	inefficient
2256	   4	85.7	114.1	 709	inefficient
2257	   4	90.5	118.7	 690	inefficient
2258	   4	87.6	117.1	 696	inefficient
2259	   4	89.9	117.2	 670	inefficient
2260	   4	89.1	116.9	 698	inefficient
2261	   4	87.8	118.2	 683	inefficient
2262	   4	88.7	118.3	 696	inefficient
2263	   4	90.0	118.4	 703	inefficient
2264	   4	90.5	119.3	 698	inefficient
2265	1004	91.7	124.5	 328	unbonded
2266	   4	89.5	117.5	 689	inefficient
2267	   4	87.8	117.0	 697	inefficient
2268	   4	89.6	117.4	 692	inefficient
2269	   4	89.6	118.3	 692	inefficient
2270	   4	92.2	120.0	 690	inefficient
2271	   4	88.3	118.0	 707	inefficient
2272	   4	88.1	117.5	 701	inefficient
2273	   4	88.5	114.8	 686	inefficient
2274	   4	90.9	119.5	 675	inefficient
2275	   4	89.1	117.7	 715	inefficient
2276	   4	87.9	116.2	 698	inefficient
2277	   4	89.8	119.5	 690	inefficient
2278	   4	89.6	118.9	 675	inefficient
2279	   4	86.5	117.0	 689	inefficient
2280	   4	89.8	117.5	 674	inefficient
2281	   4	88.7	117.3	 685	inefficient
2282	   4	86.1	113.7	 687	inefficient
2283	   4	88.9	118.9	 693	inefficient
2284	   4	88.9	117.4	 702	inefficient
2285	   4	87.5	114.9	 712	inefficient
2286	   4	88.2	118.0	 698	inefficient
2287	   4	91.4	118.8	 690	inefficient
2288	   4	86.0	114.1	 685	inefficient
2289	   4	88.9	119.6	 694	inefficient
2290	   4	90.1	118.3	 683	inefficient
2291	   4	89.5	118.1	 687	inefficient
2292	   4	90.2	117.7	 693	inefficient
2293	   4	92.1	122.0	 669	inefficient
2294	   4	89.4	116.9	 684	inefficient
2295	   4	88.5	119.0	 686	inefficient
2296	   4	94.9	124.7	 689	inefficient
2297	   4	91.1	120.0	 694	inefficient
2298	   4	88.9	117.0	 702	inefficient
2299	   4	89.7	117.6	 686	inefficient
2300	   4	90.1	116.6	 688	inefficient
2301	   4	90.8	120.2	 702	inefficient
2302	   4	90.2	118.0	 675	inefficient
2303	   4	92.6	120.3	 675	inefficient
2304	   4	92.3	122.6	 730	inefficient
2305	   4	91.9	119.6	 726	inefficient
2306	   4	94.7	123.6	 720	inefficient
2307	   4	92.6	119.9	 726	inefficient
2308	   4	95.4	122.6	 734	inefficient
2309	   4	95.4	121.8	 728	inefficient
2310	   4	94.9	124.3	 718	inefficient
2311	   4	94.6	124.2	 706	inefficient
2312	   4	91.6	120.9	 710	inefficient
2313	   4	93.5	120.4	 699	inefficient
2314	   4	92.3	121.3	 722	inefficient
2315	   4	91.6	119.2	 732	inefficient
2316	   4	91.7	120.9	 721	inefficient
2317	   4	93.3	124.1	 716	inefficient
2318	   4	91.4	121.1	 712	inefficient
2319	   4	93.6	124.5	 738	inefficient
2320	   4	92.2	122.3	 701	inefficient
2321	   4	91.3	119.9	 725	inefficient
2322	   4	90.0	117.8	 721	inefficient
2323	   4	90.5	120.1	 717	inefficient
2324	   4	90.5	117.2	 728	inefficient
2325	   4	90.8	118.4	 771	inefficient
2326	   4	92.7	121.1	 729	inefficient
2327	   4	94.0	120.5	 723	inefficient
2328	   4	91.9	120.7	 711	inefficient
2329	   4	92.1	119.2	 703	inefficient
2330	   4	90.3	119.5	 727	inefficient
2331	   4	91.3	118.7	 721	inefficient
2332	   4	91.9	119.6	 715	inefficient
2333	   4	90.3	117.4	 717	inefficient
2334	   4	91.5	118.6	 734	inefficient
2335	   4	90.7	117.9	 715	inefficient
2336	   4	92.6	121.6	 713	inefficient
2337	   4	91.1	117.3	 739	inefficient
2338	   4	92.3	122.9	 713	inefficient
2339	   4	90.7	120.1	 715	inefficient
2340	   4	91.6	117.6	 722	inefficient
2341	   4	89.1	118.0	 724	inefficient
2342	   4	91.1	117.9	 726	inefficient
2343	   4	91.7	121.0	 731	inefficient
2344	   4	92.7	119.2	 731	inefficient
2345	   4	93.0	121.8	 719	inefficient
2346	   4	92.8	120.5	 726	inefficient
2347	   4	92.3	119.7	 715	inefficient
2348	1501	0.0	0.0	   0	dead
2349	   4	90.7	118.3	 733	inefficient
2350	   4	89.4	115.3	 731	inefficient
2351	1501	0.0	0.0	   0	dead
2352	1004	94.6	128.9	 330	unbonded
2353	   4	92.0	120.6	 734	inefficient
2354	   4	94.9	124.9	 718	inefficient
2355	   4	90.7	119.3	 720	inefficient
2356	   4	92.4	120.3	 734	inefficient
2357	   4	88.4	116.0	 716	inefficient
2358	   4	92.7	121.8	 724	inefficient
2359	   4	90.0	118.9	 719	inefficient
2360	   4	93.2	121.3	 727	inefficient
2361	   4	92.3	122.8	 725	inefficient
2362	   4	91.5	122.5	 749	inefficient
2363	   4	88.6	117.0	 717	inefficient
2364	   4	93.2	121.1	 725	inefficient
2365	   4	92.0	120.6	 724	inefficient
2366	   4	92.8	120.9	 725	inefficient
2367	   4	91.3	119.2	 733	inefficient
2368	   4	89.0	116.2	 747	inefficient
2369	   4	90.0	118.4	 736	inefficient
2370	   4	92.8	119.9	 722	inefficient
2371	   4	93.5	122.1	 729	inefficient
2372	   4	90.0	119.5	 725	inefficient
2373	   4	90.4	120.6	 723	inefficient
2374	   4	90.1	118.2	 737	inefficient
2375	   4	89.2	117.6	 717	inefficient
2376	   4	90.0	117.8	 740	inefficient
2377	   4	88.4	118.2	 722	inefficient
2378	   4	91.1	119.4	 722	inefficient
2379	   4	89.9	117.5	 729	inefficient
2380	   4	91.3	119.9	 746	inefficient
2381	   4	89.6	120.5	 727	inefficient
2382	   4	88.0	116.3	 738	inefficient
2383	   4	90.1	120.6	 722	inefficient
2384	   4	89.2	117.2	 725	inefficient
2385	   4	90.5	119.3	 735	inefficient
2386	   4	92.0	120.9	 734	inefficient
2387	   4	89.8	117.1	 726	inefficient
2388	   4	91.5	119.9	 726	inefficient
2389	   4	90.7	119.5	 729	inefficient
2390	   4	87.9	114.8	 736	inefficient
2391	1501	0.0	0.0	   0	dead
2392	   4	89.8	116.1	 726	inefficient
2393	1004	93.6	125.3	 327	unbonded
2394	   4	88.3	116.1	 721	inefficient
2395	   4	87.9	114.6	 733	inefficient
2396	   4	87.7	117.0	 728	inefficient
2397	   4	87.5	114.0	 728	inefficient
2398	   4	88.4	116.0	 709	inefficient
2399	   4	88.8	117.9	 728	inefficient
2400	   4	89.7	118.4	 731	inefficient
2401	   4	89.1	116.1	 716	inefficient
2402	   4	91.3	117.4	 733	inefficient
2403	   4	88.0	117.6	 750	inefficient
2404	   4	88.8	117.9	 728	inefficient
2405	   4	89.5	117.9	 742	inefficient
2406	   4	89.7	117.5	 735	inefficient
2407	   4	89.5	118.2	 735	inefficient
2408	   4	91.9	122.4	 733	inefficient
2409	   4	89.4	118.1	 719	inefficient
2410	   4	90.7	120.2	 731	inefficient
2411	1501	0.0	0.0	   0	dead
2412	   4	91.2	120.9	 729	inefficient
2413	   4	90.2	117.0	 717	inefficient
2414	   4	90.8	119.1	 733	inefficient
2415	   4	89.6	118.6	 736	inefficient
2416	   4	88.6	117.9	 721	inefficient
2417	   4	93.5	122.9	 720	inefficient
2418	   4	90.8	119.0	 740	inefficient
2419	   4	88.0	116.7	 739	inefficient
2420	   4	90.4	118.2	 742	inefficient
2421	   4	88.9	117.5	 735	inefficient
2422	   4	90.5	119.4	 722	inefficient
2423	   4	88.6	115.3	 737	inefficient
2424	   4	91.4	119.9	 738	inefficient
2425	   4	89.4	119.1	 721	inefficient
2426	   4	91.1	117.5	 736	inefficient
2427	   4	93.1	120.1	 724	inefficient
2428	   4	93.5	122.1	 729	inefficient
2429	   4	90.2	118.3	 749	inefficient
2430	   4	89.7	117.4	 733	inefficient
2431	   4	89.3	117.0	 740	inefficient
2432	   4	90.4	119.1	 731	inefficient
2433	   4	90.6	118.1	 719	inefficient
2434	   4	88.1	116.0	 739	inefficient
2435	   4	87.0	117.1	 737	inefficient
2436	   4	85.3	114.4	 750	inefficient
2437	   4	87.3	117.4	 740	inefficient
2438	   4	89.0	116.7	 729	inefficient
2439	   4	85.8	113.3	 729	inefficient
2440	   4	86.3	115.0	 745	inefficient
2441	   4	88.4	117.6	 725	inefficient
2442	   4	87.4	115.0	 728	inefficient
2443	   4	84.7	114.4	 737	inefficient
2444	   4	87.5	116.0	 738	inefficient
2445	   4	88.3	117.8	 744	inefficient
2446	   4	89.3	118.1	 750	inefficient
2447	   4	90.2	117.6	 737	inefficient
2448	   4	85.7	116.1	 761	inefficient
2449	   4	85.5	114.5	 739	inefficient
2450	   4	91.0	120.0	 752	inefficient
2451	   4	88.4	116.4	 739	inefficient
2452	   4	87.0	116.1	 720	inefficient
2453	   4	86.8	116.9	 736	inefficient
2454	   4	86.8	115.4	 725	inefficient
2455	   4	85.0	113.0	 748	inefficient
2456	   4	88.9	115.9	 741	inefficient
2457	   4	90.6	117.7	 729	inefficient
2458	   4	87.1	117.6	 744	inefficient
2459	   4	86.0	113.5	 750	inefficient
2460	   4	88.3	118.6	 717	inefficient
2461	   4	84.0	113.2	 743	inefficient
2462	   4	89.2	118.1	 741	inefficient
2463	   4	87.0	116.7	 742	inefficient
2464	   4	86.3	116.4	 729	inefficient
2465	   4	88.9	115.8	 739	inefficient
2466	   4	86.1	114.6	 747	inefficient
2467	   4	86.8	115.9	 746	inefficient
2468	   4	85.4	113.6	 731	inefficient
2469	   4	88.2	114.7	 737	inefficient
2470	   4	85.5	112.7	 750	inefficient
2471	   4	87.0	117.4	 745	inefficient
2472	   4	88.3	117.6	 740	inefficient
2473	   4	90.2	118.9	 724	inefficient
2474	   4	88.1	118.6	 737	inefficient
2475	   4	86.3	114.7	 738	inefficient
2476	   4	85.0	114.2	 738	inefficient
2477	   4	89.3	118.7	 743	inefficient
2478	   4	88.4	117.5	 755	inefficient
2479	   4	86.1	113.7	 727	inefficient
2480	1004	87.9	120.2	 354	unbonded
2481	   4	89.1	118.6	 740	inefficient
2482	   4	90.0	120.0	 749	inefficient
2483	   4	88.6	117.6	 739	inefficient
2484	   4	84.9	113.6	 736	inefficient
2485	   4	88.7	118.4	 722	inefficient
2486	   4	87.8	115.9	 738	inefficient
2487	   4	86.8	117.2	 742	inefficient
2488	   4	86.9	115.5	 727	inefficient
2489	   4	88.2	118.0	 744	inefficient
2490	   4	84.9	112.0	 734	inefficient
2491	   4	88.1	118.1	 746	inefficient
2492	   4	87.3	115.8	 730	inefficient
2493	   4	87.6	119.1	 744	inefficient
2494	   4	90.1	119.6	 735	inefficient
2495	   4	87.3	117.2	 740	inefficient
2496	   4	90.5	121.7	 730	inefficient
2497	   4	87.7	115.5	 725	inefficient
2498	   4	87.0	116.8	 729	inefficient
2499	   4	89.2	117.3	 719	inefficient
2500	   4	85.7	115.3	 746	inefficient
2501	   4	85.6	116.4	 719	inefficient
2502	   4	87.7	117.5	 711	inefficient
2503	   4	87.0	115.7	 740	inefficient
2504	   4	86.4	116.9	 733	inefficient
2505	   4	90.0	119.9	 737	inefficient
2506	   4	87.1	117.1	 718	inefficient
2507	   4	86.8	116.2	 727	inefficient
2508	   4	88.1	118.8	 729	inefficient
2509	   4	88.2	115.5	 724	inefficient
2510	   4	86.9	116.1	 721	inefficient
2511	   4	92.8	121.1	 726	inefficient
2512	   4	87.1	116.7	 729	inefficient
2513	   4	86.9	115.2	 725	inefficient
2514	   4	88.1	116.8	 716	inefficient
2515	   4	88.0	118.1	 729	inefficient
2516	   4	89.5	118.8	 716	inefficient
2517	   4	87.6	117.1	 725	inefficient
2518	   4	87.8	115.1	 717	inefficient
2519	   4	89.4	120.3	 720	inefficient
2520	   4	88.4	117.9	 717	inefficient
2521	1004	90.2	123.7	 341	unbonded
2522	   4	89.5	120.2	 720	inefficient
2523	   4	87.8	115.5	 738	inefficient
2524	   4	88.0	119.3	 731	inefficient
2525	   4	87.2	116.2	 732	inefficient
2526	   4	86.9	115.8	 729	inefficient
2527	   4	90.3	117.6	 716	inefficient
2528	   4	89.6	118.4	 715	inefficient
2529	   4	87.5	117.2	 727	inefficient
2530	   4	91.3	122.2	 729	inefficient
2531	   4	90.9	119.9	 725	inefficient
2532	   4	87.5	115.6	 710	inefficient
2533	   4	86.3	114.5	 721	inefficient
2534	   4	89.8	118.5	 710	inefficient
2535	   4	87.6	115.3	 726	inefficient
2536	   4	88.6	119.3	 733	inefficient
2537	   4	87.2	117.9	 720	inefficient
2538	   4	88.4	117.1	 736	inefficient
2539	   4	89.1	120.6	 703	inefficient
2540	   4	87.0	115.5	 715	inefficient
2541	   4	89.9	118.9	 715	inefficient
2542	   4	89.4	117.8	 722	inefficient
2543	   4	84.6	114.5	 731	inefficient
2544	   4	90.3	118.6	 734	inefficient
2545	   4	84.3	114.5	 719	inefficient
2546	   4	89.9	120.2	 711	inefficient
2547	   4	89.7	117.7	 734	inefficient
2548	   4	89.0	117.3	 712	inefficient
2549	   4	90.6	120.4	 719	inefficient
2550	   4	86.6	114.8	 699	inefficient
2551	   4	89.3	120.1	 724	inefficient
2552	   4	88.1	116.9	 710	inefficient
2553	   4	84.6	114.8	 715	inefficient
2554	   4	89.5	118.1	 718	inefficient
2555	   4	89.7	120.0	 712	inefficient
2556	   4	86.2	114.5	 728	inefficient
2557	   4	88.8	119.5	 716	inefficient
2558	   4	89.8	120.3	 711	inefficient
2559	   4	90.4	118.7	 694	inefficient
