#
%NewTest
#
SERIAL NUMBER  : BNL-PP2-MLS-008
TEST MADE BY   : op
LOCATION NAME  : BNL_4MODULEBOX
Run number     : 638-8
TEST_DATE      : 31/12/2019
PASSED         : YES
PROBLEM        : NO
#
%DAQ_INFO
#
#HOST
"localhost"
#VERSION
"3.43"
#DUT
"Star_Test 	#AMAC 0 ComID 0 HCC "
#TIME
"10:15:56"
#
%DCS_INFO
#
#T0	T1
. 	. 	
#VDET	IDET
. 	. 	
#VCC	ICC
. 	. 	
#VDD	IDD
. 	. 	
#TIME_POWERED
. 
#
%StrobeDelay
#
#DELAY
#  M00  S01  S02  S03  S04  S05  S06  S07  S08  E09
22 18 17 18 20 18 19 21 22 23 -1 -1 -1 -1 -1 -1 
#
#  M00  S01  S02  S03  S04  S05  S06  S07  S08  E09
22 18 18 18 21 18 19 21 22 23 -1 -1 -1 -1 -1 -1 
#
#No defects found!
%Comment
COMMENT        : Strobe Delay Fraction 0.57
#
#
%NewTest
#
SERIAL NUMBER  : BNL-PP2-MLS-008
TEST MADE BY   : op
LOCATION NAME  : BNL_4MODULEBOX
Run number     : 638-9
TEST_DATE      : 31/12/2019
PASSED         : NO
PROBLEM        : NO
#
%DAQ_INFO
#
#HOST
"localhost"
#VERSION
"3.43"
#DUT
"Star_Test 	#AMAC 0 ComID 0 HCC "
#TIME
"10:22:16"
#
%DCS_INFO
#
#T0	T1
. 	. 	
#VDET	IDET
. 	. 	
#VCC	ICC
. 	. 	
#VDD	IDD
. 	. 	
#TIME_POWERED
. 
#
#
%SCAN_INFO
#
#POINT_TYPE
"QCAL (fC)"
#N_POINTS
3
#POINTS
0.50 	1.00 	1.50 	
#
#
%ThreePointGain
#
#Loop A - Fit
#	func	p0	p1	p2
#M00
	4 	17.95 	-27.52 	0.00
#S01
	4 	17.88 	-27.29 	0.00
#S02
	4 	17.97 	-27.57 	0.00
#S03
	4 	17.92 	-27.42 	0.00
#S04
	4 	17.91 	-27.38 	0.00
#S05
	4 	17.76 	-26.92 	0.00
#S06
	4 	17.80 	-27.04 	0.00
#S07
	4 	17.89 	-27.33 	0.00
#S08
	4 	17.97 	-27.57 	0.00
#E09
	4 	17.87 	-27.27 	0.00
#M00
	4 	17.94 	-27.47 	0.00
#S01
	4 	17.88 	-27.29 	0.00
#S02
	4 	17.93 	-27.44 	0.00
#S03
	4 	17.89 	-27.33 	0.00
#S04
	4 	17.88 	-27.29 	0.00
#S05
	4 	17.75 	-26.89 	0.00
#S06
	4 	17.78 	-26.99 	0.00
#S07
	4 	17.86 	-27.24 	0.00
#S08
	4 	17.92 	-27.42 	0.00
#E09
	4 	17.83 	-27.15 	0.00
#
#Loop B - Gain, Offset, Noise at 1.00fC
#	vt50 	rms  	gain	rms 	offset	rms  	outnse	innse	rms
#M00
	###    Too many defects in this chip!    ###
#S01
	###    Too many defects in this chip!    ###
#S02
	###    Too many defects in this chip!    ###
#S03
	###    Too many defects in this chip!    ###
#S04
	###    Too many defects in this chip!    ###
#S05
	###    Too many defects in this chip!    ###
#S06
	###    Too many defects in this chip!    ###
#S07
	###    Too many defects in this chip!    ###
#S08
	###    Too many defects in this chip!    ###
#E09
	###    Too many defects in this chip!    ###
#M00
	###    Too many defects in this chip!    ###
#S01
	###    Too many defects in this chip!    ###
#S02
	###    Too many defects in this chip!    ###
#S03
	###    Too many defects in this chip!    ###
#S04
	###    Too many defects in this chip!    ###
#S05
	###    Too many defects in this chip!    ###
#S06
	###    Too many defects in this chip!    ###
#S07
	###    Too many defects in this chip!    ###
#S08
	###    Too many defects in this chip!    ###
#E09
	###    Too many defects in this chip!    ###
#
#Loop C - Comment
#  M00  S01  S02  S03  S04  S05  S06  S07  S08  E09
"low gain" 	"low gain" 	"low gain" 	"low gain" 	"low gain" 	"low gain" 	"low gain" 	"low gain" 	"low gain" 	"low gain" 	
#  M00  S01  S02  S03  S04  S05  S06  S07  S08  E09
"low gain" 	"low gain" 	"low gain" 	"low gain" 	"low gain" 	"low gain" 	"low gain" 	"low gain" 	"low gain" 	"low gain" 	
#BadChannelSummary - not for the database
#  at 1.00fC
#		lost	dodgy	dead	stuck	ineff	unbon	lo_gn	hi_gn	lo_off	hi_off	partbon	hi_nse
#Chip M00:	  0	128	  0	  0	128	  0	  0	  0	  0	  0	  0	  0
#Chip S01:	  0	128	  0	  0	128	  0	  0	  0	  0	  0	  0	  0
#Chip S02:	  0	128	  0	  0	128	  0	  0	  0	  0	  0	  0	  0
#Chip S03:	  0	128	  0	  0	128	  0	  0	  0	  0	  0	  0	  0
#Chip S04:	  0	128	  0	  0	128	  0	  0	  0	  0	  0	  0	  0
#Chip S05:	  0	128	  0	  0	128	  0	  0	  0	  0	  0	  0	  0
#Chip S06:	  0	128	  0	  0	128	  0	  0	  0	  0	  0	  0	  0
#Chip S07:	  0	128	  0	  0	128	  0	  0	  0	  0	  0	  0	  0
#Chip S08:	  0	128	  0	  0	128	  0	  0	  0	  0	  0	  0	  0
#Chip E09:	  0	128	  0	  0	128	  0	  0	  0	  0	  0	  0	  0
#Chip M00:	  2	128	  0	  0	128	  2	  0	  0	  0	  0	  0	  0
#Chip S01:	  2	128	  0	  0	128	  2	  0	  0	  0	  0	  0	  0
#Chip S02:	  2	128	  0	  0	128	  2	  0	  0	  0	  0	  0	  0
#Chip S03:	  2	128	  0	  0	128	  2	  0	  0	  0	  0	  0	  0
#Chip S04:	  2	128	  0	  0	128	  2	  0	  0	  0	  0	  0	  0
#Chip S05:	  2	128	  0	  0	128	  2	  0	  0	  0	  0	  0	  0
#Chip S06:	  2	128	  0	  0	128	  2	  0	  0	  0	  0	  0	  0
#Chip S07:	  2	128	  0	  0	128	  2	  0	  0	  0	  0	  0	  0
#Chip S08:	  2	128	  0	  0	128	  2	  0	  0	  0	  0	  0	  0
#Chip E09:	  2	128	  0	  0	128	  2	  0	  0	  0	  0	  0	  0
#Link 0:	  0	1280	  0	  0	1280	  0	  0	  0	  0	  0	  0	  0
#Link 1:	 20	1280	  0	  0	1280	 20	  0	  0	  0	  0	  0	  0
#Link 2:	 20	2560	  0	  0	2560	 20	  0	  0	  0	  0	  0	  0
%Defect
DEFECT NAME    : UNBONDED
FIRST CHANNEL  : 1328
LAST CHANNEL   : 1328
#
%Defect
DEFECT NAME    : UNBONDED
FIRST CHANNEL  : 1369
LAST CHANNEL   : 1369
#
%Defect
DEFECT NAME    : UNBONDED
FIRST CHANNEL  : 1456
LAST CHANNEL   : 1456
#
%Defect
DEFECT NAME    : UNBONDED
FIRST CHANNEL  : 1497
LAST CHANNEL   : 1497
#
%Defect
DEFECT NAME    : UNBONDED
FIRST CHANNEL  : 1584
LAST CHANNEL   : 1584
#
%Defect
DEFECT NAME    : UNBONDED
FIRST CHANNEL  : 1625
LAST CHANNEL   : 1625
#
%Defect
DEFECT NAME    : UNBONDED
FIRST CHANNEL  : 1712
LAST CHANNEL   : 1712
#
%Defect
DEFECT NAME    : UNBONDED
FIRST CHANNEL  : 1753
LAST CHANNEL   : 1753
#
%Defect
DEFECT NAME    : UNBONDED
FIRST CHANNEL  : 1840
LAST CHANNEL   : 1840
#
%Defect
DEFECT NAME    : UNBONDED
FIRST CHANNEL  : 1881
LAST CHANNEL   : 1881
#
%Defect
DEFECT NAME    : UNBONDED
FIRST CHANNEL  : 1968
LAST CHANNEL   : 1968
#
%Defect
DEFECT NAME    : UNBONDED
FIRST CHANNEL  : 2009
LAST CHANNEL   : 2009
#
%Defect
DEFECT NAME    : UNBONDED
FIRST CHANNEL  : 2096
LAST CHANNEL   : 2096
#
%Defect
DEFECT NAME    : UNBONDED
FIRST CHANNEL  : 2137
LAST CHANNEL   : 2137
#
%Defect
DEFECT NAME    : UNBONDED
FIRST CHANNEL  : 2224
LAST CHANNEL   : 2224
#
%Defect
DEFECT NAME    : UNBONDED
FIRST CHANNEL  : 2265
LAST CHANNEL   : 2265
#
%Defect
DEFECT NAME    : UNBONDED
FIRST CHANNEL  : 2352
LAST CHANNEL   : 2352
#
%Defect
DEFECT NAME    : UNBONDED
FIRST CHANNEL  : 2393
LAST CHANNEL   : 2393
#
%Defect
DEFECT NAME    : UNBONDED
FIRST CHANNEL  : 2480
LAST CHANNEL   : 2480
#
%Defect
DEFECT NAME    : UNBONDED
FIRST CHANNEL  : 2521
LAST CHANNEL   : 2521
#
#20 defects found affecting 2560 strips
#1280 maximum consecutive defects
%Comment
COMMENT        : SELECT = 0
#
%Comment
COMMENT        : FAIL due to chip M0 low gain
#
%Comment
COMMENT        : FAIL due to chip S1 low gain
#
%Comment
COMMENT        : FAIL due to chip S2 low gain
#
%Comment
COMMENT        : FAIL due to chip S3 low gain
#
%Comment
COMMENT        : FAIL due to chip S4 low gain
#
%Comment
COMMENT        : FAIL due to chip E5 low gain
#
%Comment
COMMENT        : FAIL due to chip S6 low gain
#
%Comment
COMMENT        : FAIL due to chip S7 low gain
#
%Comment
COMMENT        : FAIL due to chip S8 low gain
#
%Comment
COMMENT        : FAIL due to chip S9 low gain
#
%Comment
COMMENT        : FAIL due to chip M8 low gain
#
%Comment
COMMENT        : FAIL due to chip S9 low gain
#
%Comment
COMMENT        : FAIL due to chip S10 low gain
#
%Comment
COMMENT        : FAIL due to chip S11 low gain
#
%Comment
COMMENT        : FAIL due to chip S12 low gain
#
%Comment
COMMENT        : FAIL due to chip E13 low gain
#
%Comment
COMMENT        : FAIL due to chip S14 low gain
#
%Comment
COMMENT        : FAIL due to chip S15 low gain
#
%Comment
COMMENT        : FAIL due to chip S16 low gain
#
%Comment
COMMENT        : FAIL due to chip S17 low gain
#
%Comment
COMMENT        : FAIL due to 2560 bad strips (more than 15)
#
%Comment
COMMENT        : FAIL due to 1280 consecutive bad strips (more than 8)
#
#
%TEST Rawdata
FILENAME       : /home/qcbox/Desktop/stars/itsdaq-sw/DATA/results/BNL-PP2-MLS-008_RC_638_9.txt
#
#
%NewTest
#
SERIAL NUMBER  : BNL-PP2-MLS-008
TEST MADE BY   : op
LOCATION NAME  : BNL_4MODULEBOX
Run number     : 638-12
TEST_DATE      : 31/12/2019
PASSED         : YES
PROBLEM        : YES
#
%DAQ_INFO
#
#HOST
"localhost"
#VERSION
"3.43"
#DUT
"Star_Test 	#AMAC 0 ComID 0 HCC "
#TIME
"10:46:36"
#
%DCS_INFO
#
#T0	T1
. 	. 	
#VDET	IDET
. 	. 	
#VCC	ICC
. 	. 	
#VDD	IDD
. 	. 	
#TIME_POWERED
. 
#
#
%SCAN_INFO
#
#POINT_TYPE
"TrimDAC (bits)"
#N_POINTS
5
#POINTS
0.00 	8.00 	16.00 	24.00 	31.00 	
#
%Trim
#
#TRIM	CHARGE	TYPE	ALGORITHM
	1.0 	2 	0
#(trim whole module)
#
#	range	target	ntrim	vt50	vt50rms	tr_off	off_rms	tr_step	step_rms
#Ch0
	2	26.0	256	 26.0	 0.22	-24.3	 6.1	 0.58	 0.05
#Ch1
	2	26.0	256	 26.0	 0.23	-24.1	 7.2	 0.56	 0.05
#Ch2
	2	26.0	256	 26.0	 0.22	-24.7	 5.1	 0.59	 0.05
#Ch3
	2	26.0	256	 26.0	 0.22	-24.7	 6.9	 0.56	 0.04
#Ch4
	2	26.0	256	 26.0	 0.22	-24.2	 6.4	 0.57	 0.05
#Ch5
	2	26.0	255	 26.0	 0.20	-24.0	 6.8	 0.53	 0.04
#Ch6
	2	26.0	256	 26.0	 0.23	-20.5	 6.4	 0.57	 0.05
#Ch7
	2	26.0	256	 26.0	 0.22	-22.9	 6.6	 0.58	 0.05
#Ch8
	2	26.0	256	 26.0	 0.24	-22.2	 5.6	 0.59	 0.05
#Ch9
	2	26.0	256	 26.0	 0.23	-22.3	 6.8	 0.57	 0.05
#Ch0
	2	26.0	256	 26.0	 0.22	-24.0	 6.9	 0.58	 0.05
#Ch1
	2	26.0	256	 26.0	 0.24	-23.6	 7.0	 0.57	 0.05
#Ch2
	2	26.0	256	 26.0	 0.21	-24.5	 5.8	 0.59	 0.05
#Ch3
	2	26.0	256	 26.0	 0.23	-23.9	 6.4	 0.56	 0.05
#Ch4
	2	26.0	256	 26.0	 0.22	-25.6	 6.1	 0.57	 0.05
#Ch5
	2	26.0	255	 26.0	 0.21	-22.4	 7.0	 0.54	 0.05
#Ch6
	2	26.0	256	 26.0	 0.25	-20.3	 6.1	 0.57	 0.05
#Ch7
	2	26.0	256	 26.0	 0.23	-22.1	 6.5	 0.59	 0.05
#Ch8
	2	26.0	256	 26.0	 0.24	-22.2	 6.3	 0.58	 0.05
#Ch9
	2	26.0	256	 26.0	 0.24	-22.4	 7.1	 0.57	 0.05
#
%Defect
DEFECT NAME    : TR_RANGE
FIRST CHANNEL  : 0
LAST CHANNEL   : 255
#
%Defect
DEFECT NAME    : TR_RANGE
FIRST CHANNEL  : 256
LAST CHANNEL   : 511
#
%Defect
DEFECT NAME    : TR_RANGE
FIRST CHANNEL  : 512
LAST CHANNEL   : 767
#
%Defect
DEFECT NAME    : TR_RANGE
FIRST CHANNEL  : 768
LAST CHANNEL   : 1023
#
%Defect
DEFECT NAME    : TR_RANGE
FIRST CHANNEL  : 1024
LAST CHANNEL   : 1279
#
%Defect
DEFECT NAME    : TR_RANGE
FIRST CHANNEL  : 1280
LAST CHANNEL   : 1535
#
%Defect
DEFECT NAME    : TR_RANGE
FIRST CHANNEL  : 1536
LAST CHANNEL   : 1791
#
%Defect
DEFECT NAME    : TR_RANGE
FIRST CHANNEL  : 1792
LAST CHANNEL   : 2047
#
%Defect
DEFECT NAME    : TR_RANGE
FIRST CHANNEL  : 2048
LAST CHANNEL   : 2303
#
%Defect
DEFECT NAME    : TR_RANGE
FIRST CHANNEL  : 2304
LAST CHANNEL   : 2559
#
%Defect
DEFECT NAME    : TR_RANGE
FIRST CHANNEL  : 1536
LAST CHANNEL   : 1791
#
%Defect
DEFECT NAME    : TR_RANGE
FIRST CHANNEL  : 1792
LAST CHANNEL   : 2047
#
%Defect
DEFECT NAME    : TR_RANGE
FIRST CHANNEL  : 2048
LAST CHANNEL   : 2303
#
%Defect
DEFECT NAME    : TR_RANGE
FIRST CHANNEL  : 2304
LAST CHANNEL   : 2559
#
%Defect
DEFECT NAME    : TR_RANGE
FIRST CHANNEL  : 2560
LAST CHANNEL   : 2815
#
%Defect
DEFECT NAME    : TR_RANGE
FIRST CHANNEL  : 2816
LAST CHANNEL   : 3071
#
%Defect
DEFECT NAME    : TR_RANGE
FIRST CHANNEL  : 3072
LAST CHANNEL   : 3327
#
%Defect
DEFECT NAME    : TR_RANGE
FIRST CHANNEL  : 3328
LAST CHANNEL   : 3583
#
%Defect
DEFECT NAME    : TR_RANGE
FIRST CHANNEL  : 3584
LAST CHANNEL   : 3839
#
%Defect
DEFECT NAME    : TR_RANGE
FIRST CHANNEL  : 3840
LAST CHANNEL   : 4095
#
%Defect
DEFECT NAME    : TR_NOTRIM
FIRST CHANNEL  : 4815
LAST CHANNEL   : 4815
#
#21 defects found
%Comment
COMMENT        : L0Ch0 TR 2 step 0.83 (ideal 1.74 error 52.31%)
#
%Comment
COMMENT        : L0Ch1 TR 2 step 0.82 (ideal 1.69 error 51.49%)
#
%Comment
COMMENT        : L0Ch2 TR 2 step 0.84 (ideal 1.76 error 52.13%)
#
%Comment
COMMENT        : L0Ch3 TR 2 step 0.81 (ideal 1.67 error 51.68%)
#
%Comment
COMMENT        : L0Ch4 TR 2 step 0.82 (ideal 1.70 error 51.90%)
#
%Comment
COMMENT        : L0Ch5 TR 2 step 0.78 (ideal 1.59 error 50.95%)
#
%Comment
COMMENT        : L0Ch6 TR 2 step 0.83 (ideal 1.70 error 51.15%)
#
%Comment
COMMENT        : L0Ch7 TR 2 step 0.83 (ideal 1.74 error 51.98%)
#
%Comment
COMMENT        : L0Ch8 TR 2 step 0.85 (ideal 1.76 error 51.83%)
#
%Comment
COMMENT        : L0Ch9 TR 2 step 0.83 (ideal 1.71 error 51.67%)
#
%Comment
COMMENT        : L1Ch0 TR 2 step 0.83 (ideal 1.75 error 52.35%)
#
%Comment
COMMENT        : L1Ch1 TR 2 step 0.83 (ideal 1.71 error 51.66%)
#
%Comment
COMMENT        : L1Ch2 TR 2 step 0.84 (ideal 1.76 error 52.02%)
#
%Comment
COMMENT        : L1Ch3 TR 2 step 0.81 (ideal 1.68 error 51.97%)
#
%Comment
COMMENT        : L1Ch4 TR 2 step 0.81 (ideal 1.71 error 52.41%)
#
%Comment
COMMENT        : L1Ch5 TR 2 step 0.79 (ideal 1.62 error 51.26%)
#
%Comment
COMMENT        : L1Ch6 TR 2 step 0.83 (ideal 1.72 error 51.45%)
#
%Comment
COMMENT        : L1Ch7 TR 2 step 0.84 (ideal 1.76 error 52.20%)
#
%Comment
COMMENT        : L1Ch8 TR 2 step 0.84 (ideal 1.75 error 52.10%)
#
%Comment
COMMENT        : L1Ch9 TR 2 step 0.82 (ideal 1.70 error 51.45%)
#
#
%TEST Rawdata
FILENAME       : /home/qcbox/Desktop/stars/itsdaq-sw/DATA/results/BNL-PP2-MLS-008_tr2_20191231.trim
#
#
%NewTest
#
SERIAL NUMBER  : BNL-PP2-MLS-008
TEST MADE BY   : op
LOCATION NAME  : BNL_4MODULEBOX
Run number     : 638-17
TEST_DATE      : 31/12/2019
PASSED         : NO
PROBLEM        : NO
#
%DAQ_INFO
#
#HOST
"localhost"
#VERSION
"3.43"
#DUT
"Star_Test 	#AMAC 0 ComID 0 HCC "
#TIME
"10:48:23"
#
%DCS_INFO
#
#T0	T1
. 	. 	
#VDET	IDET
. 	. 	
#VCC	ICC
. 	. 	
#VDD	IDD
. 	. 	
#TIME_POWERED
. 
#
#
%SCAN_INFO
#
#POINT_TYPE
"TrimDAC (bits)"
#N_POINTS
5
#POINTS
0.00 	8.00 	16.00 	24.00 	31.00 	
#
%Trim
#
#TRIM	CHARGE	TYPE	ALGORITHM
	1.0 	4 	0
#(trim whole module)
#
#	range	target	ntrim	vt50	vt50rms	tr_off	off_rms	tr_step	step_rms
#Ch0
	4	28.0	256	 28.0	 0.25	-20.7	 5.1	 0.70	 0.05
#Ch1
	4	28.0	256	 28.0	 0.26	-20.3	 5.8	 0.69	 0.04
#Ch2
	4	28.0	256	 28.0	 0.25	-21.1	 4.3	 0.71	 0.05
#Ch3
	4	28.0	256	 28.0	 0.26	-20.9	 5.8	 0.68	 0.05
#Ch4
	4	28.0	256	 28.0	 0.28	-20.6	 5.3	 0.69	 0.05
#Ch5
	4	28.0	256	 28.0	 0.27	-20.3	 5.6	 0.65	 0.05
#Ch6
	4	28.0	256	 28.0	 0.29	-17.5	 5.3	 0.69	 0.05
#Ch7
	4	28.0	256	 28.0	 0.27	-19.6	 5.4	 0.70	 0.05
#Ch8
	4	28.0	256	 28.0	 0.24	-19.2	 5.1	 0.71	 0.05
#Ch9
	4	28.0	256	 28.0	 0.26	-19.1	 5.6	 0.69	 0.05
#Ch0
	4	28.0	256	 28.0	 0.27	-20.6	 5.8	 0.70	 0.06
#Ch1
	4	28.0	256	 28.0	 0.27	-20.0	 5.7	 0.70	 0.05
#Ch2
	4	28.0	256	 28.0	 0.25	-20.8	 4.9	 0.71	 0.06
#Ch3
	4	28.0	256	 28.0	 0.26	-20.5	 5.4	 0.68	 0.05
#Ch4
	4	28.0	256	 28.0	 0.27	-21.8	 5.0	 0.69	 0.05
#Ch5
	4	28.0	256	 28.0	 0.27	-18.8	 5.9	 0.66	 0.05
#Ch6
	4	28.0	256	 27.9	 0.29	-17.4	 5.0	 0.70	 0.05
#Ch7
	4	28.0	256	 28.0	 0.26	-19.0	 5.4	 0.71	 0.05
#Ch8
	4	28.0	256	 28.0	 0.26	-18.9	 5.3	 0.71	 0.05
#Ch9
	4	28.0	256	 28.0	 0.26	-19.1	 5.9	 0.69	 0.05
#
#No defects found!
#
%TEST Rawdata
FILENAME       : /home/qcbox/Desktop/stars/itsdaq-sw/DATA/results/BNL-PP2-MLS-008_tr4_20191231.trim
#
#
%NewTest
#
SERIAL NUMBER  : BNL-PP2-MLS-008
TEST MADE BY   : op
LOCATION NAME  : BNL_4MODULEBOX
Run number     : 638-22
TEST_DATE      : 31/12/2019
PASSED         : NO
PROBLEM        : NO
#
%DAQ_INFO
#
#HOST
"localhost"
#VERSION
"3.43"
#DUT
"Star_Test 	#AMAC 0 ComID 0 HCC "
#TIME
"10:50:13"
#
%DCS_INFO
#
#T0	T1
. 	. 	
#VDET	IDET
. 	. 	
#VCC	ICC
. 	. 	
#VDD	IDD
. 	. 	
#TIME_POWERED
. 
#
#
%SCAN_INFO
#
#POINT_TYPE
"TrimDAC (bits)"
#N_POINTS
5
#POINTS
0.00 	8.00 	16.00 	24.00 	31.00 	
#
%Trim
#
#TRIM	CHARGE	TYPE	ALGORITHM
	1.0 	6 	0
#(trim whole module)
#
#	range	target	ntrim	vt50	vt50rms	tr_off	off_rms	tr_step	step_rms
#Ch0
	6	34.0	256	 34.0	 0.32	-18.1	 4.4	 0.83	 0.05
#Ch1
	6	34.0	256	 34.0	 0.31	-17.7	 5.1	 0.82	 0.05
#Ch2
	6	34.0	256	 34.0	 0.33	-18.4	 3.7	 0.84	 0.06
#Ch3
	6	34.0	256	 34.0	 0.31	-18.2	 4.9	 0.81	 0.06
#Ch4
	6	34.0	256	 34.0	 0.34	-17.9	 4.5	 0.82	 0.06
#Ch5
	6	34.0	256	 33.9	 0.31	-17.6	 4.8	 0.78	 0.05
#Ch6
	6	34.0	256	 34.0	 0.33	-15.0	 4.5	 0.83	 0.06
#Ch7
	6	34.0	256	 34.0	 0.32	-17.0	 4.6	 0.83	 0.06
#Ch8
	6	34.0	256	 34.0	 0.32	-16.6	 4.2	 0.85	 0.05
#Ch9
	6	34.0	256	 34.0	 0.30	-16.5	 4.8	 0.83	 0.06
#Ch0
	6	34.0	256	 34.0	 0.32	-17.9	 4.9	 0.83	 0.06
#Ch1
	6	34.0	256	 34.0	 0.29	-17.4	 5.0	 0.83	 0.06
#Ch2
	6	34.0	256	 34.0	 0.33	-18.2	 4.1	 0.84	 0.06
#Ch3
	6	34.0	256	 34.0	 0.30	-17.7	 4.6	 0.81	 0.06
#Ch4
	6	34.0	256	 34.0	 0.35	-19.1	 4.4	 0.81	 0.06
#Ch5
	6	34.0	256	 34.0	 0.32	-16.3	 5.1	 0.79	 0.05
#Ch6
	6	34.0	256	 34.0	 0.34	-15.0	 4.3	 0.83	 0.06
#Ch7
	6	34.0	256	 34.0	 0.32	-16.5	 4.6	 0.84	 0.06
#Ch8
	6	34.0	256	 34.0	 0.33	-16.5	 4.5	 0.84	 0.06
#Ch9
	6	34.0	256	 34.0	 0.32	-16.5	 5.0	 0.82	 0.06
#
#No defects found!
#
%TEST Rawdata
FILENAME       : /home/qcbox/Desktop/stars/itsdaq-sw/DATA/results/BNL-PP2-MLS-008_tr6_20191231.trim
#
#
%NewTest
#
SERIAL NUMBER  : BNL-PP2-MLS-008
TEST MADE BY   : op
LOCATION NAME  : BNL_4MODULEBOX
Run number     : 638-27
TEST_DATE      : 31/12/2019
PASSED         : NO
PROBLEM        : NO
#
%DAQ_INFO
#
#HOST
"localhost"
#VERSION
"3.43"
#DUT
"Star_Test 	#AMAC 0 ComID 0 HCC "
#TIME
"10:52:07"
#
%DCS_INFO
#
#T0	T1
. 	. 	
#VDET	IDET
. 	. 	
#VCC	ICC
. 	. 	
#VDD	IDD
. 	. 	
#TIME_POWERED
. 
#
#
%SCAN_INFO
#
#POINT_TYPE
"TrimDAC (bits)"
#N_POINTS
5
#POINTS
0.00 	8.00 	16.00 	24.00 	31.00 	
#
%Trim
#
#TRIM	CHARGE	TYPE	ALGORITHM
	1.0 	8 	0
#(trim whole module)
#
#	range	target	ntrim	vt50	vt50rms	tr_off	off_rms	tr_step	step_rms
#Ch0
	8	39.0	256	 39.0	 0.35	-15.9	 3.6	 0.97	 0.06
#Ch1
	8	39.0	256	 39.0	 0.39	-15.6	 4.3	 0.96	 0.06
#Ch2
	8	39.0	256	 39.0	 0.37	-16.2	 3.0	 0.98	 0.06
#Ch3
	8	39.0	256	 39.0	 0.36	-16.1	 4.1	 0.94	 0.06
#Ch4
	8	39.0	256	 39.0	 0.35	-15.8	 3.8	 0.96	 0.06
#Ch5
	8	39.0	256	 39.0	 0.39	-15.6	 4.0	 0.91	 0.06
#Ch6
	8	39.0	256	 39.0	 0.37	-13.5	 3.8	 0.96	 0.05
#Ch7
	8	39.0	256	 39.0	 0.36	-15.1	 4.0	 0.97	 0.06
#Ch8
	8	39.0	256	 39.0	 0.38	-14.7	 3.5	 0.99	 0.06
#Ch9
	8	39.0	256	 39.0	 0.36	-14.6	 3.9	 0.96	 0.06
#Ch0
	8	39.0	256	 39.1	 0.37	-15.8	 4.0	 0.97	 0.06
#Ch1
	8	39.0	256	 39.0	 0.39	-15.4	 4.2	 0.96	 0.06
#Ch2
	8	39.0	256	 39.0	 0.38	-16.0	 3.5	 0.98	 0.06
#Ch3
	8	39.0	256	 39.0	 0.36	-15.7	 3.9	 0.94	 0.06
#Ch4
	8	39.0	256	 39.0	 0.37	-16.8	 3.5	 0.95	 0.06
#Ch5
	8	39.0	256	 39.0	 0.38	-14.5	 4.3	 0.92	 0.06
#Ch6
	8	39.0	256	 39.0	 0.38	-13.4	 3.7	 0.97	 0.06
#Ch7
	8	39.0	256	 38.9	 0.36	-14.6	 3.9	 0.98	 0.06
#Ch8
	8	39.0	256	 39.0	 0.38	-14.6	 3.8	 0.98	 0.06
#Ch9
	8	39.0	256	 39.0	 0.39	-14.7	 4.2	 0.95	 0.06
#
#No defects found!
#
%TEST Rawdata
FILENAME       : /home/qcbox/Desktop/stars/itsdaq-sw/DATA/results/BNL-PP2-MLS-008_tr8_20191231.trim
#
#
%NewTest
#
SERIAL NUMBER  : BNL-PP2-MLS-008
TEST MADE BY   : op
LOCATION NAME  : BNL_4MODULEBOX
Run number     : 638-12
TEST_DATE      : 31/12/2019
PASSED         : NO
PROBLEM        : NO
#
%DAQ_INFO
#
#HOST
"localhost"
#VERSION
"3.43"
#DUT
"Star_Test 	#AMAC 0 ComID 0 HCC "
#TIME
"10:46:36"
#
%DCS_INFO
#
#T0	T1
. 	. 	
#VDET	IDET
. 	. 	
#VCC	ICC
. 	. 	
#VDD	IDD
. 	. 	
#TIME_POWERED
. 
#
#
%Trim
#
#TRIM	CHARGE	TYPE	ALGORITHM
	1.0 	-1 	0
#(trim whole module)
#
#	range	target	ntrim	vt50	vt50rms	tr_off	off_rms	tr_step	step_rms
#Ch0
	2	25.0	256	 25.0	 0.24	-24.3	 6.1	 0.58	 0.05
#Ch1
	2	25.0	255	 25.0	 0.22	-24.1	 7.2	 0.56	 0.05
#Ch2
	2	25.0	256	 25.0	 0.22	-24.7	 5.1	 0.59	 0.05
#Ch3
	2	25.0	256	 25.0	 0.23	-24.7	 6.9	 0.56	 0.04
#Ch4
	2	25.0	256	 25.0	 0.21	-24.2	 6.4	 0.57	 0.05
#Ch5
	4	25.0	256	 25.0	 0.25	-20.3	 5.6	 0.65	 0.05
#Ch6
	2	25.0	256	 25.0	 0.23	-20.5	 6.4	 0.57	 0.05
#Ch7
	2	25.0	256	 25.0	 0.23	-22.9	 6.6	 0.58	 0.05
#Ch8
	2	25.0	255	 25.0	 0.23	-22.2	 5.6	 0.59	 0.05
#Ch9
	2	25.0	256	 25.0	 0.22	-22.3	 6.8	 0.57	 0.05
#Ch0
	2	25.0	256	 25.0	 0.21	-24.0	 6.9	 0.58	 0.05
#Ch1
	2	25.0	255	 25.0	 0.24	-23.6	 7.0	 0.57	 0.05
#Ch2
	2	25.0	256	 25.0	 0.22	-24.5	 5.8	 0.59	 0.05
#Ch3
	2	25.0	256	 25.0	 0.22	-23.9	 6.4	 0.56	 0.05
#Ch4
	2	25.0	256	 25.0	 0.20	-25.6	 6.1	 0.57	 0.05
#Ch5
	4	25.0	256	 25.0	 0.25	-18.8	 5.9	 0.66	 0.05
#Ch6
	2	25.0	256	 24.9	 0.22	-20.3	 6.1	 0.57	 0.05
#Ch7
	2	25.0	256	 25.0	 0.23	-22.1	 6.5	 0.59	 0.05
#Ch8
	2	25.0	255	 25.0	 0.22	-22.2	 6.3	 0.58	 0.05
#Ch9
	2	25.0	256	 25.0	 0.21	-22.4	 7.1	 0.57	 0.05
#
%Defect
DEFECT NAME    : TR_RANGE
FIRST CHANNEL  : 0
LAST CHANNEL   : 255
#
%Defect
DEFECT NAME    : TR_RANGE
FIRST CHANNEL  : 256
LAST CHANNEL   : 511
#
%Defect
DEFECT NAME    : TR_RANGE
FIRST CHANNEL  : 512
LAST CHANNEL   : 767
#
%Defect
DEFECT NAME    : TR_RANGE
FIRST CHANNEL  : 768
LAST CHANNEL   : 1023
#
%Defect
DEFECT NAME    : TR_RANGE
FIRST CHANNEL  : 1024
LAST CHANNEL   : 1279
#
%Defect
DEFECT NAME    : TR_RANGE
FIRST CHANNEL  : 1536
LAST CHANNEL   : 1791
#
%Defect
DEFECT NAME    : TR_RANGE
FIRST CHANNEL  : 1792
LAST CHANNEL   : 2047
#
%Defect
DEFECT NAME    : TR_RANGE
FIRST CHANNEL  : 2048
LAST CHANNEL   : 2303
#
%Defect
DEFECT NAME    : TR_RANGE
FIRST CHANNEL  : 2304
LAST CHANNEL   : 2559
#
%Defect
DEFECT NAME    : TR_RANGE
FIRST CHANNEL  : 1536
LAST CHANNEL   : 1791
#
%Defect
DEFECT NAME    : TR_RANGE
FIRST CHANNEL  : 1792
LAST CHANNEL   : 2047
#
%Defect
DEFECT NAME    : TR_RANGE
FIRST CHANNEL  : 2048
LAST CHANNEL   : 2303
#
%Defect
DEFECT NAME    : TR_RANGE
FIRST CHANNEL  : 2304
LAST CHANNEL   : 2559
#
%Defect
DEFECT NAME    : TR_RANGE
FIRST CHANNEL  : 2560
LAST CHANNEL   : 2815
#
%Defect
DEFECT NAME    : TR_RANGE
FIRST CHANNEL  : 3072
LAST CHANNEL   : 3327
#
%Defect
DEFECT NAME    : TR_RANGE
FIRST CHANNEL  : 3328
LAST CHANNEL   : 3583
#
%Defect
DEFECT NAME    : TR_RANGE
FIRST CHANNEL  : 3584
LAST CHANNEL   : 3839
#
%Defect
DEFECT NAME    : TR_RANGE
FIRST CHANNEL  : 3840
LAST CHANNEL   : 4095
#
%Defect
DEFECT NAME    : TR_NOTRIM
FIRST CHANNEL  : 217
LAST CHANNEL   : 217
#
%Defect
DEFECT NAME    : TR_NOTRIM
FIRST CHANNEL  : 5167
LAST CHANNEL   : 5167
#
#20 defects found
%Comment
COMMENT        : L0Ch0 TR 2 step 0.83 (ideal 1.74 error 52.31%)
#
%Comment
COMMENT        : L0Ch1 TR 2 step 0.82 (ideal 1.69 error 51.49%)
#
%Comment
COMMENT        : L0Ch2 TR 2 step 0.84 (ideal 1.76 error 52.13%)
#
%Comment
COMMENT        : L0Ch3 TR 2 step 0.81 (ideal 1.67 error 51.68%)
#
%Comment
COMMENT        : L0Ch4 TR 2 step 0.82 (ideal 1.70 error 51.90%)
#
%Comment
COMMENT        : L0Ch6 TR 2 step 0.83 (ideal 1.70 error 51.15%)
#
%Comment
COMMENT        : L0Ch7 TR 2 step 0.83 (ideal 1.74 error 51.98%)
#
%Comment
COMMENT        : L0Ch8 TR 2 step 0.85 (ideal 1.76 error 51.83%)
#
%Comment
COMMENT        : L0Ch9 TR 2 step 0.83 (ideal 1.71 error 51.67%)
#
%Comment
COMMENT        : L1Ch0 TR 2 step 0.83 (ideal 1.75 error 52.35%)
#
%Comment
COMMENT        : L1Ch1 TR 2 step 0.83 (ideal 1.71 error 51.66%)
#
%Comment
COMMENT        : L1Ch2 TR 2 step 0.84 (ideal 1.76 error 52.02%)
#
%Comment
COMMENT        : L1Ch3 TR 2 step 0.81 (ideal 1.68 error 51.97%)
#
%Comment
COMMENT        : L1Ch4 TR 2 step 0.81 (ideal 1.71 error 52.41%)
#
%Comment
COMMENT        : L1Ch6 TR 2 step 0.83 (ideal 1.72 error 51.45%)
#
%Comment
COMMENT        : L1Ch7 TR 2 step 0.84 (ideal 1.76 error 52.20%)
#
%Comment
COMMENT        : L1Ch8 TR 2 step 0.84 (ideal 1.75 error 52.10%)
#
%Comment
COMMENT        : L1Ch9 TR 2 step 0.82 (ideal 1.70 error 51.45%)
#
#
%TEST Rawdata
FILENAME       : /home/qcbox/Desktop/stars/itsdaq-sw/DATA/results/BNL-PP2-MLS-008_tr-1_20191231.trim
#
#
%NewTest
#
SERIAL NUMBER  : BNL-PP2-MLS-008
TEST MADE BY   : op
LOCATION NAME  : BNL_4MODULEBOX
Run number     : 638-33
TEST_DATE      : 31/12/2019
PASSED         : YES
PROBLEM        : NO
#
%DAQ_INFO
#
#HOST
"localhost"
#VERSION
"3.43"
#DUT
"Star_Test 	#AMAC 0 ComID 0 HCC "
#TIME
"10:56:14"
#
%DCS_INFO
#
#T0	T1
. 	. 	
#VDET	IDET
. 	. 	
#VCC	ICC
. 	. 	
#VDD	IDD
. 	. 	
#TIME_POWERED
. 
#
%StrobeDelay
#
#DELAY
#  M00  S01  S02  S03  S04  S05  S06  S07  S08  E09
23 19 19 19 22 19 20 22 23 24 -1 -1 -1 -1 -1 -1 
#
#  M00  S01  S02  S03  S04  S05  S06  S07  S08  E09
23 19 19 19 22 19 20 22 23 24 -1 -1 -1 -1 -1 -1 
#
#No defects found!
%Comment
COMMENT        : Strobe Delay Fraction 0.57
#
#
%NewTest
#
SERIAL NUMBER  : BNL-PP2-MLS-008
TEST MADE BY   : op
LOCATION NAME  : BNL_4MODULEBOX
Run number     : 638-34
TEST_DATE      : 31/12/2019
PASSED         : NO
PROBLEM        : NO
#
%DAQ_INFO
#
#HOST
"localhost"
#VERSION
"3.43"
#DUT
"Star_Test 	#AMAC 0 ComID 0 HCC "
#TIME
"11:02:53"
#
%DCS_INFO
#
#T0	T1
. 	. 	
#VDET	IDET
. 	. 	
#VCC	ICC
. 	. 	
#VDD	IDD
. 	. 	
#TIME_POWERED
. 
#
#
%SCAN_INFO
#
#POINT_TYPE
"QCAL (fC)"
#N_POINTS
3
#POINTS
0.50 	1.00 	1.50 	
#
#
%ThreePointGain
#
#Loop A - Fit
#	func	p0	p1	p2
#M00
	4 	30.04 	81.62 	0.00
#S01
	4 	30.14 	79.19 	0.00
#S02
	4 	30.17 	81.23 	0.00
#S03
	4 	30.22 	80.55 	0.00
#S04
	4 	30.51 	80.27 	0.00
#S05
	4 	30.57 	76.42 	0.00
#S06
	4 	30.80 	77.59 	0.00
#S07
	4 	30.43 	80.36 	0.00
#S08
	4 	29.59 	81.48 	0.00
#E09
	4 	30.07 	79.32 	0.00
#M00
	4 	30.65 	81.51 	0.00
#S01
	4 	30.61 	79.17 	0.00
#S02
	4 	30.44 	81.27 	0.00
#S03
	4 	30.86 	80.44 	0.00
#S04
	4 	30.90 	80.27 	0.00
#S05
	4 	30.98 	76.54 	0.00
#S06
	4 	30.97 	77.33 	0.00
#S07
	4 	30.86 	79.96 	0.00
#S08
	4 	29.96 	81.08 	0.00
#E09
	4 	30.41 	79.02 	0.00
#
#Loop B - Gain, Offset, Noise at 1.00fC
#	vt50 	rms  	gain	rms 	offset	rms  	outnse	innse	rms
#M00
	110.9 	 1.75 	81.6 	1.44 	 81.6 	 1.44 	11.26 	  862 	  21
#S01
	108.5 	 1.54 	78.6 	7.11 	 78.6 	 7.11 	11.04 	  864 	  78
#S02
	110.6 	 1.96 	81.2 	1.60 	 81.2 	 1.60 	10.81 	  832 	  12
#S03
	110.1 	 1.92 	80.5 	1.70 	 80.5 	 1.70 	11.01 	  855 	  15
#S04
	110.1 	 1.89 	80.3 	1.63 	 80.3 	 1.63 	11.10 	  864 	  19
#S05
	106.2 	 1.52 	76.4 	1.38 	 76.4 	 1.38 	11.32 	  926 	  21
#S06
	107.8 	 1.92 	77.6 	1.76 	 77.6 	 1.76 	11.22 	  904 	  13
#S07
	110.0 	 1.77 	80.3 	1.39 	 80.3 	 1.39 	10.76 	  837 	  24
#S08
	110.2 	 1.95 	81.5 	1.66 	 81.5 	 1.66 	11.24 	  862 	  12
#E09
	108.5 	 1.98 	79.3 	1.51 	 79.3 	 1.51 	11.07 	  873 	  23
#M00
	111.5 	 1.93 	81.5 	1.48 	 81.5 	 1.48 	10.53 	  809 	  59
#S01
	109.0 	 1.97 	78.5 	7.16 	 78.5 	 7.16 	10.34 	  811 	  91
#S02
	111.0 	 1.85 	81.3 	1.55 	 81.3 	 1.55 	10.21 	  785 	  55
#S03
	110.7 	 1.71 	80.4 	1.46 	 80.4 	 1.46 	10.19 	  792 	  54
#S04
	110.5 	 2.29 	80.3 	1.86 	 80.3 	 1.86 	10.04 	  782 	  54
#S05
	106.8 	 1.95 	76.5 	1.66 	 76.5 	 1.66 	10.06 	  822 	  57
#S06
	107.8 	 1.77 	77.3 	1.60 	 77.3 	 1.60 	10.11 	  817 	  57
#S07
	110.1 	 1.89 	79.9 	1.33 	 79.9 	 1.33 	10.14 	  792 	  56
#S08
	110.2 	 2.03 	79.8 	10.18 	 79.8 	10.18 	10.74 	  815 	 119
#E09
	108.6 	 2.16 	79.0 	1.46 	 79.0 	 1.46 	10.47 	  830 	  61
#
#Loop C - Comment
#  M00  S01  S02  S03  S04  S05  S06  S07  S08  E09
"high noise" 	"high noise" 	"high noise" 	"high noise" 	"high noise" 	"high noise" 	"high noise" 	"high noise" 	"high noise" 	"high noise" 	
#  M00  S01  S02  S03  S04  S05  S06  S07  S08  E09
"high noise" 	"high noise" 	"OK" 	"OK" 	"OK" 	"high noise" 	"high noise" 	"OK" 	"high noise" 	"high noise" 	
#BadChannelSummary - not for the database
#  at 1.00fC
#		lost	dodgy	dead	stuck	ineff	unbon	lo_gn	hi_gn	lo_off	hi_off	partbon	hi_nse
#Chip M00:	  0	  0	  0	  0	  0	  0	  0	  0	  0	  0	  0	  0
#Chip S01:	  1	  0	  1	  0	  0	  1	  1	  0	  0	  0	  0	  0
#Chip S02:	  0	  0	  0	  0	  0	  0	  0	  0	  0	  0	  0	  0
#Chip S03:	  0	  0	  0	  0	  0	  0	  0	  0	  0	  0	  0	  0
#Chip S04:	  0	  0	  0	  0	  0	  0	  0	  0	  0	  0	  0	  0
#Chip S05:	  0	  0	  0	  0	  0	  0	  0	  0	  0	  0	  0	  0
#Chip S06:	  0	  0	  0	  0	  0	  0	  0	  0	  0	  0	  0	  0
#Chip S07:	  0	  0	  0	  0	  0	  0	  0	  0	  0	  0	  0	  0
#Chip S08:	  0	  0	  0	  0	  0	  0	  0	  0	  0	  0	  0	  0
#Chip E09:	  0	  0	  0	  0	  0	  0	  0	  0	  0	  0	  0	  0
#Chip M00:	  2	  1	  0	  0	  0	  2	  0	  0	  0	  0	  0	  1
#Chip S01:	  3	  0	  1	  0	  0	  3	  1	  0	  0	  0	  0	  0
#Chip S02:	  2	  0	  0	  0	  0	  2	  0	  0	  0	  0	  0	  0
#Chip S03:	  2	  0	  0	  0	  0	  2	  0	  0	  0	  0	  0	  0
#Chip S04:	  2	  0	  0	  0	  0	  2	  0	  0	  0	  0	  0	  0
#Chip S05:	  2	  0	  0	  0	  0	  2	  0	  0	  0	  0	  0	  0
#Chip S06:	  2	  0	  0	  0	  0	  2	  0	  0	  0	  0	  0	  0
#Chip S07:	  2	  0	  0	  0	  0	  2	  0	  0	  0	  0	  0	  0
#Chip S08:	  4	  0	  2	  0	  0	  4	  2	  0	  0	  0	  0	  0
#Chip E09:	  2	  1	  0	  0	  0	  2	  0	  0	  0	  0	  0	  1
#Link 0:	  1	  0	  1	  0	  0	  1	  1	  0	  0	  0	  0	  0
#Link 1:	 23	  2	  3	  0	  0	 23	  3	  0	  0	  0	  0	  2
#Link 2:	 24	  2	  4	  0	  0	 24	  4	  0	  0	  0	  0	  2
%Defect
DEFECT NAME    : DEAD
FIRST CHANNEL  : 217
LAST CHANNEL   : 217
#
%Defect
DEFECT NAME    : NOISY
FIRST CHANNEL  : 1280
LAST CHANNEL   : 1280
#
%Defect
DEFECT NAME    : UNBONDED
FIRST CHANNEL  : 1328
LAST CHANNEL   : 1328
#
%Defect
DEFECT NAME    : UNBONDED
FIRST CHANNEL  : 1369
LAST CHANNEL   : 1369
#
%Defect
DEFECT NAME    : DEAD
FIRST CHANNEL  : 1452
LAST CHANNEL   : 1452
#
%Defect
DEFECT NAME    : UNBONDED
FIRST CHANNEL  : 1456
LAST CHANNEL   : 1456
#
%Defect
DEFECT NAME    : UNBONDED
FIRST CHANNEL  : 1497
LAST CHANNEL   : 1497
#
%Defect
DEFECT NAME    : UNBONDED
FIRST CHANNEL  : 1584
LAST CHANNEL   : 1584
#
%Defect
DEFECT NAME    : UNBONDED
FIRST CHANNEL  : 1625
LAST CHANNEL   : 1625
#
%Defect
DEFECT NAME    : UNBONDED
FIRST CHANNEL  : 1712
LAST CHANNEL   : 1712
#
%Defect
DEFECT NAME    : UNBONDED
FIRST CHANNEL  : 1753
LAST CHANNEL   : 1753
#
%Defect
DEFECT NAME    : UNBONDED
FIRST CHANNEL  : 1840
LAST CHANNEL   : 1840
#
%Defect
DEFECT NAME    : UNBONDED
FIRST CHANNEL  : 1881
LAST CHANNEL   : 1881
#
%Defect
DEFECT NAME    : UNBONDED
FIRST CHANNEL  : 1968
LAST CHANNEL   : 1968
#
%Defect
DEFECT NAME    : UNBONDED
FIRST CHANNEL  : 2009
LAST CHANNEL   : 2009
#
%Defect
DEFECT NAME    : UNBONDED
FIRST CHANNEL  : 2096
LAST CHANNEL   : 2096
#
%Defect
DEFECT NAME    : UNBONDED
FIRST CHANNEL  : 2137
LAST CHANNEL   : 2137
#
%Defect
DEFECT NAME    : UNBONDED
FIRST CHANNEL  : 2224
LAST CHANNEL   : 2224
#
%Defect
DEFECT NAME    : UNBONDED
FIRST CHANNEL  : 2265
LAST CHANNEL   : 2265
#
%Defect
DEFECT NAME    : DEAD
FIRST CHANNEL  : 2351
LAST CHANNEL   : 2351
#
%Defect
DEFECT NAME    : UNBONDED
FIRST CHANNEL  : 2352
LAST CHANNEL   : 2352
#
%Defect
DEFECT NAME    : DEAD
FIRST CHANNEL  : 2391
LAST CHANNEL   : 2391
#
%Defect
DEFECT NAME    : UNBONDED
FIRST CHANNEL  : 2393
LAST CHANNEL   : 2393
#
%Defect
DEFECT NAME    : UNBONDED
FIRST CHANNEL  : 2480
LAST CHANNEL   : 2480
#
%Defect
DEFECT NAME    : UNBONDED
FIRST CHANNEL  : 2521
LAST CHANNEL   : 2521
#
%Defect
DEFECT NAME    : NOISY
FIRST CHANNEL  : 2559
LAST CHANNEL   : 2559
#
#26 defects found affecting 26 strips
#2 maximum consecutive defects
%Comment
COMMENT        : SELECT = 0
#
%Comment
COMMENT        : FAIL due to 26 bad strips (more than 15)
#
#
%TEST Rawdata
FILENAME       : /home/qcbox/Desktop/stars/itsdaq-sw/DATA/results/BNL-PP2-MLS-008_RC_638_34.txt
#
#
%NewTest
#
SERIAL NUMBER  : BNL-PP2-MLS-008
TEST MADE BY   : op
LOCATION NAME  : BNL_4MODULEBOX
Run number     : 638-37
TEST_DATE      : 31/12/2019
PASSED         : YES
PROBLEM        : YES
#
%DAQ_INFO
#
#HOST
"localhost"
#VERSION
"3.43"
#DUT
"Star_Test 	#AMAC 0 ComID 0 HCC "
#TIME
"11:27:07"
#
%DCS_INFO
#
#T0	T1
. 	. 	
#VDET	IDET
. 	. 	
#VCC	ICC
. 	. 	
#VDD	IDD
. 	. 	
#TIME_POWERED
. 
#
#
%SCAN_INFO
#
#POINT_TYPE
"TrimDAC (bits)"
#N_POINTS
5
#POINTS
0.00 	8.00 	16.00 	24.00 	31.00 	
#
%Trim
#
#TRIM	CHARGE	TYPE	ALGORITHM
	1.0 	2 	0
#(trim whole module)
#
#	range	target	ntrim	vt50	vt50rms	tr_off	off_rms	tr_step	step_rms
#Ch0
	2	25.0	255	 25.0	 0.24	-23.3	 6.4	 0.60	 0.06
#Ch1
	2	25.0	250	 25.0	 0.25	-21.5	 7.2	 0.58	 0.05
#Ch2
	2	25.0	256	 25.0	 0.24	-21.8	 5.6	 0.61	 0.06
#Ch3
	2	25.0	256	 25.0	 0.23	-22.3	 7.6	 0.58	 0.05
#Ch4
	2	25.0	256	 25.0	 0.20	-21.4	 7.0	 0.59	 0.06
#Ch5
	2	25.0	255	 25.0	 0.23	-21.5	 7.5	 0.56	 0.05
#Ch6
	2	25.0	256	 25.0	 0.24	-18.8	 6.9	 0.60	 0.05
#Ch7
	2	25.0	256	 25.0	 0.23	-20.6	 7.0	 0.61	 0.05
#Ch8
	2	25.0	251	 25.0	 0.24	-20.0	 6.3	 0.62	 0.05
#Ch9
	2	25.0	256	 25.0	 0.23	-21.0	 7.1	 0.60	 0.06
#Ch0
	2	25.0	255	 25.0	 0.23	-23.4	 7.5	 0.60	 0.06
#Ch1
	2	25.0	250	 25.0	 0.23	-20.9	 7.7	 0.59	 0.06
#Ch2
	2	25.0	256	 25.0	 0.23	-21.7	 6.5	 0.61	 0.06
#Ch3
	2	25.0	256	 25.0	 0.23	-21.8	 7.0	 0.58	 0.06
#Ch4
	2	25.0	256	 25.0	 0.23	-23.3	 7.0	 0.59	 0.06
#Ch5
	2	25.0	255	 25.0	 0.24	-20.2	 7.3	 0.56	 0.05
#Ch6
	2	25.0	256	 25.0	 0.23	-19.0	 6.6	 0.60	 0.06
#Ch7
	2	25.0	256	 25.0	 0.23	-20.0	 7.0	 0.61	 0.06
#Ch8
	2	25.0	251	 25.0	 0.22	-19.6	 6.4	 0.61	 0.06
#Ch9
	2	25.0	256	 25.0	 0.25	-21.4	 7.6	 0.59	 0.05
#
%Defect
DEFECT NAME    : TR_RANGE
FIRST CHANNEL  : 0
LAST CHANNEL   : 255
#
%Defect
DEFECT NAME    : TR_RANGE
FIRST CHANNEL  : 256
LAST CHANNEL   : 511
#
%Defect
DEFECT NAME    : TR_RANGE
FIRST CHANNEL  : 512
LAST CHANNEL   : 767
#
%Defect
DEFECT NAME    : TR_RANGE
FIRST CHANNEL  : 768
LAST CHANNEL   : 1023
#
%Defect
DEFECT NAME    : TR_RANGE
FIRST CHANNEL  : 1024
LAST CHANNEL   : 1279
#
%Defect
DEFECT NAME    : TR_RANGE
FIRST CHANNEL  : 1280
LAST CHANNEL   : 1535
#
%Defect
DEFECT NAME    : TR_RANGE
FIRST CHANNEL  : 1536
LAST CHANNEL   : 1791
#
%Defect
DEFECT NAME    : TR_RANGE
FIRST CHANNEL  : 1792
LAST CHANNEL   : 2047
#
%Defect
DEFECT NAME    : TR_RANGE
FIRST CHANNEL  : 2048
LAST CHANNEL   : 2303
#
%Defect
DEFECT NAME    : TR_RANGE
FIRST CHANNEL  : 2304
LAST CHANNEL   : 2559
#
%Defect
DEFECT NAME    : TR_RANGE
FIRST CHANNEL  : 1536
LAST CHANNEL   : 1791
#
%Defect
DEFECT NAME    : TR_RANGE
FIRST CHANNEL  : 1792
LAST CHANNEL   : 2047
#
%Defect
DEFECT NAME    : TR_RANGE
FIRST CHANNEL  : 2048
LAST CHANNEL   : 2303
#
%Defect
DEFECT NAME    : TR_RANGE
FIRST CHANNEL  : 2304
LAST CHANNEL   : 2559
#
%Defect
DEFECT NAME    : TR_RANGE
FIRST CHANNEL  : 2560
LAST CHANNEL   : 2815
#
%Defect
DEFECT NAME    : TR_RANGE
FIRST CHANNEL  : 2816
LAST CHANNEL   : 3071
#
%Defect
DEFECT NAME    : TR_RANGE
FIRST CHANNEL  : 3072
LAST CHANNEL   : 3327
#
%Defect
DEFECT NAME    : TR_RANGE
FIRST CHANNEL  : 3328
LAST CHANNEL   : 3583
#
%Defect
DEFECT NAME    : TR_RANGE
FIRST CHANNEL  : 3584
LAST CHANNEL   : 3839
#
%Defect
DEFECT NAME    : TR_RANGE
FIRST CHANNEL  : 3840
LAST CHANNEL   : 4095
#
%Defect
DEFECT NAME    : TR_NOTRIM
FIRST CHANNEL  : 55
LAST CHANNEL   : 55
#
%Defect
DEFECT NAME    : TR_NOTRIM
FIRST CHANNEL  : 220
LAST CHANNEL   : 220
#
%Defect
DEFECT NAME    : TR_NOTRIM
FIRST CHANNEL  : 4815
LAST CHANNEL   : 4815
#
#23 defects found
%Comment
COMMENT        : L0Ch0 TR 2 step 0.87 (ideal 1.81 error 51.87%)
#
%Comment
COMMENT        : L0Ch1 TR 2 step 0.86 (ideal 1.75 error 50.65%)
#
%Comment
COMMENT        : L0Ch2 TR 2 step 0.88 (ideal 1.82 error 51.63%)
#
%Comment
COMMENT        : L0Ch3 TR 2 step 0.86 (ideal 1.74 error 50.80%)
#
%Comment
COMMENT        : L0Ch4 TR 2 step 0.86 (ideal 1.77 error 51.26%)
#
%Comment
COMMENT        : L0Ch5 TR 2 step 0.82 (ideal 1.67 error 50.86%)
#
%Comment
COMMENT        : L0Ch6 TR 2 step 0.88 (ideal 1.81 error 51.51%)
#
%Comment
COMMENT        : L0Ch7 TR 2 step 0.88 (ideal 1.82 error 51.65%)
#
%Comment
COMMENT        : L0Ch8 TR 2 step 0.90 (ideal 1.86 error 51.65%)
#
%Comment
COMMENT        : L0Ch9 TR 2 step 0.87 (ideal 1.81 error 52.09%)
#
%Comment
COMMENT        : L1Ch0 TR 2 step 0.88 (ideal 1.81 error 51.53%)
#
%Comment
COMMENT        : L1Ch1 TR 2 step 0.86 (ideal 1.78 error 51.59%)
#
%Comment
COMMENT        : L1Ch2 TR 2 step 0.88 (ideal 1.83 error 51.78%)
#
%Comment
COMMENT        : L1Ch3 TR 2 step 0.86 (ideal 1.73 error 50.42%)
#
%Comment
COMMENT        : L1Ch4 TR 2 step 0.85 (ideal 1.76 error 51.49%)
#
%Comment
COMMENT        : L1Ch5 TR 2 step 0.83 (ideal 1.68 error 50.61%)
#
%Comment
COMMENT        : L1Ch6 TR 2 step 0.88 (ideal 1.81 error 51.44%)
#
%Comment
COMMENT        : L1Ch7 TR 2 step 0.89 (ideal 1.84 error 51.62%)
#
%Comment
COMMENT        : L1Ch8 TR 2 step 0.89 (ideal 1.84 error 51.76%)
#
%Comment
COMMENT        : L1Ch9 TR 2 step 0.86 (ideal 1.78 error 51.67%)
#
#
%TEST Rawdata
FILENAME       : /home/qcbox/Desktop/stars/itsdaq-sw/DATA/results/BNL-PP2-MLS-008_tr2_20191231.trim
#
#
%NewTest
#
SERIAL NUMBER  : BNL-PP2-MLS-008
TEST MADE BY   : op
LOCATION NAME  : BNL_4MODULEBOX
Run number     : 638-42
TEST_DATE      : 31/12/2019
PASSED         : NO
PROBLEM        : YES
#
%DAQ_INFO
#
#HOST
"localhost"
#VERSION
"3.43"
#DUT
"Star_Test 	#AMAC 0 ComID 0 HCC "
#TIME
"11:29:39"
#
%DCS_INFO
#
#T0	T1
. 	. 	
#VDET	IDET
. 	. 	
#VCC	ICC
. 	. 	
#VDD	IDD
. 	. 	
#TIME_POWERED
. 
#
#
%SCAN_INFO
#
#POINT_TYPE
"TrimDAC (bits)"
#N_POINTS
5
#POINTS
0.00 	8.00 	16.00 	24.00 	31.00 	
#
%Trim
#
#TRIM	CHARGE	TYPE	ALGORITHM
	1.0 	4 	0
#(trim whole module)
#
#	range	target	ntrim	vt50	vt50rms	tr_off	off_rms	tr_step	step_rms
#Ch0
	4	28.0	256	 28.0	 0.26	-20.1	 5.6	 0.73	 0.06
#Ch1
	4	28.0	251	 28.0	 0.29	-18.1	 6.3	 0.71	 0.06
#Ch2
	4	28.0	256	 28.0	 0.27	-18.8	 4.6	 0.73	 0.06
#Ch3
	4	28.0	256	 28.0	 0.30	-18.7	 6.3	 0.71	 0.06
#Ch4
	4	28.0	256	 28.0	 0.28	-18.2	 6.0	 0.72	 0.06
#Ch5
	4	28.0	256	 28.0	 0.27	-18.2	 6.3	 0.68	 0.06
#Ch6
	4	28.0	256	 28.0	 0.28	-16.1	 5.9	 0.73	 0.06
#Ch7
	4	28.0	256	 28.0	 0.29	-17.5	 6.0	 0.74	 0.06
#Ch8
	4	28.0	251	 28.0	 0.28	-17.1	 5.2	 0.75	 0.06
#Ch9
	4	28.0	256	 28.0	 0.29	-18.1	 6.2	 0.72	 0.06
#Ch0
	4	28.0	256	 28.0	 0.27	-20.0	 6.1	 0.73	 0.07
#Ch1
	4	28.0	251	 28.0	 0.26	-18.0	 6.5	 0.71	 0.06
#Ch2
	4	28.0	256	 28.0	 0.28	-18.7	 5.4	 0.73	 0.07
#Ch3
	4	28.0	256	 28.0	 0.27	-18.2	 5.8	 0.71	 0.06
#Ch4
	4	28.0	256	 28.0	 0.28	-19.9	 5.6	 0.71	 0.06
#Ch5
	4	28.0	256	 28.0	 0.27	-16.8	 6.2	 0.69	 0.06
#Ch6
	4	28.0	256	 28.0	 0.28	-16.2	 5.6	 0.73	 0.06
#Ch7
	4	28.0	256	 28.0	 0.28	-16.9	 5.9	 0.75	 0.06
#Ch8
	4	28.0	251	 28.0	 0.27	-16.8	 5.5	 0.74	 0.06
#Ch9
	4	28.0	256	 28.0	 0.28	-18.2	 6.4	 0.72	 0.07
#
#No defects found!
#
%TEST Rawdata
FILENAME       : /home/qcbox/Desktop/stars/itsdaq-sw/DATA/results/BNL-PP2-MLS-008_tr4_20191231.trim
#
#
%NewTest
#
SERIAL NUMBER  : BNL-PP2-MLS-008
TEST MADE BY   : op
LOCATION NAME  : BNL_4MODULEBOX
Run number     : 638-47
TEST_DATE      : 31/12/2019
PASSED         : NO
PROBLEM        : YES
#
%DAQ_INFO
#
#HOST
"localhost"
#VERSION
"3.43"
#DUT
"Star_Test 	#AMAC 0 ComID 0 HCC "
#TIME
"11:31:32"
#
%DCS_INFO
#
#T0	T1
. 	. 	
#VDET	IDET
. 	. 	
#VCC	ICC
. 	. 	
#VDD	IDD
. 	. 	
#TIME_POWERED
. 
#
#
%SCAN_INFO
#
#POINT_TYPE
"TrimDAC (bits)"
#N_POINTS
5
#POINTS
0.00 	8.00 	16.00 	24.00 	31.00 	
#
%Trim
#
#TRIM	CHARGE	TYPE	ALGORITHM
	1.0 	6 	0
#(trim whole module)
#
#	range	target	ntrim	vt50	vt50rms	tr_off	off_rms	tr_step	step_rms
#Ch0
	6	33.0	256	 33.0	 0.33	-17.2	 4.5	 0.87	 0.06
#Ch1
	6	33.0	251	 33.0	 0.32	-15.5	 5.1	 0.86	 0.06
#Ch2
	6	33.0	256	 33.0	 0.31	-16.2	 3.9	 0.88	 0.06
#Ch3
	6	33.0	256	 33.0	 0.32	-16.1	 5.1	 0.86	 0.07
#Ch4
	6	33.0	256	 33.0	 0.32	-15.7	 4.9	 0.86	 0.07
#Ch5
	6	33.0	256	 33.0	 0.32	-15.6	 5.2	 0.82	 0.06
#Ch6
	6	33.0	256	 33.0	 0.32	-13.9	 4.8	 0.88	 0.06
#Ch7
	6	33.0	256	 33.0	 0.34	-15.1	 4.9	 0.88	 0.06
#Ch8
	6	33.0	251	 33.0	 0.35	-14.8	 4.3	 0.90	 0.06
#Ch9
	6	33.0	256	 33.0	 0.33	-15.6	 5.0	 0.87	 0.07
#Ch0
	6	33.0	256	 33.0	 0.32	-17.1	 5.0	 0.88	 0.07
#Ch1
	6	33.0	251	 33.0	 0.34	-15.5	 5.3	 0.86	 0.06
#Ch2
	6	33.0	256	 33.0	 0.33	-16.1	 4.4	 0.88	 0.07
#Ch3
	6	33.0	256	 33.1	 0.35	-15.6	 4.7	 0.86	 0.06
#Ch4
	6	33.0	256	 33.0	 0.33	-17.1	 4.7	 0.85	 0.06
#Ch5
	6	33.0	256	 33.0	 0.32	-14.5	 5.0	 0.83	 0.06
#Ch6
	6	33.0	256	 33.0	 0.32	-14.0	 4.5	 0.88	 0.07
#Ch7
	6	33.0	256	 33.0	 0.30	-14.7	 4.8	 0.89	 0.07
#Ch8
	6	33.0	251	 33.0	 0.34	-14.5	 4.4	 0.89	 0.06
#Ch9
	6	33.0	256	 33.0	 0.33	-15.7	 5.3	 0.86	 0.07
#
#No defects found!
#
%TEST Rawdata
FILENAME       : /home/qcbox/Desktop/stars/itsdaq-sw/DATA/results/BNL-PP2-MLS-008_tr6_20191231.trim
#
#
%NewTest
#
SERIAL NUMBER  : BNL-PP2-MLS-008
TEST MADE BY   : op
LOCATION NAME  : BNL_4MODULEBOX
Run number     : 638-52
TEST_DATE      : 31/12/2019
PASSED         : NO
PROBLEM        : YES
#
%DAQ_INFO
#
#HOST
"localhost"
#VERSION
"3.43"
#DUT
"Star_Test 	#AMAC 0 ComID 0 HCC "
#TIME
"11:33:27"
#
%DCS_INFO
#
#T0	T1
. 	. 	
#VDET	IDET
. 	. 	
#VCC	ICC
. 	. 	
#VDD	IDD
. 	. 	
#TIME_POWERED
. 
#
#
%SCAN_INFO
#
#POINT_TYPE
"TrimDAC (bits)"
#N_POINTS
5
#POINTS
0.00 	8.00 	16.00 	24.00 	31.00 	
#
%Trim
#
#TRIM	CHARGE	TYPE	ALGORITHM
	1.0 	8 	0
#(trim whole module)
#
#	range	target	ntrim	vt50	vt50rms	tr_off	off_rms	tr_step	step_rms
#Ch0
	8	39.0	256	 38.9	 0.34	-15.4	 3.8	 1.01	 0.06
#Ch1
	8	39.0	251	 39.0	 0.38	-13.9	 4.4	 0.99	 0.06
#Ch2
	8	39.0	256	 39.1	 0.40	-14.6	 3.2	 1.02	 0.07
#Ch3
	8	39.0	256	 39.0	 0.39	-14.3	 4.4	 0.99	 0.07
#Ch4
	8	39.0	256	 39.0	 0.36	-14.1	 4.0	 0.99	 0.06
#Ch5
	8	39.0	256	 39.0	 0.40	-13.9	 4.4	 0.95	 0.06
#Ch6
	8	39.0	256	 39.0	 0.37	-12.5	 4.1	 1.01	 0.06
#Ch7
	8	39.0	256	 39.0	 0.38	-13.5	 4.2	 1.02	 0.07
#Ch8
	8	39.0	251	 39.0	 0.38	-13.3	 3.8	 1.03	 0.06
#Ch9
	8	39.0	256	 39.0	 0.38	-14.0	 4.2	 1.00	 0.07
#Ch0
	8	39.0	256	 39.0	 0.38	-15.3	 4.2	 1.01	 0.07
#Ch1
	8	39.0	251	 39.0	 0.39	-13.8	 4.4	 1.00	 0.06
#Ch2
	8	39.0	256	 39.0	 0.38	-14.4	 3.7	 1.02	 0.07
#Ch3
	8	39.0	256	 39.0	 0.37	-14.0	 4.1	 0.98	 0.07
#Ch4
	8	39.0	256	 39.0	 0.38	-15.2	 3.9	 0.99	 0.07
#Ch5
	8	39.0	256	 39.0	 0.39	-13.0	 4.3	 0.96	 0.07
#Ch6
	8	39.0	256	 39.0	 0.38	-12.6	 3.9	 1.01	 0.07
#Ch7
	8	39.0	256	 39.0	 0.39	-13.2	 4.1	 1.02	 0.07
#Ch8
	8	39.0	251	 38.9	 0.39	-13.0	 3.7	 1.03	 0.06
#Ch9
	8	39.0	256	 39.1	 0.39	-14.1	 4.4	 0.99	 0.07
#
#No defects found!
#
%TEST Rawdata
FILENAME       : /home/qcbox/Desktop/stars/itsdaq-sw/DATA/results/BNL-PP2-MLS-008_tr8_20191231.trim
#
#
%NewTest
#
SERIAL NUMBER  : BNL-PP2-MLS-008
TEST MADE BY   : op
LOCATION NAME  : BNL_4MODULEBOX
Run number     : 638-37
TEST_DATE      : 31/12/2019
PASSED         : NO
PROBLEM        : YES
#
%DAQ_INFO
#
#HOST
"localhost"
#VERSION
"3.43"
#DUT
"Star_Test 	#AMAC 0 ComID 0 HCC "
#TIME
"11:27:07"
#
%DCS_INFO
#
#T0	T1
. 	. 	
#VDET	IDET
. 	. 	
#VCC	ICC
. 	. 	
#VDD	IDD
. 	. 	
#TIME_POWERED
. 
#
#
%Trim
#
#TRIM	CHARGE	TYPE	ALGORITHM
	1.0 	-1 	0
#(trim whole module)
#
#	range	target	ntrim	vt50	vt50rms	tr_off	off_rms	tr_step	step_rms
#Ch0
	2	25.0	255	 25.0	 0.24	-23.3	 6.4	 0.60	 0.06
#Ch1
	4	25.0	251	 25.0	 0.26	-18.1	 6.3	 0.71	 0.06
#Ch2
	2	25.0	256	 25.0	 0.24	-21.8	 5.6	 0.61	 0.06
#Ch3
	2	25.0	256	 25.0	 0.23	-22.3	 7.6	 0.58	 0.05
#Ch4
	2	25.0	256	 25.0	 0.20	-21.4	 7.0	 0.59	 0.06
#Ch5
	4	25.0	256	 25.0	 0.26	-18.2	 6.3	 0.68	 0.06
#Ch6
	2	25.0	256	 25.0	 0.24	-18.8	 6.9	 0.60	 0.05
#Ch7
	2	25.0	256	 25.0	 0.23	-20.6	 7.0	 0.61	 0.05
#Ch8
	2	25.0	251	 25.0	 0.24	-20.0	 6.3	 0.62	 0.05
#Ch9
	2	25.0	256	 25.0	 0.23	-21.0	 7.1	 0.60	 0.06
#Ch0
	2	25.0	255	 25.0	 0.23	-23.4	 7.5	 0.60	 0.06
#Ch1
	4	25.0	251	 25.1	 0.27	-18.0	 6.5	 0.71	 0.06
#Ch2
	2	25.0	256	 25.0	 0.23	-21.7	 6.5	 0.61	 0.06
#Ch3
	2	25.0	256	 25.0	 0.23	-21.8	 7.0	 0.58	 0.06
#Ch4
	2	25.0	256	 25.0	 0.23	-23.3	 7.0	 0.59	 0.06
#Ch5
	4	25.0	256	 24.9	 0.25	-16.8	 6.2	 0.69	 0.06
#Ch6
	2	25.0	256	 25.0	 0.23	-19.0	 6.6	 0.60	 0.06
#Ch7
	2	25.0	256	 25.0	 0.23	-20.0	 7.0	 0.61	 0.06
#Ch8
	2	25.0	251	 25.0	 0.22	-19.6	 6.4	 0.61	 0.06
#Ch9
	2	25.0	256	 25.0	 0.25	-21.4	 7.6	 0.59	 0.05
#
%Defect
DEFECT NAME    : TR_RANGE
FIRST CHANNEL  : 0
LAST CHANNEL   : 255
#
%Defect
DEFECT NAME    : TR_RANGE
FIRST CHANNEL  : 512
LAST CHANNEL   : 767
#
%Defect
DEFECT NAME    : TR_RANGE
FIRST CHANNEL  : 768
LAST CHANNEL   : 1023
#
%Defect
DEFECT NAME    : TR_RANGE
FIRST CHANNEL  : 1024
LAST CHANNEL   : 1279
#
%Defect
DEFECT NAME    : TR_RANGE
FIRST CHANNEL  : 1536
LAST CHANNEL   : 1791
#
%Defect
DEFECT NAME    : TR_RANGE
FIRST CHANNEL  : 1792
LAST CHANNEL   : 2047
#
%Defect
DEFECT NAME    : TR_RANGE
FIRST CHANNEL  : 2048
LAST CHANNEL   : 2303
#
%Defect
DEFECT NAME    : TR_RANGE
FIRST CHANNEL  : 2304
LAST CHANNEL   : 2559
#
%Defect
DEFECT NAME    : TR_RANGE
FIRST CHANNEL  : 1536
LAST CHANNEL   : 1791
#
%Defect
DEFECT NAME    : TR_RANGE
FIRST CHANNEL  : 2048
LAST CHANNEL   : 2303
#
%Defect
DEFECT NAME    : TR_RANGE
FIRST CHANNEL  : 2304
LAST CHANNEL   : 2559
#
%Defect
DEFECT NAME    : TR_RANGE
FIRST CHANNEL  : 2560
LAST CHANNEL   : 2815
#
%Defect
DEFECT NAME    : TR_RANGE
FIRST CHANNEL  : 3072
LAST CHANNEL   : 3327
#
%Defect
DEFECT NAME    : TR_RANGE
FIRST CHANNEL  : 3328
LAST CHANNEL   : 3583
#
%Defect
DEFECT NAME    : TR_RANGE
FIRST CHANNEL  : 3584
LAST CHANNEL   : 3839
#
%Defect
DEFECT NAME    : TR_RANGE
FIRST CHANNEL  : 3840
LAST CHANNEL   : 4095
#
%Defect
DEFECT NAME    : TR_NOTRIM
FIRST CHANNEL  : 55
LAST CHANNEL   : 55
#
#17 defects found
%Comment
COMMENT        : L0Ch0 TR 2 step 0.87 (ideal 1.81 error 51.87%)
#
%Comment
COMMENT        : L0Ch2 TR 2 step 0.88 (ideal 1.82 error 51.63%)
#
%Comment
COMMENT        : L0Ch3 TR 2 step 0.86 (ideal 1.74 error 50.80%)
#
%Comment
COMMENT        : L0Ch4 TR 2 step 0.86 (ideal 1.77 error 51.26%)
#
%Comment
COMMENT        : L0Ch6 TR 2 step 0.88 (ideal 1.81 error 51.51%)
#
%Comment
COMMENT        : L0Ch7 TR 2 step 0.88 (ideal 1.82 error 51.65%)
#
%Comment
COMMENT        : L0Ch8 TR 2 step 0.90 (ideal 1.86 error 51.65%)
#
%Comment
COMMENT        : L0Ch9 TR 2 step 0.87 (ideal 1.81 error 52.09%)
#
%Comment
COMMENT        : L1Ch0 TR 2 step 0.88 (ideal 1.81 error 51.53%)
#
%Comment
COMMENT        : L1Ch2 TR 2 step 0.88 (ideal 1.83 error 51.78%)
#
%Comment
COMMENT        : L1Ch3 TR 2 step 0.86 (ideal 1.73 error 50.42%)
#
%Comment
COMMENT        : L1Ch4 TR 2 step 0.85 (ideal 1.76 error 51.49%)
#
%Comment
COMMENT        : L1Ch6 TR 2 step 0.88 (ideal 1.81 error 51.44%)
#
%Comment
COMMENT        : L1Ch7 TR 2 step 0.89 (ideal 1.84 error 51.62%)
#
%Comment
COMMENT        : L1Ch8 TR 2 step 0.89 (ideal 1.84 error 51.76%)
#
%Comment
COMMENT        : L1Ch9 TR 2 step 0.86 (ideal 1.78 error 51.67%)
#
#
%TEST Rawdata
FILENAME       : /home/qcbox/Desktop/stars/itsdaq-sw/DATA/results/BNL-PP2-MLS-008_tr-1_20191231.trim
#
#
%NewTest
#
SERIAL NUMBER  : BNL-PP2-MLS-008
TEST MADE BY   : op
LOCATION NAME  : BNL_4MODULEBOX
Run number     : 638-58
TEST_DATE      : 31/12/2019
PASSED         : YES
PROBLEM        : NO
#
%DAQ_INFO
#
#HOST
"localhost"
#VERSION
"3.43"
#DUT
"Star_Test 	#AMAC 0 ComID 0 HCC "
#TIME
"11:37:11"
#
%DCS_INFO
#
#T0	T1
. 	. 	
#VDET	IDET
. 	. 	
#VCC	ICC
. 	. 	
#VDD	IDD
. 	. 	
#TIME_POWERED
. 
#
%StrobeDelay
#
#DELAY
#  M00  S01  S02  S03  S04  S05  S06  S07  S08  E09
20 14 14 15 17 15 16 18 19 20 -1 -1 -1 -1 -1 -1 
#
#  M00  S01  S02  S03  S04  S05  S06  S07  S08  E09
20 14 14 15 17 15 16 18 19 20 -1 -1 -1 -1 -1 -1 
#
#No defects found!
%Comment
COMMENT        : Strobe Delay Fraction 0.57
#
#
%NewTest
#
SERIAL NUMBER  : BNL-PP2-MLS-008
TEST MADE BY   : op
LOCATION NAME  : BNL_4MODULEBOX
Run number     : 638-59
TEST_DATE      : 31/12/2019
PASSED         : NO
PROBLEM        : NO
#
%DAQ_INFO
#
#HOST
"localhost"
#VERSION
"3.43"
#DUT
"Star_Test 	#AMAC 0 ComID 0 HCC "
#TIME
"11:43:27"
#
%DCS_INFO
#
#T0	T1
. 	. 	
#VDET	IDET
. 	. 	
#VCC	ICC
. 	. 	
#VDD	IDD
. 	. 	
#TIME_POWERED
. 
#
#
%SCAN_INFO
#
#POINT_TYPE
"QCAL (fC)"
#N_POINTS
3
#POINTS
0.50 	1.00 	1.50 	
#
#
%ThreePointGain
#
#Loop A - Fit
#	func	p0	p1	p2
#M00
	4 	18.19 	-28.27 	0.00
#S01
	4 	18.12 	-28.06 	0.00
#S02
	4 	18.19 	-28.26 	0.00
#S03
	4 	18.18 	-28.24 	0.00
#S04
	4 	18.11 	-28.03 	0.00
#S05
	4 	18.01 	-27.69 	0.00
#S06
	4 	18.03 	-27.76 	0.00
#S07
	4 	18.12 	-28.06 	0.00
#S08
	4 	18.19 	-28.28 	0.00
#E09
	4 	18.08 	-27.92 	0.00
#M00
	4 	18.18 	-28.22 	0.00
#S01
	4 	18.12 	-28.03 	0.00
#S02
	4 	18.19 	-28.26 	0.00
#S03
	4 	18.16 	-28.18 	0.00
#S04
	4 	18.09 	-27.94 	0.00
#S05
	4 	18.01 	-27.70 	0.00
#S06
	4 	18.00 	-27.66 	0.00
#S07
	4 	35.07 	91.51 	0.00
#S08
	4 	18.17 	-28.19 	0.00
#E09
	4 	18.06 	-27.86 	0.00
#
#Loop B - Gain, Offset, Noise at 1.00fC
#	vt50 	rms  	gain	rms 	offset	rms  	outnse	innse	rms
#M00
	###    Too many defects in this chip!    ###
#S01
	###    Too many defects in this chip!    ###
#S02
	###    Too many defects in this chip!    ###
#S03
	###    Too many defects in this chip!    ###
#S04
	###    Too many defects in this chip!    ###
#S05
	###    Too many defects in this chip!    ###
#S06
	###    Too many defects in this chip!    ###
#S07
	###    Too many defects in this chip!    ###
#S08
	###    Too many defects in this chip!    ###
#E09
	###    Too many defects in this chip!    ###
#M00
	###    Too many defects in this chip!    ###
#S01
	###    Too many defects in this chip!    ###
#S02
	###    Too many defects in this chip!    ###
#S03
	###    Too many defects in this chip!    ###
#S04
	###    Too many defects in this chip!    ###
#S05
	###    Too many defects in this chip!    ###
#S06
	###    Too many defects in this chip!    ###
#S07
	###    Too many defects in this chip!    ###
#S08
	###    Too many defects in this chip!    ###
#E09
	###    Too many defects in this chip!    ###
#
#Loop C - Comment
#  M00  S01  S02  S03  S04  S05  S06  S07  S08  E09
"low gain" 	"low gain" 	"low gain" 	"low gain" 	"low gain" 	"low gain" 	"low gain" 	"low gain" 	"low gain" 	"low gain" 	
#  M00  S01  S02  S03  S04  S05  S06  S07  S08  E09
"low gain" 	"low gain" 	"low gain" 	"low gain" 	"low gain" 	"low gain" 	"low gain" 	"unbonded" 	"low gain" 	"low gain" 	
#BadChannelSummary - not for the database
#  at 1.00fC
#		lost	dodgy	dead	stuck	ineff	unbon	lo_gn	hi_gn	lo_off	hi_off	partbon	hi_nse
#Chip M00:	  1	127	  1	  0	127	  1	  1	  0	  1	  0	  0	  0
#Chip S01:	  2	126	  2	  0	126	  2	  2	  0	  2	  0	  0	  0
#Chip S02:	  0	128	  0	  0	128	  0	  0	  0	  0	  0	  0	  0
#Chip S03:	  0	128	  0	  0	128	  0	  0	  0	  0	  0	  0	  0
#Chip S04:	  0	128	  0	  0	128	  0	  0	  0	  0	  0	  0	  0
#Chip S05:	  0	128	  0	  0	128	  0	  0	  0	  0	  0	  0	  0
#Chip S06:	  0	128	  0	  0	128	  0	  0	  0	  0	  0	  0	  0
#Chip S07:	  0	128	  0	  0	128	  0	  0	  0	  0	  0	  0	  0
#Chip S08:	  3	125	  3	  0	125	  3	  3	  0	  3	  0	  0	  0
#Chip E09:	  0	128	  0	  0	128	  0	  0	  0	  0	  0	  0	  0
#Chip M00:	  3	127	  1	  0	127	  3	  1	  0	  1	  0	  0	  0
#Chip S01:	  7	123	  5	  0	123	  7	  5	  0	  5	  0	  0	  0
#Chip S02:	  2	128	  0	  0	128	  2	  0	  0	  0	  0	  0	  0
#Chip S03:	  2	128	  0	  0	128	  2	  0	  0	  0	  0	  0	  0
#Chip S04:	  2	128	  0	  0	128	  2	  0	  0	  0	  0	  0	  0
#Chip S05:	  2	128	  0	  0	128	  2	  0	  0	  0	  0	  0	  0
#Chip S06:	  2	128	  0	  0	128	  2	  0	  0	  0	  0	  0	  0
#Chip S07:	  2	127	  0	  0	127	  2	  0	  0	  0	  0	  0	  0
#Chip S08:	  6	124	  4	  0	124	  6	  4	  0	  4	  0	  0	  0
#Chip E09:	  2	128	  0	  0	128	  2	  0	  0	  0	  0	  0	  0
#Link 0:	  6	1274	  6	  0	1274	  6	  6	  0	  6	  0	  0	  0
#Link 1:	 30	1269	 10	  0	1269	 30	 10	  0	 10	  0	  0	  0
#Link 2:	 36	2543	 16	  0	2543	 36	 16	  0	 16	  0	  0	  0
%Defect
DEFECT NAME    : DEAD
FIRST CHANNEL  : 55
LAST CHANNEL   : 55
#
%Defect
DEFECT NAME    : DEAD
FIRST CHANNEL  : 214
LAST CHANNEL   : 214
#
%Defect
DEFECT NAME    : DEAD
FIRST CHANNEL  : 217
LAST CHANNEL   : 217
#
%Defect
DEFECT NAME    : DEAD
FIRST CHANNEL  : 1067
LAST CHANNEL   : 1067
#
%Defect
DEFECT NAME    : DEAD
FIRST CHANNEL  : 1110
LAST CHANNEL   : 1110
#
%Defect
DEFECT NAME    : DEAD
FIRST CHANNEL  : 1113
LAST CHANNEL   : 1113
#
%Defect
DEFECT NAME    : DEAD
FIRST CHANNEL  : 1307
LAST CHANNEL   : 1307
#
%Defect
DEFECT NAME    : UNBONDED
FIRST CHANNEL  : 1328
LAST CHANNEL   : 1328
#
%Defect
DEFECT NAME    : UNBONDED
FIRST CHANNEL  : 1369
LAST CHANNEL   : 1369
#
%Defect
DEFECT NAME    : DEAD
FIRST CHANNEL  : 1452
LAST CHANNEL   : 1452
#
%Defect
DEFECT NAME    : DEAD
FIRST CHANNEL  : 1455
LAST CHANNEL   : 1455
#
%Defect
DEFECT NAME    : UNBONDED
FIRST CHANNEL  : 1456
LAST CHANNEL   : 1456
#
%Defect
DEFECT NAME    : DEAD
FIRST CHANNEL  : 1495
LAST CHANNEL   : 1495
#
%Defect
DEFECT NAME    : UNBONDED
FIRST CHANNEL  : 1497
LAST CHANNEL   : 1497
#
%Defect
DEFECT NAME    : DEAD
FIRST CHANNEL  : 1515
LAST CHANNEL   : 1515
#
%Defect
DEFECT NAME    : DEAD
FIRST CHANNEL  : 1525
LAST CHANNEL   : 1525
#
%Defect
DEFECT NAME    : UNBONDED
FIRST CHANNEL  : 1584
LAST CHANNEL   : 1584
#
%Defect
DEFECT NAME    : UNBONDED
FIRST CHANNEL  : 1625
LAST CHANNEL   : 1625
#
%Defect
DEFECT NAME    : UNBONDED
FIRST CHANNEL  : 1712
LAST CHANNEL   : 1712
#
%Defect
DEFECT NAME    : UNBONDED
FIRST CHANNEL  : 1753
LAST CHANNEL   : 1753
#
%Defect
DEFECT NAME    : UNBONDED
FIRST CHANNEL  : 1840
LAST CHANNEL   : 1840
#
%Defect
DEFECT NAME    : UNBONDED
FIRST CHANNEL  : 1881
LAST CHANNEL   : 1881
#
%Defect
DEFECT NAME    : UNBONDED
FIRST CHANNEL  : 1968
LAST CHANNEL   : 1968
#
%Defect
DEFECT NAME    : UNBONDED
FIRST CHANNEL  : 2009
LAST CHANNEL   : 2009
#
%Defect
DEFECT NAME    : UNBONDED
FIRST CHANNEL  : 2096
LAST CHANNEL   : 2096
#
%Defect
DEFECT NAME    : UNBONDED
FIRST CHANNEL  : 2137
LAST CHANNEL   : 2137
#
%Defect
DEFECT NAME    : UNBONDED
FIRST CHANNEL  : 2265
LAST CHANNEL   : 2265
#
%Defect
DEFECT NAME    : DEAD
FIRST CHANNEL  : 2348
LAST CHANNEL   : 2348
#
%Defect
DEFECT NAME    : DEAD
FIRST CHANNEL  : 2351
LAST CHANNEL   : 2351
#
%Defect
DEFECT NAME    : UNBONDED
FIRST CHANNEL  : 2352
LAST CHANNEL   : 2352
#
%Defect
DEFECT NAME    : DEAD
FIRST CHANNEL  : 2391
LAST CHANNEL   : 2391
#
%Defect
DEFECT NAME    : UNBONDED
FIRST CHANNEL  : 2393
LAST CHANNEL   : 2393
#
%Defect
DEFECT NAME    : DEAD
FIRST CHANNEL  : 2411
LAST CHANNEL   : 2411
#
%Defect
DEFECT NAME    : UNBONDED
FIRST CHANNEL  : 2480
LAST CHANNEL   : 2480
#
%Defect
DEFECT NAME    : UNBONDED
FIRST CHANNEL  : 2521
LAST CHANNEL   : 2521
#
#35 defects found affecting 2559 strips
#1280 maximum consecutive defects
%Comment
COMMENT        : SELECT = 0
#
%Comment
COMMENT        : FAIL due to chip M0 low gain
#
%Comment
COMMENT        : FAIL due to chip S1 low gain
#
%Comment
COMMENT        : FAIL due to chip S2 low gain
#
%Comment
COMMENT        : FAIL due to chip S3 low gain
#
%Comment
COMMENT        : FAIL due to chip S4 low gain
#
%Comment
COMMENT        : FAIL due to chip E5 low gain
#
%Comment
COMMENT        : FAIL due to chip S6 low gain
#
%Comment
COMMENT        : FAIL due to chip S7 low gain
#
%Comment
COMMENT        : FAIL due to chip S8 low gain
#
%Comment
COMMENT        : FAIL due to chip S9 low gain
#
%Comment
COMMENT        : FAIL due to chip M8 low gain
#
%Comment
COMMENT        : FAIL due to chip S9 low gain
#
%Comment
COMMENT        : FAIL due to chip S10 low gain
#
%Comment
COMMENT        : FAIL due to chip S11 low gain
#
%Comment
COMMENT        : FAIL due to chip S12 low gain
#
%Comment
COMMENT        : FAIL due to chip E13 low gain
#
%Comment
COMMENT        : FAIL due to chip S14 low gain
#
%Comment
COMMENT        : FAIL due to chip S16 low gain
#
%Comment
COMMENT        : FAIL due to chip S17 low gain
#
%Comment
COMMENT        : FAIL due to 2559 bad strips (more than 15)
#
%Comment
COMMENT        : FAIL due to 1280 consecutive bad strips (more than 8)
#
#
%TEST Rawdata
FILENAME       : /home/qcbox/Desktop/stars/itsdaq-sw/DATA/results/BNL-PP2-MLS-008_RC_638_59.txt
#
