               -0.9776206            -0.0046661718
                -10.98169            -0.0017541278
                -20.97959             -0.002774664
                -30.97435            -0.0037835374
                -40.96911            -0.0047909094
                -50.96491            -0.0057897774
                 -60.9612            -0.0068290572
                -70.95568            -0.0079415076
                -80.96763            -0.0091040106
                -90.97742              -0.01100004
                -100.9605             -0.010518444
                -110.9653              -0.01154839
                -120.9731             -0.012554956
                 -130.981             -0.013597316
                -140.9867               -0.0145898
                -150.9885             -0.015658556
                -160.9823             -0.016648594
                -170.9771             -0.017679388
                -180.9716              -0.01868281
                -190.9629             -0.019709012
                -200.9578             -0.020730378
                -210.9532              -0.02182012
                -220.9469              -0.02282383
                -230.9714             -0.023905858
                -240.9781             -0.024883812
                -250.9872             -0.025962706
                -260.9909              -0.02695785
                -270.9982             -0.028030664
                -281.0054             -0.029030838
                -291.0124             -0.030089746
                -301.0142              -0.03109592
                -311.0085              -0.03213124
                -321.0035             -0.033183544
                -330.9964             -0.034208658
                -340.9875             -0.035229404
                -350.9793              -0.03628194
                -360.9757             -0.037341396
                -370.9694              -0.03835787
                -380.9741             -0.039412886
                -390.9807             -0.040461144
                -400.9899             -0.041509746
                -410.9939              -0.04253735
                -421.0013             -0.043580132
                -431.0083              -0.04463734
                -441.0139             -0.045701732
                -451.0175              -0.04674374
                -461.0125             -0.047782882
                -471.0073             -0.048863252
                -481.0003             -0.049886746
                 -490.993             -0.050937736
