               0.01439235              -0.06380012
                -9.981107              -0.04130165
                -19.97481              -0.04501509
                -29.97465              -0.04754732
                -39.96555              -0.05091582
                -49.96031              -0.05248957
                -59.95606              -0.05236091
                -69.95072              -0.05252306
                -79.95753              -0.05183804
                -89.96394              -0.05038655
                -99.97007               -0.0791933
                -109.9759              -0.07281835
                 -119.983                -0.072355
                 -129.991              -0.06828952
                -139.9971              -0.06439752
                -149.9998              -0.05714786
                -159.9938              -0.05742472
                -169.9891              -0.05427487
                -179.9832              -0.05152666
                -189.9759              -0.04900662
                -199.9699              -0.04703685
                -209.9649              -0.04533855
                -219.9595              -0.04364218
                -229.9663              -0.04206748
                -239.9722              -0.04006146
                  -249.98              -0.03879493
                -259.9832              -0.03793891
                -269.9901              -0.03702784
                -279.9976              -0.03608531
                -290.0037              -0.03552193
                -300.0071              -0.03536706
                -310.0013              -0.03560367
                -319.9958              -0.03594194
                -329.9898               -0.0364397
                -339.9819              -0.03604989
                -349.9755              -0.03783728
                -359.9716              -0.03847528
                -369.9636              -0.03871147
                -379.9688              -0.04000373
                -389.9759              -0.04096471
                -399.9826              -0.04187349
                -410.0067              -0.04281415
                -420.0103              -0.04374815
                -430.0189              -0.04481769
                -440.0249              -0.04583988
                -450.0293              -0.04688021
                -460.0233              -0.04792631
                -470.0183              -0.04894588
                -480.0128              -0.05002403
                -490.0064              -0.05110181
