#chan	code	gain	vt50	innse	comment
   0	   4	86.5	112.8	 730	inefficient
   1	   4	82.3	112.2	 749	inefficient
   2	   4	82.8	113.3	 769	inefficient
   3	   4	82.8	113.4	 761	inefficient
   4	   4	82.9	112.4	 761	inefficient
   5	   4	82.8	112.8	 788	inefficient
   6	   4	84.2	114.4	 763	inefficient
   7	   4	81.9	112.9	 759	inefficient
   8	   4	77.7	107.9	 754	inefficient
   9	   4	81.6	111.1	 762	inefficient
  10	   4	81.7	111.5	 754	inefficient
  11	   4	81.6	111.9	 750	inefficient
  12	   4	78.5	105.3	 775	inefficient
  13	   4	81.2	111.5	 745	inefficient
  14	   4	80.6	111.8	 769	inefficient
  15	   4	80.6	112.1	 765	inefficient
  16	   4	80.0	110.5	 772	inefficient
  17	   4	79.9	108.9	 764	inefficient
  18	   4	82.2	113.8	 765	inefficient
  19	   4	81.3	111.7	 775	inefficient
  20	   4	81.6	111.5	 793	inefficient
  21	   4	82.0	111.0	 763	inefficient
  22	   4	81.2	108.9	 762	inefficient
  23	   4	81.6	111.3	 777	inefficient
  24	   4	78.7	109.8	 768	inefficient
  25	   4	81.4	111.3	 775	inefficient
  26	   4	81.6	110.0	 778	inefficient
  27	   4	82.5	112.4	 756	inefficient
  28	   4	82.9	112.5	 789	inefficient
  29	   4	78.6	108.9	 770	inefficient
  30	   4	79.3	109.0	 777	inefficient
  31	   4	81.5	110.1	 764	inefficient
  32	   4	83.1	112.7	 784	inefficient
  33	   4	80.0	110.8	 774	inefficient
  34	   4	78.3	106.5	 769	inefficient
  35	   4	79.5	109.2	 776	inefficient
  36	   4	79.3	108.1	 791	inefficient
  37	   4	80.2	111.0	 791	inefficient
  38	   4	81.8	110.7	 790	inefficient
  39	   4	84.2	114.9	 801	inefficient
  40	   4	82.4	111.4	 783	inefficient
  41	   4	82.1	110.0	 781	inefficient
  42	   4	78.8	107.1	 808	inefficient
  43	   4	83.5	111.6	 801	inefficient
  44	   4	82.7	112.8	 784	inefficient
  45	   4	81.1	111.9	 796	inefficient
  46	   4	82.7	111.3	 816	inefficient
  47	   4	79.2	109.5	 796	inefficient
  48	   4	81.3	110.1	 790	inefficient
  49	   4	81.2	111.8	 789	inefficient
  50	   4	80.3	108.5	 798	inefficient
  51	   4	82.3	111.3	 780	inefficient
  52	   4	80.2	110.4	 798	inefficient
  53	   4	80.2	109.1	 783	inefficient
  54	   4	82.6	111.9	 799	inefficient
  55	   4	80.3	109.8	 794	inefficient
  56	   4	80.7	108.9	 793	inefficient
  57	   4	82.4	112.7	 803	inefficient
  58	   4	83.1	112.8	 812	inefficient
  59	   4	81.4	110.9	 795	inefficient
  60	   4	82.1	113.6	 795	inefficient
  61	   4	80.9	110.2	 802	inefficient
  62	   4	82.9	112.2	 785	inefficient
  63	   4	82.4	111.6	 802	inefficient
  64	   4	81.8	110.6	 797	inefficient
  65	   4	79.9	108.9	 804	inefficient
  66	   4	82.9	114.4	 777	inefficient
  67	   4	84.6	112.2	 784	inefficient
  68	   4	80.0	109.8	 788	inefficient
  69	   4	81.6	112.6	 798	inefficient
  70	   4	84.7	115.4	 808	inefficient
  71	   4	82.0	111.3	 811	inefficient
  72	   4	82.8	110.7	 794	inefficient
  73	   4	79.6	108.9	 808	inefficient
  74	   4	81.7	111.8	 800	inefficient
  75	   4	81.4	110.1	 799	inefficient
  76	   4	79.8	109.4	 794	inefficient
  77	   4	79.9	107.8	 813	inefficient
  78	   4	79.5	107.6	 800	inefficient
  79	   4	80.5	110.4	 802	inefficient
  80	   4	80.6	109.3	 797	inefficient
  81	   4	79.7	107.5	 779	inefficient
  82	   4	79.9	109.7	 783	inefficient
  83	   4	78.7	107.5	 804	inefficient
  84	   4	83.0	114.1	 791	inefficient
  85	   4	80.9	111.8	 793	inefficient
  86	   4	82.4	110.5	 793	inefficient
  87	   4	80.5	110.7	 790	inefficient
  88	   4	79.2	109.4	 797	inefficient
  89	   4	80.4	110.4	 781	inefficient
  90	   4	81.1	109.0	 802	inefficient
  91	   4	81.6	112.0	 792	inefficient
  92	   4	82.6	112.7	 795	inefficient
  93	   4	82.1	112.7	 792	inefficient
  94	   4	82.5	111.7	 795	inefficient
  95	   4	81.6	112.5	 809	inefficient
  96	   4	78.2	106.1	 804	inefficient
  97	   4	81.0	109.6	 797	inefficient
  98	   4	79.4	111.4	 815	inefficient
  99	   4	81.1	111.0	 807	inefficient
 100	   4	84.1	112.8	 799	inefficient
 101	   4	83.3	114.3	 791	inefficient
 102	   4	81.5	111.7	 808	inefficient
 103	   4	81.7	112.1	 789	inefficient
 104	   4	78.9	105.5	 831	inefficient
 105	   4	82.6	111.9	 794	inefficient
 106	   4	80.0	109.7	 796	inefficient
 107	   4	80.3	108.8	 805	inefficient
 108	   4	83.4	113.5	 794	inefficient
 109	   4	83.5	114.7	 825	inefficient
 110	   4	81.4	110.9	 809	inefficient
 111	   4	83.5	112.0	 813	inefficient
 112	   4	82.0	111.8	 810	inefficient
 113	   4	80.8	109.9	 793	inefficient
 114	   4	80.4	108.1	 810	inefficient
 115	   4	82.6	111.7	 823	inefficient
 116	   4	80.3	109.1	 799	inefficient
 117	   4	81.9	111.0	 785	inefficient
 118	   4	84.8	113.4	 803	inefficient
 119	   4	81.9	111.4	 814	inefficient
 120	   4	83.0	114.0	 797	inefficient
 121	   4	82.4	112.9	 813	inefficient
 122	   4	83.5	112.1	 802	inefficient
 123	   4	84.5	111.5	 808	inefficient
 124	   4	83.6	113.3	 791	inefficient
 125	   4	80.9	108.9	 782	inefficient
 126	   4	84.7	114.8	 792	inefficient
 127	   4	82.1	113.0	 826	inefficient
 128	   4	81.8	108.2	 840	inefficient
 129	   4	80.7	108.1	 832	inefficient
 130	   4	83.0	110.4	 815	inefficient
 131	   4	82.0	112.4	 813	inefficient
 132	   4	81.9	109.9	 808	inefficient
 133	   4	81.1	108.0	 798	inefficient
 134	   4	78.9	110.4	 817	inefficient
 135	   4	83.3	112.2	 812	inefficient
 136	   4	82.8	112.1	 814	inefficient
 137	   4	81.3	111.7	 807	inefficient
 138	   4	82.5	111.4	 810	inefficient
 139	   4	82.7	112.9	 819	inefficient
 140	   4	81.7	110.9	 817	inefficient
 141	   4	81.6	110.7	 810	inefficient
 142	   4	83.2	110.8	 810	inefficient
 143	   4	82.6	111.9	 806	inefficient
 144	   4	79.4	109.8	 817	inefficient
 145	   4	80.9	110.0	 825	inefficient
 146	   4	83.7	111.9	 837	inefficient
 147	   4	79.6	107.3	 812	inefficient
 148	   4	82.3	110.5	 811	inefficient
 149	   4	80.5	110.2	 818	inefficient
 150	   4	83.1	113.3	 795	inefficient
 151	   4	79.5	106.7	 816	inefficient
 152	   4	80.4	108.4	 825	inefficient
 153	   4	82.1	108.5	 828	inefficient
 154	   4	80.5	110.0	 817	inefficient
 155	   4	83.6	110.0	 828	inefficient
 156	   4	81.7	110.7	 820	inefficient
 157	   4	81.9	110.0	 819	inefficient
 158	   4	81.8	110.3	 808	inefficient
 159	   4	81.1	108.7	 827	inefficient
 160	   4	82.4	111.8	 825	inefficient
 161	   4	80.4	108.3	 815	inefficient
 162	   4	82.0	110.2	 798	inefficient
 163	   4	81.1	111.4	 827	inefficient
 164	   4	80.6	110.6	 835	inefficient
 165	   4	81.9	110.5	 806	inefficient
 166	   4	80.0	107.0	 823	inefficient
 167	   4	80.9	110.7	 813	inefficient
 168	   4	80.3	109.0	 806	inefficient
 169	   4	80.7	109.2	 811	inefficient
 170	   4	79.8	110.2	 809	inefficient
 171	   4	81.4	109.3	 801	inefficient
 172	   4	81.2	109.5	 827	inefficient
 173	   4	78.2	107.3	 808	inefficient
 174	   4	79.5	110.7	 808	inefficient
 175	   4	80.3	109.2	 821	inefficient
 176	   4	80.4	108.3	 822	inefficient
 177	   4	79.1	107.0	 812	inefficient
 178	   4	79.6	107.9	 834	inefficient
 179	   4	82.6	111.0	 822	inefficient
 180	   4	79.1	108.2	 828	inefficient
 181	   4	80.0	107.7	 811	inefficient
 182	   4	81.6	109.1	 806	inefficient
 183	   4	82.2	109.9	 809	inefficient
 184	   4	80.9	109.9	 815	inefficient
 185	   4	81.4	108.6	 798	inefficient
 186	   4	82.4	109.7	 804	inefficient
 187	   4	79.7	110.1	 824	inefficient
 188	   4	84.7	115.2	 777	inefficient
 189	   4	82.4	110.6	 794	inefficient
 190	   4	81.7	111.9	 807	inefficient
 191	   4	86.0	114.2	 793	inefficient
 192	   4	83.2	112.1	 804	inefficient
 193	   4	83.5	111.8	 795	inefficient
 194	   4	81.9	112.5	 803	inefficient
 195	   4	81.5	111.6	 808	inefficient
 196	   4	80.4	109.9	 806	inefficient
 197	   4	80.6	109.2	 802	inefficient
 198	   4	80.5	108.9	 804	inefficient
 199	   4	80.9	109.4	 813	inefficient
 200	   4	81.6	109.1	 807	inefficient
 201	   4	81.2	111.2	 802	inefficient
 202	   4	85.5	113.0	 820	inefficient
 203	   4	81.7	112.0	 797	inefficient
 204	   4	84.2	113.2	 815	inefficient
 205	   4	84.2	113.4	 793	inefficient
 206	   4	80.8	109.4	 794	inefficient
 207	   4	81.4	112.9	 793	inefficient
 208	   4	83.5	111.6	 797	inefficient
 209	   4	83.2	110.7	 808	inefficient
 210	   4	82.6	111.0	 789	inefficient
 211	   4	82.1	111.2	 821	inefficient
 212	   4	80.9	111.3	 808	inefficient
 213	   4	83.1	110.4	 818	inefficient
 214	   4	81.3	110.0	 800	inefficient
 215	   4	81.8	111.3	 799	inefficient
 216	   4	85.0	113.8	 808	inefficient
 217	   4	81.7	110.3	 794	inefficient
 218	   4	83.4	111.1	 775	inefficient
 219	   4	82.4	109.6	 790	inefficient
 220	   4	80.2	109.4	 805	inefficient
 221	   4	80.5	112.1	 816	inefficient
 222	   4	81.9	109.8	 840	inefficient
 223	   4	79.0	108.7	 805	inefficient
 224	   4	84.5	112.6	 813	inefficient
 225	   4	81.6	110.4	 795	inefficient
 226	   4	84.4	114.7	 803	inefficient
 227	   4	80.8	110.0	 791	inefficient
 228	   4	83.2	110.2	 796	inefficient
 229	   4	83.5	114.0	 805	inefficient
 230	   4	82.0	110.4	 789	inefficient
 231	   4	82.1	110.1	 818	inefficient
 232	   4	82.6	113.2	 803	inefficient
 233	   4	81.0	109.8	 799	inefficient
 234	   4	82.5	110.2	 808	inefficient
 235	   4	82.1	111.2	 793	inefficient
 236	   4	83.7	112.9	 810	inefficient
 237	   4	81.4	111.6	 789	inefficient
 238	   4	84.2	111.7	 797	inefficient
 239	   4	81.2	108.4	 808	inefficient
 240	   4	78.9	106.5	 810	inefficient
 241	   4	83.3	112.7	 808	inefficient
 242	1501	0.0	0.0	   0	dead
 243	   4	80.3	111.2	 806	inefficient
 244	   4	82.8	112.8	 803	inefficient
 245	   4	85.3	113.4	 812	inefficient
 246	   4	83.1	111.3	 822	inefficient
 247	   4	85.1	116.3	 802	inefficient
 248	   4	83.5	110.9	 796	inefficient
 249	   4	81.1	108.9	 808	inefficient
 250	   4	82.8	113.2	 805	inefficient
 251	   4	84.2	114.7	 787	inefficient
 252	   4	83.4	111.6	 821	inefficient
 253	   4	82.8	112.2	 815	inefficient
 254	   4	86.7	114.4	 792	inefficient
 255	   4	82.4	110.1	 798	inefficient
 256	   4	86.3	115.7	 797	inefficient
 257	   4	84.0	114.3	 809	inefficient
 258	   4	84.9	114.9	 794	inefficient
 259	   4	84.0	112.9	 796	inefficient
 260	   4	83.0	113.0	 802	inefficient
 261	   4	84.6	112.7	 797	inefficient
 262	   4	84.7	113.3	 786	inefficient
 263	   4	81.6	112.4	 805	inefficient
 264	   4	85.7	113.7	 785	inefficient
 265	   4	85.0	113.5	 804	inefficient
 266	   4	83.5	112.1	 800	inefficient
 267	   4	82.0	111.5	 805	inefficient
 268	   4	82.4	112.0	 804	inefficient
 269	   4	81.6	111.1	 793	inefficient
 270	   4	82.7	111.3	 819	inefficient
 271	   4	82.0	109.5	 804	inefficient
 272	   4	84.4	113.5	 777	inefficient
 273	   4	82.3	111.7	 794	inefficient
 274	   4	84.0	112.5	 811	inefficient
 275	   4	84.1	112.9	 783	inefficient
 276	   4	82.6	109.8	 817	inefficient
 277	   4	82.2	109.2	 795	inefficient
 278	   4	82.7	112.2	 801	inefficient
 279	   4	81.6	110.4	 797	inefficient
 280	   4	79.0	108.5	 797	inefficient
 281	   4	82.8	111.5	 796	inefficient
 282	   4	81.7	108.9	 783	inefficient
 283	   4	82.9	111.1	 810	inefficient
 284	   4	83.4	112.8	 794	inefficient
 285	   4	84.6	113.1	 785	inefficient
 286	   4	80.0	110.3	 790	inefficient
 287	   4	83.9	111.4	 812	inefficient
 288	   4	82.6	111.3	 795	inefficient
 289	   4	82.6	112.8	 782	inefficient
 290	   4	83.6	114.0	 791	inefficient
 291	   4	85.1	113.1	 794	inefficient
 292	   4	83.4	111.7	 807	inefficient
 293	   4	80.1	107.7	 798	inefficient
 294	   4	85.2	113.9	 787	inefficient
 295	   4	82.3	112.6	 800	inefficient
 296	   4	82.8	110.2	 800	inefficient
 297	   4	84.7	113.1	 803	inefficient
 298	   4	86.5	117.2	 798	inefficient
 299	   4	84.2	112.0	 807	inefficient
 300	   4	82.8	111.7	 812	inefficient
 301	   4	82.3	110.4	 829	inefficient
 302	   4	83.0	114.7	 786	inefficient
 303	   4	81.9	111.4	 800	inefficient
 304	   4	84.1	112.7	 807	inefficient
 305	   4	81.6	110.3	 821	inefficient
 306	   4	86.8	115.1	 802	inefficient
 307	   4	85.2	112.7	 797	inefficient
 308	   4	81.4	112.5	 814	inefficient
 309	   4	83.3	113.8	 804	inefficient
 310	   4	87.1	115.5	 806	inefficient
 311	   4	84.5	113.6	 809	inefficient
 312	   4	81.3	108.1	 794	inefficient
 313	   4	82.7	112.0	 786	inefficient
 314	   4	85.5	112.8	 796	inefficient
 315	   4	85.7	115.4	 791	inefficient
 316	   4	84.2	111.2	 807	inefficient
 317	   4	81.4	110.8	 805	inefficient
 318	   4	86.3	116.2	 815	inefficient
 319	   4	84.7	115.3	 805	inefficient
 320	   4	84.0	111.3	 819	inefficient
 321	   4	85.7	116.8	 794	inefficient
 322	   4	82.4	111.9	 788	inefficient
 323	   4	83.8	112.2	 821	inefficient
 324	   4	82.6	112.3	 811	inefficient
 325	   4	84.9	115.3	 807	inefficient
 326	   4	81.9	111.5	 825	inefficient
 327	   4	84.6	115.2	 796	inefficient
 328	   4	83.7	112.6	 806	inefficient
 329	   4	81.0	111.1	 817	inefficient
 330	   4	83.7	114.1	 796	inefficient
 331	   4	83.1	111.5	 797	inefficient
 332	   4	82.1	109.5	 814	inefficient
 333	   4	81.1	110.0	 791	inefficient
 334	   4	81.5	111.9	 790	inefficient
 335	   4	82.1	111.5	 806	inefficient
 336	   4	82.9	112.0	 811	inefficient
 337	   4	81.8	109.7	 807	inefficient
 338	   4	84.8	112.7	 808	inefficient
 339	   4	80.0	108.8	 810	inefficient
 340	   4	85.2	112.2	 804	inefficient
 341	   4	82.8	110.0	 807	inefficient
 342	   4	84.0	114.5	 818	inefficient
 343	   4	82.1	111.8	 801	inefficient
 344	   4	82.7	112.9	 794	inefficient
 345	   4	83.9	112.2	 807	inefficient
 346	   4	82.7	112.7	 808	inefficient
 347	   4	81.7	110.3	 803	inefficient
 348	   4	84.1	113.0	 806	inefficient
 349	   4	84.8	114.2	 805	inefficient
 350	   4	84.0	113.7	 810	inefficient
 351	   4	82.8	112.5	 795	inefficient
 352	   4	82.3	110.9	 818	inefficient
 353	   4	84.7	116.9	 806	inefficient
 354	   4	80.3	111.0	 819	inefficient
 355	   4	83.1	110.8	 820	inefficient
 356	   4	85.1	114.5	 801	inefficient
 357	   4	82.0	112.1	 796	inefficient
 358	   4	85.9	113.3	 817	inefficient
 359	   4	85.1	113.5	 797	inefficient
 360	   4	81.6	109.9	 797	inefficient
 361	   4	85.5	114.5	 813	inefficient
 362	   4	82.1	112.1	 807	inefficient
 363	   4	82.1	111.6	 813	inefficient
 364	   4	84.6	114.4	 803	inefficient
 365	   4	80.7	109.0	 813	inefficient
 366	   4	84.2	115.4	 814	inefficient
 367	   4	83.3	112.6	 806	inefficient
 368	   4	85.2	115.6	 812	inefficient
 369	   4	85.7	114.7	 778	inefficient
 370	   4	84.8	112.8	 809	inefficient
 371	   4	83.7	114.4	 799	inefficient
 372	   4	83.1	111.9	 826	inefficient
 373	   4	85.8	115.2	 791	inefficient
 374	   4	83.6	113.2	 796	inefficient
 375	   4	84.3	113.1	 792	inefficient
 376	   4	85.6	113.5	 808	inefficient
 377	   4	82.6	109.6	 826	inefficient
 378	   4	83.2	110.5	 806	inefficient
 379	   4	83.7	112.0	 821	inefficient
 380	   4	85.1	112.7	 816	inefficient
 381	   4	82.9	111.1	 814	inefficient
 382	   4	83.5	111.3	 806	inefficient
 383	   4	86.4	116.4	 827	inefficient
 384	   4	85.4	112.5	 826	inefficient
 385	   4	82.7	110.8	 816	inefficient
 386	   4	84.8	113.1	 827	inefficient
 387	   4	84.6	112.1	 820	inefficient
 388	   4	82.2	110.8	 835	inefficient
 389	   4	80.8	111.4	 822	inefficient
 390	   4	82.4	114.2	 821	inefficient
 391	   4	86.0	116.6	 822	inefficient
 392	   4	84.1	113.7	 827	inefficient
 393	   4	82.1	109.8	 820	inefficient
 394	   4	82.1	111.0	 822	inefficient
 395	   4	83.8	112.4	 850	inefficient
 396	   4	81.8	112.6	 828	inefficient
 397	   4	82.6	114.1	 830	inefficient
 398	   4	84.8	113.8	 814	inefficient
 399	   4	81.4	113.2	 809	inefficient
 400	   4	82.2	110.9	 795	inefficient
 401	   4	83.1	113.8	 810	inefficient
 402	   4	80.0	108.5	 807	inefficient
 403	   4	80.8	110.2	 814	inefficient
 404	   4	81.5	110.9	 806	inefficient
 405	   4	80.8	109.3	 805	inefficient
 406	   4	78.9	106.8	 828	inefficient
 407	   4	80.2	111.1	 820	inefficient
 408	   4	81.3	110.1	 824	inefficient
 409	   4	84.5	113.1	 821	inefficient
 410	   4	80.8	110.7	 819	inefficient
 411	   4	79.9	107.6	 819	inefficient
 412	   4	80.5	108.1	 821	inefficient
 413	   4	78.0	110.4	 816	inefficient
 414	   4	81.5	110.5	 807	inefficient
 415	   4	85.9	115.5	 809	inefficient
 416	   4	82.9	111.7	 813	inefficient
 417	   4	79.7	110.6	 807	inefficient
 418	   4	82.4	109.6	 796	inefficient
 419	   4	81.1	111.6	 802	inefficient
 420	   4	81.4	109.7	 828	inefficient
 421	   4	79.5	109.9	 813	inefficient
 422	   4	85.4	115.3	 797	inefficient
 423	   4	81.4	109.0	 817	inefficient
 424	   4	80.2	109.4	 813	inefficient
 425	   4	80.8	109.6	 800	inefficient
 426	   4	80.9	111.8	 802	inefficient
 427	   4	82.5	110.1	 803	inefficient
 428	   4	82.1	111.0	 831	inefficient
 429	   4	82.7	112.6	 817	inefficient
 430	   4	82.8	113.3	 813	inefficient
 431	   4	84.1	113.8	 815	inefficient
 432	   4	80.6	112.2	 817	inefficient
 433	   4	79.5	109.4	 810	inefficient
 434	   4	81.1	109.6	 808	inefficient
 435	   4	83.2	112.9	 816	inefficient
 436	   4	83.6	114.4	 801	inefficient
 437	   4	82.1	111.5	 797	inefficient
 438	   4	82.0	112.7	 803	inefficient
 439	   4	82.6	111.4	 827	inefficient
 440	   4	82.4	111.3	 792	inefficient
 441	   4	84.7	113.6	 815	inefficient
 442	   4	82.6	111.2	 822	inefficient
 443	   4	82.1	110.7	 807	inefficient
 444	   4	84.3	115.0	 812	inefficient
 445	   4	81.5	111.7	 799	inefficient
 446	   4	81.0	111.4	 816	inefficient
 447	   4	82.6	113.2	 808	inefficient
 448	   4	85.2	116.3	 804	inefficient
 449	   4	82.8	113.1	 799	inefficient
 450	   4	81.2	110.9	 804	inefficient
 451	   4	82.7	111.8	 815	inefficient
 452	   4	80.2	109.1	 819	inefficient
 453	   4	82.0	112.3	 802	inefficient
 454	   4	79.2	109.3	 799	inefficient
 455	   4	81.9	111.0	 805	inefficient
 456	   4	79.6	109.7	 836	inefficient
 457	   4	83.3	112.1	 789	inefficient
 458	   4	79.8	111.6	 814	inefficient
 459	   4	81.0	111.6	 808	inefficient
 460	   4	83.1	113.7	 806	inefficient
 461	   4	81.7	111.0	 810	inefficient
 462	   4	80.0	110.1	 790	inefficient
 463	   4	82.1	109.8	 808	inefficient
 464	   4	82.2	112.0	 810	inefficient
 465	   4	78.8	108.4	 812	inefficient
 466	   4	79.9	108.9	 806	inefficient
 467	   4	81.9	110.3	 806	inefficient
 468	   4	81.8	110.2	 824	inefficient
 469	   4	78.4	105.7	 815	inefficient
 470	   4	80.2	109.4	 825	inefficient
 471	   4	82.7	109.7	 805	inefficient
 472	   4	82.6	113.1	 812	inefficient
 473	   4	79.1	108.3	 816	inefficient
 474	   4	80.3	110.3	 823	inefficient
 475	   4	80.0	108.7	 824	inefficient
 476	   4	79.8	109.4	 821	inefficient
 477	   4	81.1	111.9	 808	inefficient
 478	   4	82.9	111.2	 819	inefficient
 479	   4	80.9	110.1	 817	inefficient
 480	   4	81.3	110.6	 817	inefficient
 481	   4	79.6	110.2	 814	inefficient
 482	   4	80.3	109.2	 837	inefficient
 483	   4	83.0	110.8	 821	inefficient
 484	   4	85.5	113.6	 829	inefficient
 485	   4	82.8	110.4	 819	inefficient
 486	   4	80.5	111.1	 827	inefficient
 487	   4	81.8	110.7	 812	inefficient
 488	   4	82.9	110.7	 820	inefficient
 489	   4	82.4	111.4	 808	inefficient
 490	   4	81.3	111.3	 819	inefficient
 491	   4	82.4	109.8	 831	inefficient
 492	   4	80.6	109.0	 791	inefficient
 493	   4	81.4	109.8	 836	inefficient
 494	   4	81.3	109.7	 808	inefficient
 495	   4	81.7	111.2	 790	inefficient
 496	   4	81.1	111.4	 820	inefficient
 497	   4	81.4	110.6	 819	inefficient
 498	   4	83.8	113.1	 819	inefficient
 499	   4	82.1	110.6	 817	inefficient
 500	   4	79.1	108.3	 820	inefficient
 501	   4	81.8	110.1	 830	inefficient
 502	   4	85.1	113.9	 817	inefficient
 503	   4	82.0	110.1	 814	inefficient
 504	   4	83.3	111.2	 829	inefficient
 505	   4	81.4	111.3	 852	inefficient
 506	   4	83.0	112.8	 811	inefficient
 507	   4	83.5	112.4	 811	inefficient
 508	   4	81.2	109.2	 827	inefficient
 509	   4	82.3	110.9	 822	inefficient
 510	   4	81.6	112.5	 797	inefficient
 511	   4	84.5	114.8	 814	inefficient
 512	   4	86.8	114.8	 785	inefficient
 513	   4	87.5	117.4	 792	inefficient
 514	   4	88.1	117.4	 788	inefficient
 515	   4	88.2	118.3	 795	inefficient
 516	   4	85.9	116.2	 792	inefficient
 517	   4	86.5	117.0	 784	inefficient
 518	   4	87.1	118.0	 783	inefficient
 519	   4	88.4	116.1	 779	inefficient
 520	   4	86.2	114.0	 807	inefficient
 521	   4	84.5	113.0	 795	inefficient
 522	   4	86.6	116.2	 777	inefficient
 523	   4	85.4	115.6	 790	inefficient
 524	   4	86.6	116.1	 797	inefficient
 525	   4	88.4	120.0	 792	inefficient
 526	   4	84.1	112.9	 793	inefficient
 527	   4	84.7	114.9	 789	inefficient
 528	   4	87.1	116.5	 788	inefficient
 529	   4	85.3	114.3	 803	inefficient
 530	   4	86.0	116.1	 783	inefficient
 531	   4	84.7	113.7	 780	inefficient
 532	   4	85.3	115.1	 794	inefficient
 533	   4	84.2	113.3	 802	inefficient
 534	   4	86.2	113.9	 792	inefficient
 535	   4	84.6	114.3	 792	inefficient
 536	   4	85.7	115.6	 798	inefficient
 537	   4	87.5	116.6	 787	inefficient
 538	   4	85.4	114.4	 781	inefficient
 539	   4	89.2	118.7	 810	inefficient
 540	   4	85.9	115.8	 799	inefficient
 541	   4	85.2	113.4	 799	inefficient
 542	   4	87.7	117.6	 786	inefficient
 543	   4	84.8	114.4	 796	inefficient
 544	   4	86.3	116.3	 779	inefficient
 545	   4	85.6	115.9	 790	inefficient
 546	   4	87.4	117.0	 787	inefficient
 547	   4	87.4	118.4	 791	inefficient
 548	   4	85.3	115.7	 780	inefficient
 549	   4	87.1	116.0	 791	inefficient
 550	   4	86.0	115.1	 791	inefficient
 551	   4	84.7	113.8	 782	inefficient
 552	   4	86.4	115.2	 796	inefficient
 553	   4	88.8	118.2	 781	inefficient
 554	   4	86.3	117.6	 772	inefficient
 555	   4	83.1	114.4	 790	inefficient
 556	   4	86.8	116.5	 797	inefficient
 557	   4	84.8	113.0	 803	inefficient
 558	   4	87.0	117.4	 788	inefficient
 559	   4	86.2	115.8	 798	inefficient
 560	   4	86.5	116.8	 794	inefficient
 561	   4	87.6	118.2	 818	inefficient
 562	   4	84.1	114.0	 790	inefficient
 563	   4	85.8	116.5	 775	inefficient
 564	   4	85.7	116.1	 793	inefficient
 565	   4	85.3	114.0	 788	inefficient
 566	   4	83.3	112.7	 791	inefficient
 567	   4	85.6	114.5	 799	inefficient
 568	   4	86.8	117.4	 790	inefficient
 569	   4	86.3	116.0	 790	inefficient
 570	   4	84.7	112.0	 779	inefficient
 571	   4	86.9	117.0	 795	inefficient
 572	   4	87.3	116.9	 787	inefficient
 573	   4	87.1	117.2	 792	inefficient
 574	   4	87.3	118.7	 797	inefficient
 575	   4	87.7	116.8	 794	inefficient
 576	   4	86.8	116.2	 798	inefficient
 577	   4	86.8	115.5	 787	inefficient
 578	   4	86.2	115.7	 785	inefficient
 579	   4	87.6	116.3	 794	inefficient
 580	   4	86.8	114.9	 791	inefficient
 581	   4	86.1	115.2	 785	inefficient
 582	   4	85.1	117.4	 782	inefficient
 583	   4	84.9	114.6	 789	inefficient
 584	   4	87.8	118.8	 787	inefficient
 585	   4	84.4	112.5	 786	inefficient
 586	   4	87.5	119.3	 780	inefficient
 587	   4	86.0	115.8	 796	inefficient
 588	   4	84.4	113.0	 811	inefficient
 589	   4	85.5	117.1	 806	inefficient
 590	   4	83.8	112.7	 809	inefficient
 591	   4	84.0	113.4	 803	inefficient
 592	   4	84.9	112.8	 796	inefficient
 593	   4	86.4	117.4	 791	inefficient
 594	   4	85.3	116.0	 779	inefficient
 595	   4	82.9	110.0	 806	inefficient
 596	   4	85.9	115.9	 801	inefficient
 597	   4	85.3	115.1	 792	inefficient
 598	   4	84.9	115.5	 782	inefficient
 599	   4	86.1	115.6	 797	inefficient
 600	   4	85.5	115.8	 790	inefficient
 601	   4	83.0	114.4	 805	inefficient
 602	   4	87.3	115.8	 787	inefficient
 603	   4	83.0	112.0	 800	inefficient
 604	   4	86.9	115.7	 790	inefficient
 605	   4	84.6	116.9	 816	inefficient
 606	   4	84.6	115.3	 814	inefficient
 607	   4	84.6	112.2	 798	inefficient
 608	   4	83.9	113.7	 811	inefficient
 609	   4	86.6	114.6	 790	inefficient
 610	   4	82.9	111.6	 806	inefficient
 611	   4	86.2	114.6	 794	inefficient
 612	   4	87.2	117.7	 810	inefficient
 613	   4	84.5	115.2	 804	inefficient
 614	   4	84.8	114.0	 808	inefficient
 615	   4	83.3	114.0	 826	inefficient
 616	   4	85.8	115.9	 797	inefficient
 617	   4	87.8	117.6	 827	inefficient
 618	   4	85.9	114.7	 803	inefficient
 619	   4	85.7	113.0	 805	inefficient
 620	   4	83.8	115.0	 810	inefficient
 621	   4	85.0	115.2	 799	inefficient
 622	   4	84.0	115.2	 824	inefficient
 623	   4	85.3	116.3	 819	inefficient
 624	   4	85.4	115.2	 810	inefficient
 625	   4	86.1	116.5	 812	inefficient
 626	   4	86.7	117.1	 797	inefficient
 627	   4	85.6	113.6	 811	inefficient
 628	   4	87.2	118.5	 813	inefficient
 629	   4	85.3	116.4	 788	inefficient
 630	   4	85.2	115.7	 826	inefficient
 631	   4	86.6	118.5	 792	inefficient
 632	   4	87.5	118.3	 809	inefficient
 633	   4	85.3	114.1	 807	inefficient
 634	   4	84.7	115.4	 820	inefficient
 635	   4	88.2	118.7	 820	inefficient
 636	   4	85.5	115.4	 817	inefficient
 637	   4	87.1	119.0	 797	inefficient
 638	   4	86.9	115.4	 818	inefficient
 639	   4	85.6	117.6	 816	inefficient
 640	   4	90.6	117.8	 808	inefficient
 641	   4	92.7	123.9	 810	inefficient
 642	   4	92.9	120.9	 804	inefficient
 643	   4	89.6	120.0	 805	inefficient
 644	   4	89.5	118.5	 806	inefficient
 645	   4	87.2	118.6	 828	inefficient
 646	   4	91.3	121.6	 807	inefficient
 647	   4	89.6	119.7	 806	inefficient
 648	   4	89.5	118.9	 810	inefficient
 649	   4	89.7	120.3	 812	inefficient
 650	   4	87.8	118.2	 831	inefficient
 651	   4	85.7	114.9	 832	inefficient
 652	   4	93.2	121.6	 800	inefficient
 653	   4	87.6	117.4	 816	inefficient
 654	   4	87.5	116.2	 818	inefficient
 655	   4	88.1	118.5	 813	inefficient
 656	   4	89.8	119.2	 797	inefficient
 657	   4	91.3	122.2	 817	inefficient
 658	   4	88.5	118.7	 820	inefficient
 659	   4	85.3	116.6	 824	inefficient
 660	   4	89.6	119.8	 797	inefficient
 661	   4	89.3	119.1	 799	inefficient
 662	   4	91.0	121.1	 794	inefficient
 663	   4	88.5	117.0	 814	inefficient
 664	   4	90.3	118.7	 785	inefficient
 665	   4	89.0	117.1	 804	inefficient
 666	   4	88.7	118.9	 809	inefficient
 667	   4	90.0	117.3	 817	inefficient
 668	   4	90.2	124.0	 805	inefficient
 669	   4	89.3	122.8	 804	inefficient
 670	   4	87.3	116.9	 812	inefficient
 671	   4	88.9	118.5	 814	inefficient
 672	   4	90.0	121.5	 820	inefficient
 673	   4	86.4	116.2	 819	inefficient
 674	   4	89.5	119.3	 801	inefficient
 675	   4	88.7	119.2	 824	inefficient
 676	   4	86.2	115.3	 821	inefficient
 677	   4	91.5	118.7	 793	inefficient
 678	   4	89.4	119.0	 811	inefficient
 679	   4	86.5	118.3	 807	inefficient
 680	   4	91.3	120.6	 827	inefficient
 681	   4	86.6	116.8	 794	inefficient
 682	   4	88.5	118.2	 811	inefficient
 683	   4	83.8	115.9	 820	inefficient
 684	   4	85.4	116.0	 813	inefficient
 685	   4	88.7	116.4	 812	inefficient
 686	   4	89.5	118.9	 805	inefficient
 687	   4	87.7	118.7	 816	inefficient
 688	   4	90.5	121.2	 809	inefficient
 689	   4	88.3	116.2	 814	inefficient
 690	   4	89.0	119.3	 798	inefficient
 691	   4	87.9	116.8	 830	inefficient
 692	   4	89.4	119.7	 808	inefficient
 693	   4	90.0	118.5	 810	inefficient
 694	   4	88.7	118.1	 798	inefficient
 695	   4	86.3	117.1	 805	inefficient
 696	   4	91.8	121.1	 800	inefficient
 697	   4	87.2	117.2	 816	inefficient
 698	   4	88.6	117.6	 791	inefficient
 699	   4	88.2	119.1	 814	inefficient
 700	   4	90.0	121.3	 805	inefficient
 701	   4	87.3	117.5	 809	inefficient
 702	   4	89.7	119.0	 814	inefficient
 703	   4	89.9	118.9	 802	inefficient
 704	   4	88.9	119.0	 810	inefficient
 705	   4	88.2	116.4	 809	inefficient
 706	   4	87.1	118.2	 822	inefficient
 707	   4	90.2	120.5	 816	inefficient
 708	   4	91.2	119.8	 812	inefficient
 709	   4	90.0	119.6	 807	inefficient
 710	   4	87.4	119.2	 814	inefficient
 711	   4	88.7	117.6	 817	inefficient
 712	   4	88.5	120.4	 803	inefficient
 713	   4	86.4	115.4	 798	inefficient
 714	   4	86.7	114.6	 819	inefficient
 715	   4	86.6	116.6	 803	inefficient
 716	   4	87.2	117.4	 814	inefficient
 717	   4	86.7	114.8	 823	inefficient
 718	   4	88.7	120.6	 805	inefficient
 719	   4	88.7	117.2	 806	inefficient
 720	   4	88.0	118.7	 809	inefficient
 721	   4	90.7	119.8	 812	inefficient
 722	   4	86.7	119.0	 827	inefficient
 723	   4	88.3	119.7	 818	inefficient
 724	   4	87.9	116.9	 815	inefficient
 725	   4	88.8	119.3	 810	inefficient
 726	   4	87.1	117.8	 828	inefficient
 727	   4	88.6	116.9	 813	inefficient
 728	   4	88.2	118.1	 796	inefficient
 729	   4	87.1	119.7	 804	inefficient
 730	   4	89.1	118.7	 815	inefficient
 731	   4	86.9	115.9	 792	inefficient
 732	   4	89.9	119.7	 829	inefficient
 733	   4	88.4	119.3	 815	inefficient
 734	   4	87.8	117.3	 814	inefficient
 735	   4	90.6	119.8	 803	inefficient
 736	   4	89.6	120.4	 809	inefficient
 737	   4	88.3	118.5	 822	inefficient
 738	   4	86.8	118.6	 799	inefficient
 739	   4	89.0	120.3	 811	inefficient
 740	   4	89.9	120.3	 818	inefficient
 741	   4	90.3	117.5	 817	inefficient
 742	   4	88.8	117.1	 811	inefficient
 743	   4	89.0	117.8	 812	inefficient
 744	   4	89.6	120.2	 794	inefficient
 745	   4	89.4	121.2	 828	inefficient
 746	   4	88.9	120.4	 812	inefficient
 747	   4	89.7	119.6	 825	inefficient
 748	   4	90.3	119.7	 810	inefficient
 749	   4	88.6	117.8	 804	inefficient
 750	   4	88.4	120.5	 809	inefficient
 751	   4	88.0	117.5	 819	inefficient
 752	   4	90.1	120.1	 813	inefficient
 753	   4	89.6	117.6	 791	inefficient
 754	   4	89.9	119.4	 826	inefficient
 755	   4	88.3	117.1	 805	inefficient
 756	   4	86.9	115.4	 820	inefficient
 757	   4	88.7	118.7	 813	inefficient
 758	   4	86.2	116.0	 812	inefficient
 759	   4	90.5	120.7	 795	inefficient
 760	   4	89.8	120.6	 807	inefficient
 761	   4	90.7	120.0	 811	inefficient
 762	   4	87.7	115.2	 801	inefficient
 763	   4	91.5	121.4	 816	inefficient
 764	   4	89.7	118.4	 804	inefficient
 765	   4	89.9	119.6	 800	inefficient
 766	   4	92.6	122.9	 799	inefficient
 767	   4	90.1	120.6	 793	inefficient
 768	   4	83.8	109.9	 804	inefficient
 769	   4	85.8	116.4	 795	inefficient
 770	   4	83.4	114.0	 793	inefficient
 771	   4	81.0	109.9	 817	inefficient
 772	   4	82.6	112.1	 820	inefficient
 773	   4	84.1	116.0	 818	inefficient
 774	   4	82.1	111.7	 821	inefficient
 775	   4	82.0	112.0	 812	inefficient
 776	   4	82.0	111.1	 807	inefficient
 777	   4	82.3	112.6	 798	inefficient
 778	   4	81.6	111.3	 842	inefficient
 779	   4	81.9	110.8	 841	inefficient
 780	   4	80.9	109.6	 831	inefficient
 781	   4	80.3	109.8	 828	inefficient
 782	   4	83.1	110.9	 824	inefficient
 783	   4	82.9	111.7	 834	inefficient
 784	   4	82.6	110.1	 814	inefficient
 785	   4	81.4	108.7	 820	inefficient
 786	   4	82.0	112.1	 806	inefficient
 787	   4	83.9	113.6	 806	inefficient
 788	   4	81.5	110.8	 831	inefficient
 789	   4	82.4	113.6	 815	inefficient
 790	   4	83.8	112.6	 803	inefficient
 791	   4	85.2	114.7	 812	inefficient
 792	   4	82.0	110.4	 811	inefficient
 793	   4	82.8	111.6	 826	inefficient
 794	   4	80.8	111.2	 809	inefficient
 795	   4	83.3	113.2	 818	inefficient
 796	   4	85.6	114.3	 801	inefficient
 797	   4	81.1	110.5	 805	inefficient
 798	   4	81.3	111.0	 803	inefficient
 799	   4	79.0	108.1	 815	inefficient
 800	   4	80.4	110.5	 810	inefficient
 801	   4	80.9	111.1	 793	inefficient
 802	   4	80.6	110.2	 792	inefficient
 803	   4	82.6	110.3	 811	inefficient
 804	   4	81.0	109.7	 798	inefficient
 805	   4	80.2	109.9	 798	inefficient
 806	   4	81.1	112.3	 804	inefficient
 807	   4	81.5	110.0	 808	inefficient
 808	   4	82.5	113.0	 800	inefficient
 809	   4	81.6	110.9	 816	inefficient
 810	   4	81.7	111.8	 807	inefficient
 811	   4	83.3	113.0	 801	inefficient
 812	   4	83.0	112.5	 804	inefficient
 813	   4	81.3	110.1	 818	inefficient
 814	   4	84.2	115.1	 817	inefficient
 815	   4	82.9	113.0	 830	inefficient
 816	   4	81.7	109.9	 814	inefficient
 817	   4	79.5	110.0	 803	inefficient
 818	   4	82.2	112.7	 796	inefficient
 819	   4	80.5	110.3	 804	inefficient
 820	   4	81.7	114.7	 807	inefficient
 821	   4	83.0	112.8	 784	inefficient
 822	   4	84.3	111.9	 810	inefficient
 823	   4	82.4	112.0	 803	inefficient
 824	   4	79.9	109.9	 794	inefficient
 825	   4	82.5	111.6	 788	inefficient
 826	   4	80.2	110.0	 790	inefficient
 827	   4	83.8	114.5	 795	inefficient
 828	   4	81.3	112.6	 792	inefficient
 829	   4	83.4	113.5	 786	inefficient
 830	   4	83.6	113.4	 786	inefficient
 831	   4	82.7	111.1	 791	inefficient
 832	   4	79.1	108.7	 790	inefficient
 833	   4	80.9	110.5	 790	inefficient
 834	   4	80.7	109.0	 791	inefficient
 835	   4	81.2	109.7	 787	inefficient
 836	   4	80.1	110.6	 790	inefficient
 837	   4	80.4	111.2	 806	inefficient
 838	   4	81.2	110.3	 801	inefficient
 839	   4	79.3	109.1	 810	inefficient
 840	   4	81.3	111.0	 783	inefficient
 841	   4	80.3	111.9	 814	inefficient
 842	   4	79.2	109.8	 793	inefficient
 843	   4	78.5	107.9	 813	inefficient
 844	   4	79.4	107.1	 792	inefficient
 845	   4	78.0	108.0	 806	inefficient
 846	   4	80.6	110.2	 803	inefficient
 847	   4	80.9	112.7	 807	inefficient
 848	   4	78.3	108.9	 803	inefficient
 849	   4	79.1	110.7	 806	inefficient
 850	   4	77.3	106.7	 788	inefficient
 851	   4	78.3	107.6	 808	inefficient
 852	   4	80.2	110.4	 798	inefficient
 853	   4	79.2	110.6	 804	inefficient
 854	   4	81.1	109.8	 805	inefficient
 855	1501	0.0	0.0	   0	dead
 856	   4	77.5	107.2	 811	inefficient
 857	   4	80.0	110.4	 807	inefficient
 858	   4	78.9	108.6	 808	inefficient
 859	   4	80.7	110.0	 801	inefficient
 860	   4	80.8	110.9	 815	inefficient
 861	   4	80.5	110.9	 799	inefficient
 862	   4	80.1	110.8	 813	inefficient
 863	   4	79.1	110.0	 825	inefficient
 864	   4	76.9	107.0	 793	inefficient
 865	   4	79.2	108.3	 807	inefficient
 866	   4	78.7	108.4	 825	inefficient
 867	   4	80.2	108.6	 820	inefficient
 868	   4	78.8	108.9	 813	inefficient
 869	   4	77.6	106.3	 810	inefficient
 870	   4	78.5	106.9	 809	inefficient
 871	   4	79.5	109.6	 812	inefficient
 872	   4	82.2	113.8	 802	inefficient
 873	   4	78.5	106.5	 797	inefficient
 874	   4	80.3	112.0	 813	inefficient
 875	   4	80.7	112.2	 811	inefficient
 876	   4	75.9	106.8	 814	inefficient
 877	   4	78.5	108.6	 815	inefficient
 878	   4	82.2	112.3	 793	inefficient
 879	   4	80.0	108.5	 822	inefficient
 880	   4	78.8	108.2	 813	inefficient
 881	   4	82.5	112.1	 835	inefficient
 882	   4	81.0	110.6	 800	inefficient
 883	   4	78.8	108.8	 814	inefficient
 884	   4	82.1	112.0	 807	inefficient
 885	   4	79.5	107.1	 803	inefficient
 886	   4	79.9	109.9	 829	inefficient
 887	   4	79.7	108.7	 833	inefficient
 888	   4	80.8	111.8	 812	inefficient
 889	   4	78.5	108.3	 833	inefficient
 890	   4	77.9	106.4	 817	inefficient
 891	   4	81.2	109.9	 833	inefficient
 892	   4	79.4	109.2	 827	inefficient
 893	   4	80.5	108.8	 833	inefficient
 894	   4	80.5	110.6	 816	inefficient
 895	   4	82.4	113.2	 816	inefficient
 896	   4	86.2	113.6	 819	inefficient
 897	   4	83.6	112.9	 824	inefficient
 898	   4	86.4	115.5	 821	inefficient
 899	   4	86.5	115.5	 826	inefficient
 900	   4	86.8	116.1	 825	inefficient
 901	   4	83.8	111.9	 833	inefficient
 902	   4	82.3	113.3	 819	inefficient
 903	   4	85.7	114.9	 819	inefficient
 904	   4	85.4	115.3	 812	inefficient
 905	   4	83.5	114.3	 833	inefficient
 906	   4	85.9	114.2	 811	inefficient
 907	   4	83.9	112.3	 833	inefficient
 908	   4	85.5	114.1	 844	inefficient
 909	   4	84.0	112.8	 811	inefficient
 910	   4	84.1	111.5	 830	inefficient
 911	   4	84.2	115.9	 828	inefficient
 912	   4	82.4	111.3	 842	inefficient
 913	   4	83.2	112.5	 829	inefficient
 914	   4	84.1	115.8	 824	inefficient
 915	   4	86.8	116.6	 826	inefficient
 916	   4	82.1	111.1	 825	inefficient
 917	   4	84.6	112.8	 827	inefficient
 918	   4	84.5	113.3	 832	inefficient
 919	   4	81.2	111.0	 831	inefficient
 920	   4	82.9	112.3	 840	inefficient
 921	   4	82.8	112.9	 805	inefficient
 922	   4	84.0	112.8	 815	inefficient
 923	   4	84.3	114.2	 824	inefficient
 924	   4	83.6	111.7	 811	inefficient
 925	   4	82.6	110.6	 795	inefficient
 926	   4	83.6	113.2	 817	inefficient
 927	   4	84.2	114.6	 805	inefficient
 928	   4	84.4	112.1	 809	inefficient
 929	   4	84.1	114.2	 828	inefficient
 930	   4	85.8	116.2	 802	inefficient
 931	   4	86.4	115.6	 791	inefficient
 932	   4	85.5	113.2	 802	inefficient
 933	   4	85.2	116.3	 814	inefficient
 934	   4	82.3	110.6	 807	inefficient
 935	   4	81.8	110.8	 807	inefficient
 936	   4	82.8	113.7	 817	inefficient
 937	   4	86.3	115.6	 792	inefficient
 938	   4	84.8	113.6	 805	inefficient
 939	   4	84.2	114.8	 808	inefficient
 940	   4	85.2	115.5	 797	inefficient
 941	   4	83.9	116.3	 814	inefficient
 942	   4	83.6	111.5	 810	inefficient
 943	   4	83.7	111.9	 800	inefficient
 944	   4	85.6	113.0	 798	inefficient
 945	   4	87.0	116.9	 789	inefficient
 946	   4	81.0	109.2	 806	inefficient
 947	   4	83.9	113.3	 779	inefficient
 948	   4	85.1	114.9	 779	inefficient
 949	   4	83.6	112.4	 759	inefficient
 950	   4	84.6	113.6	 778	inefficient
 951	   4	85.7	114.7	 779	inefficient
 952	   4	86.3	114.1	 779	inefficient
 953	   4	84.8	115.1	 779	inefficient
 954	   4	82.1	112.5	 769	inefficient
 955	   4	86.7	115.0	 783	inefficient
 956	   4	85.0	115.0	 774	inefficient
 957	   4	84.8	115.1	 768	inefficient
 958	   4	87.0	117.2	 770	inefficient
 959	   4	85.7	114.0	 776	inefficient
 960	   4	85.1	112.6	 767	inefficient
 961	   4	85.1	115.6	 770	inefficient
 962	   4	86.1	116.6	 746	inefficient
 963	   4	85.4	114.7	 769	inefficient
 964	   4	82.8	110.8	 775	inefficient
 965	   4	87.4	115.8	 770	inefficient
 966	   4	82.3	112.1	 769	inefficient
 967	   4	84.3	117.1	 791	inefficient
 968	   4	83.9	112.7	 770	inefficient
 969	   4	81.6	112.7	 763	inefficient
 970	   4	83.1	113.9	 780	inefficient
 971	   4	83.6	114.8	 779	inefficient
 972	   4	85.6	117.9	 758	inefficient
 973	   4	84.6	115.5	 775	inefficient
 974	   4	83.1	111.7	 772	inefficient
 975	   4	83.9	113.1	 762	inefficient
 976	   4	85.3	116.0	 754	inefficient
 977	   4	85.2	116.3	 761	inefficient
 978	   4	84.2	114.0	 781	inefficient
 979	   4	84.1	112.1	 762	inefficient
 980	   4	85.2	115.9	 777	inefficient
 981	   4	84.6	113.7	 768	inefficient
 982	   4	86.2	117.1	 764	inefficient
 983	   4	85.7	115.4	 773	inefficient
 984	   4	85.8	115.8	 771	inefficient
 985	   4	85.9	112.3	 777	inefficient
 986	   4	84.3	114.1	 771	inefficient
 987	   4	81.9	110.6	 761	inefficient
 988	   4	86.4	116.8	 765	inefficient
 989	   4	87.0	116.8	 761	inefficient
 990	   4	86.7	114.5	 761	inefficient
 991	   4	82.6	111.4	 755	inefficient
 992	   4	87.1	117.5	 769	inefficient
 993	   4	85.0	117.1	 781	inefficient
 994	   4	84.6	113.8	 754	inefficient
 995	   4	85.0	112.3	 756	inefficient
 996	   4	83.7	113.9	 777	inefficient
 997	   4	86.8	116.5	 762	inefficient
 998	   4	86.6	116.7	 780	inefficient
 999	   4	84.0	114.0	 775	inefficient
1000	   4	85.2	115.0	 763	inefficient
1001	   4	83.4	113.1	 774	inefficient
1002	   4	85.1	114.6	 760	inefficient
1003	   4	86.1	115.8	 770	inefficient
1004	   4	84.9	114.3	 765	inefficient
1005	   4	81.4	110.7	 769	inefficient
1006	   4	86.1	113.8	 762	inefficient
1007	   4	84.9	113.0	 758	inefficient
1008	   4	86.5	117.0	 750	inefficient
1009	   4	84.8	112.3	 752	inefficient
1010	   4	84.6	113.8	 753	inefficient
1011	   4	83.7	113.8	 766	inefficient
1012	   4	85.6	115.5	 769	inefficient
1013	   4	88.2	118.6	 755	inefficient
1014	   4	86.4	115.1	 780	inefficient
1015	   4	86.2	116.6	 765	inefficient
1016	   4	88.0	117.2	 777	inefficient
1017	   4	85.9	116.5	 768	inefficient
1018	   4	85.0	112.4	 752	inefficient
1019	   4	85.5	113.7	 750	inefficient
1020	   4	82.5	110.1	 758	inefficient
1021	   4	84.4	113.1	 758	inefficient
1022	   4	87.0	117.3	 746	inefficient
1023	   4	83.5	114.3	 766	inefficient
1024	   4	85.8	115.6	 797	inefficient
1025	   4	85.0	112.6	 804	inefficient
1026	   4	83.6	110.8	 791	inefficient
1027	   4	86.1	117.3	 778	inefficient
1028	   4	84.7	112.9	 794	inefficient
1029	   4	83.3	114.3	 799	inefficient
1030	   4	81.3	109.9	 792	inefficient
1031	   4	82.6	112.1	 766	inefficient
1032	   4	83.4	114.5	 783	inefficient
1033	   4	82.7	110.8	 791	inefficient
1034	   4	81.9	111.2	 777	inefficient
1035	   4	80.4	109.9	 786	inefficient
1036	   4	85.0	114.7	 771	inefficient
1037	   4	81.8	111.5	 780	inefficient
1038	   4	82.7	114.1	 793	inefficient
1039	   4	83.6	113.1	 783	inefficient
1040	   4	82.9	113.1	 780	inefficient
1041	   4	84.5	114.1	 792	inefficient
1042	   4	82.7	112.2	 779	inefficient
1043	   4	82.1	110.2	 795	inefficient
1044	   4	82.1	111.2	 788	inefficient
1045	   4	84.1	113.9	 794	inefficient
1046	   4	82.4	111.4	 785	inefficient
1047	   4	81.8	110.1	 771	inefficient
1048	   4	81.5	110.1	 783	inefficient
1049	   4	82.6	113.2	 760	inefficient
1050	   4	81.9	109.8	 769	inefficient
1051	   4	82.1	110.1	 778	inefficient
1052	   4	82.8	111.2	 774	inefficient
1053	   4	83.0	111.3	 778	inefficient
1054	   4	82.0	111.8	 798	inefficient
1055	   4	81.8	110.9	 779	inefficient
1056	   4	84.8	116.5	 776	inefficient
1057	   4	81.3	111.7	 773	inefficient
1058	   4	83.4	113.8	 779	inefficient
1059	   4	82.6	113.4	 773	inefficient
1060	   4	83.6	112.9	 770	inefficient
1061	   4	82.6	111.6	 773	inefficient
1062	   4	84.0	114.7	 759	inefficient
1063	   4	81.5	111.6	 779	inefficient
1064	   4	83.0	111.7	 804	inefficient
1065	   4	85.1	114.8	 791	inefficient
1066	   4	81.9	111.9	 789	inefficient
1067	   4	82.3	111.8	 775	inefficient
1068	   4	84.3	115.1	 775	inefficient
1069	   4	83.0	112.0	 792	inefficient
1070	   4	82.7	112.1	 798	inefficient
1071	   4	82.6	112.8	 764	inefficient
1072	   4	82.4	113.0	 795	inefficient
1073	   4	82.9	110.6	 781	inefficient
1074	   4	83.8	113.7	 776	inefficient
1075	   4	83.2	113.9	 795	inefficient
1076	   4	85.0	114.4	 785	inefficient
1077	   4	82.8	112.5	 766	inefficient
1078	   4	80.2	111.9	 790	inefficient
1079	   4	81.4	112.5	 779	inefficient
1080	   4	81.2	110.3	 769	inefficient
1081	   4	83.2	114.1	 781	inefficient
1082	   4	82.4	113.2	 792	inefficient
1083	   4	81.1	110.7	 791	inefficient
1084	   4	83.5	112.4	 771	inefficient
1085	   4	82.8	112.0	 792	inefficient
1086	   4	81.0	112.2	 810	inefficient
1087	   4	81.1	112.0	 771	inefficient
1088	   4	83.6	115.0	 781	inefficient
1089	   4	81.8	112.2	 780	inefficient
1090	   4	83.2	113.6	 793	inefficient
1091	   4	81.8	110.2	 757	inefficient
1092	   4	80.9	112.7	 775	inefficient
1093	   4	80.5	110.6	 775	inefficient
1094	   4	84.7	114.9	 790	inefficient
1095	   4	79.3	110.2	 793	inefficient
1096	   4	80.6	111.6	 784	inefficient
1097	   4	79.8	109.2	 773	inefficient
1098	   4	80.1	111.0	 772	inefficient
1099	   4	79.1	109.2	 778	inefficient
1100	   4	81.5	111.8	 795	inefficient
1101	   4	81.3	111.0	 788	inefficient
1102	   4	82.4	112.9	 784	inefficient
1103	   4	80.9	111.7	 784	inefficient
1104	   4	79.7	111.9	 810	inefficient
1105	   4	80.7	111.4	 789	inefficient
1106	   4	81.3	111.1	 788	inefficient
1107	   4	81.4	109.9	 814	inefficient
1108	   4	79.3	108.6	 762	inefficient
1109	   4	80.8	110.2	 781	inefficient
1110	   4	83.2	114.0	 800	inefficient
1111	   4	82.1	112.6	 783	inefficient
1112	   4	80.6	108.5	 812	inefficient
1113	   4	81.5	109.9	 787	inefficient
1114	   4	82.4	112.7	 791	inefficient
1115	   4	80.8	109.7	 802	inefficient
1116	   4	78.9	107.5	 809	inefficient
1117	   4	80.3	109.6	 802	inefficient
1118	   4	79.9	109.6	 801	inefficient
1119	   4	80.9	111.7	 787	inefficient
1120	   4	82.9	112.5	 790	inefficient
1121	   4	82.8	112.6	 800	inefficient
1122	   4	82.2	109.7	 794	inefficient
1123	   4	81.1	109.0	 795	inefficient
1124	   4	83.3	113.1	 804	inefficient
1125	   4	81.8	112.8	 800	inefficient
1126	   4	82.6	113.1	 784	inefficient
1127	   4	80.1	110.9	 804	inefficient
1128	   4	82.0	110.3	 782	inefficient
1129	   4	80.3	110.6	 802	inefficient
1130	   4	82.1	112.1	 806	inefficient
1131	   4	82.2	111.4	 806	inefficient
1132	   4	81.9	111.1	 769	inefficient
1133	   4	84.9	114.2	 791	inefficient
1134	   4	83.2	113.1	 787	inefficient
1135	   4	81.5	111.5	 788	inefficient
1136	   4	82.7	112.6	 812	inefficient
1137	   4	80.2	109.2	 800	inefficient
1138	   4	82.5	111.5	 803	inefficient
1139	   4	81.2	111.2	 797	inefficient
1140	   4	82.1	111.8	 793	inefficient
1141	   4	84.3	114.2	 786	inefficient
1142	   4	82.5	112.9	 791	inefficient
1143	   4	81.7	113.8	 782	inefficient
1144	   4	82.1	112.2	 797	inefficient
1145	   4	82.7	114.4	 793	inefficient
1146	   4	84.3	112.4	 802	inefficient
1147	   4	81.3	109.9	 807	inefficient
1148	   4	84.4	111.7	 803	inefficient
1149	   4	83.4	113.6	 775	inefficient
1150	   4	83.0	113.7	 800	inefficient
1151	   4	83.1	113.1	 778	inefficient
1152	   4	84.0	110.7	 843	inefficient
1153	   4	84.1	112.3	 820	inefficient
1154	   4	86.0	114.9	 825	inefficient
1155	   4	85.2	113.5	 817	inefficient
1156	   4	87.5	114.6	 828	inefficient
1157	   4	87.3	114.3	 806	inefficient
1158	   4	86.6	117.0	 811	inefficient
1159	   4	82.9	111.0	 810	inefficient
1160	   4	86.5	114.5	 824	inefficient
1161	   4	87.1	115.7	 804	inefficient
1162	   4	83.7	111.9	 828	inefficient
1163	   4	87.5	114.7	 793	inefficient
1164	   4	85.6	115.1	 808	inefficient
1165	   4	84.7	113.5	 820	inefficient
1166	   4	85.6	114.9	 805	inefficient
1167	   4	86.6	114.5	 827	inefficient
1168	   4	86.9	116.9	 819	inefficient
1169	   4	88.6	116.4	 823	inefficient
1170	   4	89.1	117.1	 813	inefficient
1171	   4	85.8	113.3	 813	inefficient
1172	   4	85.3	113.7	 820	inefficient
1173	   4	84.8	113.8	 832	inefficient
1174	   4	84.6	114.9	 820	inefficient
1175	   4	85.6	114.3	 816	inefficient
1176	   4	85.0	114.0	 832	inefficient
1177	   4	84.0	112.9	 823	inefficient
1178	   4	86.2	115.1	 825	inefficient
1179	   4	85.4	115.4	 840	inefficient
1180	   4	84.4	112.1	 829	inefficient
1181	   4	83.4	113.5	 834	inefficient
1182	   4	84.2	111.7	 820	inefficient
1183	   4	82.9	111.9	 806	inefficient
1184	   4	83.3	111.3	 801	inefficient
1185	   4	84.9	112.6	 830	inefficient
1186	   4	83.8	112.7	 831	inefficient
1187	   4	85.4	113.8	 816	inefficient
1188	   4	86.1	114.1	 811	inefficient
1189	   4	83.3	112.5	 836	inefficient
1190	   4	87.9	116.7	 832	inefficient
1191	   4	88.0	117.2	 814	inefficient
1192	   4	84.3	110.5	 841	inefficient
1193	   4	88.1	117.0	 807	inefficient
1194	   4	85.7	115.8	 818	inefficient
1195	   4	86.7	115.4	 817	inefficient
1196	   4	86.6	117.0	 798	inefficient
1197	   4	85.3	114.3	 815	inefficient
1198	   4	87.7	116.8	 827	inefficient
1199	   4	85.4	116.3	 809	inefficient
1200	   4	86.2	115.5	 830	inefficient
1201	   4	85.5	115.7	 820	inefficient
1202	   4	84.6	114.3	 827	inefficient
1203	   4	83.6	113.6	 817	inefficient
1204	   4	85.6	114.2	 838	inefficient
1205	   4	86.6	115.9	 806	inefficient
1206	   4	84.2	111.9	 806	inefficient
1207	   4	85.0	114.2	 829	inefficient
1208	   4	85.4	113.5	 815	inefficient
1209	   4	84.3	113.3	 826	inefficient
1210	   4	84.4	113.2	 812	inefficient
1211	1501	0.0	0.0	   0	dead
1212	   4	85.6	116.0	 819	inefficient
1213	   4	86.0	113.8	 815	inefficient
1214	   4	85.7	115.8	 797	inefficient
1215	   4	89.6	119.4	 812	inefficient
1216	   4	87.2	116.5	 815	inefficient
1217	   4	85.4	113.4	 810	inefficient
1218	   4	86.5	115.5	 804	inefficient
1219	   4	86.7	115.9	 792	inefficient
1220	   4	83.6	111.7	 820	inefficient
1221	   4	86.1	114.8	 799	inefficient
1222	   4	87.7	118.2	 808	inefficient
1223	   4	85.8	115.0	 810	inefficient
1224	   4	87.7	115.4	 803	inefficient
1225	   4	86.3	114.2	 802	inefficient
1226	   4	85.4	113.8	 810	inefficient
1227	   4	83.6	113.8	 815	inefficient
1228	   4	87.5	115.1	 799	inefficient
1229	   4	87.6	116.9	 816	inefficient
1230	   4	84.3	114.0	 793	inefficient
1231	   4	87.3	117.2	 808	inefficient
1232	   4	85.4	112.5	 821	inefficient
1233	   4	86.2	115.7	 795	inefficient
1234	   4	83.7	113.9	 822	inefficient
1235	   4	84.2	113.4	 806	inefficient
1236	   4	85.9	115.3	 798	inefficient
1237	   4	83.0	113.3	 796	inefficient
1238	   4	86.7	114.4	 813	inefficient
1239	   4	86.5	114.0	 790	inefficient
1240	   4	86.3	116.7	 807	inefficient
1241	   4	85.1	115.1	 800	inefficient
1242	   4	83.9	111.7	 805	inefficient
1243	   4	85.8	117.3	 810	inefficient
1244	   4	85.7	114.0	 791	inefficient
1245	   4	83.2	110.9	 808	inefficient
1246	   4	86.9	117.3	 793	inefficient
1247	   4	84.3	113.0	 802	inefficient
1248	   4	87.2	116.2	 812	inefficient
1249	   4	82.9	112.6	 820	inefficient
1250	   4	85.4	113.6	 820	inefficient
1251	   4	84.2	113.3	 833	inefficient
1252	   4	85.3	113.6	 803	inefficient
1253	   4	83.8	113.2	 816	inefficient
1254	   4	87.5	114.3	 782	inefficient
1255	   4	85.1	112.7	 796	inefficient
1256	   4	85.3	114.3	 788	inefficient
1257	   4	86.1	115.1	 782	inefficient
1258	   4	86.2	114.4	 777	inefficient
1259	   4	84.7	112.2	 775	inefficient
1260	   4	85.1	115.4	 775	inefficient
1261	   4	83.7	112.0	 776	inefficient
1262	   4	85.4	112.7	 770	inefficient
1263	   4	84.8	114.6	 791	inefficient
1264	   4	85.3	114.0	 778	inefficient
1265	   4	84.7	112.1	 779	inefficient
1266	   4	86.4	117.0	 778	inefficient
1267	   4	87.3	116.4	 775	inefficient
1268	   4	86.6	116.6	 775	inefficient
1269	   4	86.9	113.9	 783	inefficient
1270	1501	0.0	0.0	   0	dead
1271	   4	82.1	110.3	 767	inefficient
1272	   4	87.4	116.4	 782	inefficient
1273	   4	84.7	114.6	 772	inefficient
1274	   4	85.6	113.2	 792	inefficient
1275	   4	84.2	113.5	 784	inefficient
1276	   4	88.0	115.7	 772	inefficient
1277	   4	88.1	118.7	 781	inefficient
1278	   4	91.6	117.4	 759	inefficient
1279	   4	89.8	115.2	 750	inefficient
1280	   4	85.8	112.0	 735	inefficient
1281	   4	81.2	109.4	 738	inefficient
1282	   4	83.5	113.0	 747	inefficient
1283	   4	81.4	111.2	 741	inefficient
1284	   4	78.9	108.6	 762	inefficient
1285	   4	79.6	108.4	 756	inefficient
1286	   4	82.6	109.2	 770	inefficient
1287	   4	81.5	110.6	 755	inefficient
1288	   4	80.9	110.1	 751	inefficient
1289	   4	81.7	111.2	 763	inefficient
1290	   4	81.2	108.5	 747	inefficient
1291	   4	81.1	112.2	 769	inefficient
1292	   4	80.4	109.7	 751	inefficient
1293	   4	79.5	106.8	 765	inefficient
1294	   4	80.6	110.0	 754	inefficient
1295	   4	77.7	107.4	 766	inefficient
1296	   4	82.1	111.0	 765	inefficient
1297	   4	81.1	112.2	 769	inefficient
1298	   4	80.6	109.8	 765	inefficient
1299	   4	83.9	113.5	 750	inefficient
1300	   4	79.7	108.7	 752	inefficient
1301	   4	81.6	109.4	 755	inefficient
1302	   4	82.3	112.7	 760	inefficient
1303	   4	79.8	110.5	 754	inefficient
1304	   4	79.6	109.5	 751	inefficient
1305	   4	81.5	111.9	 749	inefficient
1306	   4	80.1	109.3	 755	inefficient
1307	   4	81.6	109.6	 758	inefficient
1308	   4	82.8	112.0	 759	inefficient
1309	   4	79.7	109.3	 732	inefficient
1310	   4	83.5	112.2	 743	inefficient
1311	   4	78.8	108.7	 756	inefficient
1312	   4	80.0	110.3	 754	inefficient
1313	   4	79.4	110.2	 750	inefficient
1314	   4	82.1	112.2	 755	inefficient
1315	   4	82.6	114.7	 742	inefficient
1316	   4	79.9	108.3	 774	inefficient
1317	   4	81.0	111.7	 777	inefficient
1318	   4	79.8	110.1	 755	inefficient
1319	   4	80.3	108.7	 747	inefficient
1320	   4	81.8	112.3	 756	inefficient
1321	   4	80.9	111.4	 760	inefficient
1322	   4	78.4	109.0	 771	inefficient
1323	   4	80.1	108.7	 754	inefficient
1324	   4	80.4	111.1	 766	inefficient
1325	   4	81.1	110.1	 750	inefficient
1326	   4	79.2	109.5	 750	inefficient
1327	   4	80.0	110.5	 756	inefficient
1328	   4	82.1	112.2	 775	inefficient
1329	   4	81.5	110.6	 753	inefficient
1330	   4	80.7	110.4	 763	inefficient
1331	   4	81.4	112.1	 739	inefficient
1332	   4	82.1	109.9	 744	inefficient
1333	   4	81.3	110.5	 751	inefficient
1334	   4	82.0	109.3	 764	inefficient
1335	   4	80.5	112.1	 768	inefficient
1336	   4	81.5	110.9	 764	inefficient
1337	   4	79.7	109.9	 743	inefficient
1338	   4	83.2	113.1	 770	inefficient
1339	   4	82.9	112.3	 749	inefficient
1340	   4	80.6	109.4	 759	inefficient
1341	   4	79.7	109.3	 754	inefficient
1342	   4	83.6	115.3	 735	inefficient
1343	   4	80.4	110.4	 757	inefficient
1344	   4	80.7	110.8	 763	inefficient
1345	   4	80.5	110.6	 753	inefficient
1346	   4	81.8	113.0	 738	inefficient
1347	   4	81.6	111.0	 762	inefficient
1348	   4	81.5	113.4	 752	inefficient
1349	   4	80.9	111.2	 756	inefficient
1350	   4	82.5	114.1	 758	inefficient
1351	   4	79.9	108.2	 773	inefficient
1352	   4	79.6	107.9	 761	inefficient
1353	   4	81.5	112.2	 758	inefficient
1354	   4	80.0	110.8	 748	inefficient
1355	   4	79.4	110.2	 758	inefficient
1356	   4	81.1	110.2	 761	inefficient
1357	   4	78.4	107.8	 761	inefficient
1358	   4	79.2	108.4	 760	inefficient
1359	   4	80.9	110.7	 744	inefficient
1360	   4	83.1	113.0	 761	inefficient
1361	   4	81.0	109.2	 757	inefficient
1362	   4	81.7	109.8	 769	inefficient
1363	   4	78.9	107.9	 779	inefficient
1364	   4	81.5	111.7	 751	inefficient
1365	   4	79.8	111.0	 770	inefficient
1366	   4	82.2	111.6	 753	inefficient
1367	   4	80.9	110.1	 746	inefficient
1368	   4	82.0	112.5	 754	inefficient
1369	   4	80.7	109.4	 758	inefficient
1370	   4	81.2	111.2	 754	inefficient
1371	   4	82.4	113.1	 758	inefficient
1372	   4	81.8	110.7	 764	inefficient
1373	   4	79.4	109.7	 758	inefficient
1374	   4	83.1	112.9	 761	inefficient
1375	   4	82.6	111.3	 763	inefficient
1376	   4	81.6	112.1	 773	inefficient
1377	   4	82.0	113.3	 751	inefficient
1378	   4	80.1	109.6	 737	inefficient
1379	   4	81.1	110.2	 764	inefficient
1380	   4	82.5	112.4	 751	inefficient
1381	   4	78.3	109.4	 750	inefficient
1382	   4	79.8	109.6	 778	inefficient
1383	   4	80.9	112.5	 753	inefficient
1384	   4	83.0	112.8	 748	inefficient
1385	   4	83.4	111.8	 740	inefficient
1386	   4	81.7	110.2	 762	inefficient
1387	   4	80.8	111.6	 766	inefficient
1388	   4	79.2	106.4	 762	inefficient
1389	   4	82.3	113.6	 768	inefficient
1390	   4	82.1	110.8	 765	inefficient
1391	   4	81.2	112.1	 754	inefficient
1392	   4	81.9	113.1	 774	inefficient
1393	   4	83.8	112.9	 754	inefficient
1394	   4	80.5	109.5	 755	inefficient
1395	   4	81.0	111.7	 750	inefficient
1396	   4	83.2	111.1	 750	inefficient
1397	   4	80.9	110.6	 748	inefficient
1398	   4	81.3	112.5	 767	inefficient
1399	   4	83.2	112.5	 763	inefficient
1400	   4	83.8	113.1	 765	inefficient
1401	   4	81.5	112.2	 751	inefficient
1402	   4	82.9	113.0	 756	inefficient
1403	   4	82.3	111.8	 766	inefficient
1404	   4	83.2	113.1	 748	inefficient
1405	   4	84.0	112.3	 748	inefficient
1406	   4	83.0	114.2	 747	inefficient
1407	   4	80.1	110.7	 748	inefficient
1408	   4	80.9	109.3	 783	inefficient
1409	   4	82.5	111.3	 771	inefficient
1410	   4	80.9	110.7	 789	inefficient
1411	   4	85.0	113.9	 746	inefficient
1412	   4	83.7	114.4	 761	inefficient
1413	   4	81.2	111.4	 743	inefficient
1414	   4	78.4	106.7	 773	inefficient
1415	   4	83.4	111.9	 770	inefficient
1416	   4	82.7	111.3	 757	inefficient
1417	   4	83.0	111.2	 775	inefficient
1418	   4	81.0	110.8	 759	inefficient
1419	   4	79.3	107.0	 765	inefficient
1420	   4	83.8	111.7	 775	inefficient
1421	   4	83.7	113.1	 760	inefficient
1422	   4	81.2	110.4	 771	inefficient
1423	   4	83.0	111.5	 760	inefficient
1424	   4	83.2	113.8	 748	inefficient
1425	   4	79.2	108.3	 782	inefficient
1426	   4	81.5	112.6	 764	inefficient
1427	   4	79.5	107.7	 760	inefficient
1428	   4	81.4	110.4	 758	inefficient
1429	   4	80.1	108.9	 761	inefficient
1430	   4	79.8	109.4	 746	inefficient
1431	   4	82.5	112.0	 783	inefficient
1432	   4	81.2	111.3	 748	inefficient
1433	   4	81.5	110.3	 779	inefficient
1434	   4	81.5	110.9	 767	inefficient
1435	   4	81.1	109.6	 772	inefficient
1436	   4	82.9	112.0	 766	inefficient
1437	   4	79.4	109.0	 769	inefficient
1438	   4	80.5	110.0	 772	inefficient
1439	   4	80.9	109.7	 768	inefficient
1440	   4	82.0	111.0	 758	inefficient
1441	   4	79.0	108.2	 776	inefficient
1442	   4	80.2	110.1	 769	inefficient
1443	   4	80.4	107.1	 790	inefficient
1444	   4	81.6	109.6	 761	inefficient
1445	   4	82.8	113.5	 760	inefficient
1446	   4	82.3	113.6	 771	inefficient
1447	   4	82.5	112.4	 751	inefficient
1448	   4	81.8	110.4	 760	inefficient
1449	   4	78.0	109.0	 768	inefficient
1450	   4	81.5	108.5	 777	inefficient
1451	   4	80.5	110.4	 753	inefficient
1452	   4	78.3	109.0	 788	inefficient
1453	   4	79.9	109.9	 746	inefficient
1454	   4	80.6	109.8	 770	inefficient
1455	   4	81.3	109.5	 754	inefficient
1456	   4	80.0	109.5	 775	inefficient
1457	   4	78.5	107.4	 767	inefficient
1458	   4	82.5	110.9	 771	inefficient
1459	   4	80.3	111.5	 758	inefficient
1460	   4	82.4	110.6	 767	inefficient
1461	   4	80.9	108.8	 751	inefficient
1462	   4	81.5	111.3	 789	inefficient
1463	   4	79.5	108.1	 758	inefficient
1464	   4	80.5	108.6	 763	inefficient
1465	   4	81.7	109.1	 774	inefficient
1466	   4	81.6	110.2	 773	inefficient
1467	   4	81.7	112.0	 777	inefficient
1468	   4	84.4	112.1	 760	inefficient
1469	   4	83.9	114.0	 770	inefficient
1470	   4	84.2	115.6	 750	inefficient
1471	   4	82.1	111.1	 754	inefficient
1472	   4	80.8	109.1	 784	inefficient
1473	   4	83.1	114.1	 763	inefficient
1474	   4	81.8	112.1	 768	inefficient
1475	   4	84.5	113.2	 766	inefficient
1476	   4	81.4	110.5	 771	inefficient
1477	   4	82.3	113.1	 758	inefficient
1478	   4	80.4	109.2	 776	inefficient
1479	   4	80.5	111.3	 767	inefficient
1480	   4	82.3	112.7	 781	inefficient
1481	   4	81.3	112.1	 768	inefficient
1482	   4	80.0	110.3	 765	inefficient
1483	   4	80.2	107.6	 773	inefficient
1484	   4	82.3	110.5	 772	inefficient
1485	   4	81.8	110.6	 765	inefficient
1486	   4	82.8	111.8	 786	inefficient
1487	   4	79.3	110.2	 756	inefficient
1488	   4	84.6	114.3	 764	inefficient
1489	   4	81.1	112.2	 772	inefficient
1490	   4	81.9	111.5	 781	inefficient
1491	   4	83.0	111.0	 750	inefficient
1492	   4	80.7	110.1	 761	inefficient
1493	   4	81.8	111.2	 766	inefficient
1494	   4	81.7	110.3	 782	inefficient
1495	   4	83.4	113.9	 790	inefficient
1496	   4	81.5	110.2	 774	inefficient
1497	   4	79.1	109.1	 765	inefficient
1498	   4	82.0	109.9	 762	inefficient
1499	   4	80.3	110.2	 778	inefficient
1500	   4	82.5	110.5	 780	inefficient
1501	   4	80.3	108.7	 768	inefficient
1502	   4	80.0	109.7	 772	inefficient
1503	   4	79.7	110.4	 790	inefficient
1504	   4	81.0	108.5	 777	inefficient
1505	   4	83.9	115.6	 764	inefficient
1506	   4	82.7	110.9	 786	inefficient
1507	   4	80.8	108.4	 765	inefficient
1508	1501	0.0	0.0	   0	dead
1509	   4	83.0	109.9	 776	inefficient
1510	   4	80.5	109.5	 762	inefficient
1511	   4	83.4	112.6	 772	inefficient
1512	   4	83.3	112.7	 779	inefficient
1513	   4	80.7	111.1	 768	inefficient
1514	   4	82.3	111.5	 774	inefficient
1515	   4	82.4	112.6	 783	inefficient
1516	   4	82.8	112.8	 778	inefficient
1517	   4	81.0	109.9	 759	inefficient
1518	   4	82.9	112.9	 775	inefficient
1519	   4	81.5	109.8	 778	inefficient
1520	   4	83.6	112.6	 774	inefficient
1521	   4	81.7	111.4	 774	inefficient
1522	   4	81.7	110.8	 752	inefficient
1523	   4	85.7	113.4	 773	inefficient
1524	   4	83.4	112.3	 766	inefficient
1525	   4	83.0	112.9	 771	inefficient
1526	   4	83.3	112.0	 763	inefficient
1527	   4	83.4	113.4	 753	inefficient
1528	   4	83.2	111.6	 767	inefficient
1529	   4	81.9	109.8	 778	inefficient
1530	   4	84.5	114.2	 767	inefficient
1531	   4	80.2	109.7	 756	inefficient
1532	   4	83.5	111.3	 773	inefficient
1533	   4	83.5	109.7	 761	inefficient
1534	   4	85.7	114.7	 770	inefficient
1535	   4	83.4	112.8	 788	inefficient
1536	   4	83.8	111.3	 767	inefficient
1537	   4	82.6	112.2	 763	inefficient
1538	   4	83.0	111.5	 763	inefficient
1539	   4	83.6	112.2	 768	inefficient
1540	   4	83.9	110.3	 754	inefficient
1541	   4	82.6	112.9	 761	inefficient
1542	   4	84.5	112.8	 753	inefficient
1543	   4	84.9	116.6	 762	inefficient
1544	   4	85.4	115.3	 746	inefficient
1545	   4	83.0	109.1	 753	inefficient
1546	   4	84.1	112.0	 766	inefficient
1547	   4	82.3	110.6	 759	inefficient
1548	   4	82.6	111.7	 755	inefficient
1549	   4	83.6	113.4	 759	inefficient
1550	   4	84.5	114.7	 758	inefficient
1551	   4	84.6	113.2	 750	inefficient
1552	   4	81.7	112.0	 749	inefficient
1553	   4	83.4	112.9	 737	inefficient
1554	   4	83.8	111.1	 759	inefficient
1555	   4	83.9	111.5	 752	inefficient
1556	   4	83.0	113.4	 757	inefficient
1557	   4	82.6	111.6	 746	inefficient
1558	   4	84.8	114.3	 750	inefficient
1559	   4	84.8	114.3	 747	inefficient
1560	   4	85.0	111.6	 761	inefficient
1561	   4	79.7	107.2	 743	inefficient
1562	   4	85.9	115.5	 757	inefficient
1563	   4	82.2	111.5	 761	inefficient
1564	   4	85.5	116.1	 773	inefficient
1565	   4	82.1	109.9	 746	inefficient
1566	   4	86.9	117.0	 775	inefficient
1567	   4	82.9	110.8	 759	inefficient
1568	   4	83.6	112.6	 753	inefficient
1569	   4	85.3	114.0	 761	inefficient
1570	   4	83.6	112.5	 757	inefficient
1571	   4	82.7	111.3	 753	inefficient
1572	   4	82.3	109.7	 763	inefficient
1573	   4	82.7	113.6	 749	inefficient
1574	   4	83.2	113.1	 751	inefficient
1575	   4	82.2	111.1	 758	inefficient
1576	   4	82.4	113.2	 767	inefficient
1577	   4	85.1	114.9	 767	inefficient
1578	   4	84.1	113.6	 761	inefficient
1579	   4	84.7	114.4	 755	inefficient
1580	   4	81.4	112.4	 753	inefficient
1581	   4	83.6	113.7	 756	inefficient
1582	   4	84.5	113.9	 756	inefficient
1583	   4	84.6	112.9	 746	inefficient
1584	   4	83.5	110.5	 766	inefficient
1585	   4	85.1	113.3	 779	inefficient
1586	   4	82.9	113.5	 757	inefficient
1587	   4	80.6	111.0	 765	inefficient
1588	   4	83.6	111.0	 766	inefficient
1589	   4	82.9	111.6	 747	inefficient
1590	   4	83.6	114.1	 757	inefficient
1591	   4	82.8	111.9	 775	inefficient
1592	   4	83.5	113.9	 764	inefficient
1593	   4	84.8	114.5	 757	inefficient
1594	   4	81.8	110.3	 763	inefficient
1595	   4	82.6	110.4	 755	inefficient
1596	   4	84.7	113.7	 754	inefficient
1597	   4	83.9	113.2	 759	inefficient
1598	   4	86.1	114.2	 763	inefficient
1599	   4	85.2	115.8	 781	inefficient
1600	   4	85.7	117.5	 764	inefficient
1601	   4	83.8	114.9	 762	inefficient
1602	   4	82.0	112.6	 753	inefficient
1603	   4	87.4	115.0	 763	inefficient
1604	   4	83.9	114.5	 762	inefficient
1605	   4	83.9	111.4	 762	inefficient
1606	   4	82.7	108.3	 776	inefficient
1607	   4	84.6	112.8	 755	inefficient
1608	   4	83.8	115.5	 759	inefficient
1609	   4	82.2	111.0	 763	inefficient
1610	   4	85.1	115.5	 765	inefficient
1611	   4	83.4	113.3	 749	inefficient
1612	   4	81.3	110.2	 759	inefficient
1613	   4	84.4	114.2	 759	inefficient
1614	   4	85.0	113.1	 770	inefficient
1615	   4	82.3	112.4	 756	inefficient
1616	   4	82.9	110.5	 769	inefficient
1617	   4	84.0	112.5	 743	inefficient
1618	   4	82.5	111.8	 769	inefficient
1619	   4	83.0	112.4	 765	inefficient
1620	   4	82.3	110.7	 753	inefficient
1621	   4	83.7	111.9	 761	inefficient
1622	   4	84.0	113.2	 756	inefficient
1623	   4	81.8	110.4	 756	inefficient
1624	   4	85.7	114.6	 752	inefficient
1625	   4	85.8	116.5	 763	inefficient
1626	   4	80.5	109.0	 763	inefficient
1627	   4	82.6	111.3	 745	inefficient
1628	   4	84.3	112.8	 749	inefficient
1629	   4	80.4	107.9	 751	inefficient
1630	   4	84.5	112.4	 762	inefficient
1631	   4	85.3	114.9	 759	inefficient
1632	   4	83.3	113.3	 756	inefficient
1633	   4	81.8	110.1	 759	inefficient
1634	   4	82.6	112.1	 750	inefficient
1635	   4	81.7	111.4	 751	inefficient
1636	   4	84.7	112.6	 761	inefficient
1637	   4	86.5	114.2	 760	inefficient
1638	   4	83.7	112.6	 760	inefficient
1639	   4	84.1	113.9	 755	inefficient
1640	   4	84.1	114.3	 768	inefficient
1641	   4	84.4	113.6	 756	inefficient
1642	   4	83.2	110.6	 780	inefficient
1643	   4	83.3	113.7	 760	inefficient
1644	   4	85.6	113.4	 746	inefficient
1645	   4	84.0	113.3	 762	inefficient
1646	   4	82.9	111.9	 751	inefficient
1647	   4	84.0	112.3	 755	inefficient
1648	   4	83.9	110.5	 767	inefficient
1649	   4	81.4	109.9	 761	inefficient
1650	   4	86.3	116.8	 751	inefficient
1651	   4	82.8	110.2	 752	inefficient
1652	   4	86.8	114.3	 733	inefficient
1653	   4	84.2	115.2	 757	inefficient
1654	   4	82.6	113.7	 760	inefficient
1655	   4	82.2	110.6	 745	inefficient
1656	   4	83.5	114.7	 772	inefficient
1657	   4	83.6	112.4	 748	inefficient
1658	   4	83.6	112.3	 776	inefficient
1659	   4	85.2	114.8	 762	inefficient
1660	   4	86.1	115.0	 758	inefficient
1661	   4	83.7	112.5	 759	inefficient
1662	   4	84.9	112.8	 770	inefficient
1663	   4	83.3	110.0	 756	inefficient
1664	   4	83.8	111.8	 802	inefficient
1665	   4	83.2	112.8	 780	inefficient
1666	   4	83.2	113.4	 764	inefficient
1667	   4	82.6	111.5	 771	inefficient
1668	   4	81.5	112.1	 789	inefficient
1669	   4	81.7	111.6	 774	inefficient
1670	   4	82.3	112.2	 767	inefficient
1671	   4	81.1	112.6	 770	inefficient
1672	   4	81.1	111.3	 785	inefficient
1673	   4	82.5	111.1	 795	inefficient
1674	   4	80.4	110.5	 777	inefficient
1675	   4	83.6	112.7	 778	inefficient
1676	   4	79.5	109.3	 787	inefficient
1677	   4	83.9	114.8	 763	inefficient
1678	   4	82.7	111.9	 794	inefficient
1679	   4	80.5	109.8	 770	inefficient
1680	   4	81.8	112.7	 788	inefficient
1681	   4	81.1	108.9	 795	inefficient
1682	   4	80.6	109.8	 766	inefficient
1683	   4	81.7	109.7	 767	inefficient
1684	   4	81.3	110.8	 793	inefficient
1685	   4	81.4	109.1	 765	inefficient
1686	   4	84.3	115.2	 779	inefficient
1687	   4	82.9	112.7	 781	inefficient
1688	   4	82.5	112.7	 772	inefficient
1689	   4	80.9	111.4	 763	inefficient
1690	   4	82.5	111.5	 788	inefficient
1691	   4	80.9	111.2	 785	inefficient
1692	   4	82.2	111.7	 778	inefficient
1693	   4	80.9	109.4	 772	inefficient
1694	   4	82.2	112.7	 772	inefficient
1695	   4	81.4	112.1	 771	inefficient
1696	   4	82.2	111.4	 769	inefficient
1697	   4	82.6	110.2	 787	inefficient
1698	   4	82.1	112.2	 780	inefficient
1699	   4	80.1	110.3	 785	inefficient
1700	   4	81.5	110.6	 780	inefficient
1701	   4	83.6	112.2	 770	inefficient
1702	   4	80.9	110.5	 794	inefficient
1703	   4	79.7	111.5	 767	inefficient
1704	   4	80.8	111.9	 776	inefficient
1705	   4	82.9	115.3	 772	inefficient
1706	   4	80.4	109.7	 785	inefficient
1707	   4	81.4	112.5	 805	inefficient
1708	   4	82.8	112.6	 783	inefficient
1709	   4	83.9	113.0	 775	inefficient
1710	   4	81.4	111.7	 773	inefficient
1711	   4	78.6	108.5	 795	inefficient
1712	   4	82.9	112.3	 783	inefficient
1713	   4	81.4	111.0	 773	inefficient
1714	   4	80.9	112.5	 805	inefficient
1715	   4	80.8	111.5	 773	inefficient
1716	   4	80.3	110.5	 779	inefficient
1717	   4	79.9	111.0	 791	inefficient
1718	   4	83.5	111.9	 767	inefficient
1719	   4	80.6	109.5	 786	inefficient
1720	   4	80.5	112.7	 795	inefficient
1721	   4	82.3	111.0	 790	inefficient
1722	   4	84.2	114.5	 779	inefficient
1723	1501	0.0	0.0	   0	dead
1724	   4	84.1	112.7	 775	inefficient
1725	   4	80.8	109.3	 773	inefficient
1726	   4	83.4	112.8	 780	inefficient
1727	   4	82.8	112.8	 768	inefficient
1728	   4	81.7	112.1	 769	inefficient
1729	   4	84.9	115.7	 772	inefficient
1730	   4	84.0	113.8	 783	inefficient
1731	   4	83.3	114.4	 787	inefficient
1732	   4	84.0	113.7	 776	inefficient
1733	   4	82.2	112.3	 763	inefficient
1734	   4	78.9	110.3	 771	inefficient
1735	   4	81.9	110.7	 766	inefficient
1736	   4	82.5	113.0	 774	inefficient
1737	   4	82.6	113.5	 773	inefficient
1738	   4	80.0	110.9	 768	inefficient
1739	   4	81.5	111.5	 766	inefficient
1740	   4	80.4	109.4	 782	inefficient
1741	   4	82.4	112.0	 759	inefficient
1742	   4	81.8	110.9	 755	inefficient
1743	   4	82.0	110.3	 767	inefficient
1744	   4	81.2	110.5	 772	inefficient
1745	   4	80.6	110.8	 774	inefficient
1746	   4	80.3	108.7	 773	inefficient
1747	   4	82.0	111.6	 777	inefficient
1748	   4	81.5	110.2	 770	inefficient
1749	   4	82.4	111.9	 768	inefficient
1750	   4	82.6	113.0	 759	inefficient
1751	   4	81.3	110.4	 769	inefficient
1752	   4	80.3	108.5	 780	inefficient
1753	   4	81.0	111.7	 770	inefficient
1754	   4	80.8	110.3	 768	inefficient
1755	   4	81.6	110.4	 771	inefficient
1756	   4	82.0	112.7	 790	inefficient
1757	1501	0.0	0.0	   0	dead
1758	   4	78.9	107.4	 754	inefficient
1759	   4	80.4	109.3	 782	inefficient
1760	   4	81.9	110.5	 771	inefficient
1761	   4	80.2	110.6	 784	inefficient
1762	   4	80.1	108.7	 788	inefficient
1763	   4	79.7	107.1	 771	inefficient
1764	   4	81.7	113.2	 780	inefficient
1765	   4	79.8	110.1	 783	inefficient
1766	   4	84.3	114.8	 785	inefficient
1767	   4	80.7	111.9	 772	inefficient
1768	   4	84.4	114.3	 792	inefficient
1769	   4	83.5	113.3	 800	inefficient
1770	   4	83.9	113.0	 768	inefficient
1771	   4	84.4	116.2	 778	inefficient
1772	   4	78.9	109.4	 807	inefficient
1773	   4	83.0	114.5	 775	inefficient
1774	   4	82.8	113.5	 772	inefficient
1775	   4	79.5	110.6	 787	inefficient
1776	   4	84.0	114.2	 765	inefficient
1777	   4	82.0	111.7	 764	inefficient
1778	   4	80.6	110.6	 772	inefficient
1779	   4	78.9	108.1	 789	inefficient
1780	   4	81.1	109.7	 773	inefficient
1781	   4	80.9	110.9	 766	inefficient
1782	   4	81.5	111.8	 768	inefficient
1783	   4	81.9	112.5	 786	inefficient
1784	   4	81.3	111.8	 768	inefficient
1785	   4	81.2	113.9	 770	inefficient
1786	   4	82.1	112.6	 770	inefficient
1787	   4	84.1	115.3	 767	inefficient
1788	   4	83.6	113.4	 776	inefficient
1789	   4	83.0	112.1	 775	inefficient
1790	   4	81.4	109.7	 781	inefficient
1791	   4	83.3	112.3	 765	inefficient
1792	   4	87.8	116.0	 766	inefficient
1793	   4	90.2	119.0	 745	inefficient
1794	   4	86.3	114.5	 752	inefficient
1795	   4	88.8	118.3	 756	inefficient
1796	   4	86.6	114.3	 743	inefficient
1797	   4	87.1	117.9	 751	inefficient
1798	   4	86.2	114.1	 747	inefficient
1799	   4	88.7	119.6	 765	inefficient
1800	   4	86.2	114.9	 757	inefficient
1801	   4	88.3	119.3	 748	inefficient
1802	   4	86.2	115.5	 735	inefficient
1803	   4	84.4	115.8	 777	inefficient
1804	   4	85.6	116.5	 766	inefficient
1805	   4	85.7	118.1	 760	inefficient
1806	   4	85.5	114.9	 751	inefficient
1807	   4	86.2	115.8	 745	inefficient
1808	   4	85.1	113.9	 742	inefficient
1809	   4	87.2	115.7	 757	inefficient
1810	   4	83.5	113.8	 754	inefficient
1811	   4	83.7	113.7	 760	inefficient
1812	   4	84.8	115.2	 757	inefficient
1813	   4	88.7	117.3	 751	inefficient
1814	   4	85.2	116.3	 762	inefficient
1815	   4	86.8	114.4	 755	inefficient
1816	   4	86.0	113.7	 745	inefficient
1817	   4	88.4	116.5	 753	inefficient
1818	   4	84.7	116.1	 752	inefficient
1819	   4	86.0	114.9	 742	inefficient
1820	   4	85.7	113.9	 774	inefficient
1821	   4	88.3	116.0	 738	inefficient
1822	   4	85.5	115.0	 751	inefficient
1823	   4	87.3	116.5	 760	inefficient
1824	   4	85.0	113.4	 759	inefficient
1825	   4	87.3	117.3	 723	inefficient
1826	   4	87.5	117.5	 751	inefficient
1827	   4	87.3	117.1	 734	inefficient
1828	   4	86.5	115.6	 761	inefficient
1829	   4	86.9	118.7	 731	inefficient
1830	   4	83.8	113.5	 738	inefficient
1831	   4	85.1	116.3	 748	inefficient
1832	   4	84.3	114.2	 757	inefficient
1833	   4	86.2	116.7	 744	inefficient
1834	   4	85.1	116.3	 763	inefficient
1835	   4	87.6	119.6	 751	inefficient
1836	   4	86.6	118.1	 759	inefficient
1837	   4	89.0	118.7	 760	inefficient
1838	   4	85.0	114.9	 760	inefficient
1839	   4	85.3	115.2	 758	inefficient
1840	   4	86.2	117.2	 744	inefficient
1841	   4	81.7	112.5	 762	inefficient
1842	   4	86.2	117.1	 767	inefficient
1843	   4	87.9	117.3	 737	inefficient
1844	   4	85.8	114.5	 765	inefficient
1845	   4	84.9	113.4	 757	inefficient
1846	   4	88.2	119.0	 768	inefficient
1847	   4	84.9	115.1	 737	inefficient
1848	   4	84.6	114.0	 756	inefficient
1849	   4	86.1	115.9	 760	inefficient
1850	   4	87.8	119.7	 761	inefficient
1851	   4	86.5	117.2	 767	inefficient
1852	   4	87.7	116.7	 762	inefficient
1853	   4	85.4	116.7	 740	inefficient
1854	   4	86.4	116.6	 749	inefficient
1855	   4	88.3	120.3	 753	inefficient
1856	   4	88.0	120.7	 737	inefficient
1857	   4	83.4	113.4	 771	inefficient
1858	   4	85.6	113.3	 764	inefficient
1859	   4	83.1	113.0	 753	inefficient
1860	   4	85.9	116.2	 733	inefficient
1861	   4	83.6	112.6	 764	inefficient
1862	   4	86.4	117.1	 763	inefficient
1863	   4	84.9	116.8	 760	inefficient
1864	   4	85.2	116.8	 758	inefficient
1865	   4	83.3	115.1	 760	inefficient
1866	   4	82.3	113.4	 744	inefficient
1867	   4	83.4	114.0	 762	inefficient
1868	   4	86.2	117.1	 747	inefficient
1869	   4	83.4	113.2	 753	inefficient
1870	   4	86.6	117.2	 757	inefficient
1871	   4	86.9	117.2	 753	inefficient
1872	   4	83.4	113.7	 747	inefficient
1873	   4	85.8	114.5	 741	inefficient
1874	   4	85.1	116.1	 760	inefficient
1875	   4	86.8	117.8	 754	inefficient
1876	   4	86.6	116.3	 772	inefficient
1877	   4	85.3	114.5	 763	inefficient
1878	   4	84.9	114.7	 761	inefficient
1879	   4	83.5	111.8	 749	inefficient
1880	   4	85.2	115.1	 766	inefficient
1881	   4	83.8	113.5	 760	inefficient
1882	   4	84.3	113.2	 751	inefficient
1883	   4	82.7	115.1	 746	inefficient
1884	   4	84.3	115.3	 747	inefficient
1885	   4	87.0	116.4	 760	inefficient
1886	   4	85.6	113.6	 760	inefficient
1887	   4	84.8	113.9	 760	inefficient
1888	   4	84.5	115.9	 748	inefficient
1889	   4	84.8	113.4	 773	inefficient
1890	   4	86.2	114.9	 770	inefficient
1891	   4	86.6	115.9	 742	inefficient
1892	   4	85.1	114.0	 749	inefficient
1893	   4	85.2	114.9	 752	inefficient
1894	   4	84.6	115.8	 752	inefficient
1895	   4	87.7	117.3	 753	inefficient
1896	   4	85.2	114.6	 746	inefficient
1897	   4	86.4	117.4	 750	inefficient
1898	   4	86.2	115.0	 754	inefficient
1899	   4	85.1	113.8	 748	inefficient
1900	   4	84.1	114.3	 755	inefficient
1901	   4	83.0	112.8	 765	inefficient
1902	   4	82.8	111.6	 759	inefficient
1903	   4	84.6	115.4	 759	inefficient
1904	   4	86.3	118.1	 746	inefficient
1905	   4	85.2	114.4	 758	inefficient
1906	   4	85.4	113.2	 754	inefficient
1907	   4	84.7	115.3	 752	inefficient
1908	   4	84.6	113.6	 755	inefficient
1909	   4	84.8	113.9	 744	inefficient
1910	   4	85.5	117.1	 749	inefficient
1911	   4	87.5	116.1	 763	inefficient
1912	   4	83.4	113.7	 744	inefficient
1913	   4	86.3	118.6	 772	inefficient
1914	   4	86.2	117.7	 753	inefficient
1915	   4	87.8	119.4	 739	inefficient
1916	   4	85.8	116.4	 762	inefficient
1917	   4	84.4	114.6	 749	inefficient
1918	   4	85.4	117.0	 763	inefficient
1919	   4	88.3	120.0	 774	inefficient
1920	   4	91.2	119.6	 749	inefficient
1921	   4	89.8	118.9	 750	inefficient
1922	   4	88.6	118.9	 775	inefficient
1923	   4	89.3	119.7	 748	inefficient
1924	   4	88.4	117.9	 758	inefficient
1925	   4	92.4	121.3	 746	inefficient
1926	   4	90.5	119.6	 752	inefficient
1927	   4	85.9	115.8	 741	inefficient
1928	   4	89.5	119.3	 758	inefficient
1929	   4	89.4	119.4	 744	inefficient
1930	   4	89.0	119.3	 747	inefficient
1931	   4	87.5	116.5	 759	inefficient
1932	   4	91.4	121.6	 739	inefficient
1933	   4	87.3	119.7	 754	inefficient
1934	   4	87.9	118.5	 772	inefficient
1935	   4	88.9	118.1	 757	inefficient
1936	   4	87.4	116.1	 751	inefficient
1937	   4	88.0	118.6	 748	inefficient
1938	   4	86.3	116.8	 757	inefficient
1939	   4	88.6	117.2	 763	inefficient
1940	   4	89.9	121.5	 760	inefficient
1941	   4	89.4	118.5	 746	inefficient
1942	   4	91.7	121.7	 733	inefficient
1943	   4	88.2	115.8	 742	inefficient
1944	   4	86.1	117.6	 758	inefficient
1945	   4	89.1	118.4	 755	inefficient
1946	   4	87.5	116.6	 764	inefficient
1947	   4	88.2	116.3	 752	inefficient
1948	   4	89.5	119.9	 742	inefficient
1949	   4	88.3	119.8	 749	inefficient
1950	   4	90.7	120.3	 760	inefficient
1951	   4	87.4	116.1	 754	inefficient
1952	   4	88.3	117.9	 751	inefficient
1953	   4	89.0	117.9	 747	inefficient
1954	   4	87.2	118.0	 750	inefficient
1955	   4	89.0	118.7	 752	inefficient
1956	   4	87.8	118.1	 772	inefficient
1957	   4	89.8	121.1	 745	inefficient
1958	   4	89.2	118.4	 765	inefficient
1959	   4	88.4	118.8	 746	inefficient
1960	   4	86.5	115.0	 760	inefficient
1961	   4	90.3	122.4	 757	inefficient
1962	   4	85.6	117.1	 751	inefficient
1963	   4	87.5	116.8	 752	inefficient
1964	   4	89.6	118.7	 755	inefficient
1965	   4	87.8	118.5	 756	inefficient
1966	   4	90.8	119.4	 751	inefficient
1967	   4	87.5	117.9	 738	inefficient
1968	   4	87.2	118.2	 750	inefficient
1969	   4	88.7	118.5	 759	inefficient
1970	   4	90.2	122.0	 755	inefficient
1971	   4	88.7	118.7	 772	inefficient
1972	   4	88.1	119.1	 751	inefficient
1973	   4	88.7	121.5	 752	inefficient
1974	   4	90.1	120.2	 748	inefficient
1975	   4	89.1	118.3	 753	inefficient
1976	   4	90.1	120.1	 756	inefficient
1977	   4	89.4	118.6	 755	inefficient
1978	   4	87.1	117.9	 758	inefficient
1979	   4	88.4	117.5	 747	inefficient
1980	   4	87.8	117.9	 762	inefficient
1981	   4	87.7	116.9	 733	inefficient
1982	   4	89.3	116.9	 747	inefficient
1983	   4	91.8	123.3	 744	inefficient
1984	   4	85.7	116.1	 749	inefficient
1985	   4	88.8	118.1	 735	inefficient
1986	   4	85.9	117.3	 771	inefficient
1987	   4	87.9	117.2	 762	inefficient
1988	   4	89.0	118.3	 764	inefficient
1989	   4	88.9	118.7	 750	inefficient
1990	   4	85.2	115.8	 743	inefficient
1991	   4	85.2	116.6	 743	inefficient
1992	   4	90.3	121.2	 732	inefficient
1993	   4	87.1	118.0	 757	inefficient
1994	   4	86.1	115.2	 767	inefficient
1995	   4	87.2	117.5	 759	inefficient
1996	   4	89.4	118.8	 749	inefficient
1997	   4	87.2	118.3	 743	inefficient
1998	   4	85.5	116.4	 763	inefficient
1999	   4	89.6	119.1	 749	inefficient
2000	   4	85.9	115.9	 745	inefficient
2001	   4	87.9	118.0	 758	inefficient
2002	   4	90.8	121.0	 754	inefficient
2003	   4	89.5	120.3	 747	inefficient
2004	   4	89.0	120.4	 760	inefficient
2005	   4	87.9	117.3	 761	inefficient
2006	   4	89.3	118.7	 758	inefficient
2007	   4	88.0	118.6	 760	inefficient
2008	   4	88.0	119.2	 742	inefficient
2009	   4	87.9	117.9	 743	inefficient
2010	   4	87.8	119.1	 770	inefficient
2011	   4	87.9	118.9	 750	inefficient
2012	   4	88.8	119.7	 759	inefficient
2013	   4	90.1	120.9	 744	inefficient
2014	   4	85.9	117.6	 771	inefficient
2015	   4	87.9	116.4	 751	inefficient
2016	   4	89.9	120.9	 764	inefficient
2017	   4	86.8	118.8	 760	inefficient
2018	   4	87.9	117.5	 751	inefficient
2019	   4	89.5	118.1	 747	inefficient
2020	   4	88.8	119.2	 754	inefficient
2021	   4	90.1	119.5	 744	inefficient
2022	   4	89.8	119.1	 747	inefficient
2023	   4	90.8	121.0	 749	inefficient
2024	   4	87.6	117.2	 754	inefficient
2025	   4	89.9	120.6	 726	inefficient
2026	   4	90.3	121.4	 763	inefficient
2027	   4	88.3	118.4	 760	inefficient
2028	   4	89.1	119.0	 761	inefficient
2029	   4	86.0	117.5	 744	inefficient
2030	   4	89.5	120.2	 761	inefficient
2031	   4	88.2	118.0	 762	inefficient
2032	   4	88.3	118.9	 772	inefficient
2033	   4	87.4	118.7	 760	inefficient
2034	   4	87.3	118.0	 746	inefficient
2035	   4	89.6	121.6	 730	inefficient
2036	   4	85.8	117.6	 742	inefficient
2037	   4	89.2	120.6	 750	inefficient
2038	   4	92.1	122.4	 753	inefficient
2039	   4	87.3	119.0	 760	inefficient
2040	   4	89.6	119.2	 758	inefficient
2041	   4	90.1	119.5	 758	inefficient
2042	   4	89.7	118.6	 756	inefficient
2043	   4	89.9	119.7	 760	inefficient
2044	   4	90.0	119.4	 754	inefficient
2045	   4	89.8	121.3	 763	inefficient
2046	   4	90.8	120.9	 752	inefficient
2047	   4	89.3	118.3	 739	inefficient
2048	   4	83.7	116.3	 742	inefficient
2049	   4	82.0	112.4	 743	inefficient
2050	   4	82.4	112.5	 748	inefficient
2051	   4	82.4	112.7	 748	inefficient
2052	   4	81.8	110.4	 757	inefficient
2053	   4	81.7	111.3	 758	inefficient
2054	   4	82.8	111.2	 750	inefficient
2055	   4	83.1	114.1	 739	inefficient
2056	   4	85.6	114.7	 758	inefficient
2057	   4	82.8	115.0	 750	inefficient
2058	   4	82.4	113.2	 757	inefficient
2059	   4	81.7	111.3	 751	inefficient
2060	   4	82.9	111.3	 736	inefficient
2061	   4	80.8	110.8	 741	inefficient
2062	   4	84.1	114.5	 746	inefficient
2063	   4	81.4	110.1	 738	inefficient
2064	   4	82.5	113.3	 731	inefficient
2065	   4	82.4	110.7	 747	inefficient
2066	   4	82.0	111.1	 733	inefficient
2067	   4	81.9	111.5	 745	inefficient
2068	   4	84.6	116.7	 737	inefficient
2069	   4	81.4	112.7	 751	inefficient
2070	   4	83.1	111.3	 749	inefficient
2071	   4	83.6	112.0	 758	inefficient
2072	   4	81.3	111.0	 754	inefficient
2073	   4	80.6	109.8	 759	inefficient
2074	   4	81.9	112.3	 749	inefficient
2075	   4	81.5	112.4	 740	inefficient
2076	   4	81.9	111.6	 756	inefficient
2077	   4	78.3	108.6	 770	inefficient
2078	   4	85.4	114.4	 743	inefficient
2079	   4	82.6	114.7	 735	inefficient
2080	   4	80.4	110.7	 750	inefficient
2081	   4	82.8	112.3	 731	inefficient
2082	   4	79.9	109.9	 744	inefficient
2083	   4	84.7	113.9	 767	inefficient
2084	   4	81.9	109.8	 764	inefficient
2085	   4	82.1	109.8	 733	inefficient
2086	   4	80.8	110.6	 760	inefficient
2087	   4	81.5	110.1	 738	inefficient
2088	   4	83.2	113.0	 743	inefficient
2089	   4	79.1	110.1	 756	inefficient
2090	   4	78.1	109.2	 749	inefficient
2091	   4	81.9	112.6	 752	inefficient
2092	   4	79.9	108.3	 748	inefficient
2093	   4	79.1	108.0	 768	inefficient
2094	1501	0.0	0.0	   0	dead
2095	   4	80.4	109.0	 752	inefficient
2096	   4	80.6	110.6	 741	inefficient
2097	   4	82.1	112.3	 748	inefficient
2098	   4	82.2	112.4	 758	inefficient
2099	   4	84.1	115.0	 730	inefficient
2100	   4	83.4	111.5	 749	inefficient
2101	   4	82.5	112.8	 740	inefficient
2102	   4	81.5	111.5	 750	inefficient
2103	   4	83.4	111.9	 747	inefficient
2104	   4	84.0	113.4	 744	inefficient
2105	   4	84.2	115.5	 751	inefficient
2106	   4	84.6	114.6	 735	inefficient
2107	   4	81.5	110.5	 751	inefficient
2108	   4	83.6	114.0	 748	inefficient
2109	   4	81.4	112.5	 757	inefficient
2110	   4	81.3	112.3	 756	inefficient
2111	   4	83.3	114.4	 755	inefficient
2112	   4	80.8	113.2	 747	inefficient
2113	   4	80.2	108.7	 736	inefficient
2114	   4	79.8	110.7	 773	inefficient
2115	   4	80.7	110.4	 754	inefficient
2116	   4	80.3	109.2	 751	inefficient
2117	   4	80.0	110.1	 770	inefficient
2118	   4	83.0	113.1	 750	inefficient
2119	   4	82.5	114.5	 741	inefficient
2120	   4	77.6	107.2	 754	inefficient
2121	   4	81.6	114.5	 751	inefficient
2122	   4	77.9	109.1	 734	inefficient
2123	   4	79.6	108.1	 758	inefficient
2124	   4	81.0	110.8	 744	inefficient
2125	   4	76.8	105.8	 742	inefficient
2126	   4	80.7	108.8	 747	inefficient
2127	   4	80.1	109.6	 758	inefficient
2128	   4	77.2	108.5	 763	inefficient
2129	   4	79.0	109.9	 743	inefficient
2130	   4	80.3	112.2	 740	inefficient
2131	   4	78.9	107.9	 763	inefficient
2132	   4	79.8	110.8	 754	inefficient
2133	   4	79.0	108.5	 765	inefficient
2134	   4	77.1	107.7	 753	inefficient
2135	   4	78.7	108.2	 763	inefficient
2136	   4	81.3	111.3	 749	inefficient
2137	   4	78.7	108.9	 738	inefficient
2138	   4	79.1	109.4	 756	inefficient
2139	   4	78.6	107.0	 745	inefficient
2140	   4	81.2	109.2	 754	inefficient
2141	   4	79.4	108.9	 754	inefficient
2142	   4	81.0	111.0	 772	inefficient
2143	   4	82.0	110.6	 744	inefficient
2144	   4	77.6	109.0	 784	inefficient
2145	   4	77.6	106.3	 759	inefficient
2146	   4	77.3	106.9	 742	inefficient
2147	   4	80.1	112.7	 748	inefficient
2148	   4	79.7	111.8	 746	inefficient
2149	   4	79.2	107.9	 759	inefficient
2150	   4	81.0	112.3	 756	inefficient
2151	   4	78.2	108.7	 750	inefficient
2152	   4	81.4	110.7	 771	inefficient
2153	   4	79.2	109.7	 763	inefficient
2154	   4	79.7	109.5	 757	inefficient
2155	   4	78.4	108.7	 760	inefficient
2156	   4	80.1	110.1	 758	inefficient
2157	   4	83.0	113.1	 759	inefficient
2158	   4	79.7	109.4	 746	inefficient
2159	   4	79.9	109.7	 746	inefficient
2160	   4	81.1	110.9	 757	inefficient
2161	   4	80.0	110.1	 758	inefficient
2162	   4	78.7	106.5	 781	inefficient
2163	   4	79.8	110.2	 740	inefficient
2164	   4	80.0	108.7	 767	inefficient
2165	   4	78.0	108.0	 765	inefficient
2166	   4	79.9	111.0	 766	inefficient
2167	   4	81.7	109.3	 733	inefficient
2168	   4	79.2	109.9	 776	inefficient
2169	   4	78.5	108.1	 763	inefficient
2170	   4	79.4	106.6	 777	inefficient
2171	   4	78.8	107.1	 755	inefficient
2172	   4	80.5	109.5	 783	inefficient
2173	   4	81.3	110.3	 776	inefficient
2174	   4	82.9	113.8	 757	inefficient
2175	   4	82.0	112.7	 734	inefficient
2176	   4	86.0	114.7	 762	inefficient
2177	   4	84.2	114.2	 749	inefficient
2178	   4	86.7	116.6	 743	inefficient
2179	   4	85.2	114.6	 756	inefficient
2180	   4	81.3	109.9	 773	inefficient
2181	   4	84.0	114.2	 766	inefficient
2182	   4	84.7	112.9	 752	inefficient
2183	   4	83.1	112.5	 733	inefficient
2184	   4	83.0	112.3	 764	inefficient
2185	   4	84.5	113.6	 733	inefficient
2186	   4	80.6	112.2	 766	inefficient
2187	   4	85.4	113.2	 762	inefficient
2188	   4	85.5	114.4	 769	inefficient
2189	   4	84.4	114.8	 776	inefficient
2190	   4	84.7	115.0	 768	inefficient
2191	   4	84.4	113.5	 745	inefficient
2192	   4	85.0	116.3	 736	inefficient
2193	   4	83.6	113.9	 761	inefficient
2194	   4	84.5	113.3	 770	inefficient
2195	   4	84.9	116.2	 753	inefficient
2196	   4	85.2	114.8	 751	inefficient
2197	   4	82.9	113.0	 757	inefficient
2198	   4	84.0	112.9	 767	inefficient
2199	   4	86.7	116.1	 744	inefficient
2200	   4	85.4	115.1	 755	inefficient
2201	   4	82.2	112.7	 765	inefficient
2202	   4	85.8	115.7	 744	inefficient
2203	   4	83.3	110.8	 763	inefficient
2204	   4	85.7	115.5	 759	inefficient
2205	   4	82.2	110.6	 745	inefficient
2206	   4	83.0	113.6	 758	inefficient
2207	   4	84.1	112.3	 769	inefficient
2208	   4	84.3	112.1	 749	inefficient
2209	   4	84.6	114.2	 760	inefficient
2210	   4	82.7	111.7	 744	inefficient
2211	   4	84.4	115.0	 751	inefficient
2212	   4	86.3	116.4	 770	inefficient
2213	   4	83.8	113.9	 752	inefficient
2214	   4	84.2	114.3	 757	inefficient
2215	   4	84.4	115.1	 757	inefficient
2216	   4	83.8	113.9	 755	inefficient
2217	   4	85.1	114.9	 746	inefficient
2218	   4	83.2	114.1	 751	inefficient
2219	   4	85.1	115.4	 768	inefficient
2220	   4	84.0	113.6	 737	inefficient
2221	   4	84.0	113.6	 755	inefficient
2222	   4	84.7	115.2	 751	inefficient
2223	   4	83.9	114.0	 750	inefficient
2224	   4	82.5	114.1	 746	inefficient
2225	   4	83.2	111.3	 748	inefficient
2226	   4	82.1	111.4	 768	inefficient
2227	   4	83.3	111.6	 727	inefficient
2228	   4	83.2	112.3	 747	inefficient
2229	   4	86.1	117.2	 738	inefficient
2230	   4	84.2	114.0	 752	inefficient
2231	   4	88.1	119.4	 759	inefficient
2232	   4	83.6	114.7	 753	inefficient
2233	   4	84.9	114.7	 764	inefficient
2234	   4	82.6	111.9	 761	inefficient
2235	   4	85.8	114.3	 748	inefficient
2236	   4	85.7	115.9	 753	inefficient
2237	   4	85.0	115.6	 744	inefficient
2238	   4	87.8	118.9	 749	inefficient
2239	   4	84.5	114.2	 760	inefficient
2240	   4	82.0	111.3	 745	inefficient
2241	   4	84.2	112.9	 731	inefficient
2242	   4	83.8	114.2	 749	inefficient
2243	   4	85.3	117.1	 733	inefficient
2244	   4	85.0	114.1	 754	inefficient
2245	   4	85.0	114.4	 734	inefficient
2246	   4	84.7	115.9	 742	inefficient
2247	   4	83.8	113.3	 755	inefficient
2248	   4	84.2	114.1	 741	inefficient
2249	   4	85.2	117.3	 748	inefficient
2250	   4	85.4	115.9	 741	inefficient
2251	   4	83.8	113.1	 730	inefficient
2252	   4	82.2	110.5	 733	inefficient
2253	   4	84.1	113.6	 750	inefficient
2254	   4	82.4	111.1	 755	inefficient
2255	   4	83.9	113.6	 744	inefficient
2256	   4	84.7	114.6	 743	inefficient
2257	   4	84.5	115.9	 743	inefficient
2258	   4	82.2	113.2	 721	inefficient
2259	   4	83.0	113.2	 739	inefficient
2260	   4	84.7	115.9	 739	inefficient
2261	   4	84.2	113.8	 737	inefficient
2262	   4	85.6	114.5	 729	inefficient
2263	   4	84.5	115.0	 725	inefficient
2264	   4	87.1	117.5	 743	inefficient
2265	   4	82.7	112.9	 737	inefficient
2266	   4	83.9	114.2	 741	inefficient
2267	   4	83.9	112.3	 734	inefficient
2268	   4	82.4	112.8	 762	inefficient
2269	   4	85.4	116.2	 724	inefficient
2270	   4	85.1	115.8	 754	inefficient
2271	   4	83.7	114.2	 729	inefficient
2272	   4	84.5	113.9	 749	inefficient
2273	   4	88.6	117.9	 738	inefficient
2274	   4	85.6	114.7	 742	inefficient
2275	   4	84.8	116.1	 727	inefficient
2276	   4	84.4	114.2	 743	inefficient
2277	   4	83.2	112.4	 729	inefficient
2278	   4	83.1	112.5	 740	inefficient
2279	   4	83.7	112.5	 747	inefficient
2280	   4	87.1	116.5	 734	inefficient
2281	   4	83.5	115.0	 734	inefficient
2282	   4	85.7	116.1	 740	inefficient
2283	   4	85.0	114.9	 744	inefficient
2284	   4	84.7	114.7	 745	inefficient
2285	   4	84.6	114.4	 732	inefficient
2286	   4	88.0	118.8	 742	inefficient
2287	   4	84.7	113.6	 723	inefficient
2288	   4	86.9	116.5	 728	inefficient
2289	   4	83.7	113.0	 737	inefficient
2290	   4	84.3	111.5	 727	inefficient
2291	   4	84.1	113.3	 763	inefficient
2292	   4	84.4	114.1	 734	inefficient
2293	   4	84.2	114.9	 736	inefficient
2294	   4	87.5	117.1	 754	inefficient
2295	   4	85.3	114.6	 736	inefficient
2296	   4	85.4	115.6	 756	inefficient
2297	   4	85.2	115.4	 730	inefficient
2298	   4	86.9	117.5	 733	inefficient
2299	   4	86.5	116.1	 733	inefficient
2300	   4	86.1	116.1	 734	inefficient
2301	   4	84.1	112.4	 733	inefficient
2302	   4	83.9	113.8	 738	inefficient
2303	   4	83.6	112.8	 740	inefficient
2304	   4	87.4	115.1	 767	inefficient
2305	   4	84.4	115.2	 757	inefficient
2306	   4	84.3	113.6	 765	inefficient
2307	   4	81.1	110.8	 759	inefficient
2308	   4	83.8	112.5	 757	inefficient
2309	   4	81.9	113.0	 755	inefficient
2310	   4	84.4	115.4	 788	inefficient
2311	   4	83.1	113.3	 765	inefficient
2312	   4	82.8	113.1	 769	inefficient
2313	   4	82.8	113.0	 755	inefficient
2314	   4	82.0	112.5	 761	inefficient
2315	   4	82.3	110.1	 767	inefficient
2316	   4	82.4	111.0	 768	inefficient
2317	   4	82.7	113.7	 752	inefficient
2318	   4	79.3	110.5	 767	inefficient
2319	   4	83.5	114.3	 762	inefficient
2320	   4	80.4	109.1	 758	inefficient
2321	   4	80.0	110.6	 762	inefficient
2322	   4	82.6	113.2	 749	inefficient
2323	   4	82.1	111.6	 772	inefficient
2324	   4	80.5	109.8	 763	inefficient
2325	   4	83.1	110.7	 772	inefficient
2326	   4	83.4	114.4	 752	inefficient
2327	   4	82.1	113.4	 765	inefficient
2328	   4	82.1	112.4	 760	inefficient
2329	   4	84.1	114.3	 767	inefficient
2330	   4	83.1	113.9	 777	inefficient
2331	   4	81.4	111.3	 767	inefficient
2332	   4	83.6	114.9	 759	inefficient
2333	   4	82.7	112.6	 772	inefficient
2334	   4	82.5	112.8	 755	inefficient
2335	   4	83.3	112.7	 767	inefficient
2336	   4	81.4	111.9	 759	inefficient
2337	   4	85.7	116.4	 744	inefficient
2338	   4	81.3	109.9	 766	inefficient
2339	   4	81.2	110.5	 774	inefficient
2340	   4	80.4	109.1	 779	inefficient
2341	   4	81.8	110.8	 763	inefficient
2342	   4	78.9	107.4	 780	inefficient
2343	   4	80.4	109.4	 762	inefficient
2344	   4	83.0	114.8	 764	inefficient
2345	   4	80.3	111.3	 759	inefficient
2346	   4	82.2	111.7	 778	inefficient
2347	   4	82.4	114.2	 759	inefficient
2348	   4	82.5	111.2	 760	inefficient
2349	   4	78.7	110.4	 755	inefficient
2350	   4	81.2	111.5	 777	inefficient
2351	   4	79.8	107.5	 762	inefficient
2352	   4	82.3	111.4	 786	inefficient
2353	   4	83.6	112.2	 777	inefficient
2354	   4	82.1	113.0	 759	inefficient
2355	   4	82.1	113.1	 766	inefficient
2356	   4	82.8	112.4	 764	inefficient
2357	   4	81.5	112.4	 774	inefficient
2358	   4	83.6	114.4	 772	inefficient
2359	   4	84.3	114.4	 772	inefficient
2360	   4	81.4	109.9	 765	inefficient
2361	   4	80.5	110.7	 783	inefficient
2362	   4	80.6	113.4	 775	inefficient
2363	   4	82.4	111.3	 758	inefficient
2364	   4	83.4	115.3	 760	inefficient
2365	   4	82.9	114.3	 754	inefficient
2366	   4	84.0	116.3	 758	inefficient
2367	   4	85.0	112.7	 759	inefficient
2368	   4	82.6	113.6	 785	inefficient
2369	   4	84.2	116.1	 763	inefficient
2370	   4	83.4	114.4	 784	inefficient
2371	   4	81.7	111.8	 785	inefficient
2372	   4	82.0	112.6	 784	inefficient
2373	   4	83.2	112.1	 749	inefficient
2374	   4	82.2	112.2	 769	inefficient
2375	   4	81.7	111.2	 759	inefficient
2376	   4	80.9	111.6	 746	inefficient
2377	   4	81.7	110.1	 781	inefficient
2378	   4	81.6	111.4	 772	inefficient
2379	   4	82.2	113.7	 768	inefficient
2380	   4	79.6	110.8	 774	inefficient
2381	   4	81.6	109.9	 753	inefficient
2382	   4	81.0	112.1	 767	inefficient
2383	   4	81.9	112.3	 778	inefficient
2384	   4	81.9	111.4	 769	inefficient
2385	   4	79.1	109.8	 783	inefficient
2386	   4	81.2	110.7	 785	inefficient
2387	   4	77.9	110.0	 773	inefficient
2388	   4	82.0	113.1	 802	inefficient
2389	   4	79.7	111.4	 783	inefficient
2390	   4	81.9	111.1	 773	inefficient
2391	   4	79.3	109.6	 767	inefficient
2392	   4	83.3	113.8	 764	inefficient
2393	   4	80.9	111.3	 771	inefficient
2394	   4	81.2	111.7	 787	inefficient
2395	   4	82.5	111.4	 788	inefficient
2396	   4	84.9	114.9	 757	inefficient
2397	   4	83.7	113.3	 755	inefficient
2398	   4	81.2	112.1	 766	inefficient
2399	   4	84.7	115.4	 768	inefficient
2400	   4	80.4	110.4	 770	inefficient
2401	   4	83.9	113.5	 767	inefficient
2402	   4	81.3	111.2	 751	inefficient
2403	   4	81.8	111.4	 782	inefficient
2404	   4	79.6	109.9	 773	inefficient
2405	   4	83.6	112.6	 773	inefficient
2406	   4	82.4	114.1	 769	inefficient
2407	   4	79.5	110.4	 745	inefficient
2408	   4	82.2	112.6	 771	inefficient
2409	   4	82.8	113.7	 771	inefficient
2410	   4	82.2	111.9	 754	inefficient
2411	   4	83.0	111.1	 776	inefficient
2412	   4	83.5	112.0	 776	inefficient
2413	   4	80.8	111.8	 772	inefficient
2414	   4	81.2	111.8	 774	inefficient
2415	   4	81.2	111.2	 767	inefficient
2416	   4	82.8	113.6	 759	inefficient
2417	   4	81.0	111.8	 779	inefficient
2418	   4	81.0	112.0	 781	inefficient
2419	   4	82.1	112.1	 776	inefficient
2420	   4	83.3	113.0	 777	inefficient
2421	   4	79.0	110.3	 764	inefficient
2422	   4	81.4	110.6	 769	inefficient
2423	   4	82.4	112.3	 766	inefficient
2424	   4	81.5	111.2	 765	inefficient
2425	   4	81.5	111.0	 767	inefficient
2426	   4	80.8	110.6	 758	inefficient
2427	   4	83.0	112.9	 756	inefficient
2428	   4	80.9	110.2	 792	inefficient
2429	   4	82.8	111.6	 779	inefficient
2430	   4	82.4	112.7	 768	inefficient
2431	   4	85.7	115.0	 773	inefficient
2432	   4	85.0	112.5	 794	inefficient
2433	   4	85.1	113.2	 820	inefficient
2434	   4	87.4	118.5	 799	inefficient
2435	   4	88.9	117.8	 790	inefficient
2436	   4	86.7	113.7	 808	inefficient
2437	   4	83.9	112.4	 797	inefficient
2438	   4	86.1	114.8	 780	inefficient
2439	   4	87.1	118.3	 789	inefficient
2440	   4	87.7	115.9	 802	inefficient
2441	   4	86.0	116.9	 806	inefficient
2442	   4	84.1	110.4	 793	inefficient
2443	   4	84.5	114.8	 776	inefficient
2444	   4	86.5	114.0	 799	inefficient
2445	   4	85.1	114.2	 790	inefficient
2446	   4	85.1	114.2	 788	inefficient
2447	   4	85.8	115.5	 794	inefficient
2448	   4	82.3	111.4	 804	inefficient
2449	   4	85.2	115.3	 780	inefficient
2450	   4	85.2	115.9	 787	inefficient
2451	   4	83.6	111.2	 783	inefficient
2452	   4	85.1	113.7	 794	inefficient
2453	   4	85.7	114.2	 779	inefficient
2454	   4	83.0	112.7	 784	inefficient
2455	   4	86.7	115.1	 780	inefficient
2456	   4	88.0	116.0	 794	inefficient
2457	   4	82.7	112.2	 781	inefficient
2458	   4	84.6	112.6	 799	inefficient
2459	   4	83.6	113.5	 792	inefficient
2460	   4	85.6	114.0	 793	inefficient
2461	   4	83.6	112.1	 803	inefficient
2462	   4	87.1	114.6	 784	inefficient
2463	   4	85.6	113.5	 809	inefficient
2464	   4	86.1	117.8	 782	inefficient
2465	   4	83.7	112.9	 806	inefficient
2466	   4	83.1	112.5	 798	inefficient
2467	   4	84.1	113.7	 810	inefficient
2468	   4	86.1	114.7	 795	inefficient
2469	   4	86.0	115.6	 814	inefficient
2470	   4	86.1	115.8	 786	inefficient
2471	   4	84.7	113.4	 784	inefficient
2472	   4	84.0	112.3	 788	inefficient
2473	   4	86.7	114.6	 796	inefficient
2474	   4	84.4	114.9	 796	inefficient
2475	   4	83.7	112.2	 782	inefficient
2476	   4	83.3	113.0	 796	inefficient
2477	1501	0.0	0.0	   0	dead
2478	   4	87.3	115.2	 782	inefficient
2479	   4	85.0	115.7	 793	inefficient
2480	   4	86.5	114.8	 795	inefficient
2481	   4	85.3	114.8	 776	inefficient
2482	   4	88.0	116.9	 804	inefficient
2483	   4	87.8	117.3	 787	inefficient
2484	   4	82.8	111.3	 781	inefficient
2485	   4	84.3	112.3	 782	inefficient
2486	   4	86.2	115.7	 782	inefficient
2487	   4	87.1	116.9	 774	inefficient
2488	   4	84.5	113.0	 774	inefficient
2489	   4	85.5	115.1	 774	inefficient
2490	   4	86.5	117.0	 786	inefficient
2491	   4	87.1	114.4	 771	inefficient
2492	   4	86.0	115.1	 790	inefficient
2493	   4	86.3	117.6	 782	inefficient
2494	   4	88.4	117.2	 784	inefficient
2495	   4	89.6	119.8	 805	inefficient
2496	   4	84.5	113.7	 790	inefficient
2497	   4	87.0	117.4	 774	inefficient
2498	   4	85.7	114.2	 783	inefficient
2499	   4	87.7	116.1	 755	inefficient
2500	   4	86.1	116.9	 758	inefficient
2501	   4	85.2	113.1	 778	inefficient
2502	   4	87.8	114.5	 783	inefficient
2503	   4	87.0	114.1	 783	inefficient
2504	   4	84.7	114.2	 792	inefficient
2505	   4	86.3	117.2	 781	inefficient
2506	   4	85.9	116.4	 777	inefficient
2507	   4	86.8	116.4	 783	inefficient
2508	   4	88.4	119.5	 770	inefficient
2509	   4	84.3	113.6	 789	inefficient
2510	   4	85.3	114.7	 758	inefficient
2511	   4	84.3	111.3	 777	inefficient
2512	   4	85.7	114.2	 761	inefficient
2513	   4	83.8	111.5	 769	inefficient
2514	   4	84.3	114.1	 770	inefficient
2515	   4	84.0	114.9	 774	inefficient
2516	   4	88.2	118.3	 774	inefficient
2517	   4	82.8	112.4	 776	inefficient
2518	1501	0.0	0.0	   0	dead
2519	   4	85.1	114.1	 762	inefficient
2520	   4	83.9	113.7	 767	inefficient
2521	   4	84.0	114.7	 794	inefficient
2522	   4	85.9	114.0	 777	inefficient
2523	   4	88.5	119.0	 755	inefficient
2524	   4	82.3	111.2	 781	inefficient
2525	   4	84.0	114.1	 783	inefficient
2526	   4	84.6	115.8	 776	inefficient
2527	   4	86.3	114.6	 777	inefficient
2528	   4	84.8	114.3	 767	inefficient
2529	   4	85.2	114.6	 787	inefficient
2530	   4	87.5	115.6	 784	inefficient
2531	   4	85.0	115.7	 791	inefficient
2532	   4	85.3	113.4	 781	inefficient
2533	   4	84.8	115.3	 763	inefficient
2534	   4	86.3	113.9	 792	inefficient
2535	   4	85.6	115.2	 777	inefficient
2536	   4	86.8	117.0	 765	inefficient
2537	   4	84.2	115.5	 779	inefficient
2538	   4	83.7	113.3	 765	inefficient
2539	   4	84.7	113.4	 755	inefficient
2540	   4	86.8	116.4	 786	inefficient
2541	   4	86.5	118.1	 782	inefficient
2542	   4	86.6	116.1	 762	inefficient
2543	   4	87.5	118.8	 762	inefficient
2544	   4	83.7	112.8	 776	inefficient
2545	   4	86.3	116.2	 775	inefficient
2546	   4	84.7	114.5	 770	inefficient
2547	   4	85.8	115.0	 769	inefficient
2548	   4	83.3	113.3	 763	inefficient
2549	   4	86.9	115.4	 766	inefficient
2550	   4	89.7	118.8	 787	inefficient
2551	   4	87.1	115.1	 749	inefficient
2552	   4	86.0	113.3	 782	inefficient
2553	   4	86.9	115.0	 757	inefficient
2554	   4	85.7	114.0	 786	inefficient
2555	   4	86.1	117.0	 750	inefficient
2556	   4	88.5	117.7	 771	inefficient
2557	   4	91.0	120.0	 770	inefficient
2558	   4	89.1	117.2	 761	inefficient
2559	   4	95.3	120.8	 714	inefficient
